<?xml version="1.0" encoding="UTF-8"?>
<kml xmlns="http://www.opengis.net/kml/2.2" xmlns:gx="http://www.google.com/kml/ext/2.2" xmlns:kml="http://www.opengis.net/kml/2.2" xmlns:atom="http://www.w3.org/2005/Atom">
<Document>
	<name>Elemento_48.kml</name>
	<StyleMap id="styleMapID00">
		<Pair>
			<key>normal</key>
			<styleUrl>#normal00</styleUrl>
		</Pair>
		<Pair>
			<key>highlight</key>
			<styleUrl>#highlight00</styleUrl>
		</Pair>
	</StyleMap>
	<Style id="highlight00">
		<LineStyle>
			<color>7fff00aa</color>
		</LineStyle>
		<PolyStyle>
			<color>7fff55aa</color>
		</PolyStyle>
	</Style>
	<Style id="normal00">
		<LineStyle>
			<color>7fff00aa</color>
		</LineStyle>
		<PolyStyle>
			<color>7fff55aa</color>
		</PolyStyle>
	</Style>
	<Placemark>
		<name>Elemento_48</name>
		<styleUrl>#styleMapID00</styleUrl>
		<ExtendedData>
			<SchemaData schemaUrl="#schemaID">
				<SimpleData name="MUNICIPIO">JESÚS MARÍA</SimpleData>
				<SimpleData name="REGION">ALTOS SUR</SimpleData>
				<SimpleData name="CLAVE">48</SimpleData>
				<SimpleData name="AREA_KMS2">686.381682135</SimpleData>
				<SimpleData name="GID">47</SimpleData>
			</SchemaData>
		</ExtendedData>
		<Polygon>
			<outerBoundaryIs>
				<LinearRing>
					<coordinates>
						-102.1050253081615,20.77617388121483,0 -102.1028367457168,20.77106997773252,0 -102.1013281316239,20.76575017016849,0 -102.100743108434,20.76370953804292,0 -102.1006152027362,20.76290564244168,0 -102.0990376873434,20.76201316345401,0 -102.094644878347,20.75952936302561,0 -102.0938507429304,20.76169786410968,0 -102.0934059247832,20.76277869685444,0 -102.0932152761774,20.76322847255349,0 -102.0930275008282,20.76364976268582,0 -102.0929602218937,20.76398770523655,0 -102.0928041939654,20.76429622122931,0 -102.0925874233905,20.76463262220435,0 -102.0920865592029,20.76558594623626,0 -102.0920240223847,20.76581104083046,0 -102.0919567604269,20.76617792114783,0 -102.0919474244501,20.76663030819104,0 -102.091910967307,20.76691271625018,0 -102.0920268969854,20.76719721119365,0 -102.0921409383048,20.76753903608857,0 -102.0920997938601,20.7680192917487,0 -102.0919727897515,20.76846948223396,0 -102.0919026900979,20.76892081804665,0 -102.0917101283333,20.76941304792707,0 -102.0918503271799,20.76992439972002,0 -102.0920241881122,20.77029503644792,0 -102.0920466228847,20.77066358687839,0 -102.0919765225303,20.77111492347336,0 -102.0917597390609,20.77145068991441,0 -102.091603699039,20.77175920610406,0 -102.0915654447512,20.77223946138917,0 -102.091527133031,20.77263517218367,0 -102.0914280555829,20.77302928710841,0 -102.09118235066,20.77339282789239,0 -102.0908739124085,20.77369916698949,0 -102.090628185858,20.77403440636143,0 -102.0905010766768,20.77434344843309,0 -102.0904936447443,20.77476753438311,0 -102.0904824312765,20.77530501344726,0 -102.0904749428464,20.77564464709139,0 -102.0903786975387,20.775954215784,0 -102.0898272122849,20.77629698153644,0 -102.0894290792476,20.77662949642728,0 -102.0889113590628,20.776988659608,0 -102.0885739890612,20.77732222548354,0 -102.088325393215,20.7777141577908,0 -102.0881375640003,20.77810714429534,0 -102.0878870546091,20.77852738015875,0 -102.0876807809578,20.77884536090436,0 -102.0865981946418,20.77896034457861,0 -102.0825265943222,20.77717620912997,0 -102.082595626399,20.77698654531852,0 -102.0826358340671,20.7767752211667,0 -102.0825952684537,20.77653583609125,0 -102.0825433645037,20.77632016550652,0 -102.0824568141338,20.77614141238617,0 -102.0823126238475,20.77592477566054,0 -102.0820820327806,20.77577319735716,0 -102.0818442590305,20.7755958994639,0 -102.081478195085,20.77544316392805,0 -102.081404741659,20.77502264489475,0 -102.0814117996401,20.77488799638539,0 -102.0813892607941,20.77472717429259,0 -102.0813442419378,20.77447670037521,0 -102.0813303957871,20.7742392798905,0 -102.0813972336097,20.77390083859014,0 -102.0813889011943,20.77364186406419,0 -102.0814011553904,20.77331107735185,0 -102.0813941934615,20.77316258120267,0 -102.0813831042413,20.77298438714918,0 -102.0813527709364,20.77278037522189,0 -102.0812912362292,20.77253916747112,0 -102.0813143524221,20.77228765515599,0 -102.0813374924397,20.77209809860722,0 -102.0814254566033,20.77202686892115,0 -102.0813902013851,20.77184477403306,0 -102.0812327057174,20.77160365945845,0 -102.0810821567568,20.77150725741568,0 -102.0808290267516,20.77148165644335,0 -102.0806630534289,20.7716009648909,0 -102.0805098318194,20.7718185969796,0 -102.0803808235766,20.77204886163467,0 -102.0802823938358,20.77223893348323,0 -102.0801440154604,20.77239423038105,0 -102.0800535919218,20.77258205511184,0 -102.0799258959308,20.77277990015891,0 -102.0798034974815,20.77292267729284,0 -102.0796463956659,20.77308412115277,0 -102.079519661025,20.77329625302657,0 -102.0794525502288,20.77341601469867,0 -102.0794227846334,20.77355319586367,0 -102.0793134309303,20.77367795896206,0 -102.0791941591356,20.773846376775,0 -102.0791013846966,20.77394930202738,0 -102.0790119052714,20.77402728558509,0 -102.0788560686243,20.77405230542528,0 -102.0786537544425,20.77396512216881,0 -102.0784779779861,20.77387791564826,0 -102.0783949691368,20.77369714334792,0 -102.0783466118077,20.77341288819442,0 -102.0783611353692,20.77323133270997,0 -102.0784891667798,20.77310679882931,0 -102.0784722557725,20.77293569315468,0 -102.0785217261199,20.77279590938836,0 -102.0786455231807,20.77266774028857,0 -102.0787857868215,20.77246967332351,0 -102.0787484887128,20.77222122991607,0 -102.0785708798381,20.77211262909106,0 -102.0784716976925,20.77197680525089,0 -102.0783601468645,20.77184486274037,0 -102.0781330614706,20.77184110605273,0 -102.0778441336715,20.77202371003732,0 -102.077717798158,20.7721041500295,0 -102.0775463521205,20.77207981491766,0 -102.0772866991953,20.77224601864906,0 -102.0770533758512,20.77212814463533,0 -102.0768195763588,20.77208516219861,0 -102.0764712094614,20.77207241284935,0 -102.076264996837,20.77215009267614,0 -102.0760679111467,20.77217174170063,0 -102.0759488103282,20.77230108374866,0 -102.0756721540664,20.77248938033033,0 -102.0754942849689,20.77264157359338,0 -102.075373053091,20.77279753923541,0 -102.075199211895,20.77290408704245,0 -102.0749930403182,20.7730600951009,0 -102.0748151467094,20.77317045590385,0 -102.074670308422,20.77335006109688,0 -102.0745676703252,20.77355404533657,0 -102.0744478711784,20.77366680596366,0 -102.0743589917102,20.773898018046,0 -102.0743925628577,20.77409045957575,0 -102.0743544346968,20.77430700673427,0 -102.0742039785713,20.77442626928815,0 -102.0741564743145,20.77450449810201,0 -102.0740416611242,20.77460511718061,0 -102.0739664448835,20.77471316534186,0 -102.0738618985426,20.77481786983781,0 -102.0738200278486,20.77493619144324,0 -102.0738152243179,20.77502997237746,0 -102.0737622342588,20.77513767365093,0 -102.073747833051,20.77525905438104,0 -102.07400639815,20.77552217302879,0 -102.0739284119227,20.77572045390728,0 -102.073858253945,20.77594810310648,0 -102.0736709285045,20.77613174607827,0 -102.0736475819359,20.77627126835478,0 -102.073594168038,20.77646841992812,0 -102.0736868061331,20.77659431343638,0 -102.073624416865,20.77677054979538,0 -102.0734837464274,20.77657972004783,0 -102.0733196848875,20.77644764435329,0 -102.0731087321716,20.77625683697877,0 -102.0728587760029,20.77614682645178,0 -102.0726634917168,20.77603678057685,0 -102.0723510385061,20.77587540204595,0 -102.0722572279131,20.7757065745142,0 -102.07242108513,20.77543483099367,0 -102.0724677330563,20.77506769346528,0 -102.0722411228413,20.77478144380184,0 -102.0718739215538,20.77447324530166,0 -102.071512044557,20.77428108157256,0 -102.0713449415201,20.77417030761059,0 -102.0711899121411,20.7740805296456,0 -102.0711995015844,20.77393970339087,0 -102.0709868087344,20.77373538157748,0 -102.070701653524,20.77356742732211,0 -102.0703296076304,20.7735312548013,0 -102.0699720925004,20.77357230901449,0 -102.069725557022,20.77358134852483,0 -102.0694336842815,20.77343859201776,0 -102.0691235371421,20.77324439591611,0 -102.0689343133734,20.77293042659391,0 -102.0686552957336,20.77274396320731,0 -102.0684621237204,20.77257761738767,0 -102.0681670143296,20.77238106610988,0 -102.0679470472397,20.77225509378506,0 -102.0677753927687,20.77222995289749,0 -102.0675926326724,20.77224743702931,0 -102.0674883198282,20.77195602419204,0 -102.0674360919804,20.77164968244675,0 -102.0673751396236,20.77128933759273,0 -102.067077855129,20.77085005750226,0 -102.0670047758083,20.76992710869417,0 -102.0670707664556,20.76936633073142,0 -102.0668053839294,20.76871223466812,0 -102.0666723546243,20.76771539928493,0 -102.0661055531214,20.76808733651847,0 -102.0657672031651,20.76757197436638,0 -102.0657121969775,20.7671939541736,0 -102.0656388861824,20.76675579579317,0 -102.065757485184,20.76639489205473,0 -102.0658631939783,20.76616194357653,0 -102.0661138570985,20.76596399212807,0 -102.0663954554921,20.7659127986323,0 -102.0667135171379,20.76548749270989,0 -102.0669772691155,20.76508927516079,0 -102.0672753688858,20.76467978779066,0 -102.0675412359254,20.76432337483631,0 -102.0679040059196,20.76426257104387,0 -102.0681861253491,20.76415631486409,0 -102.0684924437209,20.76406521249316,0 -102.0687269764844,20.76390349880409,0 -102.0688914372352,20.76375707622854,0 -102.0690247864797,20.76365666091634,0 -102.0691225782684,20.76357298748014,0 -102.06932076988,20.76335059401309,0 -102.0694109007692,20.76312550361311,0 -102.0692774006581,20.7629300290523,0 -102.0690723291741,20.76267010124093,0 -102.0690585276704,20.76252524781941,0 -102.0691568230695,20.76237434978937,0 -102.06935449514,20.7623006019819,0 -102.0696274208174,20.76228342330242,0 -102.0699234615545,20.76220337111109,0 -102.0700391613885,20.76214099848248,0 -102.0700660769884,20.76197090173785,0 -102.0700679057125,20.76177868224328,0 -102.0700967165912,20.76154390686365,0 -102.0701476544902,20.76120262576488,0 -102.0703114864177,20.7609706913521,0 -102.0705428719028,20.76082481100428,0 -102.0710249202503,20.7605128108744,0 -102.0712858572609,20.7602193372856,0 -102.0717382568962,20.76000319786036,0 -102.0719880500126,20.75981255638156,0 -102.0721702959935,20.75958383500184,0 -102.0723255279999,20.75939959107864,0 -102.0723997102637,20.75918362890301,0 -102.0724078842336,20.75894259353514,0 -102.0724030996004,20.75875008852222,0 -102.0723402637046,20.75847172445846,0 -102.0723449360257,20.75819396343861,0 -102.0724605388283,20.75791603279298,0 -102.0722749008857,20.75767190705522,0 -102.0722004997175,20.75729515085283,0 -102.0722298530223,20.75669505424343,0 -102.0722665701422,20.75596937015153,0 -102.0723376194273,20.75553331904766,0 -102.0724378041451,20.75501136243462,0 -102.0724581645851,20.75472198378223,0 -102.0725092877215,20.75442294155497,0 -102.072662961631,20.75406597601254,0 -102.0728986691462,20.753680034224,0 -102.0730725171635,20.75269608525865,0 -102.0731537061978,20.75175471349954,0 -102.0732436251863,20.75067382054919,0 -102.0733104350644,20.75019017780188,0 -102.073310233827,20.74981957791368,0 -102.0733548174297,20.74946579561058,0 -102.0736333194552,20.74875953455529,0 -102.0734429484457,20.74850786210924,0 -102.0729564345634,20.74777269246069,0 -102.0727204111721,20.74805453583779,0 -102.0724235806893,20.74839765518746,0 -102.0722771239328,20.74862731429974,0 -102.0720651023729,20.74887514643233,0 -102.0718144649601,20.74904534751083,0 -102.0715878703388,20.74909425670629,0 -102.0713371452132,20.74910172186925,0 -102.070927308497,20.74911669855494,0 -102.0706013802724,20.74915367864755,0 -102.0701288522006,20.74915162906412,0 -102.0697459780054,20.74909393136605,0 -102.0695295529427,20.74901564198846,0 -102.0693464072747,20.74881231029726,0 -102.0691078233149,20.74865071949245,0 -102.0687638846529,20.74854133649641,0 -102.06835511427,20.74848038212639,0 -102.0680075934925,20.74838566952342,0 -102.0678730409017,20.7482961396404,0 -102.0677328665941,20.74818025782725,0 -102.0676207348573,20.74808543972794,0 -102.0674917921791,20.74799589702161,0 -102.0674356800374,20.74786944136547,0 -102.0673739811435,20.74775879410532,0 -102.0672640014207,20.7476363240792,0 -102.0672591511117,20.74757908776249,0 -102.066974655452,20.74754238435732,0 -102.0669048071557,20.74753357027068,0 -102.0667957123648,20.74756782364244,0 -102.0666939231672,20.74765678517057,0 -102.0665485445399,20.7478757510118,0 -102.0664103891053,20.74798525597258,0 -102.0661559046667,20.74821794592529,0 -102.065959635796,20.74846428916587,0 -102.0656299983777,20.7487419857677,0 -102.0650832017224,20.74870820297983,0 -102.0646443540388,20.74855363707967,0 -102.0640464132648,20.74844558060386,0 -102.0632652833894,20.74840799009368,0 -102.0625386243237,20.74832860825739,0 -102.0619120663214,20.74835211873514,0 -102.0610396439809,20.7485165704673,0 -102.0610537781732,20.74778461892166,0 -102.0611981031121,20.7470702132874,0 -102.0611006200248,20.74664842931134,0 -102.0609764976864,20.74629148611171,0 -102.0607823054808,20.74515501300596,0 -102.0607820595858,20.744608592791,0 -102.0607663830057,20.74420789611248,0 -102.0607955838976,20.74381498199753,0 -102.061006285782,20.7433866627368,0 -102.0613736748558,20.743024347069,0 -102.0617076489335,20.7427259196598,0 -102.0619223901298,20.7423381267239,0 -102.0620640060093,20.74195556894135,0 -102.0622737370921,20.74168900216531,0 -102.0624637810208,20.74132473902752,0 -102.0626369586514,20.74103153100485,0 -102.0628830862729,20.7407561440665,0 -102.0630783625728,20.74050199734525,0 -102.0634030624851,20.73994399358456,0 -102.063786677284,20.73959006374287,0 -102.0641673741247,20.73918742214152,0 -102.0644873026643,20.73874960953367,0 -102.0631468567,20.73851270779922,0 -102.0627301421077,20.73817941239423,0 -102.062516195775,20.73799561054441,0 -102.0621988399853,20.73772006354819,0 -102.0619442103308,20.73748865343079,0 -102.0616075118448,20.73722223422722,0 -102.0613767691727,20.73705461284596,0 -102.0606583643413,20.73697661731097,0 -102.0600827064005,20.73698255977867,0 -102.0595158004932,20.73715458711505,0 -102.0590915827799,20.7372794791814,0 -102.0585853724143,20.73733636774573,0 -102.0581996880209,20.73737896836769,0 -102.0578843668084,20.73735704573183,0 -102.057515081764,20.73741723562063,0 -102.057143846681,20.73742644592846,0 -102.0569008588344,20.7374390550643,0 -102.0565315317815,20.73740000534647,0 -102.056322292387,20.73741260129816,0 -102.0559192370754,20.73742236430386,0 -102.0555846440319,20.73743382561154,0 -102.0552876438332,20.73741180047934,0 -102.0550446294358,20.7373580974336,0 -102.054588512022,20.73730038800014,0 -102.0542104947555,20.737229678673,0 -102.0537785471522,20.73732788906148,0 -102.0533831773892,20.73726734261958,0 -102.0527178361032,20.73725623590189,0 -102.0519156351173,20.73741298574267,0 -102.0513004671841,20.73748748591336,0 -102.0509726367937,20.73753413001986,0 -102.0505030443414,20.73753936596178,0 -102.049914834581,20.73750663196527,0 -102.0494876819175,20.73754369036039,0 -102.0484732995226,20.73759272762381,0 -102.0477645650721,20.7375810684313,0 -102.0471300478266,20.73748148517029,0 -102.0466575429895,20.73742892732692,0 -102.0463122819981,20.73735140149685,0 -102.0460795975075,20.73728765782335,0 -102.0458227076759,20.73733331504309,0 -102.0455319491214,20.73752941900233,0 -102.0451830221517,20.73774832882362,0 -102.0449746393685,20.73785779367951,0 -102.0446595840121,20.73789892023827,0 -102.044305719977,20.73782608803382,0 -102.0439857504419,20.73763016389944,0 -102.0435445857556,20.73741604046998,0 -102.0432085245552,20.73784095157124,0 -102.043025397789,20.7381017954785,0 -102.0428230603172,20.73859849152257,0 -102.0426785497651,20.73900672807657,0 -102.0425022620612,20.73955838670178,0 -102.0423799041004,20.73988896969052,0 -102.0422806526868,20.74010896972037,0 -102.0422064649944,20.74030737377135,0 -102.0420589915413,20.74050470941609,0 -102.0418449550645,20.74061198819444,0 -102.04153833974,20.74069534396868,0 -102.0410176254017,20.74068641405027,0 -102.0404728500107,20.74083233147499,0 -102.0399646891288,20.74088052053221,0 -102.0396074998773,20.74105312711182,0 -102.0391923696423,20.7412257599362,0 -102.0387096576993,20.74137115565964,0 -102.0383138893936,20.74168906257991,0 -102.0380532133715,20.7417254408298,0 -102.0377154195705,20.74222492781334,0 -102.0374435473903,20.74253220344837,0 -102.036968190852,20.74267972442014,0 -102.0367030040072,20.74265937847702,0 -102.0364859918988,20.74249270440464,0 -102.0362574103965,20.74232948012108,0 -102.0361098357867,20.74218782511912,0 -102.0359024534076,20.74196508951176,0 -102.0357143850579,20.74184267409429,0 -102.0354829540477,20.74183873725804,0 -102.0352467285526,20.74193403749734,0 -102.0350972940167,20.74205081672807,0 -102.0349044707371,20.74218692625977,0 -102.0346923302884,20.7422028497921,0 -102.0344608841082,20.74213940480636,0 -102.0343161839802,20.74191783153477,0 -102.0342148726659,20.74167747128158,0 -102.0342225115339,20.74137921341814,0 -102.0344799045388,20.74109849759521,0 -102.034675588765,20.74084337524415,0 -102.0347430423518,20.74066529597183,0 -102.0348345570568,20.7403086918128,0 -102.0348826730662,20.73993168915263,0 -102.0349115040393,20.73955405489019,0 -102.034877656547,20.73917534721597,0 -102.0348390238073,20.73893615282294,0 -102.0347810904768,20.7386362776414,0 -102.0347424790128,20.7384763641806,0 -102.0347684420203,20.73819860347793,0 -102.0347760694555,20.73786007122308,0 -102.0348260974324,20.73742356242838,0 -102.0347440819609,20.7372154922607,0 -102.0345174151047,20.73695302825049,0 -102.0343322266634,20.73675069601427,0 -102.0342453963664,20.73656303613916,0 -102.034201926307,20.73625236350244,0 -102.034208592632,20.73592299316561,0 -102.0342462225704,20.73547634660053,0 -102.0343557299211,20.73514330947115,0 -102.0345242569781,20.73482612608044,0 -102.0347012282039,20.73452478937452,0 -102.0348950714653,20.73429481240908,0 -102.0351434626546,20.7341982020634,0 -102.0356834200165,20.73414301535387,0 -102.0361008902931,20.73398363052805,0 -102.0363997668654,20.73384976223619,0 -102.0364478659606,20.7334336638091,0 -102.03654417627,20.7330197315766,0 -102.0368960075815,20.73261036409418,0 -102.0372671241823,20.73221622955153,0 -102.0374473021235,20.73174331554359,0 -102.0376688785918,20.73104996563551,0 -102.0379753825673,20.7306387929999,0 -102.0380957920863,20.73022548930322,0 -102.0382615063558,20.72976790764711,0 -102.0383336986328,20.72933819799539,0 -102.0384975253004,20.72902974453707,0 -102.0386613589388,20.7287507708304,0 -102.0389004164517,20.72853182747581,0 -102.0390450072981,20.72839971695419,0 -102.0392619150494,20.72827892659759,0 -102.0392763258779,20.72809859295689,0 -102.0391075278926,20.7278770324246,0 -102.0390736847691,20.7275419601832,0 -102.0388422264002,20.72735660928748,0 -102.0384150672806,20.72727172268262,0 -102.0381354097029,20.72711413943821,0 -102.0381430038158,20.72669406229326,0 -102.0381206950646,20.7262251900241,0 -102.0383694245513,20.7261242589455,0 -102.0385351743235,20.72581235830099,0 -102.0394586469892,20.7251068562704,0 -102.0393108464158,20.72487757331239,0 -102.0392602257861,20.72466359696146,0 -102.0393106770427,20.72429740103928,0 -102.0395785686196,20.72397872279282,0 -102.0399222758902,20.72359343210018,0 -102.0400637806778,20.72339842391246,0 -102.0402494197059,20.72334289888114,0 -102.0403296103669,20.72332647283282,0 -102.0403711594328,20.72324761993404,0 -102.0402952662432,20.72301636555766,0 -102.0401934526569,20.72283156579944,0 -102.0400460651108,20.72266326610555,0 -102.0398460460736,20.72244870854564,0 -102.0395224520994,20.72239517623764,0 -102.0392958382883,20.72226143882199,0 -102.0390624533394,20.72205177899488,0 -102.0389389707152,20.72180408388331,0 -102.0388646185152,20.72141178527103,0 -102.0386832353874,20.72098032844928,0 -102.0386879749677,20.72069522881056,0 -102.0386396505942,20.72028478218983,0 -102.0386443889393,20.71999959133744,0 -102.0386298657677,20.71978524994523,0 -102.0385189491516,20.71964077815951,0 -102.0382952191479,20.71945823723367,0 -102.0381505189345,20.71917081675089,0 -102.0380607686686,20.71886587546164,0 -102.0380462168465,20.71854495100743,0 -102.037996001846,20.71825868653643,0 -102.0379641144147,20.71800416462922,0 -102.0378531476393,20.71767310527342,0 -102.0377402684379,20.7173964709198,0 -102.0374847518729,20.71730355722163,0 -102.0372698327335,20.7175858964589,0 -102.0371301233514,20.71790513463452,0 -102.036973994452,20.71811607109185,0 -102.0367041220384,20.71841493131624,0 -102.0364361337038,20.71855278310361,0 -102.0360774401795,20.71840374234851,0 -102.0359086989077,20.71832949160243,0 -102.0355345566773,20.71809146883869,0 -102.0353638977856,20.71805295696539,0 -102.0351778332244,20.71809155089318,0 -102.0327971941953,20.71885661449512,0 -102.0311385392469,20.7196838284347,0 -102.0300641592096,20.71981544616455,0 -102.0297338375585,20.71985591141641,0 -102.0280629927508,20.71983581876015,0 -102.0274362889873,20.71974912444577,0 -102.0265857827005,20.71902813826461,0 -102.0244809091027,20.71800184666903,0 -102.0224761750683,20.71766703961573,0 -102.0202930101603,20.71863641351818,0 -102.0187714209834,20.7181750038333,0 -102.0187955236538,20.71817436640479,0 -102.0174649537647,20.71752659055184,0 -102.0159724940604,20.71745645519621,0 -102.0143893754138,20.71706366192053,0 -102.0136486681718,20.71440260684543,0 -102.0124897835592,20.71392421787259,0 -102.0122486755509,20.71297860061984,0 -102.0123275225909,20.71070743430679,0 -102.0129567401606,20.70739544016701,0 -102.0137021719212,20.70614401639806,0 -102.0149774760257,20.69961813760864,0 -102.0156856942126,20.69692405110931,0 -102.0161518713569,20.69489527135766,0 -102.0173410503442,20.69116005676297,0 -102.0184540779568,20.68890068591683,0 -102.0187477124968,20.68631895033001,0 -102.0184746292323,20.68412043463702,0 -102.0178602910698,20.68148212661676,0 -102.0176865323693,20.67947073170109,0 -102.0190903877647,20.67618418445466,0 -102.0184232265208,20.67473523833869,0 -102.015567310929,20.67346340598,0 -102.0140780020506,20.6711913695063,0 -102.0155140236538,20.66852477974611,0 -102.0138374916612,20.664441171565,0 -102.0104150668876,20.66401340962937,0 -102.0090493481236,20.66240465773067,0 -102.0070736323206,20.66075048235054,0 -102.0047096359968,20.66032598361054,0 -102.0022666415782,20.66047742589281,0 -101.9999999999123,20.66187085512381,0 -101.9998313488594,20.66197462089404,0 -101.9971232412656,20.66470654551388,0 -101.9955505011853,20.66359551101645,0 -101.9954728368888,20.66354064557361,0 -101.9952989832281,20.66177487337,0 -101.9952813621581,20.66155660506374,0 -101.9930231011707,20.66238724420472,0 -101.9927091351391,20.66157133778096,0 -101.9923145466037,20.66134575829705,0 -101.9916918747334,20.66152368487393,0 -101.9907195448781,20.66183035381638,0 -101.990386012812,20.66089060208454,0 -101.9890117970717,20.66154162320765,0 -101.9884913024512,20.66161531180203,0 -101.9884449764485,20.66173518044524,0 -101.9856787474934,20.66218849407724,0 -101.9848069264343,20.66238884043281,0 -101.9840089426377,20.66257642708766,0 -101.9836603178583,20.66271887247446,0 -101.9832831821178,20.6628765431881,0 -101.9830377431713,20.66297226654652,0 -101.9827623669192,20.66309051738839,0 -101.9823852214897,20.6632087560767,0 -101.9819445472167,20.66332678227581,0 -101.9821196574149,20.66107672979785,0 -101.9819167103554,20.66013316519349,0 -101.982313099281,20.66021110422602,0 -101.9825280678376,20.65973601610669,0 -101.9819452690334,20.65920583613327,0 -101.9816610246778,20.65884022683398,0 -101.9815189875372,20.65809120690934,0 -101.9813769259716,20.65752944461566,0 -101.9806876636587,20.6578587463621,0 -101.9789974929276,20.65849984338269,0 -101.9787998754302,20.65840383753138,0 -101.9784174815632,20.65757593222516,0 -101.9777839665265,20.65754487217046,0 -101.9772906663109,20.65781065793172,0 -101.9768207463199,20.65898123523158,0 -101.9771958444286,20.6600630284976,0 -101.9756489105174,20.66110018314866,0 -101.9748731193313,20.66111366320245,0 -101.9740829441815,20.66075071040372,0 -101.973731058089,20.6606604058729,0 -101.9735276697243,20.66119593044556,0 -101.97369019695,20.661649537582,0 -101.9740502027764,20.66213596761387,0 -101.97375266159,20.66431881423193,0 -101.9728831024769,20.66422684790021,0 -101.9728698325847,20.66413854894709,0 -101.9707133382941,20.66422553180525,0 -101.9680796613336,20.66364120034996,0 -101.9679103997904,20.66338247831688,0 -101.9678599729565,20.66199218450241,0 -101.9683679163486,20.66172298765863,0 -101.9696386838965,20.65910413795638,0 -101.9701611479974,20.65847329726742,0 -101.9701737777539,20.65801188445369,0 -101.9699281488142,20.65751069137967,0 -101.970128010062,20.65580203458347,0 -101.9699095858488,20.65432123767102,0 -101.9685323405041,20.65091219249971,0 -101.9685298075236,20.64937874465727,0 -101.9685014235903,20.64712927443752,0 -101.9690417981164,20.64585068188901,0 -101.9684024646418,20.64494258712518,0 -101.9679138597726,20.64462290959935,0 -101.9694835787737,20.64139870679153,0 -101.969750996906,20.6415729867294,0 -101.970119464795,20.64126046363988,0 -101.9701576363459,20.64116296760296,0 -101.9704968755047,20.64105483288137,0 -101.9708537311326,20.64082805679599,0 -101.971044774653,20.64076026469342,0 -101.9714657712965,20.64072584929718,0 -101.9715438745118,20.64064204838909,0 -101.9714401166258,20.64054189504876,0 -101.9713863699064,20.64050294364116,0 -101.970533450764,20.63988487778171,0 -101.9705738479971,20.63982648544806,0 -101.9707412700401,20.63958447844144,0 -101.9707153912501,20.63906729614534,0 -101.9707444841819,20.6389578320013,0 -101.9711424849438,20.63848863361101,0 -101.9712001917062,20.6382098646493,0 -101.9712458570529,20.63791335212184,0 -101.971187858467,20.63760975184957,0 -101.9709491465549,20.63754898566729,0 -101.9701973731051,20.63843846412707,0 -101.9696070521746,20.63837291708992,0 -101.9694307073616,20.63755879116474,0 -101.9689893836878,20.63740917570099,0 -101.9685497940334,20.6380413049278,0 -101.9681807010333,20.63827134395968,0 -101.9681761401189,20.6382882407958,0 -101.9672625733052,20.63806975277915,0 -101.9664880560838,20.63818766666588,0 -101.9662743690707,20.63797565275457,0 -101.9663944292089,20.63776316458047,0 -101.9661219755894,20.63712532077093,0 -101.9655029100436,20.63750911756064,0 -101.9648603507103,20.63861135156622,0 -101.9641304083247,20.63893913502558,0 -101.9635382216238,20.63848926561677,0 -101.9631002840077,20.6383204398066,0 -101.9627440030101,20.63816387234183,0 -101.962937018313,20.63772589510386,0 -101.9627502468446,20.63757114727566,0 -101.9625336661522,20.63719839717631,0 -101.9624665464183,20.63671317880851,0 -101.9622797733225,20.63662172119445,0 -101.9620879792524,20.6363018877273,0 -101.9620821710838,20.63608063716597,0 -101.9623470613333,20.63593904673547,0 -101.9616901328867,20.63521713543825,0 -101.9605072810369,20.63398725910768,0 -101.9599226177357,20.6333373999375,0 -101.9591925864432,20.63230319033766,0 -101.9584584307812,20.63218344503081,0 -101.9577741349148,20.63284366598104,0 -101.9570775802442,20.63264274510666,0 -101.9566924284274,20.6318575103816,0 -101.9565413827024,20.63116023305628,0 -101.9558288479367,20.62977227184032,0 -101.9555545914467,20.62874552578173,0 -101.955893948976,20.62809537621891,0 -101.957202400565,20.62793874295481,0 -101.957742088171,20.62748710243898,0 -101.9580024735345,20.62669062283597,0 -101.9575820357995,20.62526154017434,0 -101.957564212237,20.62420234483672,0 -101.9577096871577,20.62336528878983,0 -101.9578021065738,20.62041567659878,0 -101.9560876285934,20.61914653913937,0 -101.956135922221,20.61876723653645,0 -101.9568127853235,20.61704925957697,0 -101.9573266583415,20.61584134451688,0 -101.9579040951079,20.61521039587555,0 -101.9583044628457,20.61438408662523,0 -101.9581491364746,20.61350532427775,0 -101.9581223907848,20.61282572725548,0 -101.958374910507,20.61244258149887,0 -101.9581775172323,20.61213296299414,0 -101.9587395660836,20.60879136363054,0 -101.9573311751016,20.60764526722023,0 -101.9560789664007,20.60790419779083,0 -101.954837110484,20.60784538970867,0 -101.9536162273897,20.60859830242048,0 -101.9525065643395,20.60929413866089,0 -101.9519187515887,20.60915102146505,0 -101.9513802811517,20.60857282453947,0 -101.9511436752766,20.607426842328,0 -101.9512900858888,20.60677593664701,0 -101.9526197951428,20.60573724102723,0 -101.9538302471028,20.604338050764,0 -101.9546931956015,20.6030335257058,0 -101.955481618983,20.60168285713854,0 -101.9558740347321,20.60058830131986,0 -101.9567121649203,20.60035108635564,0 -101.9567495829381,20.59972675355522,0 -101.9568677326859,20.59899146450638,0 -101.9578822674693,20.59846157420421,0 -101.9580123493633,20.5983392039424,0 -101.9579473892142,20.59814332329045,0 -101.957362378032,20.59760454869528,0 -101.9579174852928,20.5964308834585,0 -101.9580578257722,20.59427787236486,0 -101.9580999075076,20.59214243317048,0 -101.9582299145739,20.59122203017588,0 -101.958526578214,20.58912168822135,0 -101.9593122724061,20.58684251729305,0 -101.960271422277,20.58531682260082,0 -101.9622325900534,20.58390840257067,0 -101.9638636146617,20.58246045353699,0 -101.9645470308332,20.58193883429444,0 -101.9647499310149,20.58155670721859,0 -101.9667535730878,20.57969201565747,0 -101.9670309642094,20.5793440931118,0 -101.9672926574615,20.57822634577031,0 -101.9675435217932,20.57687273017537,0 -101.967195132754,20.57612404231354,0 -101.9665610098725,20.57512842455185,0 -101.9651136360417,20.57521400571891,0 -101.9642709650397,20.57505789836976,0 -101.9629305209934,20.57436880918078,0 -101.9633690781424,20.57308216733476,0 -101.9629985171555,20.5722532707259,0 -101.962889857308,20.57164048249278,0 -101.9627937637103,20.57086616311071,0 -101.962801640046,20.57024261054803,0 -101.966275609428,20.5694566071308,0 -101.9668437492039,20.56972030265507,0 -101.9698976075253,20.56881087453155,0 -101.9694194892866,20.56578019144618,0 -101.9691955943336,20.56394236990545,0 -101.9689603165838,20.56238110942491,0 -101.968922504382,20.56213018855047,0 -101.9689085140688,20.5609180776499,0 -101.9693337500156,20.55908362720386,0 -101.9737214277712,20.55190695979378,0 -101.9750170821467,20.5498285413232,0 -101.975270628551,20.54871645451188,0 -101.9750420371791,20.54708446525779,0 -101.9739184215247,20.54178842637748,0 -101.9740824872534,20.54194192843734,0 -101.9750328089175,20.54283105154695,0 -101.9757279147296,20.54330396712416,0 -101.976245921136,20.54341569630019,0 -101.9770209497766,20.54329279653937,0 -101.9776998783247,20.5433014566941,0 -101.9783546520413,20.54316940583197,0 -101.9788621372167,20.54283788931864,0 -101.9794019195462,20.54180365539869,0 -101.98028552626,20.54099693609974,0 -101.9803786940814,20.54049713221739,0 -101.9804101469493,20.53997523924229,0 -101.9808493856641,20.53963064997302,0 -101.9810377398827,20.53916213806382,0 -101.9815731541389,20.53887597406605,0 -101.9817368865631,20.53850976125909,0 -101.9812603683786,20.5378873436136,0 -101.9814529885198,20.53749846131536,0 -101.9816985208634,20.53742085490324,0 -101.9820914232653,20.53690674353515,0 -101.9823465339921,20.53720325983313,0 -101.9829021229067,20.53691255059347,0 -101.9832112747053,20.53617933442003,0 -101.9835840001435,20.53529532772862,0 -101.9839547187237,20.5350091289543,0 -101.9847935957372,20.53523934959458,0 -101.9853835060694,20.53572135791757,0 -101.9860658318248,20.53629039805731,0 -101.9872009054092,20.53705367278494,0 -101.9884314029614,20.53963732228844,0 -101.9883995196286,20.540912152276,0 -101.9880880566614,20.54127722629162,0 -101.9875135969603,20.5419505601326,0 -101.9878056472735,20.54372875156917,0 -101.9872196919176,20.54440733259731,0 -101.987331612266,20.54487615267279,0 -101.9879128870089,20.54527980408626,0 -101.9884983408225,20.54505700688754,0 -101.9891675792536,20.54464501933731,0 -101.9897020280928,20.54399711710106,0 -101.9899337560226,20.54380849162706,0 -101.9907054026626,20.54318036593634,0 -101.9918409477046,20.54197245391208,0 -101.99281414686,20.54213066341962,0 -101.9933032381004,20.54301044494521,0 -101.993972373171,20.54433401345383,0 -101.9942391181325,20.54369179869153,0 -101.9943161760987,20.54303479295461,0 -101.9942632449895,20.54241242950055,0 -101.9937259770213,20.54162462195625,0 -101.9934718081533,20.54159948183849,0 -101.9936855837601,20.54116187949395,0 -101.9940851810694,20.54089434056691,0 -101.994936428461,20.54082620404716,0 -101.9955564365536,20.54050838478879,0 -101.9961794012441,20.54051973902322,0 -101.9965789780351,20.54081115717728,0 -101.9969619327294,20.54126317581394,0 -101.9978117762486,20.54105115101787,0 -101.9987778241986,20.54131107773563,0 -101.9992152621089,20.54271065581685,0 -101.998555990249,20.54351323673825,0 -101.9984879256165,20.54512747842557,0 -101.9988135460162,20.54557039111765,0 -101.9995445520525,20.54594463912255,0 -101.9999999997213,20.54591851852211,0 -102.000452558167,20.54589248842016,0 -102.0016802553248,20.54678693440976,0 -102.0025247181178,20.54691444256083,0 -102.0030832063005,20.54721545616846,0 -102.0035482879829,20.54724945801212,0 -102.0037909208853,20.54661738339564,0 -102.0038130370746,20.5455307417194,0 -102.0040248644219,20.54526372411321,0 -102.0049270985254,20.54551538139285,0 -102.0054162408705,20.54541450973381,0 -102.0056810200531,20.54508345699144,0 -102.0060159589168,20.54495093562539,0 -102.0061768980606,20.54488725941803,0 -102.0068143246369,20.5448345367498,0 -102.0077675882144,20.54500345990034,0 -102.008324129257,20.54490139633438,0 -102.0089644519098,20.54497101514932,0 -102.009390169343,20.5449974459315,0 -102.012146984448,20.54720312170105,0 -102.0132659580246,20.54805104739693,0 -102.0139862692484,20.54860877112391,0 -102.0148865748077,20.54847372800177,0 -102.0154498861246,20.54855303212778,0 -102.0158466444652,20.54888857096248,0 -102.0164514463493,20.54965607874076,0 -102.0167018332817,20.5498805270763,0 -102.0172863199538,20.54984418325189,0 -102.0184706624093,20.54949594716666,0 -102.0189790585962,20.54932356045657,0 -102.0198331678455,20.54935066060459,0 -102.0202184080821,20.5498410104663,0 -102.0206016544192,20.54987098014077,0 -102.0205602860366,20.55011532391855,0 -102.0208087431312,20.55027056457635,0 -102.0207413774914,20.55052452601662,0 -102.0209436269052,20.55074951900603,0 -102.0226191123599,20.55072270503726,0 -102.0230447266957,20.55072998697119,0 -102.0235627785521,20.55072192627277,0 -102.0239354233155,20.55067824312994,0 -102.0242031021434,20.55059938444953,0 -102.0244197360595,20.55046901807564,0 -102.0246190321104,20.55030518598376,0 -102.024797154341,20.55020765774242,0 -102.0251563100404,20.55013050572691,0 -102.02542303941,20.55013499647897,0 -102.0257774024979,20.55017457142123,0 -102.0260970929081,20.55017959632244,0 -102.026381155929,20.55018471732658,0 -102.0267018097218,20.55019028485539,0 -102.0269858762488,20.55021182034264,0 -102.0274307475755,20.55021963143473,0 -102.0277677709733,20.5502252848323,0 -102.0281606413362,20.55021550787012,0 -102.0286613333688,20.55009016121859,0 -102.0290724694007,20.54994669113827,0 -102.0293786397126,20.54976750498807,0 -102.0297059482949,20.5493882355134,0 -102.029924471187,20.54912399137976,0 -102.030129538822,20.54897321193727,0 -102.030362534076,20.54884328764361,0 -102.0307043312189,20.54868168669359,0 -102.0311520478167,20.54852178740071,0 -102.0315641234765,20.54831137590474,0 -102.0318722084951,20.54811576860416,0 -102.0323921032865,20.54780665301275,0 -102.0326635910908,20.5475940916098,0 -102.0330804394613,20.54723284545101,0 -102.0335136641871,20.54690569627667,0 -102.0338380985174,20.54666019861903,0 -102.0340209825429,20.5463954125255,0 -102.034203870206,20.54614767815846,0 -102.0353234651809,20.54519619204087,0 -102.0366278636273,20.54404693387651,0 -102.0369166639307,20.5438172196613,0 -102.0372824884749,20.54356998147615,0 -102.03753280481,20.54345718390242,0 -102.0379083041952,20.54337999816383,0 -102.0386015757381,20.54339170548839,0 -102.0389020122606,20.54346364230208,0 -102.0392727641193,20.5436205429663,0 -102.0394653653104,20.54370774407567,0 -102.0396579998561,20.54391176189101,0 -102.0398650938998,20.54416629437362,0 -102.0400385064979,20.54448704428567,0 -102.0402263595044,20.54479200807588,0 -102.0403304213141,20.54502779308594,0 -102.0404479883683,20.54534801349249,0 -102.0405828995694,20.54570169537543,0 -102.0407370528634,20.54600548986432,0 -102.0408411170543,20.54624127471718,0 -102.0409057223973,20.54654391345194,0 -102.0409539531048,20.5468290524813,0 -102.0410195169948,20.5471147305107,0 -102.0411207036729,20.54738452768465,0 -102.0413519262524,20.54779541343608,0 -102.0417034707014,20.54806913241793,0 -102.0419654554612,20.54830831997229,0 -102.042281353135,20.54851456878767,0 -102.0426328804642,20.54872135167607,0 -102.043056627897,20.5489292915037,0 -102.0433908031808,20.54906859867175,0 -102.0438337834532,20.54919318040385,0 -102.0441323324405,20.54933258663257,0 -102.0445926583791,20.54949117311125,0 -102.0450163779441,20.5495987061601,0 -102.0455170803913,20.54955719888524,0 -102.046284467207,20.5493857310329,0 -102.0467110297904,20.54935957049476,0 -102.0471558758372,20.54930048053202,0 -102.0476035979392,20.54920737672219,0 -102.0480320799224,20.54916470446958,0 -102.0482289373778,20.54915181561612,0 -102.0484413095139,20.54913791005114,0 -102.0487975775931,20.54911058748592,0 -102.0492212804276,20.54916831604863,0 -102.0495227112167,20.5492736078771,0 -102.0499849131009,20.54928143839194,0 -102.050357557864,20.54927106726933,0 -102.0507138255235,20.54924373980616,0 -102.0510537048714,20.54916598905666,0 -102.0511981181789,20.54910136413145,0 -102.0509688795821,20.54893020491449,0 -102.05072329816,20.5488254408276,0 -102.0505114247475,20.54873816914078,0 -102.0502831697114,20.54861752679772,0 -102.0501598599035,20.54846456163274,0 -102.0500057075465,20.54822762047181,0 -102.0499555865219,20.54809277008159,0 -102.0501529524665,20.54801271007588,0 -102.0503310664325,20.54794861932573,0 -102.0505284250768,20.54785159782641,0 -102.0507257905561,20.547771083956,0 -102.0509058044075,20.54764060118008,0 -102.0510839298369,20.54760997658324,0 -102.0515682157521,20.54746750979965,0 -102.0518878760265,20.54740618038553,0 -102.0521911659545,20.54734431167583,0 -102.0522826035009,20.54724560208786,0 -102.0524462126344,20.5470307746731,0 -102.0525934465935,20.5467988112237,0 -102.0526511482679,20.54661576508828,0 -102.0526914923872,20.54636569907056,0 -102.0526605946896,20.5461474920062,0 -102.0526123326364,20.54584539702877,0 -102.0525256073751,20.54567645814725,0 -102.0523809349344,20.54506149178451,0 -102.0522238932225,20.54482464509249,0 -102.0521227057733,20.54460528394565,0 -102.0520359683912,20.54440296809826,0 -102.0519877282466,20.54415130040093,0 -102.0519038733538,20.54393193365673,0 -102.0518190299723,20.54364626707102,0 -102.0517014564826,20.5433764833874,0 -102.0516166330682,20.54314070064047,0 -102.0514990026347,20.54272008826374,0 -102.0514911025477,20.54220148588685,0 -102.0516046062953,20.54190214839744,0 -102.0517846047777,20.54175470534355,0 -102.05300718618,20.54111197012215,0 -102.0537271863833,20.5405675373139,0 -102.0542803422905,20.53936053077825,0 -102.0545685066988,20.53765533309727,0 -102.0546645431707,20.53704654336071,0 -102.0549261938908,20.53645855560314,0 -102.0549627481772,20.53637863926878,0 -102.0551570623741,20.53594721645435,0 -102.0553234108952,20.53541150291198,0 -102.0553541173361,20.53515863103587,0 -102.0553877118427,20.53490521331777,0 -102.055323114989,20.53468874451127,0 -102.0552961179732,20.53459579054429,0 -102.0552989742056,20.53451751831102,0 -102.055332663095,20.53449319964589,0 -102.0553807907186,20.53446307102552,0 -102.0554337356449,20.53443874563705,0 -102.0555078674111,20.53442738123744,0 -102.0555800813148,20.5344352452771,0 -102.0560405263967,20.53497245200596,0 -102.0563555178092,20.53533566536579,0 -102.0565289146225,20.53555100457353,0 -102.0566926702564,20.53573297186276,0 -102.0568660489408,20.53590350725739,0 -102.0570423459872,20.53614151904193,0 -102.0574035250147,20.53642707647467,0 -102.0576635326725,20.53653236798801,0 -102.0579476013525,20.5366156101343,0 -102.0581950783145,20.53668698452041,0 -102.0584916737163,20.53679225978041,0 -102.0587276022837,20.53687497489098,0 -102.0594305301834,20.53702262840049,0 -102.0596780085624,20.53709390963645,0 -102.0601190021546,20.53713518375979,0 -102.0603183087978,20.5371384614048,0 -102.0606292901497,20.53711004030843,0 -102.0608555512459,20.53710314797655,0 -102.0610818074461,20.53708428351424,0 -102.0612955213489,20.5370093723481,0 -102.0614639720201,20.53691180591209,0 -102.0616449437193,20.53682557131433,0 -102.0618230528007,20.53679493471992,0 -102.0620271582985,20.53676483091504,0 -102.062193728498,20.53676757462207,0 -102.0623112045336,20.53679192340266,0 -102.062453734382,20.53686152028527,0 -102.0625596672893,20.53690800361248,0 -102.0627108579918,20.53696635037879,0 -102.0628312123798,20.53696856801199,0 -102.0629514987599,20.53682503694986,0 -102.0630265321899,20.5366810706942,0 -102.0631468390272,20.53658234231127,0 -102.0634087140189,20.53655339222646,0 -102.0636137441615,20.53644501527368,0 -102.0637821709887,20.53630264248332,0 -102.0639987712405,20.53622772697929,0 -102.0642972054719,20.53614316324834,0 -102.0644146604888,20.53612325110376,0 -102.0645812457763,20.53615945898856,0 -102.0647834607106,20.53620753268373,0 -102.0649856177064,20.5361326221228,0 -102.0652618899722,20.53601405411326,0 -102.0654284647744,20.53602813100389,0 -102.0655631522972,20.53580704665883,0 -102.0657287363071,20.53576498284103,0 -102.0658587616152,20.53585680215391,0 -102.06593580266,20.53588678894321,0 -102.0660801992839,20.53583348735026,0 -102.0661764375214,20.53574556067516,0 -102.0662370412639,20.53563497531626,0 -102.0662754990445,20.53552385604326,0 -102.0663014410179,20.53541219711729,0 -102.0663283500971,20.5353118755151,0 -102.0664698634946,20.53526982127448,0 -102.06660269959,20.53520455288681,0 -102.0666767707347,20.53507192265261,0 -102.0666795985558,20.5349489367769,0 -102.0667036196772,20.53484852554558,0 -102.0667873682612,20.53481620093031,0 -102.0668239501027,20.53480602655014,0 -102.0670020773562,20.53482009694357,0 -102.0671820859305,20.53474464964094,0 -102.0672330543036,20.53462273141861,0 -102.0673649154929,20.53453533202489,0 -102.0675314552227,20.53448256363676,0 -102.0676517507855,20.53437258628406,0 -102.0677142780542,20.53426200031047,0 -102.0678105315829,20.53420753914454,0 -102.0681542565518,20.53421300963708,0 -102.0683564597721,20.53423903897234,0 -102.0685229985551,20.53418563492201,0 -102.0686548641069,20.53410966287808,0 -102.0687395864562,20.53410001101375,0 -102.0689195639516,20.53396896376475,0 -102.0691120585509,20.53383791141052,0 -102.0692448928816,20.53377327532509,0 -102.069461468213,20.53366488546633,0 -102.0696155002402,20.53363415977895,0 -102.069805156472,20.53360350841671,0 -102.0699254914065,20.53357225315769,0 -102.0700554647972,20.53356312394532,0 -102.0702364734609,20.53356585185293,0 -102.0703539420507,20.53357940203894,0 -102.0705445843545,20.53359355390813,0 -102.0707198344629,20.53363029495765,0 -102.0708527079566,20.53364383718854,0 -102.0709586231954,20.53365684862759,0 -102.0710520216661,20.53366923041605,0 -102.0712060778718,20.53368330652473,0 -102.0715411369252,20.53368886378956,0 -102.0716826405811,20.53363546754811,0 -102.0718510727652,20.53352655323691,0 -102.0719117003301,20.53347156239777,0 -102.0719665488314,20.53341312840982,0 -102.0720512462629,20.53335867067522,0 -102.0721831149663,20.53329348772509,0 -102.0723159593507,20.53325088822375,0 -102.0724218563611,20.53323043196147,0 -102.0725181315775,20.53322077203283,0 -102.0726115237298,20.53322235999566,0 -102.0726962446475,20.53321270605306,0 -102.0727684500752,20.53320305725062,0 -102.0729225050526,20.53321658834028,0 -102.0731824755715,20.53324367187009,0 -102.0733240391296,20.53330201292326,0 -102.0735599701373,20.53338406986057,0 -102.0737862365826,20.53339928751923,0 -102.0739768552324,20.53336853934056,0 -102.0741693742904,20.53329362139334,0 -102.0742530893197,20.53320569649211,0 -102.0745446473447,20.53289718719467,0 -102.0747130713263,20.53277693237402,0 -102.074929603003,20.53260169150477,0 -102.0752058658109,20.53249444323782,0 -102.0756246042946,20.53235646760233,0 -102.0758873810885,20.53223788795568,0 -102.0762002098976,20.53209769727437,0 -102.0766093107338,20.53194557597341,0 -102.0769577492687,20.53178387062987,0 -102.077186818494,20.53165333318209,0 -102.0774274155528,20.53147807763413,0 -102.0777161129232,20.53123704177712,0 -102.0780067415605,20.53100734091127,0 -102.0784013572766,20.53079001249857,0 -102.0792531798259,20.53037971590682,0 -102.080032814299,20.53001253365943,0 -102.0809712103994,20.52949117095733,0 -102.0812262915031,20.52940197164195,0 -102.0815246876569,20.52929524384417,0 -102.0817778379003,20.52919878933342,0 -102.0831399132104,20.52879672255463,0 -102.0841313875961,20.52851102966945,0 -102.084872578523,20.5282889578229,0 -102.0855917485609,20.52826479262389,0 -102.0860683365209,20.52829508833142,0 -102.086304224006,20.52831028280822,0 -102.0864582901053,20.52834647361156,0 -102.0865882934214,20.52839347072639,0 -102.0867423587525,20.52842966127863,0 -102.0869089479058,20.52847718203756,0 -102.087072648923,20.52852470375514,0 -102.0872267231078,20.5285722305297,0 -102.0874164188711,20.5286197375214,0 -102.0876282660548,20.52867965627897,0 -102.0878429873442,20.52871644552695,0 -102.0880548205348,20.52875368972189,0 -102.0882926421737,20.52878021716155,0 -102.088504483071,20.52882825307437,0 -102.088767329033,20.52884397213498,0 -102.088888911843,20.52894647220059,0 -102.0892058818937,20.52958968976959,0 -102.0891743241848,20.5299134019775,0 -102.089172479092,20.53003638682672,0 -102.0889531456095,20.53030860333923,0 -102.0888906452059,20.5304305348108,0 -102.0888503767845,20.53068731844445,0 -102.0888360528932,20.53086590749917,0 -102.0888313704679,20.53106716449864,0 -102.0888623132061,20.53126894506971,0 -102.088990504748,20.53148363912926,0 -102.0890936054706,20.53160828595473,0 -102.0892333229274,20.53177889374003,0 -102.0892670944097,20.53189106458283,0 -102.0892893344479,20.53203670988593,0 -102.089260553552,20.53219263325389,0 -102.0891980754359,20.53234857637012,0 -102.0892078294085,20.5325390328354,0 -102.0893234987742,20.53274185225518,0 -102.089381303988,20.53279913829821,0 -102.0893765941629,20.53295559242482,0 -102.0893622700978,20.53313409033953,0 -102.0894297855888,20.53331435491924,0 -102.0895713924899,20.53342872993482,0 -102.0896754511413,20.53354203902367,0 -102.0896726595008,20.53368778926833,0 -102.0896342728983,20.53387709491882,0 -102.0906798343432,20.53524490195649,0 -102.0907958803401,20.53600042431687,0 -102.0909580178374,20.53657116998267,0 -102.0914830756743,20.53704129849046,0 -102.0916202161091,20.53765849570932,0 -102.0915826376348,20.53903774105424,0 -102.0921034876456,20.54038082579588,0 -102.0928748153217,20.54190233939013,0 -102.0931158515179,20.54236819228986,0 -102.0934341269365,20.54313384185936,0 -102.0935016627058,20.54332879880871,0 -102.093557618679,20.5434863048216,0 -102.0936126196811,20.54365523961728,0 -102.0936589625267,20.54383488175499,0 -102.0939049962899,20.54455522646284,0 -102.0939841011502,20.54476885999521,0 -102.0940275715658,20.54497063400503,0 -102.0940738994996,20.54512814629435,0 -102.0941048370356,20.54530788912516,0 -102.0940789478982,20.545463721977,0 -102.094011825116,20.54586509811238,0 -102.0939734409706,20.54605504216013,0 -102.0939465963899,20.5462223037391,0 -102.0939418908232,20.54637875921539,0 -102.0941038504806,20.54665582971312,0 -102.0941135884684,20.54681282008608,0 -102.094110809371,20.54696927449992,0 -102.0941061038453,20.54712572998627,0 -102.0941639949022,20.54729466362682,0 -102.0942199376199,20.54742949544134,0 -102.0943615801217,20.54756663288475,0 -102.0945494028553,20.54764759994194,0 -102.0947400675724,20.54766217432734,0 -102.0949297463879,20.54764282812242,0 -102.0950597322413,20.54763422120275,0 -102.0952138222306,20.54767040402657,0 -102.0953920085118,20.54774003906213,0 -102.0954720176996,20.54786469698977,0 -102.0954817576668,20.54802114401247,0 -102.095477085395,20.54822294804085,0 -102.0954021355167,20.5484452035688,0 -102.0952434268876,20.54868846240404,0 -102.0950249859108,20.54888640925315,0 -102.0948055596974,20.54905488042177,0 -102.0946130847688,20.54920864119559,0 -102.0944302617429,20.54939522903563,0 -102.0942136965729,20.54952633001017,0 -102.0940096487518,20.54965687885401,0 -102.0938412295924,20.54978849394708,0 -102.0936843658943,20.54992010149589,0 -102.0936103435144,20.55009755086039,0 -102.0934034522547,20.55029548956127,0 -102.09307815824,20.55054737417644,0 -102.0929819111534,20.5506126441555,0 -102.0928616208294,20.5507226423857,0 -102.0927634856909,20.55084405560512,0 -102.0926643956817,20.55097671607451,0 -102.092544104789,20.55108626083429,0 -102.0924237984918,20.55117412889426,0 -102.0922456778273,20.55120434886768,0 -102.0920800296527,20.55116816936648,0 -102.0917621605242,20.55101753144144,0 -102.0915858894095,20.55093601039403,0 -102.0913623966668,20.55079783053273,0 -102.0911986227404,20.55068346932274,0 -102.0909019777507,20.55058895803124,0 -102.0907478931006,20.55056410860454,0 -102.0904619015868,20.55055919899366,0 -102.090307832335,20.55055702326979,0 -102.0901297187188,20.55059848653772,0 -102.0900039567678,20.55066296079606,0 -102.0900032609157,20.55066331739728,0 -102.0956975172101,20.55359696544045,0 -102.1026089581717,20.55222783492492,0 -102.1031129246867,20.55142380590636,0 -102.1031780713781,20.55101866466483,0 -102.1027538941937,20.55064144528895,0 -102.1017926613184,20.55028231818706,0 -102.1007581049321,20.5487303484129,0 -102.1004062455041,20.54756895608206,0 -102.1001316326946,20.54739283783277,0 -102.1000984734796,20.54731573424792,0 -102.0999204688683,20.5469018247713,0 -102.0995104917816,20.54628109882853,0 -102.099087751987,20.54430605716711,0 -102.0990735313415,20.54404402603565,0 -102.0991891420102,20.54350432194739,0 -102.1001940557699,20.5430697834041,0 -102.1013757685911,20.54342357752948,0 -102.1019918310675,20.54328042225151,0 -102.1022255098867,20.5428944730353,0 -102.1026249082934,20.54223481281241,0 -102.1030209578728,20.54054429256783,0 -102.1028567347497,20.53908813945868,0 -102.1025349733748,20.53785503558001,0 -102.102771826936,20.53545771659177,0 -102.1029181959523,20.53481019350427,0 -102.1039781925009,20.53348283613569,0 -102.1045710356847,20.53406146975286,0 -102.1048831038961,20.53428334203538,0 -102.1052519747794,20.53454227248601,0 -102.1060121088478,20.53488898500598,0 -102.1070601652219,20.53521342044175,0 -102.1092057384791,20.53476175482699,0 -102.1102315087149,20.53474275790585,0 -102.1122737044003,20.53527767100626,0 -102.1156588951263,20.53201663623423,0 -102.116159603328,20.53188955880033,0 -102.1170486983159,20.53200365638383,0 -102.1175020125091,20.53184870397235,0 -102.1186270716531,20.53062162576948,0 -102.1198941829071,20.53050727919589,0 -102.1204683668341,20.5300383652948,0 -102.1211717687097,20.52983339298895,0 -102.1218892930648,20.52945025901944,0 -102.1219751924042,20.52940439157364,0 -102.1228535195386,20.52958147189962,0 -102.12366972541,20.52898115165564,0 -102.1235074127758,20.52843680736703,0 -102.1229234130451,20.52789449022016,0 -102.1228612493913,20.52763166071854,0 -102.1234115689109,20.52690054112754,0 -102.1236676951413,20.52704020479024,0 -102.1246650209952,20.52700258952148,0 -102.1262020600371,20.52628782752211,0 -102.1270536393489,20.52635053508708,0 -102.1285753525913,20.52646257796944,0 -102.130083277215,20.52627992166207,0 -102.1314839550574,20.52670935026874,0 -102.1324402268514,20.52716175447864,0 -102.132516744088,20.52716879184226,0 -102.13337255021,20.52718294988042,0 -102.1336611283319,20.52712453007743,0 -102.1350969559379,20.52721146477165,0 -102.1365260631778,20.52714480777916,0 -102.1375692688053,20.52618706186464,0 -102.1383773470723,20.52601985445086,0 -102.1404484571576,20.52544016173053,0 -102.1408215729567,20.52547340018768,0 -102.141795524088,20.52514641526438,0 -102.1422293055272,20.52500912635351,0 -102.1427886070204,20.52430516545356,0 -102.143496153706,20.5238744741017,0 -102.1441517657751,20.52380012719672,0 -102.1449558175587,20.52370894341457,0 -102.146289434286,20.52362257365459,0 -102.1470310653457,20.52290354293925,0 -102.1470354170414,20.52266889574391,0 -102.148221726685,20.52174051355337,0 -102.1495645730683,20.52167232374,0 -102.1500642784956,20.5221138680435,0 -102.1501424721875,20.52254848158589,0 -102.1505282261453,20.5229339854101,0 -102.1512559647952,20.52296400258748,0 -102.1522844668817,20.52227674395948,0 -102.1539048438588,20.52119295105929,0 -102.1556887224278,20.52007571245756,0 -102.1559712068245,20.51982757139389,0 -102.1575235524044,20.51931136888832,0 -102.1599852144199,20.51936976898638,0 -102.1608620563644,20.51962788004059,0 -102.1617548981847,20.52005777588618,0 -102.1636829654219,20.52099210687937,0 -102.1653259222487,20.52231897775814,0 -102.1655203857377,20.52320687790756,0 -102.1659245130329,20.52363779063749,0 -102.1662325717857,20.52356157745967,0 -102.1668618648899,20.52373436422432,0 -102.1682734820932,20.52459114010137,0 -102.1682834283512,20.5245971769669,0 -102.1700109115775,20.52550108605227,0 -102.1716742211711,20.52572684829275,0 -102.1720176169342,20.52581370186587,0 -102.1734255846344,20.52585472526058,0 -102.1747907227513,20.52666240284833,0 -102.1760626190327,20.52628590785401,0 -102.177285754301,20.52647736160554,0 -102.1787855441958,20.52726011973418,0 -102.1792151728951,20.52734836346905,0 -102.1802264120605,20.52707592875787,0 -102.1810527949294,20.52747756950771,0 -102.1812445283237,20.52904250530131,0 -102.1821265887051,20.52954435414683,0 -102.1832351260083,20.52971584984666,0 -102.1848070060457,20.52970528137679,0 -102.185256303639,20.52976674702142,0 -102.1886321621494,20.53015557952888,0 -102.1887532348398,20.52982351186245,0 -102.188572181694,20.52924278981271,0 -102.1879902214568,20.52805069461103,0 -102.1881332593552,20.52756550962464,0 -102.1898415261544,20.5263834793054,0 -102.1913651257191,20.52586650209664,0 -102.1922243487067,20.52499568830803,0 -102.1928586027032,20.52437400759084,0 -102.1934743795436,20.52423953253291,0 -102.194442159044,20.52424617196454,0 -102.1966754103823,20.52475175820035,0 -102.1978326663852,20.52487880667659,0 -102.1980047850931,20.52489964512582,0 -102.1982580792067,20.52481991158668,0 -102.1990196893849,20.52458016416185,0 -102.199450557799,20.52444452986685,0 -102.1997118574927,20.52430430427721,0 -102.2001446181441,20.52422101572261,0 -102.2011158511835,20.52403808630006,0 -102.202229251135,20.52341507532061,0 -102.2028916091348,20.52335354113009,0 -102.203669915659,20.52323970701069,0 -102.2039005005607,20.52320731477166,0 -102.2041489329513,20.52324743395347,0 -102.2042721655555,20.52332164545621,0 -102.2045020945254,20.52332535377671,0 -102.204645636157,20.52333669666416,0 -102.2047890138329,20.52335706477767,0 -102.2049520442736,20.52335066571128,0 -102.2051058222867,20.52332606132599,0 -102.2052498559235,20.52331032767932,0 -102.2054231225504,20.52326798123677,0 -102.2055962251591,20.52323465995861,0 -102.2057496751555,20.5232281056759,0 -102.2059027973047,20.52323960195842,0 -102.2060560834114,20.52324207275558,0 -102.206181447937,20.52319895341103,0 -102.2062874877419,20.52316455050847,0 -102.2064404460366,20.52318507166829,0 -102.2065732603014,20.52325943605466,0 -102.2067161467337,20.52330687866578,0 -102.206850927711,20.523272938564,0 -102.2069670394523,20.52321161353193,0 -102.2070833149638,20.5231412630503,0 -102.2072086792119,20.52309814291863,0 -102.2073525488046,20.52309143283518,0 -102.2075055072924,20.52311195306208,0 -102.2076397965302,20.52310508840006,0 -102.2077557440743,20.52305278815275,0 -102.2079691333976,20.52291177730168,0 -102.2080753365333,20.52286834786549,0 -102.2082188783913,20.52287968777174,0 -102.2083523485683,20.52291794938237,0 -102.2084767297569,20.5229289804983,0 -102.2086024210931,20.52286780854632,0 -102.2087092790989,20.52278827720325,0 -102.2088250623685,20.52274500154285,0 -102.2089595150999,20.52272911043766,0 -102.2090838962377,20.52274014110494,0 -102.2091991882121,20.52272394130959,0 -102.2093058821258,20.52265343492812,0 -102.209402831862,20.52259179961743,0 -102.2095661892699,20.52256734532885,0 -102.2097194751877,20.52256981281179,0 -102.2098643265697,20.52250894827545,0 -102.2099903444777,20.52242972444254,0 -102.2101252879393,20.52238675623154,0 -102.2102499963229,20.52237973526766,0 -102.2103743773942,20.52239076498622,0 -102.2104891781283,20.52240164044799,0 -102.2106135592565,20.5224126699987,0 -102.2107283600443,20.52242354530566,0 -102.211130244813,20.52245709559889,0 -102.2112640428633,20.52247730422069,0 -102.21138842418,20.52248833322805,0 -102.2115321298774,20.52249064497928,0 -102.2119349966328,20.52247004105454,0 -102.2120694491118,20.52245414746873,0 -102.2121941576435,20.52244712510045,0 -102.2123968175526,20.52236913195704,0 -102.2125301252311,20.52241641582067,0 -102.2126437816548,20.52249046770218,0 -102.2127571111564,20.52258257033109,0 -102.2128805117349,20.52264775072304,0 -102.213054920986,20.52254221846075,0 -102.2130380492092,20.52241555470037,0 -102.2129542782924,20.52227878731644,0 -102.2128511832658,20.52215073723957,0 -102.2127956631902,20.52204150813591,0 -102.2128348021874,20.52199699726014,0 -102.2129789981044,20.52197223153855,0 -102.2131131231541,20.5219743878952,0 -102.2132474117053,20.521967518739,0 -102.213381373305,20.52197870029807,0 -102.2135252422395,20.52197198493212,0 -102.2136687842576,20.5219833202704,0 -102.2139561952893,20.52198793976756,0 -102.2141096446391,20.52198137788908,0 -102.2142535136228,20.52197466191454,0 -102.214387802238,20.5219677918679,0 -102.2144376650654,20.5218602565948,0 -102.2143931949667,20.52166995306256,0 -102.214424387209,20.52153503362461,0 -102.2145497487177,20.52149190778145,0 -102.2146936172685,20.52148519138588,0 -102.214828068865,20.52146929552396,0 -102.2149154356376,20.52140750285426,0 -102.2150338305878,20.52121981593452,0 -102.215122504073,20.52108581973597,0 -102.2152110140339,20.52096084889793,0 -102.2152993604892,20.52084490342287,0 -102.2153641930471,20.52043968255448,0 -102.2153862938268,20.52027753263105,0 -102.2154558058445,20.52014322838368,0 -102.2156303739251,20.5200286675397,0 -102.2159217012281,20.51981667299726,0 -102.2160093932129,20.51973682874069,0 -102.2161258258319,20.51965744594742,0 -102.2162328413862,20.51956888379443,0 -102.2163302765867,20.51948016773429,0 -102.2164571054534,20.51935581131679,0 -102.2165647736759,20.51923114715919,0 -102.2166341208721,20.51910586768992,0 -102.216684470794,20.5189712551341,0 -102.2168108091888,20.51887397468962,0 -102.2169460746615,20.51881294968571,0 -102.2171092644663,20.518797513112,0 -102.2172628740613,20.51878192261118,0 -102.2173976496755,20.51874797355768,0 -102.2175137544715,20.51868664054555,0 -102.2176110252012,20.51860694905376,0 -102.2176996948071,20.51847295106785,0 -102.2177502067453,20.51832931261451,0 -102.217819715718,20.51819500705257,0 -102.2179270556571,20.51808839271123,0 -102.2180438124308,20.51799095745672,0 -102.2181417350855,20.5178751637741,0 -102.2183180933716,20.51766131968793,0 -102.2184246168705,20.5175998322183,0 -102.2185499742785,20.51755670296321,0 -102.2186845855014,20.51753177820328,0 -102.2188096165637,20.51750669965863,0 -102.2189911497205,20.5175366957679,0 -102.2191538488987,20.5175483334637,0 -102.2194436992321,20.5174175609967,0 -102.2195690562943,20.51737443095308,0 -102.2196845070364,20.51734919811251,0 -102.2198095378767,20.51732411880954,0 -102.2199344056354,20.51730806487724,0 -102.2200496932528,20.51729185724689,0 -102.2202310635368,20.51733087752333,0 -102.2204022017009,20.51740584591104,0 -102.220479331859,20.51737999817761,0 -102.220462779925,20.51723528349625,0 -102.2204269047489,20.51709928711957,0 -102.2204194439078,20.51698180243023,0 -102.2203975504401,20.51660227194981,0 -102.220380672536,20.51647560820769,0 -102.2203732116991,20.51635812351647,0 -102.2203220890404,20.51600520869961,0 -102.220333788308,20.51588803116814,0 -102.220364484602,20.51578018625809,0 -102.2204338269764,20.51565490468819,0 -102.2205028432215,20.51554767401976,0 -102.2205720223625,20.51543141783904,0 -102.2206506184069,20.51532434064877,0 -102.2207197973214,20.515208084382,0 -102.2208479229105,20.51501152008152,0 -102.2209167755675,20.51491331465041,0 -102.2209760481516,20.51481495564469,0 -102.221044900629,20.51471675014115,0 -102.2211041730448,20.51461839107149,0 -102.2212607115651,20.51444033787569,0 -102.221348397697,20.51436049020034,0 -102.2215426037197,20.51421915264817,0 -102.2216587035662,20.51415781624547,0 -102.2217653863018,20.51408730078336,0 -102.2218814859724,20.51402596420884,0 -102.221997422655,20.51397365303048,0 -102.2221229392004,20.51392149523215,0 -102.2222387128512,20.51387820936008,0 -102.2224213830842,20.51384502305164,0 -102.2225850562668,20.51380250417185,0 -102.2227581464506,20.51376916404862,0 -102.2229029853351,20.51370828700227,0 -102.2231166747582,20.51354920327033,0 -102.2233112039305,20.51338981242779,0 -102.2234086311817,20.5133010914097,0 -102.2236031597465,20.5131417001644,0 -102.2237281868019,20.51311661755499,0 -102.2238717224813,20.5131279435813,0 -102.224005515519,20.51314814163541,0 -102.2241488885085,20.51316849293994,0 -102.2242729389769,20.51319756294885,0 -102.2245408508984,20.51321990735289,0 -102.224675132386,20.51321302839011,0 -102.2247998339636,20.51320599600826,0 -102.2249242100932,20.51321701455187,0 -102.2250474472312,20.51329121157244,0 -102.2251412938713,20.51340105067159,0 -102.2253361269241,20.51375626471147,0 -102.2253914915001,20.51387451607714,0 -102.225456598817,20.51398389520537,0 -102.2255314488882,20.51408440208656,0 -102.2255967190743,20.51418475566904,0 -102.2256524093549,20.51428495596146,0 -102.2257175170063,20.51439433502827,0 -102.2257454435526,20.51443992240754,0 -102.2258288979182,20.51459473555603,0 -102.2258750084612,20.51469478253916,0 -102.2259305363978,20.51480400829325,0 -102.2259766470556,20.51490405526198,0 -102.226032175125,20.51501328099811,0 -102.2261243967236,20.51521337490034,0 -102.2261890170366,20.51534983041034,0 -102.2262346399891,20.51547695389077,0 -102.2262622415233,20.51554059225404,0 -102.2262900057423,20.51559520509885,0 -102.2263648570535,20.51569571175584,0 -102.2264591939427,20.51577847383842,0 -102.2265545068422,20.51580708277218,0 -102.2265735043671,20.51581641476041,0 -102.2266615142523,20.51571851314147,0 -102.2266735339765,20.51558328358278,0 -102.2266566508245,20.51545661985866,0 -102.2266420446651,20.515203598864,0 -102.2266636443497,20.51506852252144,0 -102.2266850813455,20.51494247168998,0 -102.2267160983202,20.51481657407002,0 -102.2267376978426,20.51468149769922,0 -102.2267784573334,20.51454672774893,0 -102.226809636736,20.51441180456777,0 -102.2268598134386,20.51428621331147,0 -102.2269387300116,20.51416108163973,0 -102.2270269012123,20.51405415415987,0 -102.2270853567342,20.514000920188,0 -102.2271244896613,20.51395640533534,0 -102.2272314953623,20.51386783515045,0 -102.2273479183226,20.51378844358832,0 -102.2274549237833,20.51369987323571,0 -102.2277754517599,20.51346123828133,0 -102.2279016166498,20.51337297389595,0 -102.2279888114499,20.51332019897896,0 -102.2280859112138,20.51324952607915,0 -102.2282307480478,20.51318864427567,0 -102.228259650391,20.51318007811237,0 -102.2283752597371,20.51314581340719,0 -102.2284337144647,20.51309257888221,0 -102.2284631043289,20.51305693607489,0 -102.2284080625114,20.51292063437367,0 -102.2283512330583,20.51288361354887,0 -102.2282378992907,20.51279152078407,0 -102.2281511924785,20.51281721927319,0 -102.2279969386148,20.51286892238195,0 -102.2278332672957,20.51291144666617,0 -102.227698498221,20.51294540471383,0 -102.2275929565556,20.51295274553924,0 -102.2275448943971,20.51296100527204,0 -102.2273422529056,20.51303901852739,0 -102.2271983915025,20.51304574640937,0 -102.2270551804931,20.51301637207115,0 -102.2269410345057,20.51296940615739,0 -102.2268267259858,20.51293146569934,0 -102.2266744231394,20.51287486129972,0 -102.2265127031463,20.51280907804154,0 -102.2264276224712,20.51274452043022,0 -102.2264086253128,20.51273518846762,0 -102.226324357911,20.51262550321636,0 -102.2262405785473,20.51248874137933,0 -102.226110363799,20.51226998368135,0 -102.2260360019967,20.51214240053604,0 -102.2258960452926,20.51193251501675,0 -102.2257922936653,20.51184057413501,0 -102.2256982846571,20.51173976094289,0 -102.2256875549141,20.51170196461547,0 -102.2256622426954,20.51161279070613,0 -102.2256263634487,20.51147679495159,0 -102.2255906469198,20.5113317736797,0 -102.2255640222258,20.51121398220936,0 -102.2255278177753,20.51109603747986,0 -102.2254557343541,20.51084209698341,0 -102.2254481066548,20.51073363754468,0 -102.2254406416278,20.51061615259073,0 -102.2254427563488,20.51049882089567,0 -102.2254352913141,20.51038133594046,0 -102.2253895073464,20.51026323794787,0 -102.2253341437135,20.51014498668757,0 -102.2253266787447,20.51002750173496,0 -102.2254143602173,20.50994765143394,0 -102.2255302927485,20.50989533737804,0 -102.2259355681429,20.5097393140568,0 -102.2260604295693,20.50972325491451,0 -102.2261851283611,20.50971622120078,0 -102.2263096645404,20.5097182129185,0 -102.2264251088443,20.50969297477773,0 -102.2265502954234,20.50965886422342,0 -102.2266659022539,20.50962460038712,0 -102.2267720919238,20.50958115776247,0 -102.2268492172814,20.50955530659811,0 -102.2268878612406,20.50953786823834,0 -102.2270510412914,20.50952242103654,0 -102.227213896213,20.50952502473659,0 -102.2273580794018,20.5095002454,0 -102.2274361799189,20.50942024076984,0 -102.2273322662032,20.50933732640679,0 -102.2272176350262,20.50931743755135,0 -102.2271221632624,20.50929785494002,0 -102.2270179246806,20.50923299147343,0 -102.2268946894105,20.50915879608836,0 -102.2267706413639,20.50912972826226,0 -102.2266370137039,20.50910050716971,0 -102.2265041990853,20.50902615835621,0 -102.2263812894669,20.50893391160377,0 -102.2262965360018,20.5088513031081,0 -102.2262119452376,20.50875966905794,0 -102.2261275171868,20.50865900945496,0 -102.226118262777,20.50864080520222,0 -102.2260620858911,20.50856768176738,0 -102.2260067221552,20.50844943071241,0 -102.2259799347277,20.50834066481369,0 -102.2259909779189,20.50825958833343,0 -102.2259914657749,20.50823251176857,0 -102.2260888880213,20.5081437886439,0 -102.2261957271529,20.50806424417444,0 -102.2262838947773,20.50795731666495,0 -102.2263626452777,20.50784121038134,0 -102.2264318160686,20.50772495086251,0 -102.2265302132232,20.50758207426112,0 -102.2265230723666,20.50744653818589,0 -102.226389608788,20.50740829154498,0 -102.2262371487642,20.50736071289957,0 -102.2261523961436,20.50727810442854,0 -102.2261161917625,20.50716015982942,0 -102.2260978456849,20.50711472581433,0 -102.226070407888,20.50704206202823,0 -102.2260437831349,20.50692427062339,0 -102.2259535165128,20.50661587081665,0 -102.2259351705297,20.50657043679476,0 -102.2259083833099,20.50646167090759,0 -102.2258817587272,20.50634387949668,0 -102.2258647136601,20.50622624129048,0 -102.2258572480862,20.50610875628932,0 -102.2258591993764,20.50600045001485,0 -102.2258704049083,20.50591034798794,0 -102.2258707301193,20.50589229694169,0 -102.2258920028979,20.50577527154218,0 -102.2259131130321,20.50566727165866,0 -102.225934385726,20.505550246244,0 -102.2259735393558,20.50541265633953,0 -102.2259957646574,20.50533455282506,0 -102.2260170372109,20.5052175273838,0 -102.2260577937309,20.50508275725832,0 -102.2261363800542,20.50497567642045,0 -102.2262521458603,20.50493238692377,0 -102.226367749042,20.50489812287004,0 -102.2264929315875,20.5048640118943,0 -102.2265991178313,20.50482056898323,0 -102.2269469020367,20.50466362262544,0 -102.2270818262303,20.50462063878704,0 -102.2272070084503,20.50458652725029,0 -102.2273417700193,20.5045525687287,0 -102.2274669521485,20.50451845699092,0 -102.2276210348991,20.50447577890841,0 -102.2277843720089,20.50445130484433,0 -102.2279288752484,20.50440847338326,0 -102.2280732159582,20.50437466733386,0 -102.2282081396863,20.50433168255185,0 -102.2283334839654,20.50428854460096,0 -102.2284589906239,20.50423638100644,0 -102.2285749178256,20.50418406427004,0 -102.228681428003,20.50412256886557,0 -102.2287889126112,20.50400692010084,0 -102.2288869801011,20.50388209267958,0 -102.2290025821031,20.50384782670619,0 -102.2291277634251,20.50381371365794,0 -102.2292527823132,20.50378862606401,0 -102.229368059428,20.50377241093314,0 -102.2294932406395,20.50373829760423,0 -102.2296086800788,20.50371305675202,0 -102.2297437652873,20.50366104510047,0 -102.2298786880647,20.50361805888908,0 -102.2300137731213,20.50356604700648,0 -102.2301486957637,20.50352306056621,0 -102.230274201318,20.5034708955105,0 -102.2304091238268,20.5034279088491,0 -102.2305344669249,20.50338476914672,0 -102.2306695516107,20.5033327567027,0 -102.230794894579,20.50328961679423,0 -102.230929816829,20.50324662969165,0 -102.2310549973968,20.50321251514378,0 -102.2311796911063,20.50320547719889,0 -102.2313040602879,20.50321649029808,0 -102.2314186878966,20.50323637600127,0 -102.2315428948918,20.50325641450304,0 -102.2316575225808,20.50327630005507,0 -102.2318103054818,20.50330582253549,0 -102.2320970372299,20.50334651028407,0 -102.2322306616121,20.503375726728,0 -102.2323832825821,20.50341427430222,0 -102.232516420519,20.50347056726792,0 -102.2326594623118,20.5035089617983,0 -102.2329263873951,20.50358544493629,0 -102.2330695916013,20.50361481357103,0 -102.2331942857341,20.50360777420328,0 -102.2333202780095,20.5035285300986,0 -102.2422739754311,20.50475700949865,0 -102.2430743042533,20.50433399074411,0 -102.2437385421613,20.50446177017734,0 -102.2444573295154,20.50445513284198,0 -102.244919730529,20.5043180255111,0 -102.2461765372369,20.50530400320684,0 -102.2469476435789,20.5055870903241,0 -102.2471606131846,20.50558080458786,0 -102.2477433973959,20.50556360484115,0 -102.2492402100848,20.50652628615107,0 -102.2499962690913,20.50711608307453,0 -102.2503875175508,20.50667087238079,0 -102.2507357656159,20.50663122758396,0 -102.2510706376175,20.50673558130254,0 -102.2511703150336,20.5068367598922,0 -102.251136097263,20.50714317876009,0 -102.2523680966402,20.50791204561103,0 -102.2543900813498,20.5079079511343,0 -102.25508401241,20.50768419871545,0 -102.2557517038689,20.50785727312694,0 -102.2560981149421,20.50831416834032,0 -102.2564667436819,20.50859987682361,0 -102.2571024855023,20.50895300718879,0 -102.2587730246835,20.50931346524249,0 -102.2597992037479,20.50926648275099,0 -102.2609926321655,20.50843667125511,0 -102.261298456058,20.50827791349201,0 -102.2616828769029,20.50807835559508,0 -102.2618534307015,20.50798981774793,0 -102.2619386125792,20.5084383780551,0 -102.262037433921,20.50895875369086,0 -102.2626468108796,20.50971772381018,0 -102.2628058823308,20.51101128592813,0 -102.2624867284286,20.51190659873341,0 -102.262473046758,20.51194497885346,0 -102.2616892952535,20.51290766440374,0 -102.2609455175244,20.51323899439633,0 -102.2595777986735,20.5130909896032,0 -102.2592357422389,20.51346477285632,0 -102.2592574113509,20.51386236096591,0 -102.258895162866,20.51483169239781,0 -102.2596566043939,20.51512360507311,0 -102.2597505779789,20.51576610026162,0 -102.260019088153,20.516293985549,0 -102.2598220163712,20.5165978338332,0 -102.2591647620557,20.51691246468143,0 -102.2591808039727,20.51762595447612,0 -102.2588048487294,20.5182881054839,0 -102.2589222547655,20.51922890528774,0 -102.2584562770243,20.51956461278554,0 -102.2585379995676,20.51981869749481,0 -102.2599191502718,20.52029194756094,0 -102.2598735945045,20.52069750138509,0 -102.2594682476743,20.5213953018601,0 -102.259509398886,20.52177514120544,0 -102.2601335294115,20.52224545044611,0 -102.2603948795672,20.52263779827191,0 -102.2601958060505,20.52359165259421,0 -102.2603127205698,20.52387152723999,0 -102.2603704481805,20.52400971503788,0 -102.2605179430074,20.52403194906672,0 -102.2607049751302,20.52406014348574,0 -102.2614839185966,20.52390994185379,0 -102.262040194332,20.52442431509349,0 -102.2627568356252,20.5245439733054,0 -102.2630352703576,20.52505395607663,0 -102.2635042556968,20.52508844585131,0 -102.2641909252678,20.52473815222579,0 -102.2644761004176,20.52487096279742,0 -102.2645521123109,20.52490636258954,0 -102.2649830473951,20.52546389117698,0 -102.2655572196941,20.52605076379635,0 -102.2656223155231,20.52670183095405,0 -102.2655644616053,20.52726067499867,0 -102.2659171525056,20.52790725099056,0 -102.2667730411723,20.52828188458032,0 -102.2667038443372,20.52893986212779,0 -102.2669610513687,20.52956687405235,0 -102.2670928584871,20.53077875040766,0 -102.2670690440406,20.53104019671867,0 -102.2669001781371,20.53154750013577,0 -102.2663096853502,20.5333214165228,0 -102.2663320037741,20.53351603762392,0 -102.2651920624435,20.53440786380656,0 -102.2649288336161,20.53659496452576,0 -102.2651340109492,20.53691419484335,0 -102.2652496897108,20.53795427824958,0 -102.26506003491,20.53891731489017,0 -102.2633306033874,20.54238395960424,0 -102.2634192908527,20.5433243050663,0 -102.2631586889513,20.5440848183346,0 -102.2630654312079,20.54435696919636,0 -102.263179186194,20.54441762230125,0 -102.2637110717109,20.54470121811849,0 -102.2638989585711,20.54545353623549,0 -102.2639076764317,20.54604051415545,0 -102.263390814037,20.54653793292091,0 -102.2633166644962,20.54693400669163,0 -102.2647171739688,20.54794924714312,0 -102.2648580176782,20.54811398137783,0 -102.2659807662304,20.54804142761912,0 -102.2671060834114,20.547824453755,0 -102.2682657159615,20.54783372189574,0 -102.2692696244818,20.54797595186204,0 -102.2701655626838,20.54826092770496,0 -102.2706818551191,20.54887396489118,0 -102.2713479089908,20.55022968554013,0 -102.2715681708863,20.55042813169166,0 -102.2717252817364,20.55056968083095,0 -102.2721885783212,20.55068656254467,0 -102.2723360051546,20.55072375609942,0 -102.2721707900632,20.55093561295767,0 -102.2719534666937,20.55121428902517,0 -102.2716877679046,20.55126733517783,0 -102.2707798928527,20.55144858875044,0 -102.2703053702911,20.55172098719622,0 -102.2696651696059,20.55268595371237,0 -102.2693180151411,20.55388124755519,0 -102.268947769959,20.5542184842265,0 -102.2685646176669,20.55420341141929,0 -102.2670874725708,20.55371965613434,0 -102.2666713976896,20.55393879589472,0 -102.2665462842926,20.55450560470919,0 -102.2663017335776,20.55478162125155,0 -102.2659433124959,20.55499264089645,0 -102.2657444245472,20.55539577397206,0 -102.2654572406108,20.55698924907241,0 -102.2653590764614,20.55927186057498,0 -102.2651997361171,20.56014508892717,0 -102.2646203400399,20.5609213958697,0 -102.2638141570583,20.56151354917994,0 -102.2632125419013,20.56164513869005,0 -102.2629287988147,20.56170720114897,0 -102.2647099272949,20.56843107824631,0 -102.2678432629091,20.57534537796952,0 -102.2664956959279,20.57564910777956,0 -102.2662252491871,20.57576220180309,0 -102.2655745852365,20.57623041725175,0 -102.2654681940771,20.576282905165,0 -102.2651300127497,20.57643103964885,0 -102.2638554899429,20.5774762216066,0 -102.2632847900771,20.57829779483003,0 -102.2625906151006,20.57905421337642,0 -102.261918423932,20.57911579948637,0 -102.2615390797565,20.57888408694097,0 -102.2597456882008,20.57891888074519,0 -102.2589133748768,20.57935710485233,0 -102.2586746405321,20.57984084680555,0 -102.258712238005,20.58041925094364,0 -102.2585228749961,20.58082252071255,0 -102.2575681107115,20.58167409508521,0 -102.2572192824282,20.58178862251936,0 -102.256912332845,20.58188940073679,0 -102.2558705910735,20.58224303149895,0 -102.2555088588494,20.58263453344292,0 -102.2555464436226,20.58321293683296,0 -102.2555659900093,20.58372785630506,0 -102.2545722566015,20.58514757025275,0 -102.2536198680881,20.58586373210731,0 -102.2536030544824,20.58680239984548,0 -102.2532137268108,20.58766292410724,0 -102.2530172229997,20.5884633132749,0 -102.253057546235,20.58888828000707,0 -102.2526043175952,20.59076377716298,0 -102.2523533606482,20.59180222982809,0 -102.2613757007301,20.59078239084024,0 -102.2655190616859,20.58902262677739,0 -102.265957737311,20.5888289640179,0 -102.2673551688179,20.58821202596308,0 -102.2679185889031,20.58833829788582,0 -102.2682654159749,20.58824446677933,0 -102.2702471006205,20.58679512250959,0 -102.2719591499607,20.58648809508131,0 -102.2723090220674,20.58622276502845,0 -102.2723526600924,20.58592551865274,0 -102.2732893811151,20.58446867450776,0 -102.2746022911361,20.58288232735914,0 -102.2751121645856,20.58332372266474,0 -102.2759362524305,20.58388743526073,0 -102.2767095374083,20.58461285474751,0 -102.2772347460014,20.58527116687459,0 -102.2781027997983,20.58551957050117,0 -102.2786734581949,20.58469794302139,0 -102.2791407356332,20.58429901964499,0 -102.2797744521327,20.58424579107175,0 -102.2803667678137,20.58490515048279,0 -102.2803173823893,20.58552733144204,0 -102.2795751608968,20.58629209549851,0 -102.279522752275,20.58654406520663,0 -102.2800551850019,20.58679620747099,0 -102.2804634533662,20.5881027148079,0 -102.2808521173813,20.58835259379986,0 -102.2814313454909,20.58921036970819,0 -102.2815880503757,20.58956494037268,0 -102.2816822834515,20.59019840836394,0 -102.2808382875739,20.59075392317489,0 -102.2796155928176,20.59087834502812,0 -102.2788404025586,20.59095722492844,0 -102.2786566815284,20.59104461657785,0 -102.2784385959226,20.59144745950444,0 -102.2787217970746,20.59223738484122,0 -102.2790182673501,20.59259265435894,0 -102.279416528908,20.5930699006733,0 -102.2795147583593,20.593477722869,0 -102.279179402823,20.59400511788531,0 -102.2774329397499,20.59408595938923,0 -102.2771664377081,20.59451512230957,0 -102.2777197920732,20.59520999260191,0 -102.2780245696049,20.59586483369944,0 -102.2777703073034,20.59722410999989,0 -102.2790405420976,20.59750593445072,0 -102.2802387695409,20.59698309262902,0 -102.2813442258772,20.59690658234518,0 -102.2817267772517,20.59688010437054,0 -102.2823761963837,20.59702574240623,0 -102.2824853012883,20.59736150777226,0 -102.2818962351699,20.59813771301998,0 -102.2818220905979,20.59853379521023,0 -102.28361297078,20.60027734468718,0 -102.2842742053126,20.60138017129424,0 -102.2845565027609,20.60168254412271,0 -102.284678712976,20.60195872963557,0 -102.2847777663967,20.60218258202849,0 -102.2842807233453,20.60263521870822,0 -102.2834796465813,20.60292959179714,0 -102.2827611786401,20.60289121017379,0 -102.2826184894762,20.60336746996636,0 -102.2829851396125,20.60377951236948,0 -102.2840606800808,20.60422978337684,0 -102.2843086226894,20.60484761025451,0 -102.2840558469434,20.60558396403845,0 -102.2841934471512,20.60574336067928,0 -102.2844034935629,20.60598667711456,0 -102.2854106825997,20.60596639116492,0 -102.2854696277689,20.60642776489156,0 -102.2860201805473,20.60728508247774,0 -102.2856782626029,20.6076408463472,0 -102.2850337412239,20.60775711628956,0 -102.2847431120643,20.60792408801515,0 -102.2846882840144,20.60885314925173,0 -102.2845285005605,20.60921177282941,0 -102.2835959003266,20.60935059325069,0 -102.2833415306907,20.60963550110873,0 -102.2833229775204,20.61014079802568,0 -102.2834594085941,20.6105582485493,0 -102.2833164533132,20.61105316285968,0 -102.2831426912136,20.61165472842383,0 -102.282256060045,20.61244430505556,0 -102.2812208422473,20.61296068677581,0 -102.2809555928565,20.61331764558931,0 -102.2806909192126,20.6147219016422,0 -102.2808556245846,20.61516688398453,0 -102.2807670996336,20.61529188714717,0 -102.2804948231684,20.61550428046768,0 -102.2799915017039,20.61576720473755,0 -102.2800633495504,20.61658088739533,0 -102.2794488782513,20.61824145194692,0 -102.2789412135284,20.61874806873252,0 -102.2773413889129,20.61973402531859,0 -102.2773010054276,20.61976801221102,0 -102.2763094284558,20.62060252672096,0 -102.2757392427415,20.62138802382521,0 -102.2757293343365,20.62140592413003,0 -102.2756130040722,20.62147631522322,0 -102.2741676505061,20.62240147641302,0 -102.273621866527,20.62343111411386,0 -102.2730080625382,20.62397214674401,0 -102.2724836251532,20.62541741817453,0 -102.2722682516917,20.62565133133319,0 -102.2718773039851,20.62607593153209,0 -102.2718197799761,20.62607502248471,0 -102.2713833601486,20.62634800209537,0 -102.2705831896249,20.62712081357938,0 -102.2688444098125,20.62782460323474,0 -102.2678044556388,20.62806093799,0 -102.2676889229334,20.62808619414026,0 -102.2676211661389,20.6281212347132,0 -102.2667494288761,20.628603988339,0 -102.2658896824331,20.62882146824738,0 -102.2655066789973,20.62891835140971,0 -102.2653813966375,20.6289524797121,0 -102.2650418014477,20.62917280567905,0 -102.2647581164217,20.62948429932858,0 -102.2647846195655,20.62961111477636,0 -102.26426841154,20.63005434636121,0 -102.263625305585,20.63023367137201,0 -102.2634106012464,20.63029353916835,0 -102.2630347497053,20.63039591866166,0 -102.2628793084926,20.63104348682088,0 -102.2626136600624,20.63141845979188,0 -102.2617508313492,20.63193743881771,0 -102.2615557797851,20.63233250529775,0 -102.2615120022902,20.63242117386753,0 -102.2613055424894,20.63323946641728,0 -102.2607469198295,20.63390771760475,0 -102.2594739449992,20.63483547040145,0 -102.2586983478628,20.63530164707735,0 -102.2576552581736,20.63570939994631,0 -102.2569439785659,20.63579740547747,0 -102.2562929880558,20.63588046663433,0 -102.2562518741523,20.63588571286637,0 -102.2543016316945,20.63553870735383,0 -102.2535242107979,20.63557147718988,0 -102.2523377589562,20.63541716787053,0 -102.2509477115629,20.63591866344514,0 -102.2503703477943,20.63655949240442,0 -102.2496516061669,20.63759530443764,0 -102.2492269793802,20.63774201439379,0 -102.2486993211202,20.6377516581992,0 -102.2473380082039,20.63878623979037,0 -102.2432839907063,20.63886357339452,0 -102.2441058380872,20.64198476986553,0 -102.244222450352,20.64223361579827,0 -102.2443274925279,20.64245777272283,0 -102.2443705412047,20.64326196309321,0 -102.2452482550564,20.64405239956236,0 -102.245269985986,20.64424964999348,0 -102.2454295936879,20.64569841401266,0 -102.2454785028334,20.64617768563118,0 -102.246561492437,20.64728737988152,0 -102.2466823974158,20.64802961653731,0 -102.2468816375782,20.64868282228221,0 -102.2473038554924,20.64920416481481,0 -102.2484748015929,20.64969231233151,0 -102.2505443440946,20.65141358036905,0 -102.2544003858795,20.65300077323732,0 -102.2546786256651,20.65299617473863,0 -102.2550769806727,20.65324627659955,0 -102.2558070585712,20.6537183330462,0 -102.2571623404427,20.65355933120126,0 -102.2574977913474,20.65357369456397,0 -102.257660641379,20.65358531256453,0 -102.2577565308305,20.65358683742793,0 -102.2577027325734,20.65374054811133,0 -102.2575743307581,20.65410741144454,0 -102.2575239958366,20.65425122534952,0 -102.2570212145858,20.65463332638743,0 -102.2561625725073,20.65528586509515,0 -102.2561380737815,20.65537277142513,0 -102.2559840658726,20.65591911018284,0 -102.256370552801,20.65575676189094,0 -102.2568710436821,20.65614761891395,0 -102.2620586768842,20.66657363070994,0 -102.2630412489359,20.67276886903949,0 -102.2620867709978,20.67324418814079,0 -102.2612986741101,20.67379475428295,0 -102.2607881969679,20.6746381615933,0 -102.2599192048066,20.67561387133405,0 -102.2591110410546,20.67636584176773,0 -102.2572452779102,20.67771637813307,0 -102.2570099567347,20.67826303279106,0 -102.2563017078322,20.67870864096635,0 -102.2559769736908,20.67936081356305,0 -102.2556463615497,20.6800674342704,0 -102.2552496962425,20.68081016955449,0 -102.2541070493554,20.68157972895181,0 -102.2520273726537,20.68150921689909,0 -102.2508646621966,20.68178893378025,0 -102.249198756026,20.68189349405009,0 -102.2488524483831,20.68211583655551,0 -102.2472177998582,20.68225737788085,0 -102.2454048421354,20.68241797125012,0 -102.244023818712,20.68253785153253,0 -102.2419739871279,20.68251801784784,0 -102.240494292384,20.68290716934201,0 -102.2395995462831,20.68350235384838,0 -102.2391718241884,20.68418051407032,0 -102.239192900595,20.68476934135888,0 -102.2391358149164,20.68561718551558,0 -102.239353972923,20.68634077397982,0 -102.2384134893807,20.68837623785147,0 -102.2351865037271,20.69265993398791,0 -102.2328587376199,20.69583402567144,0 -102.2292979455711,20.7006890923297,0 -102.2207644685393,20.70352561095702,0 -102.220159322812,20.70367431566938,0 -102.2201404438892,20.70388207839613,0 -102.2200542248085,20.70404477921571,0 -102.219948717698,20.70416234561039,0 -102.2199971151693,20.70437904483089,0 -102.2201992042207,20.70455939484434,0 -102.220362688005,20.70468839220393,0 -102.2204879618425,20.70490497886883,0 -102.2205363191481,20.70509458182661,0 -102.2206040125137,20.70535641273215,0 -102.2206428007674,20.70557312639105,0 -102.2206046785277,20.70583701742705,0 -102.2205473638217,20.70604483739683,0 -102.2206054314344,20.70629764918908,0 -102.2208466900801,20.70655323278247,0 -102.2210968722562,20.70676060660028,0 -102.2212991261769,20.7070403044593,0 -102.2214820911898,20.70727487241793,0 -102.2215310484407,20.70758397148816,0 -102.2216273787451,20.70772834436338,0 -102.2217047605601,20.70803532042326,0 -102.2221569246845,20.70835078388373,0 -102.2224935801672,20.70854899750148,0 -102.2228107221247,20.7085665985104,0 -102.2229856386339,20.7087039804121,0 -102.2230051246495,20.70886652977067,0 -102.2229573629844,20.70903820712797,0 -102.2229194608261,20.70936341573959,0 -102.223198524548,20.70959784150434,0 -102.2236021420343,20.70960628317111,0 -102.2236475625414,20.70975533352364,0 -102.2236691775514,20.70999957954665,0 -102.2235424216252,20.7104223143992,0 -102.2233996713306,20.71057815963216,0 -102.2229319861977,20.7106928571217,0 -102.222631135818,20.71082771101766,0 -102.2223349207319,20.71058886980902,0 -102.2221015290769,20.71053596359879,0 -102.2218430323289,20.71045869333551,0 -102.22149282728,20.71044228599636,0 -102.2211133245443,20.7102369294739,0 -102.2207139104611,20.70992260938094,0 -102.2207135464487,20.70969987271273,0 -102.2207553538065,20.70950182339255,0 -102.2209237500387,20.70942733283892,0 -102.2211395826704,20.70928751837552,0 -102.2212180067046,20.7089409259432,0 -102.2211070307635,20.70861328668477,0 -102.2211594740558,20.70847956773492,0 -102.2210584407774,20.70827594956053,0 -102.2208582313297,20.70821684399836,0 -102.2205421634756,20.70815790436694,0 -102.2204159085043,20.70823728329241,0 -102.2201842211537,20.7082413442723,0 -102.2198991788806,20.70832524532943,0 -102.2197447935114,20.70825955538933,0 -102.2195812740572,20.70832570327428,0 -102.219458992228,20.70829114462599,0 -102.2192487221862,20.70835735917567,0 -102.2190899107451,20.7084454717695,0 -102.2189919326568,20.70856864872958,0 -102.2184967884236,20.70882422178313,0 -102.2181274122616,20.70879838614814,0 -102.2178498181162,20.70860098942794,0 -102.2175362353901,20.70838172886968,0 -102.2172053039918,20.70830760074885,0 -102.2168834087615,20.70820677999219,0 -102.216632523196,20.7081282001186,0 -102.216385363163,20.70851523760739,0 -102.2160811032325,20.70866088078476,0 -102.2157817014414,20.70848924769665,0 -102.2085362013505,20.72202360821766,0 -102.1907746009724,20.73741936138836,0 -102.1907394095634,20.7374568669748,0 -102.1907216049578,20.73752935121694,0 -102.1907233424652,20.73761733684006,0 -102.1907269493596,20.73768667194697,0 -102.190735265102,20.73776802046641,0 -102.1907857026634,20.7380001743023,0 -102.1908161705314,20.73811922904043,0 -102.190840541614,20.73824494046032,0 -102.1908601517732,20.73837766899339,0 -102.1908949164506,20.73851146402932,0 -102.1909258922274,20.73863695572211,0 -102.1909536100293,20.73875174143091,0 -102.1909719636724,20.73884453596694,0 -102.1909894581584,20.73890263914034,0 -102.1910162388448,20.73896190974153,0 -102.191032106293,20.73902751723842,0 -102.19103494661,20.73909466501873,0 -102.1910258034778,20.73914659115094,0 -102.1910227886393,20.73916371356062,0 -102.1910054228548,20.73925384065798,0 -102.1909838082391,20.73938108629436,0 -102.1909563314233,20.73951963086998,0 -102.1909275157318,20.73965926941221,0 -102.1908966571359,20.73979858113705,0 -102.190878323987,20.73993395114536,0 -102.1908655553983,20.74006597257026,0 -102.1908427905588,20.74019483877923,0 -102.190818491378,20.74031241957938,0 -102.1907966719228,20.74043244141278,0 -102.1907878743689,20.74053417377499,0 -102.1907787964968,20.74064821987702,0 -102.1907659360408,20.74077585225692,0 -102.1907481052725,20.74091174861886,0 -102.1907310666254,20.74104897328551,0 -102.1906949411557,20.74116670015897,0 -102.190618371444,20.74124595409964,0 -102.1906169218031,20.74124639803459,0 -102.1905123551957,20.74127838448087,0 -102.1903906890348,20.74128299366394,0 -102.1902601215322,20.74128185280286,0 -102.1901353207471,20.7412775976807,0 -102.1900431733657,20.74130277689665,0 -102.1899992905314,20.74135982684186,0 -102.1899985222757,20.74144024775055,0 -102.1900343635113,20.74154780337111,0 -102.1900884471616,20.74168404047299,0 -102.1901431651346,20.7418307230804,0 -102.1902001631384,20.74198043294106,0 -102.1902524349876,20.74212748269397,0 -102.1903020850627,20.74226918218423,0 -102.1903463361333,20.74239726801596,0 -102.1903845057771,20.74250935297971,0 -102.1904225289509,20.7426198096551,0 -102.1904587172825,20.74272288955248,0 -102.1904899188813,20.74281523067667,0 -102.1905146129583,20.74288590717636,0 -102.1905378932228,20.74294599809672,0 -102.1905607801991,20.74301111828988,0 -102.1905894921862,20.74307880007011,0 -102.1906176350915,20.74315760013376,0 -102.1906381266836,20.74323472053032,0 -102.1906734285755,20.74347757219096,0 -102.1906968285968,20.74353228004945,0 -102.1907264404523,20.74362362104788,0 -102.1907458172605,20.74368483259846,0 -102.1908373047795,20.74391314376848,0 -102.1908690793575,20.74401713728842,0 -102.1909213810701,20.74417146288473,0 -102.1909837717574,20.74434274496309,0 -102.1910380018917,20.74451425294664,0 -102.191067956543,20.74468383387919,0 -102.1910823997858,20.74483059637709,0 -102.1910925282752,20.74495356619401,0 -102.1911036402145,20.74504927569684,0 -102.1911146111439,20.74515054126633,0 -102.1911273639569,20.74526195245671,0 -102.1911409982608,20.74535136480085,0 -102.1911379075411,20.74542400919878,0 -102.1911002984353,20.74546484338377,0 -102.1910292956283,20.74549080369225,0 -102.190928386242,20.74550944643026,0 -102.190663141939,20.74555428275135,0 -102.1905258587819,20.74556673602946,0 -102.1903738119765,20.74559079483574,0 -102.1898794120261,20.74566325919581,0 -102.1896977287837,20.74568973326682,0 -102.1896129043534,20.74570274591656,0 -102.1895123325128,20.7457181740092,0 -102.1893329666871,20.74574507470349,0 -102.1891626225247,20.74576888724262,0 -102.189007382364,20.74579243214912,0 -102.1888715224028,20.74581411741776,0 -102.1886356817541,20.74591635401556,0 -102.1873410221329,20.74590961788007,0 -102.1825624310666,20.74962497849521,0 -102.1797555591734,20.7493849059789,0 -102.1768218334972,20.74923929764742,0 -102.1754230674879,20.74909124912766,0 -102.1700869275416,20.74852635115438,0 -102.1698890988154,20.74841490722519,0 -102.1692658782107,20.74897737361604,0 -102.1673738291572,20.74974542645105,0 -102.1668848876725,20.74973063235474,0 -102.1662022867994,20.74985728404353,0 -102.1652002077878,20.75054496537089,0 -102.1646163320066,20.75176275989662,0 -102.1642408665124,20.75228475391054,0 -102.1633999010206,20.75304881097901,0 -102.1627835019462,20.75370939582847,0 -102.1618423016149,20.75453813850251,0 -102.1608089206579,20.75555937469764,0 -102.1609780320872,20.75600005144112,0 -102.1611495060239,20.75621178974429,0 -102.1656825010738,20.76180895412345,0 -102.1643472704858,20.76442475749676,0 -102.1632856908253,20.76688860376476,0 -102.1626210994609,20.76860052587899,0 -102.162471555759,20.76958203101297,0 -102.1603333022432,20.77098462498601,0 -102.1571625891163,20.77311576756923,0 -102.1556501246167,20.77302315883238,0 -102.1534539160454,20.77301177825938,0 -102.1533285181698,20.77300174426305,0 -102.1510395185672,20.77281353246896,0 -102.1475463513973,20.77308056242971,0 -102.1457288083631,20.77360336383165,0 -102.143908677435,20.77442486259245,0 -102.1430080231673,20.7750793648053,0 -102.1427955094973,20.77523379580525,0 -102.1423293776423,20.77681100101623,0 -102.1305329645671,20.78668315956316,0 -102.1198625814675,20.78683651702904,0 -102.1156717015409,20.78500280663609,0 -102.1130184351865,20.7834225378145,0 -102.1107389270838,20.78206504791247,0 -102.1092955242936,20.7812054473475,0 -102.1061264497206,20.77817052437338,0 -102.1050253081615,20.77617388121483,0 
					</coordinates>
				</LinearRing>
			</outerBoundaryIs>
		</Polygon>
	</Placemark>
</Document>
</kml>
