<?xml version="1.0" encoding="UTF-8"?>
<kml xmlns="http://www.opengis.net/kml/2.2" xmlns:gx="http://www.google.com/kml/ext/2.2" xmlns:kml="http://www.opengis.net/kml/2.2" xmlns:atom="http://www.w3.org/2005/Atom">
<Document>
	<name>Elemento_63.kml</name>
	<StyleMap id="styleMapID00">
		<Pair>
			<key>normal</key>
			<styleUrl>#normal00</styleUrl>
		</Pair>
		<Pair>
			<key>highlight</key>
			<styleUrl>#highlight00</styleUrl>
		</Pair>
	</StyleMap>
	<Style id="normal00">
		<LineStyle>
			<color>7fff00aa</color>
		</LineStyle>
		<PolyStyle>
			<color>7fff55aa</color>
		</PolyStyle>
	</Style>
	<Style id="highlight00">
		<LineStyle>
			<color>7fff00aa</color>
		</LineStyle>
		<PolyStyle>
			<color>7fff55aa</color>
		</PolyStyle>
	</Style>
	<Placemark>
		<name>Elemento_63</name>
		<styleUrl>#styleMapID00</styleUrl>
		<ExtendedData>
			<SchemaData schemaUrl="#schemaID">
				<SimpleData name="MUNICIPIO">OCOTLÁN</SimpleData>
				<SimpleData name="REGION">CIÉNEGA</SimpleData>
				<SimpleData name="CLAVE">63</SimpleData>
				<SimpleData name="AREA_KMS2">217.217505435</SimpleData>
				<SimpleData name="GID">62</SimpleData>
			</SchemaData>
		</ExtendedData>
		<Polygon>
			<outerBoundaryIs>
				<LinearRing>
					<coordinates>
						-102.6692656307932,20.47925581668761,0 -102.6230241558591,20.44860288084405,0 -102.6026860037976,20.43628795442639,0 -102.5930962410682,20.42891335173935,0 -102.5928641115357,20.42844057200533,0 -102.5921303027991,20.42819563644638,0 -102.5917048015492,20.42783757228408,0 -102.5913832311573,20.42695719571511,0 -102.5914870185322,20.42644391223059,0 -102.5915330425517,20.42533383792616,0 -102.5909341441512,20.42380848120531,0 -102.5907331492393,20.42318261761587,0 -102.5905227192444,20.42254759313239,0 -102.5903907350337,20.42179626215014,0 -102.590315183638,20.4192667685886,0 -102.588869266285,20.41837924002381,0 -102.5877848750733,20.41657725170681,0 -102.5887692194553,20.41729898905628,0 -102.589992797383,20.41772957467604,0 -102.5912744190156,20.41823248063492,0 -102.594861645293,20.41801897001568,0 -102.595975836477,20.41763369865249,0 -102.5970028045818,20.41710365183413,0 -102.5970979178046,20.41703979347977,0 -102.5981528245494,20.41633794204033,0 -102.5983943409986,20.41635450175036,0 -102.5999419049668,20.41608539643498,0 -102.6007864807541,20.41564673715291,0 -102.6013913735664,20.41539040727616,0 -102.6032676779147,20.4155008791132,0 -102.6035490287945,20.41603485103117,0 -102.6035318135078,20.41648838369972,0 -102.6042735253613,20.41671217201968,0 -102.6055743875943,20.41720581112008,0 -102.6069154072784,20.41807112038217,0 -102.6098162956404,20.41925666822752,0 -102.6097910768268,20.42006393964191,0 -102.6104699029109,20.42126743838734,0 -102.6116564192598,20.42198821937611,0 -102.6122277273244,20.42281123160911,0 -102.6132334617301,20.42396805750423,0 -102.6146022622573,20.42457018093734,0 -102.6163928278469,20.42483501773782,0 -102.6178668909704,20.4253097141539,0 -102.6197062387485,20.42571942410695,0 -102.6209012555871,20.42617708935675,0 -102.6254340621817,20.42653036652691,0 -102.6293188349217,20.42613343179942,0 -102.6332331677677,20.42589045418513,0 -102.6338176385803,20.42559694477686,0 -102.6353638468739,20.42482045443202,0 -102.6367755581215,20.4242975975614,0 -102.6381565573631,20.42338487450354,0 -102.6392997432629,20.42304450819898,0 -102.6408460988855,20.42252104936975,0 -102.6427799143737,20.42053577302976,0 -102.6437295481606,20.4199603892231,0 -102.6446786115139,20.41926710030189,0 -102.6467546319137,20.41887737703667,0 -102.6509088194348,20.41855130152785,0 -102.6511576737448,20.41629197634088,0 -102.6515295977282,20.41561925452047,0 -102.6520535905495,20.41456497078885,0 -102.6530813661098,20.41425220534929,0 -102.6539929607443,20.41378575511376,0 -102.656271490432,20.41352200160015,0 -102.6569128064729,20.41286624526173,0 -102.6575078730493,20.41259159548254,0 -102.65907610614,20.41264829339652,0 -102.6593131803722,20.41194893158825,0 -102.6602451716719,20.41172722676329,0 -102.6619640312359,20.41308014874495,0 -102.6629943528296,20.41329332466142,0 -102.6647517696084,20.41269615163676,0 -102.6658492655464,20.4109228413551,0 -102.6665600990039,20.40877031250811,0 -102.6676301151758,20.40728733099181,0 -102.6684363449838,20.40693008978583,0 -102.6698638773518,20.40578108612109,0 -102.6685249092397,20.40171969168401,0 -102.6687864598888,20.40152451876792,0 -102.6691051959566,20.40134817159619,0 -102.6692496557902,20.4012959206552,0 -102.6697220391418,20.40099733514114,0 -102.6699072287683,20.40088027852446,0 -102.6715499173773,20.39928576291617,0 -102.6718624623794,20.39888356241952,0 -102.6720591420906,20.39854302750728,0 -102.6720405325473,20.39850665650908,0 -102.6720892274226,20.39845312347644,0 -102.6723478398413,20.39781540578411,0 -102.6724315030916,20.39734693220016,0 -102.672528349133,20.39727598093692,0 -102.6727784122773,20.39720707585335,0 -102.6732775887494,20.39713246608638,0 -102.6736320391148,20.39712816768251,0 -102.6740075396091,20.39699772103819,0 -102.6743570222098,20.39668631414585,0 -102.674679130511,20.39628423505984,0 -102.6746896551795,20.396221161222,0 -102.6749526795407,20.39592666043242,0 -102.6754099322355,20.39545413774189,0 -102.6755939078672,20.3953211324054,0 -102.6758078301227,20.3951072506746,0 -102.6758573352687,20.39499954347484,0 -102.6762285344327,20.39451683991316,0 -102.6765398386414,20.39419588804841,0 -102.6767452651551,20.39390964666391,0 -102.6774110432502,20.39294321273004,0 -102.6776565288242,20.39254010560881,0 -102.6779199469187,20.39221851259052,0 -102.6783710918921,20.39215227733952,0 -102.6785237636472,20.39219043337327,0 -102.6785910648044,20.3921732684811,0 -102.6788914311133,20.39194247219989,0 -102.6788828020303,20.39187914284717,0 -102.6789633302421,20.39161832679372,0 -102.6789522928668,20.39107634170355,0 -102.6791012026925,20.39072612970176,0 -102.6795693544308,20.39016343222242,0 -102.6795601843203,20.39013621823256,0 -102.6797870487618,20.38969673671284,0 -102.6798406042413,20.38931816262328,0 -102.6798295630767,20.38877617717642,0 -102.6798810904759,20.38853303564672,0 -102.6801049779977,20.38829218791136,0 -102.6807646289282,20.38773203444594,0 -102.6809213500986,20.38749932250827,0 -102.6813349889579,20.38737839544538,0 -102.6820400787438,20.38698139250241,0 -102.6823690211246,20.38675999942958,0 -102.6826515700213,20.38643865175037,0 -102.6826422645154,20.38642046674427,0 -102.6830023605976,20.38603693451773,0 -102.6833994072466,20.38574419898568,0 -102.6836240948138,20.38544917251576,0 -102.6836389320915,20.38509717377708,0 -102.6835926741309,20.38498819123577,0 -102.6836180311035,20.38457311760223,0 -102.6836891059963,20.38430314193898,0 -102.6838684770136,20.38383593021162,0 -102.683840155731,20.38380846199709,0 -102.6838792663897,20.38375479754422,0 -102.6839117693136,20.38350237065297,0 -102.6840938360148,20.38285458098127,0 -102.6843293065483,20.38247842025569,0 -102.6844737443186,20.38242615437957,0 -102.6850732064517,20.38204579504436,0 -102.685267811325,20.38184067300116,0 -102.6856891143599,20.38120508715278,0 -102.6856896534416,20.38116897160036,0 -102.685368545625,20.38086669728653,0 -102.6852382677294,20.38061210907616,0 -102.685230175314,20.38051266422925,0 -102.6851461559053,20.38036705811792,0 -102.6850516179288,20.38028452706362,0 -102.6848135882599,20.38019106028776,0 -102.6847178372024,20.3801897890256,0 -102.6846513507606,20.38015278358086,0 -102.6843342936765,20.38022081897406,0 -102.6838771163658,20.38005219536971,0 -102.6833948570606,20.37963940944033,0 -102.6830707890047,20.37953576679676,0 -102.6823538747434,20.37944496435506,0 -102.6815495713591,20.37943427315713,0 -102.6810402040867,20.37955392965644,0 -102.6807331275714,20.37959499921804,0 -102.6805803320839,20.37956587507636,0 -102.6803812822944,20.37942776772756,0 -102.6803355682527,20.37928266921879,0 -102.6802980934109,20.37858681049265,0 -102.680110240938,20.3783404840623,0 -102.6798661551632,20.37801213350834,0 -102.6793827154104,20.37703942182883,0 -102.6793212307967,20.37666834707498,0 -102.6789188552986,20.37539870179769,0 -102.678370681854,20.37491278173286,0 -102.6781454837452,20.37460274211028,0 -102.6777855648715,20.37433606191213,0 -102.6775274536665,20.37430553338644,0 -102.6772681257065,20.37435626405898,0 -102.6769235719749,20.37434264477922,0 -102.6766577798241,20.37418558373368,0 -102.6762475566089,20.37408078204917,0 -102.6753658752874,20.37412321754689,0 -102.6750124246876,20.37406432281269,0 -102.6749842420713,20.37402782462874,0 -102.6743659507003,20.37374866313254,0 -102.6741394087374,20.37352890745768,0 -102.6738952075957,20.37320957915686,0 -102.6736529031732,20.37276384712818,0 -102.6728109683926,20.37143414580391,0 -102.6728054573732,20.37116315360597,0 -102.673231202933,20.37087082213863,0 -102.6733698492722,20.37056563006102,0 -102.6733923833544,20.37034016494174,0 -102.6728891790111,20.36941232944924,0 -102.6728374209961,20.36903235280572,0 -102.6730038410601,20.36879074574593,0 -102.6730437633461,20.36868291071809,0 -102.673560002158,20.36810280458995,0 -102.6736486074826,20.36794143474861,0 -102.6745481150768,20.36670719886509,0 -102.6746472398151,20.36648275409385,0 -102.6748001881062,20.3658616785014,0 -102.674792913938,20.36570806073437,0 -102.6749525937943,20.3652767179579,0 -102.6751883243423,20.36488251077633,0 -102.6759381051936,20.36405264898234,0 -102.6759681794649,20.36396274308766,0 -102.6763289082628,20.36353407606122,0 -102.6763771839221,20.36350762696292,0 -102.6766687298778,20.36322252817511,0 -102.677112918029,20.3629755833506,0 -102.6773746587634,20.36276233163981,0 -102.6776358583702,20.36258519488419,0 -102.6781535444613,20.36190575369132,0 -102.6782131491133,20.36176205619857,0 -102.6786617869994,20.36121715426152,0 -102.6796209409327,20.36047133403564,0 -102.6799676240427,20.36034048307172,0 -102.6799964805405,20.36033183600926,0 -102.6801399533315,20.36034277386506,0 -102.6804002013668,20.3602288343515,0 -102.6806399522483,20.36020492872127,0 -102.6811406248325,20.36002193765165,0 -102.681823468819,20.35982330350993,0 -102.6819798860583,20.35960864482573,0 -102.68228961855,20.35938699134194,0 -102.6823569048063,20.35936982351666,0 -102.6826867274082,20.35908522124845,0 -102.6829191938212,20.35890769397892,0 -102.6832704526804,20.35846985336728,0 -102.6834542403651,20.35834586320713,0 -102.6834731183945,20.35836417513697,0 -102.6835409430365,20.35831089120575,0 -102.6841574344854,20.35806621290743,0 -102.6846984116544,20.3577482850311,0 -102.685242886957,20.3571956035943,0 -102.6859569926731,20.35682578300499,0 -102.6866149986613,20.35636490866024,0 -102.6882043032011,20.35509457335684,0 -102.6886003148269,20.35486501895451,0 -102.6889009929386,20.35460710927922,0 -102.6896002310405,20.35394809208889,0 -102.690041228378,20.35335656572313,0 -102.703625036309,20.34973132106232,0 -102.7059666893338,20.34925129952217,0 -102.7069463428778,20.34907623422543,0 -102.7079084979087,20.34853886114767,0 -102.7095287081121,20.34912876948327,0 -102.7118371509302,20.34755987679063,0 -102.7126029907188,20.34703937256219,0 -102.7153994726464,20.34518588123475,0 -102.7168883864118,20.34560197058941,0 -102.7197689571646,20.34288623604147,0 -102.7197742514794,20.3446791954598,0 -102.7214026035863,20.34440067729441,0 -102.7230680199808,20.34411599798148,0 -102.7247452802613,20.34385286069086,0 -102.7267296460167,20.34353103811771,0 -102.7267881902709,20.34352461608224,0 -102.7272432746345,20.34358389808199,0 -102.7274660417159,20.34363757772642,0 -102.7287069325754,20.34235460026797,0 -102.7288871348703,20.3422013192022,0 -102.7294263447134,20.34167961285868,0 -102.730460343497,20.34051414562472,0 -102.7308698224995,20.33993131740475,0 -102.7341007448364,20.33744763129274,0 -102.7355754601013,20.33628833057684,0 -102.7361158417587,20.33556744341487,0 -102.7375911452006,20.33336280945036,0 -102.7383654181164,20.33218091342671,0 -102.740088118893,20.32977610084878,0 -102.7415537802155,20.32732912868347,0 -102.742518394285,20.32591252770396,0 -102.7427417244309,20.32540162793252,0 -102.7426623394102,20.3249903152967,0 -102.7425659849921,20.324505002981,0 -102.7426960341618,20.32419400409495,0 -102.7429860070677,20.32388522560703,0 -102.743606209704,20.323562540395,0 -102.7445241803205,20.32302193714567,0 -102.7454833658625,20.32228607039644,0 -102.7456454717614,20.32204585539803,0 -102.7457707895833,20.32158695561818,0 -102.7457548956366,20.32131952286279,0 -102.7457344238857,20.32109355389001,0 -102.7457383241288,20.32092912949589,0 -102.7457106677326,20.32077481388756,0 -102.7456497360152,20.32047716502018,0 -102.7456284345111,20.3201979429738,0 -102.7456845806964,20.31969494666454,0 -102.7457302417361,20.31961845301476,0 -102.7460436305185,20.31928974145879,0 -102.7462873054961,20.31902611298207,0 -102.7465744641268,20.31880362187457,0 -102.7468601539846,20.31866338482721,0 -102.7472787911129,20.31840179825843,0 -102.748856225694,20.31761300433516,0 -102.7488227276992,20.31750227789894,0 -102.7486925149685,20.31655692943164,0 -102.7486691788084,20.3165558757465,0 -102.7450101217698,20.31694493362694,0 -102.7450113000065,20.31692704843142,0 -102.7449288086634,20.3165173489883,0 -102.744755948786,20.31618989619676,0 -102.7446529198938,20.31588255482082,0 -102.7447357041,20.31518364028609,0 -102.7446619347775,20.31458130246208,0 -102.7446024464588,20.31451136478083,0 -102.7442708933427,20.31435154210891,0 -102.7442079367791,20.31429680299232,0 -102.7435362896191,20.31441224094699,0 -102.7428771734233,20.31199959401562,0 -102.7400678956146,20.31263430136627,0 -102.7339498137793,20.31072806888382,0 -102.733999149932,20.31053357962332,0 -102.7339666846634,20.31030302816146,0 -102.7338075204243,20.31017204860283,0 -102.733527631798,20.31000067845828,0 -102.7333723151051,20.30961448270045,0 -102.7332047113002,20.30922257174446,0 -102.7333972115953,20.30841526602647,0 -102.7336813766459,20.30769775955795,0 -102.7339478282083,20.30770676783925,0 -102.7341112357554,20.30776087351095,0 -102.7342862808571,20.30782025577994,0 -102.7344877152542,20.30768522316453,0 -102.7347179108953,20.30733132135971,0 -102.7345285410218,20.30693005887666,0 -102.7343322738442,20.30684306614797,0 -102.7339659594521,20.30660485646789,0 -102.7335301321666,20.30636447918198,0 -102.7334269223556,20.30611699904201,0 -102.7334326549632,20.30565928614594,0 -102.7330952276136,20.30448501701481,0 -102.7330233105539,20.30377698702047,0 -102.7330096405473,20.30375952822215,0 -102.7325978249446,20.30323358604672,0 -102.7324986632064,20.30310694182263,0 -102.7325712351263,20.30234876622345,0 -102.733005594596,20.30210152832722,0 -102.7333159291631,20.30182558938138,0 -102.73363819875,20.30138724682372,0 -102.7336193204233,20.30136894030576,0 -102.7336776638103,20.30130647928672,0 -102.7337963215357,20.30104611804372,0 -102.7341976485114,20.30043720960094,0 -102.7342447326489,20.29983274367943,0 -102.7342449953912,20.29981468512021,0 -102.7344250143872,20.29928418841334,0 -102.7343966970894,20.29925672878036,0 -102.734437211957,20.29910372671311,0 -102.73444062716,20.29886896538928,0 -102.7344992319003,20.29878844539473,0 -102.7345712159631,20.29844620008748,0 -102.7346401788873,20.29831162823462,0 -102.7347714231688,20.29784371623839,0 -102.734781929073,20.29712137341033,0 -102.7347044634867,20.29652432547021,0 -102.7347788091804,20.2960195526925,0 -102.7348581287323,20.29583092876483,0 -102.7348606235611,20.29565937229933,0 -102.7350706577261,20.29503895278501,0 -102.7350743474641,20.2941268706096,0 -102.7351830322417,20.29389347149861,0 -102.735231683097,20.29318065283302,0 -102.7353230643252,20.29282059572152,0 -102.7353671198375,20.29242380214896,0 -102.7354636186747,20.29171160234549,0 -102.7355160620521,20.29139619611718,0 -102.7356573905782,20.29089228894148,0 -102.73566012119,20.29088334746441,0 -102.735731527872,20.29090248137816,0 -102.7364574263804,20.29114125838922,0 -102.7374551246558,20.29149824021675,0 -102.7387878934808,20.29180219933126,0 -102.7400931945493,20.29190507969751,0 -102.7413718540236,20.29174954517093,0 -102.7428336518335,20.2915390160434,0 -102.7486942167664,20.29187256382229,0 -102.7543400646643,20.29234653038716,0 -102.7547309415251,20.29263828244436,0 -102.7555201343837,20.29270575299367,0 -102.756277291337,20.29288750418063,0 -102.7570352759023,20.29301191539347,0 -102.7587939215565,20.29329251000547,0 -102.7594628160544,20.29327240122284,0 -102.7603723223047,20.29342741191151,0 -102.761188613828,20.29372459446753,0 -102.7622471712461,20.29408221911325,0 -102.7634580750568,20.29441311104138,0 -102.7645178779164,20.29468471713797,0 -102.7653345970494,20.29495321307731,0 -102.7693221562437,20.29876036968918,0 -102.7701035938898,20.29937248263659,0 -102.7703766661499,20.29940463664101,0 -102.7709211698207,20.29958361819456,0 -102.7719448952412,20.30025615830817,0 -102.7729965571649,20.30110109238562,0 -102.7735944670468,20.30179687719641,0 -102.7741903330977,20.30263600411899,0 -102.77489997233,20.30402138192955,0 -102.777391579116,20.30832548244138,0 -102.7790208325297,20.31129960212505,0 -102.7815952426281,20.31620686451181,0 -102.7820818992122,20.31618436445393,0 -102.7828757289296,20.31593636611827,0 -102.7835734846548,20.31603123476659,0 -102.7841098981491,20.3167835594846,0 -102.786024510795,20.31680781454536,0 -102.7865058677173,20.31715799846487,0 -102.7869917124563,20.3171928228475,0 -102.7875375238413,20.31728575299698,0 -102.7881732858969,20.31746584181535,0 -102.7888690166239,20.31770403511804,0 -102.7894752060823,20.31782639716671,0 -102.7898702887131,20.3178313920197,0 -102.790267814616,20.31766437195779,0 -102.7906369843379,20.31735362179814,0 -102.7911277160389,20.31704440656432,0 -102.791616818165,20.31684986587125,0 -102.7918566897343,20.31708228893726,0 -102.7892011922766,20.31981817972907,0 -102.7871086825732,20.32232458834278,0 -102.7863563629489,20.32321351872458,0 -102.786014841809,20.32371576976136,0 -102.785866481828,20.32417267649317,0 -102.7857090779486,20.32455300397969,0 -102.7855824746408,20.32490504739272,0 -102.7850144325474,20.32779393409945,0 -102.7847330555589,20.32905202806611,0 -102.7846879575177,20.33008372439341,0 -102.7847608370356,20.33065812990021,0 -102.7850115848446,20.33155020548032,0 -102.7853158505048,20.33224224001901,0 -102.7853894131965,20.33276886461465,0 -102.7853348655882,20.33375264994874,0 -102.7853134329818,20.33454569529104,0 -102.7851224894564,20.33514543027879,0 -102.784882793269,20.33561073432799,0 -102.7846335082535,20.33603768460246,0 -102.7839208101629,20.33698444821209,0 -102.7833237753056,20.33763637635283,0 -102.7828303697812,20.33812713204948,0 -102.7819310134702,20.33866052129714,0 -102.7811461015762,20.33898508286663,0 -102.7804112984139,20.33934850983096,0 -102.7798175176672,20.33977107382432,0 -102.7792531719583,20.34026091615922,0 -102.7786869111613,20.34088454298289,0 -102.7784340477157,20.34155994415423,0 -102.7784331129762,20.34233412962839,0 -102.7787733829975,20.34334204608257,0 -102.7790362901615,20.34409091313251,0 -102.7790056431714,20.34481693062318,0 -102.7793933260048,20.34676213259788,0 -102.779543419883,20.34760514406682,0 -102.7798186533835,20.34820123912117,0 -102.7802770891882,20.34874231503938,0 -102.7807190873816,20.34901555717355,0 -102.7812439197786,20.34916559659777,0 -102.7819010200104,20.34927908315622,0 -102.7823641066265,20.34949524146848,0 -102.782733683228,20.34987269634011,0 -102.7830834057634,20.35022122538573,0 -102.7833201735811,20.35067345801896,0 -102.7835427179803,20.35141224941327,0 -102.7842993318285,20.35307538805258,0 -102.785510569847,20.35483987263071,0 -102.7864900059983,20.3565153894877,0 -102.7867198430057,20.35745498959523,0 -102.7871557694409,20.36028968935206,0 -102.7873670350009,20.36182164957642,0 -102.7876231951045,20.3630483235648,0 -102.7881553300736,20.36482330139144,0 -102.7886345719371,20.36604324350808,0 -102.7891114483238,20.36671834790377,0 -102.789838265255,20.36763556809037,0 -102.7913535426429,20.36941343265595,0 -102.7922213058678,20.37039933484831,0 -102.7932220429597,20.37130089343755,0 -102.7944130276757,20.37236733924106,0 -102.7958973707804,20.37347571771352,0 -102.7999946771456,20.37544861135132,0 -102.8013006049422,20.37627751375129,0 -102.8030158266885,20.37755123473197,0 -102.8048030999658,20.37874938390416,0 -102.8063787942832,20.37985883288796,0 -102.8080940985484,20.38113251084398,0 -102.8091505358932,20.38169059795951,0 -102.8101849561122,20.38237265848805,0 -102.8116774735975,20.38291709080419,0 -102.8133340456347,20.38332975566455,0 -102.8148171238743,20.3838262542875,0 -102.8159637426085,20.38446189859684,0 -102.8210500263303,20.38679081718802,0 -102.8252447637975,20.38837249981856,0 -102.8267726316423,20.38857315725117,0 -102.8279797934699,20.38851173565552,0 -102.8306707108458,20.38818202943715,0 -102.8334082897416,20.38813960638751,0 -102.8347534720345,20.38835704157107,0 -102.8367125097013,20.38889750578146,0 -102.8394773284681,20.38981114991379,0 -102.8404935452349,20.39035900331873,0 -102.8416459430078,20.39131954205682,0 -102.8429348570981,20.39200578553531,0 -102.8450200661027,20.3926727504544,0 -102.8463169689855,20.39290384002019,0 -102.8477080848581,20.39292102274878,0 -102.850041672652,20.39241216769866,0 -102.851095481082,20.39208106436957,0 -102.8523154761401,20.39127886519378,0 -102.8534715111768,20.39015327614099,0 -102.8549017814882,20.38898804019311,0 -102.8559357278093,20.38844159685228,0 -102.8577663407362,20.38801247003249,0 -102.8590925729217,20.38777068568449,0 -102.8617189599219,20.38752333591055,0 -102.8634977199433,20.38754514268596,0 -102.8686592626451,20.38704915290341,0 -102.8719709560095,20.38672399696917,0 -102.874755777362,20.38656440663111,0 -102.8757574142528,20.38670565141774,0 -102.8767806805524,20.38693318047338,0 -102.8784410126968,20.3872759886739,0 -102.879513720904,20.38722451889736,0 -102.8800657621427,20.38695805314962,0 -102.8800755488006,20.38695332940127,0 -102.8814040404251,20.39390673237262,0 -102.8797698077152,20.39581492275369,0 -102.8787913403944,20.3969564439588,0 -102.8766961662002,20.39921753128854,0 -102.8723695787438,20.40389196301066,0 -102.8705421467743,20.40496466579475,0 -102.859249983395,20.41081081314265,0 -102.8565641727083,20.41156108405829,0 -102.8555482263104,20.41184512525442,0 -102.8494969254084,20.41359134667158,0 -102.8492588298195,20.41365959305566,0 -102.848336192796,20.41392515941396,0 -102.848048941923,20.41400869384477,0 -102.8445903640325,20.41520696666822,0 -102.8415312321971,20.41626677010848,0 -102.840103483224,20.41676106933971,0 -102.8395028483861,20.41672660378983,0 -102.8393596111779,20.41666356233362,0 -102.8369944289582,20.41617316831295,0 -102.8307619242793,20.41488021239177,0 -102.8306088109941,20.4148485649691,0 -102.8301975229891,20.41476293223364,0 -102.8289794075101,20.41451000335484,0 -102.828831704479,20.41447899628144,0 -102.8260817944526,20.41390900928455,0 -102.8248808235381,20.41367973454766,0 -102.8246082855831,20.41363024560632,0 -102.8224500950748,20.413232542716,0 -102.8206786163859,20.41290769588492,0 -102.8202112590138,20.41275359414684,0 -102.8187478348338,20.41254381368644,0 -102.8171143142333,20.41124661350647,0 -102.8126765701078,20.41070808867957,0 -102.8117438555767,20.4107674843366,0 -102.8091138034386,20.41010129837147,0 -102.8080244264755,20.40968219790743,0 -102.8052041071331,20.41913714090382,0 -102.8052135300662,20.41982363151658,0 -102.8051034290608,20.42015639828002,0 -102.8045877040316,20.42071886203503,0 -102.8042092769213,20.42105727553091,0 -102.8034258616834,20.4215802341441,0 -102.8030211307485,20.42174672005683,0 -102.8026819093959,20.42202240610433,0 -102.8024864924086,20.42229087541099,0 -102.8024854663794,20.42236311200633,0 -102.8020779103728,20.42272824601314,0 -102.8014108338779,20.42315331992136,0 -102.8008320145906,20.42343500694549,0 -102.8003701902517,20.42357367125494,0 -102.8000531992226,20.42363288397825,0 -102.7999001991901,20.42361288807636,0 -102.7993814161553,20.42371470508142,0 -102.7991981390711,20.42380269995027,0 -102.7989483257325,20.42385372866312,0 -102.7987162560577,20.42400432429065,0 -102.7985609430563,20.42414685907313,0 -102.7983390937167,20.42425242751173,0 -102.7979740794268,20.42432006006623,0 -102.7976273222042,20.4244511409901,0 -102.7975604006368,20.42444126315369,0 -102.797184135613,20.42462615681112,0 -102.7969147775671,20.4247040286124,0 -102.796751812768,20.42471099727121,0 -102.7965761826002,20.42493455339486,0 -102.796535424387,20.42510562958921,0 -102.7963695006878,20.42532027713856,0 -102.7953906054693,20.42611165545337,0 -102.7952943039004,20.42614656037915,0 -102.7947990974158,20.42660990754453,0 -102.7947121166575,20.42666299250148,0 -102.7945556386825,20.42688678877774,0 -102.7943240755214,20.4270012596064,0 -102.794055613674,20.42701591981962,0 -102.7936783082452,20.42727304101051,0 -102.7933964026638,20.42755846415977,0 -102.7930523850728,20.42816822043449,0 -102.7928091784396,20.4284270396459,0 -102.7927691880079,20.42854393737436,0 -102.7926028686411,20.42878566895618,0 -102.7922245253068,20.42911502236769,0 -102.7920662363701,20.42946522883939,0 -102.7919371989834,20.4297796816603,0 -102.7918149034531,20.43029290488926,0 -102.7918130984137,20.43041931790432,0 -102.7917547223404,20.43048179517894,0 -102.7914971594599,20.43107458187018,0 -102.7914437194213,20.43146224248367,0 -102.7913544133802,20.43167785632429,0 -102.7913529947357,20.43177718078957,0 -102.7911660924682,20.43211799169811,0 -102.7909998953196,20.43235069157725,0 -102.7907177169844,20.43265416790959,0 -102.7906444708158,20.43308673221364,0 -102.7906481149989,20.43350221041223,0 -102.7904786895856,20.43396064678639,0 -102.7904546279334,20.43430352410211,0 -102.7903355486437,20.43459100807222,0 -102.7900435272492,20.43491242007023,0 -102.7897019304418,20.43535060634089,0 -102.7894090024802,20.43573522336154,0 -102.7892404742312,20.43613045150122,0 -102.7892003733639,20.43692468049641,0 -102.7892803890917,20.43735919090401,0 -102.7892763861073,20.43763910472767,0 -102.789329859271,20.43791974884688,0 -102.7893773687416,20.43794744585516,0 -102.7894944115812,20.43847273785612,0 -102.7894699586403,20.43884270303995,0 -102.7895120451369,20.43924963811212,0 -102.7895939991553,20.43954870629154,0 -102.7896409926646,20.43961252118616,0 -102.7898041270147,20.44026483433403,0 -102.7897088966803,20.44156410542787,0 -102.7886950102599,20.44612999338129,0 -102.7881524473882,20.44587925457513,0 -102.7878170232391,20.44588401980134,0 -102.7875952645058,20.44598054128828,0 -102.7873584950202,20.4464561778051,0 -102.7871924041601,20.44667984228823,0 -102.7869526480706,20.44669485394604,0 -102.786648031558,20.44655551119108,0 -102.7864869844382,20.44642702627374,0 -102.7861445669527,20.4462510772346,0 -102.7860204168523,20.44622240363935,0 -102.7856543117254,20.44636224048522,0 -102.7853819340576,20.44664776746222,0 -102.7850924665716,20.44678857882504,0 -102.784813225763,20.44688436446561,0 -102.7846981375619,20.44689192968083,0 -102.7844006429321,20.44692426450047,0 -102.7838943331651,20.44681847192698,0 -102.7836090090084,20.44667033877312,0 -102.78346686527,20.44656015430579,0 -102.7833737868466,20.44636931531326,0 -102.7829610831842,20.4457499414779,0 -102.7826272150761,20.44564634354808,0 -102.7825409968383,20.44564524436669,0 -102.782222012207,20.4458398610515,0 -102.7821528798707,20.44598347678575,0 -102.782169058651,20.44619139789084,0 -102.7819246372717,20.44653146190662,0 -102.7817907785674,20.44651169259233,0 -102.7816499327663,20.44631121254619,0 -102.781578090657,20.44597614642181,0 -102.7815024892409,20.44590293352228,0 -102.7813215100116,20.44582837640779,0 -102.7811967132067,20.44584484657976,0 -102.7810506820957,20.44600554293182,0 -102.7809977258137,20.44635707915698,0 -102.7809389500186,20.44644663999027,0 -102.7807356982963,20.44658854378376,0 -102.7804379447159,20.44663893062761,0 -102.7798502215973,20.44619793806484,0 -102.7797144173997,20.44631360836089,0 -102.779358795933,20.44639034783118,0 -102.7792919966752,20.4463714328112,0 -102.7790951031628,20.44607089362377,0 -102.7790404795849,20.44587151271346,0 -102.7789835199649,20.44583466111246,0 -102.7787916645328,20.44585027320644,0 -102.7783850291597,20.44614310469736,0 -102.7782221724394,20.44614102441165,0 -102.7779085060434,20.44596542718288,0 -102.7775684080574,20.44629523089919,0 -102.7769902418828,20.44652264951925,0 -102.7765363521243,20.44676971699496,0 -102.775993030997,20.44657311818252,0 -102.7758630343796,20.44695075987099,0 -102.7754784107858,20.44704518232095,0 -102.775128377256,20.44673364935817,0 -102.7748682042271,20.44617039621991,0 -102.7745325215969,20.4461931944672,0 -102.7744470394714,20.4468062115254,0 -102.7740819656023,20.44687378788447,0 -102.7735226111005,20.44646023145421,0 -102.7733572822932,20.44662970463802,0 -102.7733632186893,20.44688264966863,0 -102.7730839723854,20.44697841577333,0 -102.7726352826824,20.4468642976876,0 -102.7723059238361,20.4471129482582,0 -102.7717225962128,20.44703322735914,0 -102.7711160006001,20.44657390325234,0 -102.7706939689384,20.44660461837276,0 -102.7704210443865,20.44692623670963,0 -102.7700173894858,20.44701137180164,0 -102.7695125274769,20.44680621538941,0 -102.769289715455,20.44697494709484,0 -102.7693402851847,20.44745423963009,0 -102.7690610359882,20.44754999893745,0 -102.7688201749607,20.44697795513798,0 -102.7692974731612,20.44577392117987,0 -102.7673755467038,20.44483712913776,0 -102.7671579545399,20.44464468480032,0 -102.7665325620511,20.44349874853983,0 -102.765808742572,20.44385972429335,0 -102.7655196578027,20.44397341395253,0 -102.7648668939306,20.44339607422165,0 -102.7648416813612,20.44315191324621,0 -102.7654299498329,20.44288854120524,0 -102.7654631272825,20.44258191328716,0 -102.7650358365131,20.4423145248304,0 -102.7645798088939,20.44204676615023,0 -102.7646909291518,20.44165083004894,0 -102.7650635654889,20.4410595717476,0 -102.7648571276609,20.4407588963854,0 -102.7641382820818,20.44077675193612,0 -102.7640999645544,20.44077625945703,0 -102.7638316112571,20.44078184118579,0 -102.7633954023285,20.4404691796552,0 -102.7640453179597,20.43991761219771,0 -102.763944255929,20.43961829029779,0 -102.7631638488339,20.43925604915803,0 -102.761038264585,20.43849719704658,0 -102.7609240986888,20.43844154187814,0 -102.7608099328807,20.43838588664206,0 -102.7607053463684,20.43833035463216,0 -102.7606010215521,20.43825676396425,0 -102.7604964352107,20.43820123184304,0 -102.7604019514185,20.43810970577591,0 -102.7603167852781,20.43803636157911,0 -102.7602320117015,20.43793592945078,0 -102.760147107401,20.43784452658881,0 -102.7600622031997,20.43775312369385,0 -102.759987009099,20.43765281479771,0 -102.7599116842492,20.43756153517441,0 -102.759826911185,20.43746110289227,0 -102.7597517173701,20.43736079391872,0 -102.7596762619392,20.43727854351304,0 -102.7595914891762,20.4371781111418,0 -102.7595162956433,20.43707780209048,0 -102.7594408404709,20.4369955516047,0 -102.7593655162485,20.43690427179831,0 -102.7592904538617,20.43679493337814,0 -102.7592151298204,20.43670365352203,0 -102.759139674984,20.43662140293424,0 -102.7590740610833,20.43652121710733,0 -102.758998868185,20.43642090788631,0 -102.7589332544527,20.43632072202057,0 -102.7588676408013,20.43622053613694,0 -102.7588310261995,20.43610266180546,0 -102.7587945425426,20.43597575817797,0 -102.7587769552229,20.43586715990263,0 -102.7587596297163,20.43574050304243,0 -102.7587517523566,20.43562299885927,0 -102.7587438749994,20.43550549467542,0 -102.758735997645,20.43538799049086,0 -102.7587279893967,20.43527951559797,0 -102.7587296910465,20.43516213479637,0 -102.7587315235792,20.43503572470042,0 -102.7587330943105,20.43492737318802,0 -102.7587445057939,20.43480108646976,0 -102.7587847850433,20.43466614059094,0 -102.7588439603623,20.43454950003123,0 -102.7589317415704,20.43444225884457,0 -102.7590382879364,20.43436235221235,0 -102.7591544131417,20.43428256885974,0 -102.7592702765159,20.43422084401139,0 -102.759386139803,20.43415911907678,0 -102.759492554909,20.43408824142195,0 -102.7595991007576,20.43400833439327,0 -102.7596960675698,20.43392830396489,0 -102.7597930342828,20.43384827347238,0 -102.7598711046954,20.43374993768836,0 -102.7599491750057,20.433651601859,0 -102.7599891912056,20.43353471416269,0 -102.7599813128413,20.43341720993114,0 -102.7599542766967,20.43329945908812,0 -102.7598985039328,20.43318133832073,0 -102.7598234426774,20.43307200022093,0 -102.7597483815235,20.43296266209736,0 -102.7595594207802,20.432779609686,0 -102.7594359423508,20.43270577202618,0 -102.7593120715125,20.43265902218523,0 -102.7592070967447,20.4326305775461,0 -102.7581577305901,20.43247884207268,0 -102.7568073934688,20.43228357691505,0 -102.7562542975383,20.431445597273,0 -102.7552576929637,20.43014131706,0 -102.7544264471585,20.42998609822293,0 -102.753776939914,20.43051054319666,0 -102.7536534663788,20.43043670183982,0 -102.7535394404695,20.43037201331313,0 -102.7534154424813,20.43033428886563,0 -102.7532232132824,20.43037696210621,0 -102.7530879312371,20.43045649418522,0 -102.7529525178587,20.4305450554067,0 -102.7528076568612,20.43062446356354,0 -102.7526830028266,20.43063188489134,0 -102.7525590049099,20.4305941598342,0 -102.7524449794249,20.43052947062287,0 -102.7522744007234,20.43040083428091,0 -102.7521517155746,20.43027281639148,0 -102.752018139457,20.43023496726855,0 -102.751886463456,20.43022636406255,0 -102.751885498774,20.43022965239198,0 -102.7512824378407,20.43077679768508,0 -102.7507971351972,20.43174055542201,0 -102.749428291915,20.43298982120864,0 -102.7481616517399,20.43532690979369,0 -102.747158242076,20.43829756463279,0 -102.746502764265,20.43807404499985,0 -102.7465169485538,20.43715795621359,0 -102.7452889468446,20.43604842933767,0 -102.7443603556677,20.4351460272499,0 -102.7429243241681,20.43469050304447,0 -102.7401792563192,20.43588291454861,0 -102.7374493271169,20.4398595421627,0 -102.7356227556992,20.44189995715705,0 -102.7340309997643,20.44289622331289,0 -102.7329667241983,20.44358156946116,0 -102.7314519042471,20.44279980987039,0 -102.7311409329563,20.44222992392037,0 -102.7308979501916,20.4417776155691,0 -102.730656194352,20.44155203857203,0 -102.7302965351628,20.44087355084076,0 -102.7288389003615,20.43998265930653,0 -102.7277576285671,20.43929855253873,0 -102.727275356695,20.43907412142904,0 -102.7267930863094,20.43884968817794,0 -102.7241448798532,20.43840884075465,0 -102.7229374075267,20.43750763380677,0 -102.7214239236687,20.4369525092805,0 -102.7208309088755,20.43580349656713,0 -102.7196359025219,20.43542823555505,0 -102.7158360827975,20.43551871752861,0 -102.7132382344591,20.43548557070855,0 -102.7110274113309,20.4358677675422,0 -102.7107790349369,20.43620449855034,0 -102.7097316977006,20.43646333380984,0 -102.7088686752143,20.43701152606762,0 -102.7077856457228,20.43780561362743,0 -102.7066349253715,20.4385365216001,0 -102.705250242155,20.44052916690947,0 -102.7039561582488,20.44145118007756,0 -102.7007858316781,20.44422295088936,0 -102.6994900400176,20.44482750241449,0 -102.6986844166348,20.4453300288223,0 -102.6968726891443,20.4466443518781,0 -102.6946810207209,20.44705343445254,0 -102.6929231489727,20.44762376225257,0 -102.6917223465788,20.44800107875413,0 -102.6904938895279,20.44879267374778,0 -102.6911151094251,20.4501900832425,0 -102.6913581036928,20.45059968847212,0 -102.6915552254625,20.45087322480125,0 -102.6918617708984,20.45151846995359,0 -102.6920688789229,20.45176504646607,0 -102.6928189229688,20.45222653272637,0 -102.692969229971,20.45242720139151,0 -102.6930087669408,20.45298762628604,0 -102.6931114461639,20.45316960164266,0 -102.6931200818556,20.45323293077144,0 -102.6932795652683,20.45346081296558,0 -102.6934035619567,20.45349858059095,0 -102.6936311826784,20.45365512121952,0 -102.6938266942427,20.45403700201884,0 -102.6938497710262,20.45441659553547,0 -102.6938024186647,20.45502102114076,0 -102.6937423780774,20.45519180708464,0 -102.6936428105092,20.45608452068917,0 -102.693666695679,20.45640994096686,0 -102.6937137860244,20.45646474957936,0 -102.6937564265968,20.45681751061408,0 -102.6938573558965,20.45711686098729,0 -102.6939244217997,20.45775892683248,0 -102.6939719171191,20.4577866488302,0 -102.6941638001114,20.45905348522895,0 -102.6942249277678,20.4594516446873,0 -102.6943056203291,20.45982297170372,0 -102.6943902303548,20.46057363797237,0 -102.6945526958126,20.46124406104242,0 -102.6946379812347,20.46194958295932,0 -102.6949750670447,20.46376018381512,0 -102.6952404946262,20.46459452379896,0 -102.6954291462083,20.46543687608744,0 -102.6955315748228,20.46627808490269,0 -102.6951695380845,20.46613782387314,0 -102.6948258539552,20.46605198946865,0 -102.6937342185535,20.46600138314025,0 -102.6928988279318,20.46611672354057,0 -102.6927167988633,20.46611430683801,0 -102.692112148927,20.46617852292958,0 -102.6920167492038,20.4661501640456,0 -102.6916804874289,20.46620891223871,0 -102.6914791624161,20.46621526855124,0 -102.6910273944137,20.46630860351771,0 -102.6905544385212,20.46653711507978,0 -102.6905444527286,20.46656407425044,0 -102.690245565908,20.46668653061123,0 -102.6896697902415,20.46674209107119,0 -102.6885975865687,20.46667364924759,0 -102.6873748027517,20.46642258479254,0 -102.687011421878,20.4663725955198,0 -102.6864275556866,20.46632870085747,0 -102.6859475858336,20.46638552442528,0 -102.6857546230915,20.46647326083348,0 -102.6853122975071,20.46657573690534,0 -102.6848324622336,20.46662352848107,0 -102.6833754208349,20.46665829422515,0 -102.6823766143019,20.46680752673061,0 -102.6813965604278,20.46698409527557,0 -102.6811064337094,20.46716083557142,0 -102.6806983556648,20.46753467379377,0 -102.6800734528771,20.46767082129629,0 -102.6789602158208,20.46778238325085,0 -102.6783736331128,20.46791903625713,0 -102.6783068413303,20.46790008273542,0 -102.6781138731718,20.46798781003691,0 -102.6770567576899,20.46819041494958,0 -102.676556261003,20.46833724289915,0 -102.6762373853586,20.46851358993712,0 -102.6759460268563,20.46877157935107,0 -102.6759352225808,20.46885270982467,0 -102.6754655649771,20.46949662712087,0 -102.6753169599374,20.46981973878248,0 -102.6751222195546,20.47002483581689,0 -102.6751118227802,20.47007887999355,0 -102.6748065251401,20.4706256580256,0 -102.6753664597383,20.47225864921881,0 -102.6754476534171,20.47259386586645,0 -102.6754720428235,20.47288316972464,0 -102.6754549803294,20.47337962153587,0 -102.6755168768363,20.47372361052006,0 -102.675582174289,20.47384188131535,0 -102.6756351704387,20.47414059845671,0 -102.675636453477,20.47469147900146,0 -102.6756036297534,20.47496195621716,0 -102.6756218393265,20.47502541369253,0 -102.6755392061985,20.47542165204483,0 -102.6753344690795,20.4756537065112,0 -102.675304365641,20.4757436091014,0 -102.675110025119,20.47592161910398,0 -102.6750800575587,20.47600249291315,0 -102.674894208734,20.47625286060942,0 -102.6740117204736,20.47694542808257,0 -102.6736059134358,20.47716575699742,0 -102.6729501809499,20.47743691999832,0 -102.6728629980486,20.47749896570875,0 -102.6692656307932,20.47925581668761,0 
					</coordinates>
				</LinearRing>
			</outerBoundaryIs>
		</Polygon>
	</Placemark>
</Document>
</kml>
