<?xml version="1.0" encoding="UTF-8"?>
<kml xmlns="http://www.opengis.net/kml/2.2" xmlns:gx="http://www.google.com/kml/ext/2.2" xmlns:kml="http://www.opengis.net/kml/2.2" xmlns:atom="http://www.w3.org/2005/Atom">
<Document>
	<name>Elemento_92.kml</name>
	<StyleMap id="styleMapID00">
		<Pair>
			<key>normal</key>
			<styleUrl>#normal00</styleUrl>
		</Pair>
		<Pair>
			<key>highlight</key>
			<styleUrl>#highlight00</styleUrl>
		</Pair>
	</StyleMap>
	<Style id="highlight00">
		<LineStyle>
			<color>7f00ff00</color>
		</LineStyle>
		<PolyStyle>
			<color>7f7fffaa</color>
		</PolyStyle>
	</Style>
	<Style id="normal00">
		<LineStyle>
			<color>7f00ff00</color>
		</LineStyle>
		<PolyStyle>
			<color>7f7fffaa</color>
		</PolyStyle>
	</Style>
	<Placemark>
		<name>Elemento_92</name>
		<styleUrl>#styleMapID00</styleUrl>
		<ExtendedData>
			<SchemaData schemaUrl="#schemaID">
				<SimpleData name="MUNICIPIO">TENAMAXTLÁN</SimpleData>
				<SimpleData name="REGION">SIERRA DE AMULA</SimpleData>
				<SimpleData name="CLAVE">90</SimpleData>
				<SimpleData name="AREA_KMS2">307.203113129</SimpleData>
				<SimpleData name="GID">91</SimpleData>
			</SchemaData>
		</ExtendedData>
		<Polygon>
			<outerBoundaryIs>
				<LinearRing>
					<coordinates>
						-104.135264767894,20.31353294535308,0 -104.1345088278931,20.31340270891743,0 -104.1338265955996,20.31379689773156,0 -104.1329164553928,20.31383756678967,0 -104.132102848225,20.31374317643087,0 -104.131634444764,20.31357821161962,0 -104.1311577756166,20.31317827962574,0 -104.1294735099564,20.31291691061071,0 -104.1281355147891,20.31239522010744,0 -104.127809620769,20.31243877350602,0 -104.1274829670646,20.3126178560115,0 -104.1271568191713,20.31270658473853,0 -104.1267358061868,20.31263219914714,0 -104.1244814683783,20.31155473532963,0 -104.1227519931539,20.31082322707437,0 -104.1222651163083,20.31054068280402,0 -104.1219981677726,20.310322489944,0 -104.1205602784804,20.30884247239848,0 -104.1204360269679,20.3087966700487,0 -104.1201203800737,20.30872279857181,0 -104.1198909813778,20.30864032482731,0 -104.1197098786244,20.30848580931765,0 -104.1195098257704,20.30829505604378,0 -104.1193680041438,20.30796906228067,0 -104.1193791142996,20.30769805148386,0 -104.1196012835904,20.30736485382435,0 -104.1197461694231,20.30714872934286,0 -104.1196129550983,20.30699445466309,0 -104.1192313952268,20.30672146778752,0 -104.1190215634287,20.30656680701858,0 -104.1187349604084,20.30643886606542,0 -104.1185157056375,20.306257050586,0 -104.1183543241251,20.30600324197888,0 -104.1181225153595,20.304655775882,0 -104.1174644549425,20.30416453840583,0 -104.1167171305614,20.30421498141966,0 -104.1161431685572,20.30409462134281,0 -104.1159144455771,20.30389468382986,0 -104.1158385979132,20.30375876733107,0 -104.1158010587939,20.30362304435407,0 -104.115811456501,20.30347852801038,0 -104.1159671000894,20.30305464319262,0 -104.1159869720921,20.30292824579151,0 -104.1159493817345,20.30280155813302,0 -104.115873380687,20.30269274754133,0 -104.1155491462116,20.30244714929765,0 -104.1146233068555,20.3018912992813,0 -104.1143650362163,20.30183577924721,0 -104.114096726349,20.30186152800185,0 -104.1134620225739,20.30231912729622,0 -104.1126847402488,20.30258625478512,0 -104.1124835711016,20.30259427030168,0 -104.1119956575617,20.30250143987636,0 -104.1114507979228,20.30231796352577,0 -104.1112700718288,20.30210019275239,0 -104.1111842397064,20.30203650804814,0 -104.1109247326583,20.30219782982008,0 -104.1107514181993,20.30235958914841,0 -104.1106458647199,20.30239519498978,0 -104.1105028286034,20.30228604153157,0 -104.1103028467167,20.30208624302918,0 -104.1101219160805,20.30190461226812,0 -104.1100652800391,20.30175975556324,0 -104.110017550023,20.30173240622432,0 -104.109902936104,20.30167761009972,0 -104.1098454742902,20.30167731785911,0 -104.109816846644,20.30165910116599,0 -104.109759591372,20.30162266776634,0 -104.1096162983867,20.30155869003649,0 -104.1094156987421,20.3014673139678,0 -104.1090444195024,20.30107689594667,0 -104.1091324719136,20.30075206453195,0 -104.1088394122901,20.30008194232861,0 -104.1089651517762,20.29986572938028,0 -104.1085924815794,20.29971926313167,0 -104.1076741395401,20.29953387297342,0 -104.1076264106369,20.29950652301673,0 -104.1074544417963,20.29943336185158,0 -104.107235417397,20.29921539183678,0 -104.1068455133195,20.29873451898071,0 -104.1066264389391,20.29852558353374,0 -104.1063020208614,20.29831611002205,0 -104.10612058091,20.29822482815982,0 -104.1059105664951,20.29810629354176,0 -104.1058156287395,20.29796123993355,0 -104.1057973049242,20.29781657766241,0 -104.1058947830714,20.29751890269427,0 -104.1060392630193,20.2973750719128,0 -104.1062511422745,20.29716833632531,0 -104.1063771936515,20.2968979135363,0 -104.1063888947428,20.29652751596278,0 -104.1064662850406,20.2963923778313,0 -104.1066783177504,20.29615853579018,0 -104.1067556558138,20.29603243278996,0 -104.1064618374941,20.29549783618155,0 -104.1063193805522,20.29528929147748,0 -104.1061285229572,20.29517085499612,0 -104.1059277780816,20.29510658108922,0 -104.1057561259614,20.29497920675269,0 -104.1056613975441,20.29479801196783,0 -104.1055118031815,20.29416475958247,0 -104.1054170755091,20.29398356467803,0 -104.105121864687,20.29369291856692,0 -104.1047881415805,20.29343821724601,0 -104.1044929329664,20.29314757013935,0 -104.1042461787264,20.29275777948456,0 -104.1041240686294,20.29245199729786,0 -104.1040762444955,20.29233223943513,0 -104.104334451392,20.29163896924598,0 -104.1045431260216,20.29107868701402,0 -104.1048334765987,20.29054707437541,0 -104.1049523347793,20.28986098033742,0 -104.1049638823858,20.28951768852304,0 -104.1049073589885,20.28935475972875,0 -104.104555478977,20.28892828992487,0 -104.1043145210847,20.28880544999461,0 -104.1041257974692,20.28870923904838,0 -104.1036506262133,20.28807431913334,0 -104.1026879629693,20.28728329652801,0 -104.1025456742842,20.28704764319282,0 -104.1024994064456,20.28676730413688,0 -104.1041496413996,20.28553518788774,0 -104.1041114278887,20.28454377703806,0 -104.1036306070165,20.28436517155127,0 -104.1033588100398,20.28425949015899,0 -104.101541029965,20.28357284205885,0 -104.1006819146034,20.28309858454922,0 -104.1004986481068,20.28283318749621,0 -104.1001121111911,20.28227342327117,0 -104.099855704196,20.2819016483767,0 -104.0992289250002,20.28099487168983,0 -104.099338953481,20.28018223823445,0 -104.0994837578251,20.27956571200852,0 -104.0995254808793,20.27938806893964,0 -104.0996420046358,20.27910856585348,0 -104.0996810891789,20.2789732334901,0 -104.0996722959536,20.2788376550599,0 -104.0996349326152,20.2786748231449,0 -104.0994737657495,20.27839389272308,0 -104.0993595378422,20.27827584337035,0 -104.0992163227226,20.27820282264856,0 -104.0988720223707,20.27812876759356,0 -104.0987191799323,20.27806473250344,0 -104.0985762786183,20.27793749959839,0 -104.0985289233956,20.27784690044877,0 -104.0985680607467,20.27770253305944,0 -104.0991276124208,20.27698256730666,0 -104.0994377295144,20.27634263754974,0 -104.0995149795034,20.27457206633651,0 -104.0999489945514,20.27403216309049,0 -104.0999207379567,20.27395069794893,0 -104.0999312514597,20.27378811196904,0 -104.1000373607777,20.27365312367308,0 -104.1002677913769,20.27354588038525,0 -104.1003928422636,20.2734471313402,0 -104.1004328622431,20.27314916344362,0 -104.100130937673,20.27237055531764,0 -104.1001815750309,20.27189193082991,0 -104.1002990813191,20.27144075629792,0 -104.1003112091276,20.27099807621331,0 -104.0999601630869,20.27043606897342,0 -104.0995815936461,20.2696661018251,0 -104.1000674287028,20.26843976119866,0 -104.1004884190972,20.26683359238553,0 -104.1006742971156,20.26614784341034,0 -104.1005649095957,20.26494787508758,0 -104.1005482166382,20.26476475509284,0 -104.100849819904,20.26393503039931,0 -104.1009671611995,20.2635109606161,0 -104.1009134604011,20.26286012433742,0 -104.1009044062238,20.26276972222152,0 -104.100822138386,20.26209163265579,0 -104.1011257112405,20.26091856547013,0 -104.1011188418462,20.26044868059305,0 -104.101331975293,20.26001606583529,0 -104.1016301850438,20.25977363374073,0 -104.1015786772085,20.25960274837046,0 -104.1015456274408,20.25949309769448,0 -104.1017875852575,20.25904255881762,0 -104.10185917908,20.25824779509816,0 -104.1019431093728,20.25810784833896,0 -104.1020428570596,20.25794152636558,0 -104.1024579261399,20.25735633919732,0 -104.1025651120192,20.2570316070893,0 -104.1024613536783,20.25676000869509,0 -104.1017000961051,20.25594290848824,0 -104.1008803095402,20.25531525214647,0 -104.1006043778086,20.25501566311017,0 -104.1004245000044,20.25466235299775,0 -104.1010484728559,20.25271386819254,0 -104.1011363542037,20.25241614456287,0 -104.1011859395769,20.25211822460104,0 -104.1007581308663,20.2515919679564,0 -104.1003390662289,20.25121032444091,0 -104.0999013245648,20.25074726392051,0 -104.0997118270196,20.25040293933089,0 -104.0995609378638,20.25000459930045,0 -104.0997540274124,20.24972548756948,0 -104.0999369698925,20.24954571489553,0 -104.0999382192606,20.24932886740245,0 -104.0998248963894,20.24905721845083,0 -104.099509745082,20.24892006705033,0 -104.0991084310971,20.2487824725659,0 -104.0991104630976,20.24843009543677,0 -104.099210983238,20.24821202388697,0 -104.0993722337014,20.24786219823019,0 -104.0996435759352,20.24729434966507,0 -104.0994636564177,20.24695007399335,0 -104.0994355606163,20.2468415027798,0 -104.0992928945385,20.24667812981986,0 -104.0988627094389,20.24656749342644,0 -104.0985175921903,20.24664704036401,0 -104.0979143013473,20.24667104563495,0 -104.0975705924881,20.24650663733002,0 -104.0973718967774,20.24609901402228,0 -104.0969426547824,20.24582573747163,0 -104.0967139875066,20.24563481302807,0 -104.0966571733674,20.24552609354414,0 -104.0965431273842,20.24538093698977,0 -104.0964297608335,20.24511832136499,0 -104.096326333865,20.24479250783412,0 -104.0964630265243,20.24433239746542,0 -104.0965136623235,20.24385377260868,0 -104.0964950379557,20.24376332090708,0 -104.0962763132957,20.24350919812325,0 -104.0959620126751,20.24322747586733,0 -104.095781478383,20.24299162045073,0 -104.095600421737,20.24284611794499,0 -104.0958408433683,20.2427520327123,0 -104.0959650442575,20.24270342794814,0 -104.0960993842103,20.24264990666605,0 -104.0962144729529,20.24261435726498,0 -104.0962724875527,20.24251526474403,0 -104.0964170274364,20.24235336879282,0 -104.0966499200801,20.24181243326806,0 -104.0968640300704,20.24120815159379,0 -104.0968570674219,20.24075633665445,0 -104.0969442180987,20.24058510916726,0 -104.0970023880425,20.24045891039371,0 -104.0972332402907,20.24027035108017,0 -104.0975504069054,20.24005512865208,0 -104.0977811014411,20.23989367451099,0 -104.0977812679031,20.23989336363816,0 -104.0979262630261,20.23962335331046,0 -104.0981571129342,20.23943479267415,0 -104.0985310899261,20.23932828737613,0 -104.0988200024163,20.23903159706065,0 -104.0991952277263,20.23870824258004,0 -104.0997704970428,20.238557589848,0 -104.1005376425015,20.23833563410976,0 -104.1023649584248,20.2368556395758,0 -104.1088163547814,20.21443139677237,0 -104.1130936972162,20.21037102438104,0 -104.1132861995426,20.21018224762187,0 -104.1133651755718,20.20975797095276,0 -104.1135308557481,20.20923473963759,0 -104.1135621275751,20.20878311514945,0 -104.1132816414113,20.20760706574188,0 -104.1131888974365,20.20708253014314,0 -104.112712898557,20.20662834464754,0 -104.1125425638236,20.20628412981992,0 -104.112641859294,20.2056521360386,0 -104.1123797585554,20.20461171275033,0 -104.1123449570809,20.20399711288317,0 -104.1125201534744,20.20348296581914,0 -104.1125122722081,20.2031847495881,0 -104.1126382302615,20.20291431618901,0 -104.1126403803972,20.20253482973991,0 -104.1126604436487,20.20237228934088,0 -104.1127090659271,20.20223700008724,0 -104.1127381880652,20.20216486191857,0 -104.112739058231,20.20201126024533,0 -104.1130283845462,20.20162418775536,0 -104.1131936979838,20.20116420376189,0 -104.1130530009599,20.20065749717741,0 -104.1126441189111,20.20018557921991,0 -104.1126536554039,20.20016278975619,0 -104.1127799519175,20.19986098148225,0 -104.1129825746984,20.19957286332533,0 -104.1135104983604,20.19930445730812,0 -104.1139061683508,20.19872817059709,0 -104.1143019886334,20.19812477664753,0 -104.1143622219008,20.19762811896092,0 -104.1148552236472,20.19676317903367,0 -104.1148849052101,20.19659165095245,0 -104.1148677039447,20.19624820922931,0 -104.1149164243069,20.19609484832122,0 -104.1152624934834,20.19582552067801,0 -104.115406969206,20.19566360587891,0 -104.1156375789287,20.19550212431377,0 -104.1156105505645,20.19520381144845,0 -104.1153819308468,20.19501291216084,0 -104.1152107853242,20.19481326622318,0 -104.1151557099259,20.19439734850375,0 -104.1152732077917,20.19392808538677,0 -104.1155630732471,20.19344161808865,0 -104.1161405052443,20.19287527525151,0 -104.1162857415771,20.19257782837748,0 -104.1162884931344,20.19208991616979,0 -104.1161765545925,20.19157432040126,0 -104.116524139534,20.19103392729516,0 -104.116671665046,20.1903298863199,0 -104.116242230497,20.19011087220767,0 -104.1161284588047,20.1899205512401,0 -104.1163886864595,20.1895965751135,0 -104.1162749149325,20.18940625423704,0 -104.1161622136922,20.18902618959406,0 -104.1163925069866,20.18891891901366,0 -104.1167373353255,20.18886643754457,0 -104.1172272412811,20.1885436136475,0 -104.1178321382773,20.18819425823997,0 -104.1180357020137,20.18773445998697,0 -104.1184799876864,20.18701383376092,0 -104.1187489627343,20.1868344684144,0 -104.1188456781429,20.18665423952815,0 -104.119037991116,20.18649256088975,0 -104.1192797778256,20.18604198808659,0 -104.1195036413541,20.18537446881688,0 -104.1193456233482,20.18454239495025,0 -104.1192037513189,20.18424350697471,0 -104.1185751417991,20.18370725237291,0 -104.1183768188573,20.18323640291571,0 -104.1183497863983,20.18293808994502,0 -104.1184951610184,20.18261353413392,0 -104.1187547617418,20.18239797873362,0 -104.1189005411973,20.18200113909248,0 -104.1187874318411,20.18169335920417,0 -104.1184581838679,20.1806797128164,0 -104.1183741913337,20.18029979313746,0 -104.1182713649405,20.17986556490374,0 -104.1184934958617,20.17950525090515,0 -104.1185631741804,20.1790267087946,0 -104.118727175552,20.17879260271173,0 -104.1189773014949,20.17855892783571,0 -104.1194670685315,20.17825416681742,0 -104.1193916669602,20.17816162444838,0 -104.1192674804962,20.17800920406893,0 -104.1191297585182,20.17777218608156,0 -104.1186987991163,20.17703050170713,0 -104.1183567403021,20.17659507474972,0 -104.1174112071577,20.17626504881352,0 -104.1171529884276,20.17623664608559,0 -104.116226598784,20.17590670998751,0 -104.1158636791131,20.17577838686445,0 -104.114595658374,20.17494072693296,0 -104.1142039837206,20.17482129145029,0 -104.1139663356749,20.17453998864442,0 -104.1139685303535,20.17415146541091,0 -104.1137308326566,20.17387919774368,0 -104.113367460218,20.17383218850297,0 -104.1130320801836,20.17391181915852,0 -104.1127831288881,20.17393767095492,0 -104.1126867742812,20.17392634675669,0 -104.1119798315511,20.17384326145136,0 -104.1116842114045,20.1736610555489,0 -104.1113699655731,20.17338839832399,0 -104.1111145178275,20.17287207435002,0 -104.1106295681266,20.17232748307588,0 -104.1102576051059,20.17210874627694,0 -104.1099811795768,20.17191759903449,0 -104.1098379005744,20.17187169584346,0 -104.1092841799698,20.17164300174789,0 -104.1088225579756,20.17204726962585,0 -104.1082461049861,20.17245095423448,0 -104.1078148810261,20.17255719618461,0 -104.1077185223324,20.17267417126787,0 -104.1075833217819,20.17289034166117,0 -104.1068642520998,20.17313065601182,0 -104.106376125621,20.17314624878978,0 -104.1056312306941,20.17288042949113,0 -104.1048279444332,20.17278598768538,0 -104.1046082170022,20.17272161996065,0 -104.1044367476993,20.17258521228888,0 -104.1042942437749,20.17240377359235,0 -104.1041995853118,20.17222257838808,0 -104.10411594087,20.1717884405977,0 -104.1038978667136,20.17143493917519,0 -104.1035449504149,20.17123435686446,0 -104.1034693281216,20.17107132960792,0 -104.1032019655389,20.17097057483942,0 -104.1026395165897,20.17059724512456,0 -104.1024587408643,20.17041560984765,0 -104.1020298464383,20.17011524475861,0 -104.1014847300606,20.17005824812737,0 -104.1009090434398,20.17032637740652,0 -104.100389835824,20.17075743535593,0 -104.0999825499683,20.17169506100175,0 -104.0994344207258,20.17216211051273,0 -104.0992607777637,20.17240518435855,0 -104.0992601551932,20.17251360903393,0 -104.0987417144363,20.17280913074411,0 -104.098397228704,20.17280736580785,0 -104.0982540046316,20.17275241789808,0 -104.0982259207938,20.17264384612516,0 -104.097988513272,20.17232638133036,0 -104.0977116873896,20.1722074984563,0 -104.0972810820039,20.1722052897229,0 -104.0967070976603,20.17217523695567,0 -104.0961315518007,20.17241624378367,0 -104.0953373234244,20.17241216190468,0 -104.0941259196922,20.17173729128941,0 -104.0940131792661,20.17137528497313,0 -104.0935963218044,20.17065028641536,0 -104.0934584790081,20.16966469084217,0 -104.0936919639971,20.16971104107704,0 -104.0938790384736,20.16974817780035,0 -104.0943105755566,20.16958775775896,0 -104.0949411808943,20.16975364400281,0 -104.0953432290088,20.16972860447642,0 -104.095575069029,20.16935029888634,0 -104.0958629149356,20.16921624331013,0 -104.0962553407463,20.16920018785987,0 -104.0965534310056,20.16894872023973,0 -104.0969570370514,20.16865261530919,0 -104.0971311470114,20.16832822511601,0 -104.0971135438536,20.16821613515962,0 -104.0970942237653,20.16809310863394,0 -104.0973054121729,20.16797672854325,0 -104.0971637525164,20.16765071822284,0 -104.0971938623316,20.16740690997498,0 -104.0972809164179,20.16724471472922,0 -104.0975701600458,20.16686670056991,0 -104.0978876407539,20.16657015154373,0 -104.0980324171819,20.16635403778911,0 -104.098613542859,20.16513720095692,0 -104.09863800493,20.16500671304759,0 -104.0987912253684,20.16418936635127,0 -104.0989395776119,20.16334980921359,0 -104.0989609798072,20.16323917860689,0 -104.0991072205097,20.16248324355964,0 -104.0987746085692,20.16208397164474,0 -104.0986902570846,20.16177632714856,0 -104.0986915541717,20.16155044216688,0 -104.0988884197029,20.16059366948913,0 -104.0988928284763,20.15982566038238,0 -104.0991639025716,20.15927587201097,0 -104.0997907076027,20.15842972540051,0 -104.0998977188827,20.15812305976224,0 -104.1000141942665,20.15783451375834,0 -104.1002345203905,20.15779046157769,0 -104.1003016526892,20.15776369764755,0 -104.1003979553356,20.15765576169985,0 -104.1003986801694,20.15752926599212,0 -104.100412907755,20.1567161281443,0 -104.1005891702985,20.15601224611697,0 -104.1006010156482,20.15561473695304,0 -104.101064469991,20.15488521403464,0 -104.1014586695389,20.15455290610706,0 -104.1016034293828,20.15433678851361,0 -104.1019369035886,20.15291085237175,0 -104.1020076542799,20.15258387763094,0 -104.1022415646358,20.15150283964832,0 -104.1026657468573,20.15094478930247,0 -104.1028579788183,20.15079216210003,0 -104.1032035001218,20.15060417261436,0 -104.1032978823042,20.15058410970944,0 -104.1030809746303,20.15008207848796,0 -104.1033385555651,20.14930641425004,0 -104.10349881646,20.14894862541651,0 -104.1038967233462,20.14872900505933,0 -104.1037619069136,20.14832041374878,0 -104.1037628316214,20.14815834893566,0 -104.1043409553033,20.14744747042457,0 -104.1044565428012,20.14725583202889,0 -104.1046886818303,20.14687095415857,0 -104.1047274152175,20.14678982982261,0 -104.1049791554854,20.14626703909155,0 -104.1051946314698,20.14539167165192,0 -104.1052457619028,20.14481364697614,0 -104.1054975484735,20.14428181976869,0 -104.1058052971666,20.14400327569178,0 -104.1058645521996,20.1436782914064,0 -104.1063374095605,20.14296687080083,0 -104.1067420593043,20.14247195967842,0 -104.1069544896319,20.14212968010456,0 -104.107098921858,20.14196776961254,0 -104.107057144737,20.1409013451404,0 -104.1071749791339,20.14036883592418,0 -104.1071855729344,20.14018817556189,0 -104.1070819779234,20.13989850807234,0 -104.106950092908,20.13953641150846,0 -104.1069427337744,20.1391478389816,0 -104.1073292124679,20.13848115542758,0 -104.1075448681867,20.13756964166462,0 -104.107674521959,20.13663962054716,0 -104.1075537439029,20.13600650937788,0 -104.1077170981062,20.13588083672735,0 -104.107937596543,20.13580063175468,0 -104.108140652962,20.13542215982541,0 -104.1082285995358,20.13509731938089,0 -104.1083160844229,20.13485379792284,0 -104.1081736595348,20.13466332727603,0 -104.1078311540193,20.13432727232105,0 -104.1077083252109,20.13405557914353,0 -104.1076040659723,20.13388337272797,0 -104.1076050405443,20.13371169917904,0 -104.1078656486713,20.13330641170678,0 -104.1080984782202,20.13273834039492,0 -104.1081661143292,20.13266987665063,0 -104.1084448754129,20.13238770034462,0 -104.1085904751118,20.13201797261279,0 -104.1105667006122,20.12955387359821,0 -104.1103110125523,20.12721062839398,0 -104.1102462480201,20.12715395112588,0 -104.1101967793225,20.12711065886747,0 -104.110120964783,20.12698377605713,0 -104.1100835177434,20.12683901547252,0 -104.1101040308128,20.12659515454965,0 -104.1101628599234,20.12634245131144,0 -104.1102693666376,20.12611709585182,0 -104.1107418929091,20.12545083660336,0 -104.1108593946353,20.1249725358937,0 -104.110939721422,20.12484760286827,0 -104.1114963765497,20.12398181753411,0 -104.1117824167969,20.12245622083128,0 -104.1118795564238,20.12219467403255,0 -104.1121326074574,20.12142791146475,0 -104.1123664730805,20.12067008753828,0 -104.1123880010379,20.12024551650717,0 -104.1125999285647,20.11998454696367,0 -104.1134599188833,20.11858116954793,0 -104.1138599199547,20.11769013576698,0 -104.114090750104,20.11717593588426,0 -104.114255011458,20.11662957741509,0 -104.1141186700855,20.11650452648528,0 -104.1141204622416,20.11538915743951,0 -104.1121877210971,20.1133304602075,0 -104.1121841302484,20.1132339567083,0 -104.1120390182788,20.10933362919966,0 -104.1124450003774,20.10766857663592,0 -104.1134795298908,20.10568647314678,0 -104.1134911864665,20.10397250600322,0 -104.1129664261013,20.10171287907646,0 -104.1134072432456,20.10043726184603,0 -104.1138493022392,20.09862663314859,0 -104.1154518767553,20.09676356729603,0 -104.1157000813516,20.09360455908689,0 -104.1159328919373,20.09314793088151,0 -104.1161515412502,20.09178473613663,0 -104.1163843476718,20.09132810798873,0 -104.116595909391,20.0895116316265,0 -104.1170650500508,20.08882501801163,0 -104.1175046525045,20.08747687911157,0 -104.1179675872292,20.08700797210589,0 -104.1193613834195,20.08653513665925,0 -104.1217594411587,20.08645629625702,0 -104.122310477693,20.08671155292558,0 -104.1238643805213,20.08727014421164,0 -104.1249834591332,20.08825191932372,0 -104.1256851213938,20.08893123438199,0 -104.1264643898486,20.08843973432802,0 -104.1273240317651,20.08756626483221,0 -104.128342878877,20.08705326283481,0 -104.1304447766275,20.08706004589417,0 -104.1309460454068,20.08659056130685,0 -104.131352358214,20.08618588093267,0 -104.1330839221441,20.08583512272575,0 -104.1321362670588,20.08416186445767,0 -104.1320692153252,20.08234022098148,0 -104.132292356722,20.08226784827711,0 -104.1322584838838,20.08217549040855,0 -104.1314999011772,20.0811798603281,0 -104.1307995348161,20.08047444201607,0 -104.1313840998187,20.07968753595717,0 -104.1316182419734,20.07890024432041,0 -104.1316184928692,20.0785271949232,0 -104.1321449486818,20.07728427264423,0 -104.1323788895041,20.07678712844986,0 -104.1329051956842,20.07575145342112,0 -104.1332562899103,20.07471558554438,0 -104.1335489520976,20.07372110335577,0 -104.1337246725121,20.07293374443226,0 -104.1341341559082,20.07189793720896,0 -104.1343682979536,20.07106919041589,0 -104.1343684873639,20.07077904022691,0 -104.1342521480799,20.07007426429669,0 -104.1338449267528,20.0676697234947,0 -104.1333197744166,20.0670059549369,0 -104.1325614461624,20.06572018087907,0 -104.1318029927316,20.0646416542425,0 -104.1313945426977,20.06414380736429,0 -104.1308694405632,20.06343858215772,0 -104.1306948634565,20.06252649060627,0 -104.1310459957044,20.06140772524321,0 -104.1313383654407,20.06082774483607,0 -104.1313971217244,20.06028895885344,0 -104.1304632627875,20.05958328493145,0 -104.1296458926146,20.05933368485638,0 -104.1283031367602,20.05883479862474,0 -104.1281280934252,20.05862735387363,0 -104.1290631817526,20.05750924038618,0 -104.1295308199979,20.05680510729381,0 -104.1302904539358,20.05605984256735,0 -104.1310501353794,20.05523167438632,0 -104.1315760965385,20.05461049882952,0 -104.1325113007472,20.05324366416972,0 -104.1328620144841,20.05270519323282,0 -104.1337387497103,20.05142118863246,0 -104.1343232406234,20.05055136577159,0 -104.1348492255322,20.04984727821613,0 -104.1356674831436,20.04864609998877,0 -104.1359598635391,20.04798320958863,0 -104.1365444073993,20.04698902716885,0 -104.1371874391694,20.0458291048735,0 -104.1377134724583,20.04500065717978,0 -104.1378889544742,20.04450344001249,0 -104.1388238880267,20.04338526749143,0 -104.1391747368168,20.0425566313399,0 -104.1386495388726,20.04205867927143,0 -104.137657256349,20.04151878379529,0 -104.1370737296542,20.04093786573504,0 -104.1368989022731,20.0403988290551,0 -104.1364322639149,20.03965223121995,0 -104.1359069787199,20.03932007265557,0 -104.1351481440325,20.03898766290654,0 -104.1339221281276,20.03877909961383,0 -104.1333381937566,20.03886137136698,0 -104.132462536146,20.03861172470069,0 -104.1324044207157,20.03819716040241,0 -104.1317932310764,20.03778795015999,0 -104.1316726297748,20.03781983765357,0 -104.130993665519,20.03763106589774,0 -104.1304924971573,20.03749172499016,0 -104.1240552238592,20.03829641963979,0 -104.1232689263513,20.03844828825789,0 -104.1224499143226,20.03848418785038,0 -104.1193582249972,20.03838814660691,0 -104.1176764350173,20.03833588040884,0 -104.1121152075057,20.03831371974139,0 -104.110710629008,20.03725440982863,0 -104.1093769000842,20.03620045263995,0 -104.1093668485714,20.03614819764904,0 -104.1093209945865,20.03607154463604,0 -104.1092830941407,20.03602990298457,0 -104.109215023058,20.03596058362253,0 -104.1091326330438,20.03592660712498,0 -104.1090052113254,20.03587216088275,0 -104.1088996204169,20.03578226681375,0 -104.10876380845,20.03566469465454,0 -104.1086733034222,20.03558866233938,0 -104.1085295946539,20.03544308076891,0 -104.1084002666701,20.03533023601783,0 -104.1082948429733,20.03525438679227,0 -104.1081813575918,20.03513650564896,0 -104.1080600847256,20.03499765916217,0 -104.1079159399964,20.034823985305,0 -104.1076648007858,20.03476394740454,0 -104.1073429092711,20.03474919571556,0 -104.1070201680321,20.03445334603444,0 -104.1066441754695,20.03423346024167,0 -104.1063979039275,20.03401993674831,0 -104.106213324847,20.03385085720588,0 -104.106195641836,20.03363938059642,0 -104.105993979265,20.03342243684081,0 -104.1057945930458,20.03335194769414,0 -104.105593667408,20.03324671596189,0 -104.105212631089,20.03313804971056,0 -104.1049096870125,20.03306085724431,0 -104.1048047392991,20.03296466249878,0 -104.104751533468,20.03286772648824,0 -104.1047498904993,20.0327619604047,0 -104.1048354084137,20.03272007652605,0 -104.1048862650041,20.03266239437608,0 -104.1048756289615,20.03253233340348,0 -104.1047963987576,20.03242761878095,0 -104.104598784058,20.03247105709214,0 -104.1043960827162,20.0323900057623,0 -104.1041238039177,20.03225393896552,0 -104.1038856398997,20.03206803947469,0 -104.1037879102306,20.03194599766401,0 -104.1034890156328,20.03177738372709,0 -104.1033484537321,20.03170531765876,0 -104.1032603382343,20.03164071154895,0 -104.1032143142735,20.03148506161217,0 -104.1030834188158,20.03147043072872,0 -104.1029246524463,20.03134923389136,0 -104.1027396502931,20.03122019001643,0 -104.1025899117376,20.03111531123552,0 -104.1024756384482,20.03105109076136,0 -104.1023526452011,20.03098699136888,0 -104.1022552476635,20.03088962266002,0 -104.1022530797766,20.03074981066038,0 -104.1022414889596,20.03061570481348,0 -104.1018621334018,20.03031659615325,0 -104.1016334595647,20.03017992108932,0 -104.1015027682936,20.03018173075207,0 -104.1014143997269,20.03010070624433,0 -104.1013446790894,20.02999903830505,0 -104.101381805874,20.0299368255888,0 -104.1015241446352,20.02976781612015,0 -104.101648827128,20.02962930852596,0 -104.1018624281165,20.02938695905547,0 -104.1018946433759,20.02913001325296,0 -104.10188960598,20.02880519305286,0 -104.1018659165063,20.02844643453504,0 -104.1017343939795,20.02814047622956,0 -104.1015626155687,20.02767449175292,0 -104.1011922195581,20.02714953673625,0 -104.1009504289514,20.02674251897925,0 -104.1007624255872,20.02630053724499,0 -104.1009209136668,20.02600764796403,0 -104.1009172037287,20.02576830948799,0 -104.1008234665458,20.02556443651356,0 -104.1005846479759,20.02534543865092,0 -104.1003819700185,20.02512596455879,0 -104.1002153224936,20.02488888191229,0 -104.1002116135826,20.02464954253755,0 -104.1003892295637,20.02442480492527,0 -104.1005479803654,20.02414902290357,0 -104.10065077786,20.0237714057414,0 -104.1007717190434,20.02253348473142,0 -104.1005384403132,20.02224304182559,0 -104.1001303380827,20.02157932911083,0 -104.0996640719442,20.02066684322354,0 -104.099022597977,20.01983703325149,0 -104.0982642620452,20.01913142224849,0 -104.097330757219,20.01846703476694,0 -104.0964552026848,20.01830011620918,0 -104.0956380312769,20.01813326752589,0 -104.095054379159,20.01796671682897,0 -104.0944127193542,20.01738559063383,0 -104.0939462012274,20.01680468890152,0 -104.0937129810996,20.01647278786559,0 -104.0930128404517,20.01601593050405,0 -104.0926628280642,20.01572532627016,0 -104.092196471452,20.0149786204459,0 -104.0918469517062,20.01414916731517,0 -104.0916724559219,20.01344429154301,0 -104.0914395080137,20.01282223966628,0 -104.0910315814171,20.01203415764078,0 -104.0900985664645,20.01091378644636,0 -104.0898075183321,20.01000150693376,0 -104.0895165497237,20.00900632664354,0 -104.0890498825004,20.00863266265456,0 -104.0884081281639,20.00821731531569,0 -104.0875915198706,20.00751158444157,0 -104.0871248999471,20.00709646596073,0 -104.0858405973911,20.00713620131822,0 -104.0852566837686,20.00730121855829,0 -104.0831553184139,20.00713258681136,0 -104.080939627025,20.00447678736323,0 -104.0802980327838,20.00393706293077,0 -104.0797731919199,20.00339749638837,0 -104.0792487204394,20.0024848806804,0 -104.0787243366536,20.00148936421223,0 -104.0781409712369,20.00111551238301,0 -104.0774406151813,20.0009901942375,0 -104.076565678613,20.00032578517787,0 -104.0761574833229,19.99991071955355,0 -104.0759240329464,19.99986894518436,0 -104.0748148658246,19.99995029600684,0 -104.0739391894847,20.00003196841303,0 -104.0734138341057,20.00003123075389,0 -104.0723049629137,19.99982241865856,0 -104.0712547250633,19.99936498413196,0 -104.0707297152329,19.9990326411216,0 -104.0701467228225,19.99832716558888,0 -104.0696806956761,19.99741460695014,0 -104.0694476840471,19.99695832768203,0 -104.0691561723116,19.99662631344299,0 -104.0681058337415,19.99629321088684,0 -104.0674434530064,19.99663699846103,0 -104.0672297813407,19.99674789676013,0 -104.0665876505617,19.9967884207252,0 -104.0663547370723,19.99624923775086,0 -104.0662971139249,19.9955445103079,0 -104.0662394475177,19.9948812314579,0 -104.0661817378189,19.99425940300051,0 -104.0660069784825,19.99392755262271,0 -104.0659489174542,19.99363732046054,0 -104.0657161862917,19.99293233855336,0 -104.065775263097,19.99226922928873,0 -104.06600966733,19.99139912439835,0 -104.066419001302,19.99069507090668,0 -104.0672951091589,19.99015748741333,0 -104.0682871231997,19.99040761059266,0 -104.0691042926086,19.99040877990002,0 -104.0699800031034,19.99024423011195,0 -104.0709728347731,19.98970679384048,0 -104.071557121143,19.98912732507454,0 -104.0726086904353,19.98821691478651,0 -104.0732515017072,19.98747172247379,0 -104.0737777385684,19.98656056546824,0 -104.0743040116211,19.98560795597114,0 -104.0746551353194,19.98469655098784,0 -104.0750640796681,19.98432407322207,0 -104.0754731893111,19.98378579473836,0 -104.0764658796713,19.98333122440782,0 -104.0775751747127,19.98300115920157,0 -104.0785674892432,19.98291962604378,0 -104.0792679695006,19.98283768636956,0 -104.0802017544137,19.98292186312244,0 -104.0813106404897,19.98300627263675,0 -104.0822447855319,19.98271738896051,0 -104.0828281746439,19.9830083271137,0 -104.0837035183306,19.9831753063907,0 -104.0844043892315,19.98267884751685,0 -104.0858053823067,19.98247347091625,0 -104.0868564419459,19.98197746872752,0 -104.0873825068648,19.98114916664195,0 -104.0877335833164,19.98019628211789,0 -104.0870333097226,19.98007100581699,0 -104.0859822625537,19.98056700877544,0 -104.0851649853124,19.98073171849624,0 -104.0847565416341,19.98060682242635,0 -104.0841147525219,19.98035726321744,0 -104.0833565093933,19.97981739536416,0 -104.0834153475725,19.97932007531249,0 -104.0825416879483,19.97741220038023,0 -104.0818415112055,19.97720400457381,0 -104.0811414964554,19.97683000604924,0 -104.0806750613034,19.97633197289555,0 -104.0801504266758,19.97566806000226,0 -104.0796257555031,19.97504559548744,0 -104.0791590482235,19.9748377079767,0 -104.0785018777669,19.97469092501142,0 -104.0782254333149,19.97462917827627,0 -104.077525233733,19.97446241586121,0 -104.077000209008,19.97421299186335,0 -104.0763001359691,19.97392187545937,0 -104.0755416212421,19.97371357402232,0 -104.0747826502086,19.97396121742934,0 -104.0741404042289,19.9742090212474,0 -104.0734984911276,19.97412522401704,0 -104.0733237382732,19.97406290209998,0 -104.0735728137433,19.97299488527314,0 -104.0758181697996,19.97121432048532,0 -104.0797646000092,19.97132663630134,0 -104.0835598522963,19.97143456597624,0 -104.0845268532914,19.97071408539875,0 -104.0850124408742,19.97048981273615,0 -104.0871607607852,19.96864694991344,0 -104.0881036136169,19.96885156960475,0 -104.0891893427978,19.96961634282802,0 -104.092169028684,19.96945740458225,0 -104.0931180512724,19.97006083828681,0 -104.0942977220373,19.96945522581166,0 -104.0945886866728,19.96966880568082,0 -104.0948418649566,19.96991917335217,0 -104.0962694645291,19.96984504942287,0 -104.0974301733702,19.96987433624452,0 -104.0976823038596,19.96975589270016,0 -104.0983250235552,19.96945396239294,0 -104.0994281312242,19.96861002883262,0 -104.0998307970642,19.9682363339587,0 -104.1014730658529,19.96895826598342,0 -104.101756082467,19.96961028106522,0 -104.1021846524075,19.96987449024654,0 -104.1026086735624,19.9709428672156,0 -104.1026802201741,19.97181067185276,0 -104.1019766842841,19.972846235958,0 -104.1014784263979,19.97475931483168,0 -104.1017248108983,19.97513103278648,0 -104.1038816966142,19.97567505777429,0 -104.1046249570814,19.9760673531269,0 -104.1049629948971,19.97713529077739,0 -104.1052471101668,19.97759755313832,0 -104.1053709462312,19.97767046468626,0 -104.105883010991,19.97838687982447,0 -104.105955545424,19.97908300676918,0 -104.1065118898112,19.98042311782175,0 -104.1069000778013,19.98107565509024,0 -104.1077185082688,19.98170324928155,0 -104.1082913981031,19.9818055253496,0 -104.1091205636548,19.98222534244645,0 -104.1095459816512,19.9830587786028,0 -104.110080140117,19.98325121322649,0 -104.1103156812288,19.9838577980614,0 -104.1108993550333,19.98374325932961,0 -104.1117288418003,19.98410885111293,0 -104.1122971376189,19.98503335548424,0 -104.1125255102838,19.98521521600229,0 -104.1127835177921,19.98522554304554,0 -104.1133021113665,19.98478537959957,0 -104.1139414657845,19.98496929304766,0 -104.1146218290923,19.98465643608799,0 -104.1148814003932,19.98438665582402,0 -104.1150282468109,19.98376391354417,0 -104.1153625115514,19.98381076082011,0 -104.1158391328295,19.98403903483327,0 -104.1161073012237,19.98394097714789,0 -104.1167131591026,19.98327534125328,0 -104.1170773546855,19.98309643742747,0 -104.1175643390771,19.98318018437344,0 -104.1176287662778,19.98322506812439,0 -104.118126075431,19.98357152166378,0 -104.1179082639413,19.98492582002598,0 -104.1182794559207,19.98520777843044,0 -104.1196950028326,19.98503409423211,0 -104.1199538137982,19.98489984073345,0 -104.1206507242808,19.9850478723719,0 -104.1211877102681,19.98473427869248,0 -104.1215078726888,19.98387745613067,0 -104.1218843758188,19.98320162953252,0 -104.1215742831178,19.98224228973464,0 -104.1220242388239,19.9821089796949,0 -104.123281636475,19.98287421526458,0 -104.123500012,19.98313733557982,0 -104.1236114556078,19.98372521921203,0 -104.1243927364777,19.9841718374515,0 -104.1247565269488,19.98406520277821,0 -104.1248926294005,19.98365022350484,0 -104.1249580822046,19.98324596445949,0 -104.1250212685874,19.98285569977066,0 -104.125346276759,19.98284826722526,0 -104.1260234710966,19.98310461112881,0 -104.126089087202,19.98308686906348,0 -104.126253202543,19.98304249196341,0 -104.1249217040132,19.98743779007631,0 -104.1231856718377,20.00193944730377,0 -104.1242382603216,20.00289985836825,0 -104.1246654159104,20.0043287332742,0 -104.1239882870529,20.00635642571504,0 -104.1228472642493,20.00717326678429,0 -104.1223167999819,20.00693197966258,0 -104.1220645561652,20.00759938363374,0 -104.1218052577389,20.00781495906676,0 -104.1216890443702,20.00808545875551,0 -104.1216000035375,20.00862716891721,0 -104.1218568972061,20.00884530327561,0 -104.1220851140733,20.00906329515578,0 -104.122184200766,20.01015712538088,0 -104.1223042613613,20.01091673259069,0 -104.1223817923757,20.011120608844,0 -104.122483282317,20.01138748431196,0 -104.1225544459748,20.01234563795631,0 -104.1226641986653,20.01324073165576,0 -104.1226894200946,20.01386433078886,0 -104.1226054470205,20.01409834921091,0 -104.1226020320877,20.01410786602083,0 -104.1224559337427,20.0145950784144,0 -104.1222524772303,20.01508200635028,0 -104.1225098329723,20.01521881956495,0 -104.1239682408218,20.01598505204855,0 -104.1241816497147,20.01610413674004,0 -104.1246544318911,20.01636795132079,0 -104.1249684000088,20.01664057879863,0 -104.1250907112583,20.01689364596811,0 -104.1253842783099,20.01750103997358,0 -104.125359135455,20.01758096085077,0 -104.1253161614411,20.01771756412591,0 -104.1255164156949,20.01780891178885,0 -104.1257457488212,20.01782811592998,0 -104.1258127167223,20.01781941069508,0 -104.1259087631596,20.01773856210065,0 -104.1265424476815,20.01724471666767,0 -104.1276672078033,20.01611174225354,0 -104.1290230223259,20.01468171288565,0 -104.1291387810745,20.01449252891499,0 -104.1293720876002,20.01378887818642,0 -104.1298321350315,20.01357427825149,0 -104.130149087522,20.01330475909566,0 -104.1303223494848,20.01308874904178,0 -104.1305816457722,20.01287316115492,0 -104.1317021808724,20.01249915146481,0 -104.1326488095348,20.01245861041584,0 -104.1330118193294,20.01250556715417,0 -104.1333352060356,20.01280533386847,0 -104.1334488799985,20.01299564352755,0 -104.1333907810712,20.01313089742684,0 -104.1334184202067,20.01332078610582,0 -104.1333316427282,20.01345589964899,0 -104.133386327122,20.01394410462706,0 -104.1335573589474,20.01413469488336,0 -104.1337569213293,20.01435253216999,0 -104.134043261866,20.01443525541709,0 -104.1345312425477,20.01435631791066,0 -104.1352210097913,20.01408861099472,0 -104.1356235457475,20.01390082260086,0 -104.136167993176,20.01398480196948,0 -104.1368261202101,20.014259087333,0 -104.1371693760863,20.01442340591922,0 -104.1375985700901,20.01460621413775,0 -104.1380384568732,20.01458124803085,0 -104.1384120664051,20.01443849187934,0 -104.1390525444076,20.01399142069078,0 -104.1390933993203,20.01396290323078,0 -104.1392846878326,20.01394576121982,0 -104.1394755340349,20.01400993984764,0 -104.1396470648334,20.01411016799607,0 -104.1398948264758,20.0142559456682,0 -104.1399985570251,20.01451849019722,0 -104.1402262185031,20.01484488760063,0 -104.1403585305142,20.01512564246759,0 -104.1405292286386,20.01537947587712,0 -104.140777091228,20.01550718109498,0 -104.1410353968708,20.01547229061585,0 -104.1415147990572,20.01521257443386,0 -104.1417734962083,20.01510539762231,0 -104.1422135801048,20.015044278552,0 -104.1424997799482,20.01515409529384,0 -104.1427861270735,20.01523680461764,0 -104.1429857039202,20.01545463199622,0 -104.1431855749205,20.01561824522409,0 -104.1435762965687,20.01584603257595,0 -104.1441024676012,20.01577628927098,0 -104.1444946079848,20.01574204052876,0 -104.1445900577337,20.01576960930229,0 -104.1448573855932,20.01583415167577,0 -104.145884704503,20.01678787878424,0 -104.1459985916686,20.01694203831476,0 -104.1461227215564,20.01696974460252,0 -104.1463902471647,20.01699814209854,0 -104.1467533700281,20.01702699984799,0 -104.1468970581042,20.01697347674758,0 -104.1475386299997,20.01677777662471,0 -104.1479881793072,20.01673476065548,0 -104.149144514406,20.01681260769697,0 -104.1494323258338,20.01662423638461,0 -104.1496911661371,20.01648994089681,0 -104.1501491575477,20.01665478575105,0 -104.15054673506,20.01738860169475,0 -104.1509173827531,20.01779699508467,0 -104.151144635398,20.01820470038199,0 -104.1512295099974,20.01842196896928,0 -104.1513296262167,20.01936218296408,0 -104.1515348056273,20.0203209721524,0 -104.151790452371,20.02078302816238,0 -104.1522059579881,20.02122227831344,0 -104.1525889862845,20.02162719108559,0 -104.152959068195,20.0221440086374,0 -104.1532137543091,20.0227867762187,0 -104.1532377416673,20.02366337365235,0 -104.1534650082313,20.02407107622677,0 -104.1534913670117,20.02450492564018,0 -104.1534900610341,20.02474888878147,0 -104.1536615642776,20.02485813965224,0 -104.1540347023235,20.02480570779607,0 -104.1547517175981,20.02480913285174,0 -104.1553819672308,20.02494767964001,0 -104.1556681947271,20.02505747595666,0 -104.1560971027459,20.02530349068428,0 -104.156382752942,20.02552171401495,0 -104.1567063558632,20.02579433315945,0 -104.1566765184766,20.02601105279636,0 -104.1565513190408,20.02618213851892,0 -104.1557277348806,20.02644025356524,0 -104.155344598647,20.02657396431112,0 -104.1548283417935,20.02657150008484,0 -104.154627430331,20.02659764838579,0 -104.1544262288829,20.02667801048835,0 -104.1544812714811,20.02711199674889,0 -104.1545941113784,20.02746493592294,0 -104.155136010348,20.0280367852103,0 -104.155450055582,20.02830936104834,0 -104.1556495214509,20.02855428208475,0 -104.1557625096386,20.02888011356992,0 -104.1559027323673,20.02947715195848,0 -104.15604512675,20.02966758497079,0 -104.1563029709703,20.02972302971965,0 -104.1565619723604,20.02956161792453,0 -104.1568487872664,20.02956298451133,0 -104.157595372792,20.02940389328473,0 -104.1581703012959,20.02916265931588,0 -104.1585140456103,20.02924561711636,0 -104.158989906699,20.02965449478861,0 -104.1591993728633,20.0298181363573,0 -104.1592751842742,20.02994499921131,0 -104.1592644704578,20.03016181011241,0 -104.1592824382578,20.0303787572553,0 -104.1593482569747,20.03058689578176,0 -104.1594809518589,20.0308043878169,0 -104.1596519855379,20.03100398999258,0 -104.15999395815,20.03142126524155,0 -104.1600505336744,20.03146371337972,0 -104.1603939203301,20.03172134818688,0 -104.1610518778842,20.03204976123964,0 -104.1615400466219,20.03194364386915,0 -104.1619415940619,20.03194554588373,0 -104.1624280383686,20.03216471069186,0 -104.162855684323,20.03265467342473,0 -104.1633415582027,20.03298226406255,0 -104.1635132207995,20.03306439879189,0 -104.1640280663202,20.03333790907709,0 -104.1645718825046,20.03355733920077,0 -104.1650063118066,20.03364591936903,0 -104.165116273,20.03366833942559,0 -104.16527904462,20.03362392772671,0 -104.1654697828119,20.03371518649966,0 -104.1656978104124,20.03398733919978,0 -104.1660312460218,20.03421480885288,0 -104.1663936509959,20.03438819887723,0 -104.1663067457561,20.03455043594638,0 -104.1656335289851,20.03529724377046,0 -104.1655078064092,20.03556772831279,0 -104.1654859650019,20.03608267236869,0 -104.1655328153398,20.03626361158814,0 -104.165636554325,20.03653517819677,0 -104.1657011434542,20.03697824249095,0 -104.1658153503948,20.03707817601629,0 -104.166111263789,20.03716993004014,0 -104.1663308803282,20.03722518044495,0 -104.1665603439513,20.03722626148331,0 -104.1667896646628,20.03725444929398,0 -104.1671050819954,20.03727400621032,0 -104.1671910832765,20.03728344694985,0 -104.1672481635174,20.03733793110476,0 -104.1673623717272,20.03743786367149,0 -104.1673806367612,20.03760059609718,0 -104.1672442588944,20.03807885772708,0 -104.1670220821845,20.03875782397029,0 -104.1670110310204,20.03879159698142,0 -104.1668377404832,20.03901667881724,0 -104.1668935348846,20.03931512667469,0 -104.1671789394808,20.03958754780634,0 -104.1678661987472,20.03980764365279,0 -104.1681720082119,20.03984121171807,0 -104.1682962124387,20.03985484532575,0 -104.1683190292828,20.04062527873673,0 -104.1683205677048,20.04067722799526,0 -104.1684230300579,20.04119275673336,0 -104.168602125751,20.04168153784491,0 -104.1686780509143,20.04175400669303,0 -104.1687252475196,20.04179905563526,0 -104.1689731612376,20.04203568188768,0 -104.1691715246891,20.04249744523611,0 -104.1692836946682,20.04298591135011,0 -104.1694258320896,20.04323054845649,0 -104.1695055929389,20.04345244648984,0 -104.1696991220503,20.04399084816901,0 -104.1697363703385,20.04418077717723,0 -104.1702560304166,20.04536692023586,0 -104.1705195763726,20.04616331667254,0 -104.1706217166689,20.04674209402512,0 -104.1707449733895,20.04694146203849,0 -104.1709280797577,20.04721260990111,0 -104.1711244966822,20.04750346765767,0 -104.171146634987,20.04797358340781,0 -104.1725571336117,20.04813483523742,0 -104.1745838259685,20.04977497803184,0 -104.1754636465048,20.05048697245362,0 -104.1761979142727,20.0508028692833,0 -104.1776060116219,20.05185261765784,0 -104.1801509546349,20.06958414169894,0 -104.1801122330989,20.06967432108369,0 -104.1803562226044,20.07057000767087,0 -104.1804467826876,20.07154630542465,0 -104.1805492540449,20.07207086314016,0 -104.1806723543538,20.07230636754557,0 -104.1811683243783,20.07256167220996,0 -104.1813299600877,20.07274313935601,0 -104.1814532496471,20.07294250051076,0 -104.1815456460884,20.07356640595834,0 -104.181945473568,20.07392065807777,0 -104.1821426467641,20.07462637151262,0 -104.1822943475458,20.07488007906796,0 -104.1824547221109,20.07530550881314,0 -104.1825963454784,20.07565856442584,0 -104.1826026735484,20.0757159789191,0 -104.1826511497584,20.07615579269402,0 -104.1828750990671,20.07723210121842,0 -104.1828728514939,20.07766581412785,0 -104.182899575309,20.07804544562897,0 -104.1829841017209,20.07834402137843,0 -104.1829237706885,20.07891300407641,0 -104.1828367153049,20.07910235525138,0 -104.1826932618983,20.07910169150522,0 -104.1823374889356,20.0794705167502,0 -104.1820302823781,20.07969499176593,0 -104.1821049630269,20.08004773765015,0 -104.1820053888074,20.08080629192071,0 -104.1820305167576,20.08149313647623,0 -104.1826451770062,20.08284233089017,0 -104.1829631326037,20.08328170346326,0 -104.1837277284054,20.08433826104462,0 -104.1838481482805,20.08448804640247,0 -104.1841009167805,20.08480245195117,0 -104.1848870922328,20.0857803241448,0 -104.1853443413849,20.08613483431216,0 -104.1857536324834,20.0865162298905,0 -104.1858854750199,20.08691441733818,0 -104.1859602138246,20.08725812604292,0 -104.1859611494883,20.0872630757238,0 -104.1862040268882,20.08819898330157,0 -104.186557059834,20.08836325629604,0 -104.1866001232644,20.08928511621342,0 -104.1865977445516,20.08974593597923,0 -104.186970748971,20.08974765410314,0 -104.1869983227558,20.08996464260751,0 -104.1867956553044,20.09031610916164,0 -104.1867942563279,20.09058717959665,0 -104.1866191609808,20.09115563437227,0 -104.1868189387442,20.09136438030062,0 -104.1869892314384,20.09172660044368,0 -104.1867851624227,20.09234913721917,0 -104.1868979297407,20.09273820010852,0 -104.1864342660014,20.09362158129416,0 -104.1862619658877,20.09364789477251,0 -104.1860028853565,20.09380934629697,0 -104.1858010510265,20.09399816915455,0 -104.1857995099624,20.09429634643445,0 -104.1857694154527,20.09456728432373,0 -104.1855665988514,20.0949458560069,0 -104.1851924605918,20.09516099063915,0 -104.1848761294419,20.09529506841837,0 -104.1843008529572,20.09556348743041,0 -104.1840496469409,20.09605026417691,0 -104.183953392495,20.09616728568916,0 -104.1839144787273,20.09629360816245,0 -104.1839880647406,20.0966429585511,0 -104.1841011841892,20.09717998806261,0 -104.1841160543381,20.09800232226525,0 -104.1843153690609,20.09830142772892,0 -104.1843691076392,20.09900647500743,0 -104.1839953793171,20.09914028561814,0 -104.1840037269107,20.09937525715585,0 -104.1838208251854,20.0996003084114,0 -104.1837616099727,20.09995243391473,0 -104.1839607858712,20.10027864676996,0 -104.1840548894677,20.10057726597781,0 -104.1835358101833,20.1010718385437,0 -104.1833430596861,20.10135105888844,0 -104.1832900802803,20.10234476033303,0 -104.1828070955623,20.10325514778607,0 -104.1822755288758,20.10430988250094,0 -104.1819574867155,20.10476923779638,0 -104.1816982423911,20.10495778897525,0 -104.181377143384,20.10600446055904,0 -104.1813496034635,20.10605396770957,0 -104.1811164393544,20.10647311597916,0 -104.181142879114,20.10690696045358,0 -104.1809119028958,20.10717696432083,0 -104.1803659774442,20.10730996688602,0 -104.1803070332668,20.107607876662,0 -104.180505646469,20.10804252101366,0 -104.1807616527632,20.1084774316897,0 -104.1808639563122,20.10903813052254,0 -104.1809010423563,20.10926419940032,0 -104.1807650577723,20.10966114606488,0 -104.1809786680234,20.11089101574287,0 -104.1811753125547,20.11170515655853,0 -104.18143062137,20.11227560105805,0 -104.1814915652238,20.11343247451405,0 -104.1814145700954,20.11352247582288,0 -104.1810012916141,20.11573434337831,0 -104.1810744724368,20.1161879996981,0 -104.1811588316175,20.11671094783263,0 -104.1811082749149,20.11723479293505,0 -104.1809812376144,20.11774924693323,0 -104.1810094649863,20.11783973661604,0 -104.1808502946942,20.11901365881081,0 -104.1812027973611,20.12112968641996,0 -104.1811806079964,20.12171691396526,0 -104.1813273647251,20.1229283999608,0 -104.1813344854554,20.12339829742007,0 -104.1809387874323,20.12406511264313,0 -104.1807646175778,20.12444380915899,0 -104.1806607637719,20.12460548845654,0 -104.1805042086254,20.12484921215499,0 -104.1801584076085,20.12511867986629,0 -104.1796985159631,20.12525207828072,0 -104.1795246245768,20.12557655959826,0 -104.1791512529918,20.12562903655397,0 -104.1790313566237,20.12562847824021,0 -104.1787590315258,20.12562720981838,0 -104.1827526721377,20.12688720940694,0 -104.1932951015893,20.139690881604,0 -104.1943844732274,20.13994887020798,0 -104.1968875933499,20.1406470237131,0 -104.1982157932895,20.14097836442781,0 -104.2016747712853,20.14186151585284,0 -104.2018084856586,20.14190730108364,0 -104.2020186477412,20.14197150424981,0 -104.2042570601536,20.14205391614818,0 -104.205444114041,20.14210699062148,0 -104.2054401236227,20.14218659676399,0 -104.2054132188195,20.14227392280591,0 -104.205420453225,20.14238209047345,0 -104.2054784344143,20.14324902885456,0 -104.2054841865819,20.14333662058078,0 -104.2055004119955,20.14346141591563,0 -104.2055617165754,20.14454219228096,0 -104.2055841940035,20.14493846067627,0 -104.2055794823668,20.14595214147123,0 -104.204885454391,20.14604527542317,0 -104.2046053088774,20.14623789596527,0 -104.2049323503178,20.14636670145407,0 -104.2052178676579,20.14650397445562,0 -104.2051544203218,20.14670130625677,0 -104.2049266865544,20.1470424433407,0 -104.2047084322907,20.14745414785415,0 -104.2047072290214,20.14765118309667,0 -104.2038432969094,20.14813678816083,0 -104.2038048591061,20.14816533126246,0 -104.2030756126264,20.14855367737512,0 -104.2014517830016,20.15836639581614,0 -104.2001075832989,20.16010413301909,0 -104.2008682223015,20.1611613971666,0 -104.2009232994526,20.16174126343685,0 -104.2007291567467,20.16273275123322,0 -104.2006711115066,20.16328744856092,0 -104.2008711665045,20.1633156443086,0 -104.2005656064177,20.16486747795762,0 -104.200411654025,20.16580763770464,0 -104.2002911170202,20.16639572549218,0 -104.2000344972218,20.16688500308258,0 -104.1999849635398,20.16694842454987,0 -104.2000353358915,20.16702551874263,0 -104.1993258362629,20.16943287344422,0 -104.198842779474,20.17098820369956,0 -104.1988292714645,20.17103670347054,0 -104.2008195233679,20.1711084113318,0 -104.2005771806125,20.17209563780141,0 -104.1989739162791,20.17181387638697,0 -104.1989773093686,20.17188888929229,0 -104.198949465555,20.17282469063117,0 -104.1981383890228,20.17295597787676,0 -104.1975185394432,20.17302774355828,0 -104.1971736913259,20.17306766835211,0 -104.1969461421191,20.17343910580234,0 -104.1970365499712,20.17381197896905,0 -104.196899581217,20.17428716793051,0 -104.1984100626828,20.17505528989307,0 -104.1984332095748,20.17527647863777,0 -104.1943067394827,20.17712447001732,0 -104.1960431489703,20.17789207672812,0 -104.1966074533665,20.17817930049042,0 -104.1966110065185,20.17862933330695,0 -104.1973185388908,20.18024427068193,0 -104.1973171446922,20.18051737841788,0 -104.1962429325206,20.18102766027193,0 -104.1978818777233,20.18276497727401,0 -104.1994467185649,20.18398313075067,0 -104.200627113853,20.18403934551965,0 -104.2015251821462,20.18413973814363,0 -104.2018122873344,20.18393717509736,0 -104.2022184543513,20.18407092848263,0 -104.202542437768,20.18411437564249,0 -104.2036360959665,20.18443042691084,0 -104.2041309583007,20.18482468209606,0 -104.204465953953,20.18520392536913,0 -104.2045813637688,20.18442251819543,0 -104.2046337746497,20.18424040583776,0 -104.2051568268993,20.18391083204118,0 -104.2062802871671,20.18378534358902,0 -104.2061325700603,20.1854594262886,0 -104.2061125476399,20.18555153391118,0 -104.2056487406165,20.18576458806705,0 -104.2055166942194,20.18612862171727,0 -104.2060657992861,20.18712257550745,0 -104.2063296321229,20.1877473265565,0 -104.2071615423318,20.18807634145433,0 -104.2071944383769,20.18806489951868,0 -104.2072444639497,20.1879807412432,0 -104.2085793819257,20.18883554742682,0 -104.2086091528672,20.18859653814137,0 -104.2084886967785,20.18769666926871,0 -104.2092962886894,20.18801781561299,0 -104.209598036494,20.18792243636127,0 -104.2097273870143,20.18788771024091,0 -104.2100344115769,20.1880220846879,0 -104.2102585660178,20.188059371391,0 -104.210919062243,20.18800792913953,0 -104.2109562173965,20.1882680605757,0 -104.2111156090646,20.18843805406621,0 -104.2114048833976,20.1886898422963,0 -104.2119562000732,20.18868021321539,0 -104.2119547039087,20.18897644923706,0 -104.2123049138258,20.189443521441,0 -104.212608359278,20.18959129464529,0 -104.2138200494239,20.18955439734689,0 -104.2142687951462,20.18981920622676,0 -104.2146891472529,20.18988309808448,0 -104.2149021317295,20.19002322471661,0 -104.2151269808728,20.18992149466774,0 -104.215131520806,20.18939830341935,0 -104.2152715140744,20.18927293968914,0 -104.2156946468084,20.18938227737472,0 -104.2160128848344,20.18936839169843,0 -104.217013752602,20.18915511203273,0 -104.2176922226541,20.18890598303844,0 -104.2182959426749,20.18883134285705,0 -104.2191313202722,20.18857274939161,0 -104.2200526212026,20.18823298714695,0 -104.2225396095553,20.18749484697496,0 -104.2225410158097,20.18684566741833,0 -104.2228748524642,20.1867106726481,0 -104.2246006991981,20.18625392921169,0 -104.2247509903556,20.18662301742736,0 -104.2239936448689,20.18898736155713,0 -104.2239891192791,20.18988360301269,0 -104.2250179037867,20.1899049725991,0 -104.2252772171785,20.18862891536591,0 -104.2248382569447,20.18755258517953,0 -104.2276918728931,20.18656355729234,0 -104.22765970501,20.18645804603894,0 -104.2279415450868,20.18638784969425,0 -104.2281170029903,20.18644675942932,0 -104.2280813328554,20.18660540283939,0 -104.2290202038629,20.18755574709279,0 -104.2291810509835,20.18792181943026,0 -104.2303334164439,20.18773022591502,0 -104.2294798926936,20.1851473358899,0 -104.2286018085719,20.18508352345267,0 -104.2289698208912,20.18465992274536,0 -104.2295288036663,20.18416961390606,0 -104.2299137825585,20.18391701432103,0 -104.2306959276417,20.18321512947928,0 -104.2312692435723,20.18270063689994,0 -104.2312363335776,20.18268209959651,0 -104.2312943349567,20.18261059198672,0 -104.2321080043459,20.18190584822269,0 -104.2343365433657,20.18096891485105,0 -104.2344676020746,20.18091083068814,0 -104.2355281250466,20.18040471053341,0 -104.2363298406954,20.1797436460174,0 -104.2364364470826,20.17965985821513,0 -104.236841495778,20.17943939096419,0 -104.2392904390528,20.17808089548884,0 -104.2396365476554,20.17782326494618,0 -104.2408869492854,20.17695757390365,0 -104.2409355262613,20.17683489257669,0 -104.2412550900301,20.17668673153665,0 -104.2416781073906,20.1767959507841,0 -104.2426684750293,20.17660801624768,0 -104.2423250423158,20.17636323042988,0 -104.2421529284757,20.17625148481709,0 -104.2420872928724,20.17607743174616,0 -104.2428528117018,20.17585021133099,0 -104.24295423856,20.17576484017254,0 -104.2438849073846,20.17545552344074,0 -104.2446283027729,20.17549346985969,0 -104.2447194180726,20.17561099079437,0 -104.2452206367225,20.17541611663258,0 -104.245438827073,20.17581141391793,0 -104.2467720262911,20.17565264366665,0 -104.2479111072969,20.17483879643283,0 -104.2490091441797,20.17450535397929,0 -104.2496912846189,20.174243900618,0 -104.2497745925379,20.17432275990864,0 -104.2502078481815,20.1739027723012,0 -104.2505514508833,20.17390204778009,0 -104.2509288283024,20.17384051278751,0 -104.2513608353993,20.17358217129468,0 -104.2521602905299,20.17348260050899,0 -104.2523745124882,20.17370116184281,0 -104.2524431421699,20.17359115651499,0 -104.2528447359053,20.17356262365741,0 -104.2529580110205,20.17376316267078,0 -104.2532524261684,20.1736344407059,0 -104.2534272610983,20.17352364773971,0 -104.2538186913641,20.1732366484424,0 -104.2543211502083,20.17286823980858,0 -104.2562763812969,20.17221739588389,0 -104.2564549741739,20.17255466672099,0 -104.2565549007054,20.17251735946052,0 -104.2571618710308,20.17223259673315,0 -104.2576960768825,20.17224636481955,0 -104.2580126588876,20.17241208809304,0 -104.2582387990003,20.17237323831447,0 -104.2581352251072,20.17146851998482,0 -104.2579146626128,20.17129572288314,0 -104.2580404422912,20.17124358555104,0 -104.2583044302167,20.17133425361251,0 -104.258664178894,20.17101504282877,0 -104.2591504769826,20.17064759262498,0 -104.2595011335618,20.1704913337429,0 -104.259559027029,20.17046963085935,0 -104.2596049404638,20.17059352781681,0 -104.2595130220979,20.170969945825,0 -104.2595609474196,20.17106600343059,0 -104.2597480406713,20.17109042952439,0 -104.2600286488945,20.17088830845303,0 -104.2602557154284,20.17065607551747,0 -104.2604193386733,20.17054337134193,0 -104.2607018124044,20.17041164965526,0 -104.2610115700439,20.17024236313658,0 -104.2611582674896,20.17008481134841,0 -104.2612473456578,20.16980193399048,0 -104.2612686209402,20.16959675569202,0 -104.2614072557373,20.16967267567661,0 -104.261453403519,20.16958441747521,0 -104.2614211597792,20.16917347851433,0 -104.2616977938311,20.16880747387257,0 -104.2620895798137,20.16860663074612,0 -104.2622551743167,20.16855751712428,0 -104.2624021920018,20.16854416384922,0 -104.2630327450252,20.16828796920203,0 -104.2636635468629,20.16845325669858,0 -104.264380091555,20.16870022390516,0 -104.2646670403864,20.16872853099968,0 -104.2647826328618,20.16856636695886,0 -104.2647259798886,20.16840348324957,0 -104.2650135631373,20.16829625323227,0 -104.2652725654376,20.16816179557083,0 -104.2654448104,20.16816251460975,0 -104.2655106525564,20.16840675998077,0 -104.2653473419119,20.16854161748815,0 -104.2652412345982,20.16872189341146,0 -104.2652409807213,20.16877610802537,0 -104.2653170266327,20.16888485687076,0 -104.2652972112549,20.16902934927143,0 -104.2649217258502,20.16951572222504,0 -104.2645246004515,20.17053512448101,0 -104.2639839291618,20.17155392520452,0 -104.2635949193833,20.17288058070305,0 -104.2632491036954,20.17315924709025,0 -104.2632288189121,20.17340313247411,0 -104.2632662056459,20.17359304372139,0 -104.2636744278527,20.17429051983652,0 -104.2638042452478,20.1751765849557,0 -104.2638573795638,20.17608943688325,0 -104.2641013792315,20.17752824497113,0 -104.264369554208,20.17910958169711,0 -104.2644608023637,20.18005873629259,0 -104.2646057597092,20.18115772598155,0 -104.2646085811788,20.18119788170868,0 -104.2646481827256,20.18176144216791,0 -104.2648236093556,20.18162929129947,0 -104.264861547487,20.18169807234019,0 -104.2648887245021,20.18174734500575,0 -104.2650008755231,20.18167078871313,0 -104.2655297409232,20.18124147614666,0 -104.2679590137354,20.17940824045103,0 -104.2708825942977,20.17721442166051,0 -104.2723490077398,20.17607598291198,0 -104.2725647827356,20.17590846501144,0 -104.2756175483994,20.17356696450354,0 -104.2786784484467,20.17125581478751,0 -104.2794152346494,20.17071041191133,0 -104.2799154480068,20.17029078270927,0 -104.279965962711,20.17033995709987,0 -104.2800376345248,20.17027676726436,0 -104.2804780023649,20.16983537051441,0 -104.2820435398794,20.16863489975525,0 -104.2821035528714,20.16857479152945,0 -104.2877997215745,20.16427235831235,0 -104.2908775536756,20.16194743033903,0 -104.2918586394068,20.16277619702624,0 -104.2926622783305,20.16345098687625,0 -104.2940258310549,20.16475172027408,0 -104.2941999380917,20.16491780434264,0 -104.2942272803062,20.16495182426157,0 -104.2942791576597,20.16499696827081,0 -104.2946003593007,20.16513901948335,0 -104.2948265805759,20.16555593955259,0 -104.2951421393037,20.16551426817748,0 -104.2954064065169,20.16573991596495,0 -104.2954445826751,20.1659759498063,0 -104.2957689269921,20.16657925026688,0 -104.2958450939357,20.1669001855328,0 -104.2957235920357,20.16732708650862,0 -104.2957600929812,20.16788708826212,0 -104.2958613326808,20.16825079540116,0 -104.2966225237366,20.16906833482871,0 -104.2979598963793,20.16972070480984,0 -104.2984608930732,20.16970831752575,0 -104.2993541905725,20.16986902965699,0 -104.2999203274014,20.16982575681468,0 -104.29912629789,20.17228714736497,0 -104.2990805790738,20.17260173047909,0 -104.2990405581151,20.172787118818,0 -104.2988633497191,20.1731056670346,0 -104.2988949602853,20.17331273529412,0 -104.299894095283,20.17306321259382,0 -104.301125618102,20.17294526420201,0 -104.3030021690495,20.17312052267026,0 -104.3033408244526,20.1732852690971,0 -104.3037624892427,20.17346708795905,0 -104.3039915872535,20.17348877989474,0 -104.3045654609169,20.17360850083759,0 -104.3046247273237,20.17379825886433,0 -104.3045057512078,20.17450772722139,0 -104.3027571839425,20.17441778355292,0 -104.3026952300776,20.17449226212979,0 -104.3002631022635,20.17441066405177,0 -104.3001748602275,20.17493123623638,0 -104.3005075044684,20.1753097431297,0 -104.3005121182164,20.175573869944,0 -104.3024612831938,20.17544702862804,0 -104.3021034352811,20.17627278967498,0 -104.3014704873275,20.17736931903917,0 -104.3011789169964,20.17737707503637,0 -104.3011143038432,20.17815136723027,0 -104.3015400676471,20.17814934987603,0 -104.3016390614168,20.17866242605627,0 -104.3013790752769,20.17896283434651,0 -104.3016217546903,20.1792048763938,0 -104.3018222416971,20.17898121918264,0 -104.302236964145,20.17895506641871,0 -104.3023970021882,20.17891318681048,0 -104.3028227017957,20.17984094624056,0 -104.3027387754185,20.18046945617127,0 -104.3030732916366,20.18178985035869,0 -104.3035888982285,20.18261118404717,0 -104.3034127191834,20.18345761573387,0 -104.303096687999,20.18396511786189,0 -104.3030398587556,20.18391547124396,0 -104.3030021005547,20.1839826803593,0 -104.3026680563908,20.18434172036212,0 -104.3026210042075,20.18479961493316,0 -104.3025221389724,20.18525346275576,0 -104.3021653302312,20.18517954973416,0 -104.3020736153361,20.18529549605495,0 -104.3022054305268,20.18539561016796,0 -104.3021777535545,20.18543864715206,0 -104.3020235981884,20.18535869855439,0 -104.3019262427099,20.18538985493357,0 -104.3016285983302,20.18559204786075,0 -104.3015055514746,20.18577402461787,0 -104.3010816741505,20.18591926282302,0 -104.3009162570986,20.18599881954444,0 -104.3004898815744,20.18638579594858,0 -104.3004048991266,20.18653098504077,0 -104.3004703423908,20.18672722228662,0 -104.3006412963278,20.18719739733889,0 -104.3005610778451,20.18746826072372,0 -104.3004670519215,20.18811412281184,0 -104.3003325473113,20.18835360314021,0 -104.2999739890583,20.18871746811882,0 -104.2999436117781,20.18892553160453,0 -104.2995594075795,20.18936734359808,0 -104.2993774182951,20.18964085681482,0 -104.2991792412405,20.18986966845094,0 -104.2986828345427,20.19044280544132,0 -104.2983078505202,20.19089480496588,0 -104.297902662515,20.19134726039784,0 -104.2975978301548,20.19177920379104,0 -104.2963484581913,20.19257973203568,0 -104.295744263782,20.19285302725704,0 -104.2951228485382,20.19228984875166,0 -104.2945694683489,20.19397260549647,0 -104.2947736971625,20.19432316369343,0 -104.2942322077397,20.19498331499824,0 -104.294369563604,20.19528169174818,0 -104.2937579289092,20.19577692728997,0 -104.2940808793522,20.19661471147022,0 -104.2940451717331,20.19670660206703,0 -104.2939331086638,20.19712653464957,0 -104.2949556990587,20.19791444305232,0 -104.2950557142602,20.19792193109116,0 -104.295374140679,20.1977004759657,0 -104.2953067818065,20.19753292946103,0 -104.2953863200135,20.197301892469,0 -104.2956149450967,20.19686054447979,0 -104.295575520022,20.19673485979604,0 -104.2962760455445,20.19689211567826,0 -104.2962745433336,20.196543407276,0 -104.296482610662,20.19649279656202,0 -104.2965530029887,20.1960703947864,0 -104.2967725309917,20.19610102862279,0 -104.296829810701,20.19585696318407,0 -104.2974777473997,20.19605900116692,0 -104.2982272854923,20.1953429777926,0 -104.2986082297608,20.19545424002483,0 -104.299635483823,20.19474239139193,0 -104.2998019380501,20.19470242062715,0 -104.3000154496953,20.19720026750276,0 -104.3000807717535,20.19753560668909,0 -104.3015694508122,20.19756133420674,0 -104.301599281149,20.19675368294821,0 -104.3017068693563,20.19530074634803,0 -104.3017275793273,20.19495195147151,0 -104.3003783900769,20.19435697898152,0 -104.3003554094201,20.19434684042101,0 -104.3007793732949,20.19423255414839,0 -104.3010863925937,20.19413753921173,0 -104.3015225801122,20.19381613278931,0 -104.3017204171249,20.19368507931762,0 -104.3019187492109,20.19365788708253,0 -104.3021815933567,20.19365390388799,0 -104.3023031942564,20.1936399651379,0 -104.3024114682153,20.19359599200867,0 -104.3025496290682,20.19342457831662,0 -104.3027852863437,20.19333029554338,0 -104.3029991493749,20.19308516528362,0 -104.3030235084605,20.19295603200178,0 -104.3030643780623,20.19271956978369,0 -104.303796621116,20.19203722566859,0 -104.3039577991941,20.19199719108045,0 -104.3042859895136,20.19206478168499,0 -104.3046271054812,20.19213822116954,0 -104.3048188165674,20.19209902493163,0 -104.3048625644278,20.19203184278449,0 -104.3049057849919,20.19193443137671,0 -104.3050594517954,20.19192000478873,0 -104.3051422722467,20.19188851103199,0 -104.3054162892547,20.19178759743997,0 -104.3060718465412,20.19187440059412,0 -104.3062562983833,20.19203498320521,0 -104.3066635774537,20.19222835419046,0 -104.3067358760189,20.19219696730005,0 -104.3067997840479,20.19218390205379,0 -104.306845681936,20.19224367803653,0 -104.3069440152254,20.19236917612495,0 -104.3071184496562,20.19244514068481,0 -104.3075599747759,20.19239005652522,0 -104.3085740534273,20.19206623648482,0 -104.3090483547045,20.19205298123087,0 -104.3093361940916,20.19198176651191,0 -104.3094958479753,20.19194305723968,0 -104.309691597055,20.1917647118492,0 -104.3099788463794,20.19168777485791,0 -104.3105266622101,20.19184876679729,0 -104.3109740649792,20.19213827098825,0 -104.311645922546,20.19272735041707,0 -104.3120786195578,20.19302510019459,0 -104.3122235427172,20.19300767744463,0 -104.3123678287282,20.19295222683401,0 -104.3124642275699,20.19292793201661,0 -104.3125603667938,20.19288842398296,0 -104.3126479264503,20.19281861451381,0 -104.3127197440441,20.19277187106246,0 -104.3127841395026,20.19276328468921,0 -104.3130455316141,20.192807061877,0 -104.3132397711415,20.19284214307747,0 -104.3135477096336,20.19292114653369,0 -104.3137409085423,20.19289538103698,0 -104.314056258699,20.19293622734478,0 -104.3142268145668,20.19300210642019,0 -104.3143567885582,20.19305338572436,0 -104.3145515483765,20.19311888989191,0 -104.3148196740918,20.19322893540609,0 -104.3149990829316,20.19334032818118,0 -104.3151714617165,20.19351269363565,0 -104.3153119672005,20.19370837231998,0 -104.3155170002192,20.1939030660371,0 -104.3157320348856,20.19403104323638,0 -104.315870708442,20.19412022787512,0 -104.3160169464392,20.1941788694507,0 -104.3163900669673,20.19429491259354,0 -104.3167055617932,20.19434336126603,0 -104.317068280425,20.1943226126811,0 -104.3176234072742,20.19423044972609,0 -104.3182222503118,20.19386371496254,0 -104.3184452261408,20.19369292537849,0 -104.318734954422,20.1936504587038,0 -104.3186532705716,20.19406256238266,0 -104.3185649364948,20.19455846080843,0 -104.3184440897338,20.19495536756347,0 -104.3184853875198,20.19502103956093,0 -104.3185271724638,20.19511511087248,0 -104.3183632883253,20.1955153964008,0 -104.3182876633138,20.19579121432327,0 -104.3182092814204,20.1959060614601,0 -104.317979800559,20.19599480653343,0 -104.3175435120772,20.19632348192304,0 -104.317307877653,20.19663962374666,0 -104.3170268941888,20.19665338017918,0 -104.3168356354826,20.19671723074919,0 -104.3166659109724,20.19677664592872,0 -104.3165280922683,20.19693975830529,0 -104.3163005518936,20.19714211818762,0 -104.3158644183321,20.19748025769743,0 -104.3156469162392,20.19768246875336,0 -104.3153257514317,20.1980026806271,0 -104.3152313956067,20.1982497907789,0 -104.3150929983712,20.19839133434569,0 -104.3148760215262,20.19846767597026,0 -104.3146659739211,20.19853727637808,0 -104.3146395226335,20.19863727661143,0 -104.3146056885477,20.19871746741454,0 -104.3145585671451,20.19884433960557,0 -104.3143743975761,20.1992929638296,0 -104.3140538458881,20.19948404319135,0 -104.3138004067845,20.19990497845234,0 -104.3132282027698,20.20025797611218,0 -104.3131658001627,20.20030360884868,0 -104.3131668177048,20.20036317351862,0 -104.3131756078563,20.20041517471463,0 -104.3131603275631,20.2004451994363,0 -104.3131130769845,20.20045337033002,0 -104.3128761977369,20.20045697684583,0 -104.3123331413318,20.20056950772297,0 -104.3122570091299,20.20075748177708,0 -104.3121719323476,20.2008630460575,0 -104.312063548859,20.20099130598099,0 -104.3116425067539,20.20131051968443,0 -104.3114202863171,20.2013752024872,0 -104.3114139108296,20.20146467169415,0 -104.3113678038454,20.20153984929831,0 -104.3111898877983,20.20175853847631,0 -104.3110812477062,20.20187191179575,0 -104.3109242125841,20.20192643549253,0 -104.3104898000945,20.20192559185083,0 -104.3101268254908,20.201946009113,0 -104.310071812048,20.20196174164585,0 -104.310042382807,20.20208880028721,0 -104.3098552930851,20.20223315189382,0 -104.3094621363989,20.20233595313385,0 -104.3090028195281,20.20240326932825,0 -104.3079909676362,20.20235161582261,0 -104.3076110593242,20.20230525308514,0 -104.3075099364586,20.20239616137637,0 -104.3071404662468,20.2024985916749,0 -104.3070394583815,20.20259694848014,0 -104.3068966240989,20.2027423767224,0 -104.3067903566103,20.20278207548638,0 -104.3066242000883,20.20277937514389,0 -104.3063751884186,20.20278837900662,0 -104.3062814388506,20.20281068836631,0 -104.3061226801649,20.20291752187541,0 -104.306078837791,20.20294429584294,0 -104.3058961689059,20.20294706954227,0 -104.3055965274511,20.20290984760285,0 -104.3052971536404,20.20288828284507,0 -104.3051793586771,20.20283757985189,0 -104.3051385674372,20.2027181139535,0 -104.3049674511858,20.20259503688475,0 -104.3046902514586,20.20258123126775,0 -104.304347007788,20.20261344959686,0 -104.3039978722108,20.20266646104128,0 -104.3038408912227,20.20270144005597,0 -104.3033992814723,20.20278123338908,0 -104.3032073932633,20.20289379090753,0 -104.3030882787939,20.2030522368845,0 -104.3030123732737,20.20314737012229,0 -104.302615050597,20.20322648951426,0 -104.3024669008772,20.20323922594022,0 -104.3024124667541,20.20324840817493,0 -104.3016888600622,20.20345345088824,0 -104.3009463462061,20.2035672614653,0 -104.2999146641063,20.20360900013173,0 -104.2996584473032,20.20366854724771,0 -104.2992298467412,20.2037239043278,0 -104.2990904941146,20.2036090698255,0 -104.2987323354226,20.20363666711873,0 -104.298521902632,20.20378430344119,0 -104.2977888518576,20.20382120167121,0 -104.2975613467932,20.20387712855991,0 -104.2966561672057,20.20392778783551,0 -104.296343907284,20.20429341836553,0 -104.2960237247034,20.20411112134703,0 -104.2956103518131,20.2042123256278,0 -104.2936501899073,20.20381815953921,0 -104.2930343607025,20.20330204156291,0 -104.2916755173204,20.20304034257642,0 -104.2888884146976,20.20139051128253,0 -104.2872985917807,20.20503829483348,0 -104.2862172154705,20.20348498693455,0 -104.2848453050791,20.20415872652459,0 -104.2840382927411,20.20430942626519,0 -104.2837875455951,20.20437812305128,0 -104.2833320204028,20.20450292164081,0 -104.282480942406,20.20449647297595,0 -104.280623806755,20.20425953351274,0 -104.280629820492,20.20501008994567,0 -104.2794408537097,20.20570060737426,0 -104.2777989121221,20.20610154128907,0 -104.2769267402748,20.20631786886989,0 -104.2760090789526,20.20654547483581,0 -104.2762555091802,20.20626594991883,0 -104.2760321635689,20.20573836370824,0 -104.2759125654452,20.20545584793888,0 -104.2759058760681,20.20545641403805,0 -104.2747330441866,20.20555561393589,0 -104.2728585204411,20.20718883938721,0 -104.272362640116,20.20740483945814,0 -104.2714319946857,20.20804450090169,0 -104.2704571479058,20.20834020679508,0 -104.2692636940667,20.20877520202319,0 -104.2678345824392,20.20890537002216,0 -104.2665076161127,20.20882541890725,0 -104.2657498435455,20.20889113613585,0 -104.2632274863405,20.20855691946359,0 -104.2617330542418,20.20937722673395,0 -104.2601353692662,20.20919242620914,0 -104.2579690360474,20.20831776957184,0 -104.2570971583008,20.20787728999459,0 -104.2553406797857,20.20853819024042,0 -104.2550310713191,20.20955848525912,0 -104.2541946110675,20.20986653440334,0 -104.2537994449265,20.21001206364131,0 -104.2527993032705,20.20994528075273,0 -104.2521794374667,20.21021746515755,0 -104.2508029210424,20.21177955503548,0 -104.249424942704,20.21209923451231,0 -104.2488509244602,20.21397589874437,0 -104.2473152476565,20.2152138400021,0 -104.2464327031396,20.21470997373967,0 -104.2459067151389,20.21427338110346,0 -104.2453155694732,20.2128039122498,0 -104.2450832532514,20.21211812064763,0 -104.2426594782625,20.21193627291041,0 -104.2417684190972,20.21149598866013,0 -104.2407348092442,20.21172888832736,0 -104.240037630906,20.21197495801979,0 -104.2386396675122,20.21224949068066,0 -104.2382327865876,20.21252311439053,0 -104.2381068317348,20.212575736945,0 -104.2376524999636,20.21253264089687,0 -104.2374295453585,20.21251149156494,0 -104.2371947697753,20.21189095575787,0 -104.2367833896673,20.21228018206394,0 -104.2362536210064,20.21283630989614,0 -104.234815051722,20.2143499492047,0 -104.2344611226821,20.21472234217093,0 -104.2329093830373,20.21636064034017,0 -104.2327300544562,20.21654755140306,0 -104.2322296187994,20.2170691407816,0 -104.2302802357082,20.21866190640657,0 -104.2298375931878,20.21898155669978,0 -104.2216269537558,20.22534428226231,0 -104.2173375114093,20.22873119296992,0 -104.2117134210615,20.23311888355584,0 -104.2110055343997,20.23367321485653,0 -104.2048270362956,20.23851623006263,0 -104.1978563844099,20.24395457319604,0 -104.1975893651475,20.24416288233201,0 -104.1953170549038,20.24592694401736,0 -104.1934646361535,20.24743450750079,0 -104.1921306469101,20.24634630001218,0 -104.1921164288967,20.24629568043957,0 -104.1885061579047,20.24347597232547,0 -104.1879220260606,20.24301471627864,0 -104.186693874017,20.24193797354629,0 -104.1863392213941,20.24112841989404,0 -104.1857642971319,20.23945537540384,0 -104.1854134526036,20.23958156570172,0 -104.1853386260247,20.2399010700957,0 -104.1853258490912,20.240211303604,0 -104.1852236719974,20.24048930985241,0 -104.1852002452695,20.2406907767353,0 -104.1849879572492,20.24287747461924,0 -104.1849053572702,20.24411411967784,0 -104.1846962259471,20.24451157965792,0 -104.183457075047,20.24630463329254,0 -104.183268090815,20.24637907625621,0 -104.1838870230305,20.24796501647423,0 -104.1837232818455,20.24843326687506,0 -104.1836351943806,20.24863917701929,0 -104.1835860102218,20.24874377521696,0 -104.1835688977759,20.24878016649342,0 -104.1833755708057,20.24883679974194,0 -104.1833456687976,20.24885897155009,0 -104.1833597936137,20.2489320387625,0 -104.1833579965453,20.24907087075496,0 -104.1831197883035,20.24897700068368,0 -104.1828031400763,20.24911106162969,0 -104.1827163247766,20.24919519361079,0 -104.1825433202889,20.24936285132623,0 -104.1823127417545,20.24951538391895,0 -104.1819772750593,20.24958610548603,0 -104.1818137607143,20.24972991443445,0 -104.1816242454267,20.24982437617564,0 -104.1815163051829,20.24985502677034,0 -104.1806560585617,20.25035207013119,0 -104.1805079577706,20.25043764044692,0 -104.1789822727334,20.25108107708928,0 -104.177975239721,20.25141068162731,0 -104.1770248378076,20.25189415318242,0 -104.1765558507218,20.25186484465086,0 -104.1751587988713,20.2517137081702,0 -104.1744975675932,20.25182806129701,0 -104.173691481531,20.25217665794531,0 -104.1723312905637,20.25229674386091,0 -104.1717369780277,20.25242947365248,0 -104.171219784793,20.25246317309776,0 -104.170748926873,20.25278623267704,0 -104.1707471039787,20.25312958084096,0 -104.1706979379551,20.25337331236711,0 -104.16985334718,20.25375785152875,0 -104.1697942211107,20.25407382120294,0 -104.1701736844849,20.25473522353181,0 -104.1699718091128,20.25488787502983,0 -104.1695987017021,20.25483189437085,0 -104.1692256907166,20.25475784198162,0 -104.1689300913459,20.25453054880101,0 -104.1687019932337,20.25421321814572,0 -104.1684259289006,20.25391373116092,0 -104.1682446449279,20.25379540732419,0 -104.1679389451684,20.25366745733197,0 -104.1676710129113,20.25363907876445,0 -104.1673554989615,20.25355625968702,0 -104.1669921627845,20.25346417719987,0 -104.1668699640018,20.2530389189079,0 -104.1667856766524,20.25268612624168,0 -104.1669982344494,20.25232570805139,0 -104.1672769908025,20.25211921078862,0 -104.167393661677,20.25178544382832,0 -104.1674535620421,20.25132490746937,0 -104.1673412745701,20.25083644655866,0 -104.1671985317391,20.25067312620081,0 -104.1671128958178,20.2505733268395,0 -104.1666351128518,20.25039937897007,0 -104.166300554526,20.25029839628934,0 -104.1660555390838,20.25019422719306,0 -104.1657051354447,20.25063892154344,0 -104.16429515075,20.25112013630561,0 -104.1642074860312,20.25139982510688,0 -104.1644352325665,20.25178040949725,0 -104.1633962029394,20.2527151681568,0 -104.1631942755316,20.25287684720631,0 -104.1631729004849,20.25329238701576,0 -104.1633629311902,20.25356436445082,0 -104.1634864273014,20.25374566741144,0 -104.1639419726269,20.25449780224736,0 -104.1640841833157,20.25476051525821,0 -104.1641407582297,20.2549234273818,0 -104.1644274052282,20.25503322179035,0 -104.1651459565809,20.25494628730295,0 -104.1653097327654,20.25475731738877,0 -104.1655125295882,20.25443299758764,0 -104.1656285785993,20.25421669312627,0 -104.1656967563624,20.25400016082815,0 -104.1660606718426,20.25398382041776,0 -104.1664505129097,20.25449167285229,0 -104.1666880363196,20.2548361581785,0 -104.1667344130499,20.25511648512765,0 -104.1667513921929,20.25552317210502,0 -104.166606331482,20.25579355358193,0 -104.1664335601138,20.25587405360816,0 -104.1661934789876,20.25600844756711,0 -104.165570231745,20.25617716099089,0 -104.164812459451,20.25643558836198,0 -104.1645815154393,20.25665134477016,0 -104.1643619096125,20.25692478360242,0 -104.1642923509804,20.25701139440364,0 -104.1641847116157,20.25744459441491,0 -104.1639696244672,20.2582748522851,0 -104.1635179800437,20.25857991148861,0 -104.1630565656762,20.25892106556811,0 -104.1628209576459,20.25930927844017,0 -104.1627667635505,20.25939857321164,0 -104.1626781217823,20.25985896977518,0 -104.1621620666226,20.25967579070906,0 -104.1614329471431,20.25994337528806,0 -104.1601830085603,20.26091324560363,0 -104.1600196085091,20.26102992659169,0 -104.1595267802085,20.26186788251149,0 -104.1592769634572,20.26202932679508,0 -104.1591806815567,20.26212825745123,0 -104.1589213867233,20.26227158438968,0 -104.1586155815329,20.26216168882776,0 -104.1586077599523,20.26183636701061,0 -104.1583784068297,20.26175394500198,0 -104.1578135030638,20.26175123207932,0 -104.1576322187034,20.26163289733611,0 -104.1574436518302,20.26108985078107,0 -104.1573511365355,20.26103632878327,0 -104.1571286657113,20.26090762320659,0 -104.15672658193,20.26089665393341,0 -104.1564391491373,20.26093141380497,0 -104.1561138085937,20.26089370536418,0 -104.1559702875517,20.26087494311227,0 -104.1556456802481,20.26070170228442,0 -104.1554449075505,20.26064652118277,0 -104.1547660428431,20.26047157182321,0 -104.1541546910405,20.26020658893463,0 -104.1538202678785,20.26007847579885,0 -104.1537533441364,20.2600600814423,0 -104.1536099221794,20.26002324643142,0 -104.1533231274788,20.259940540634,0 -104.1532267452706,20.26005753881504,0 -104.1531202492792,20.26027388041271,0 -104.1530615767203,20.26049948863526,0 -104.1530613806649,20.26053563035206,0 -104.153059567132,20.26086994122538,0 -104.1530586358442,20.26104161437154,0 -104.1530581115432,20.26104472191587,0 -104.15299927659,20.26139371853556,0 -104.1529025500253,20.26157396447314,0 -104.152729667541,20.26167252131905,0 -104.1524804821277,20.26171649513508,0 -104.1522239438536,20.26169068132199,0 -104.151820176758,20.26165005201975,0 -104.1514348838103,20.26207286355975,0 -104.1508522959227,20.2635609264198,0 -104.1507926847649,20.26395820662652,0 -104.1509620325509,20.26451020212685,0 -104.1510378937594,20.2646461044332,0 -104.1516781777971,20.26487509582556,0 -104.1520223803238,20.26496711791499,0 -104.1520768351824,20.26551855657218,0 -104.1522332074844,20.26581750146981,0 -104.1523421832879,20.2660258369284,0 -104.1531697510216,20.26729526781916,0 -104.1537368071986,20.26840895464221,0 -104.1543784326939,20.2683939803191,0 -104.154933442474,20.26845990697284,0 -104.1557265092431,20.26877094172421,0 -104.1564043363643,20.26914466794226,0 -104.1572008971875,20.26961738003193,0 -104.1578933211122,20.2700282884696,0 -104.1580801446594,20.27013284235659,0 -104.1584470229634,20.27033816089604,0 -104.1587781596612,20.27108067534599,0 -104.1590811092585,20.27172366162418,0 -104.1597385418126,20.27233220490376,0 -104.1606849406407,20.27262588182808,0 -104.1607897066997,20.27275302482132,0 -104.1609988853659,20.27300688332268,0 -104.1615113891483,20.27385868927356,0 -104.1616830179462,20.27399504550573,0 -104.1623147033211,20.27405228059783,0 -104.1629916486428,20.27459765579605,0 -104.1638353044428,20.2744119348349,0 -104.1644379759378,20.27452323791315,0 -104.1649249487433,20.27446162037587,0 -104.1651949675407,20.27442745377398,0 -104.1651749966028,20.27637002819787,0 -104.1643925038797,20.27764936301085,0 -104.1637290726768,20.27815219481541,0 -104.1633805687858,20.27885531284485,0 -104.1629463163741,20.27947669934444,0 -104.1630649827274,20.28056154600717,0 -104.1630818554695,20.28098630279708,0 -104.1628109189635,20.28150907653944,0 -104.1625516428533,20.2816433720882,0 -104.1622623767067,20.28201245099004,0 -104.1620886512905,20.28226461852601,0 -104.1620087423891,20.2828786611051,0 -104.1618061905353,20.28314876169553,0 -104.1616044152344,20.28327429520905,0 -104.1602549336603,20.28313229570466,0 -104.1596036225365,20.2831562788728,0 -104.1591353750893,20.28297331850024,0 -104.158477511711,20.28243705553881,0 -104.157923914167,20.28210007585381,0 -104.1575224590646,20.28196261064882,0 -104.1571877428024,20.28187967958494,0 -104.1559219672407,20.28219886801523,0 -104.1557921547676,20.28215734347731,0 -104.1552623566302,20.28198786829082,0 -104.1551921087279,20.2819939412171,0 -104.1549653576446,20.28201354267783,0 -104.1547348510066,20.28213892955645,0 -104.1544429693162,20.28298687154553,0 -104.1537331734428,20.28320029905905,0 -104.1531855781939,20.28352293561855,0 -104.1525146715128,20.2836281183687,0 -104.152265156006,20.28372630293825,0 -104.1516411670366,20.28407696554991,0 -104.1515159193547,20.28414735005839,0 -104.1507316408818,20.28649745162689,0 -104.1552900517384,20.28748167434446,0 -104.1565659319173,20.28884317057139,0 -104.1566589087196,20.28935865005252,0 -104.1567390837167,20.29047042023844,0 -104.1568145219028,20.29068763893564,0 -104.1577021989245,20.29123404984693,0 -104.1579318384508,20.29127129694473,0 -104.1586778263621,20.29145559583143,0 -104.1591086210662,20.2914847721804,0 -104.1593770545436,20.29143184724605,0 -104.1599129957362,20.29149766897631,0 -104.1612636186553,20.29144089436486,0 -104.1614739607515,20.29150515136006,0 -104.1617511440168,20.29160587071626,0 -104.162909316172,20.29171983935956,0 -104.1632702640656,20.2922727394076,0 -104.1636134674706,20.29256352007509,0 -104.164064146634,20.2924572445336,0 -104.1643604380539,20.2925670867318,0 -104.1640520501034,20.29292704073699,0 -104.1637247499472,20.29324172554928,0 -104.1636724548042,20.29406372003182,0 -104.163630269033,20.29478637055122,0 -104.1634460324711,20.29521016583384,0 -104.1632435632032,20.29546219640103,0 -104.1630203383276,20.29601230386059,0 -104.1628663821606,20.29614710243803,0 -104.1630550057005,20.29669014317055,0 -104.1631080990095,20.29750360522143,0 -104.1630969206833,20.29780172810864,0 -104.1633923481288,20.29807420967449,0 -104.1635299055663,20.29823402363582,0 -104.1636969170377,20.29842805525909,0 -104.1639929769615,20.29858307547169,0 -104.1641738720274,20.29878272356452,0 -104.164239795795,20.29899085821927,0 -104.1642669757177,20.29928012869195,0 -104.1642254689148,20.29987628317227,0 -104.1641361250199,20.30046317350802,0 -104.1639813409627,20.30075157490382,0 -104.1634522744597,20.30118275793776,0 -104.1629331705386,20.30154170177304,0 -104.1621548017987,20.3020259020083,0 -104.1618663700329,20.30223234072055,0 -104.1616150303888,20.30266484758507,0 -104.1613732178586,20.30310643531536,0 -104.1610931437267,20.30353880360834,0 -104.1613407405118,20.30380202376541,0 -104.1615405491695,20.30404694336709,0 -104.1622079919145,20.30460131375866,0 -104.1627517114198,20.30501051961285,0 -104.1631227505024,20.30547311195818,0 -104.1634837776394,20.30601697644723,0 -104.1634633611039,20.30625180544738,0 -104.163204334781,20.30633188772606,0 -104.1629740403888,20.30641210704838,0 -104.1625038735203,20.30657249891907,0 -104.161927375574,20.3067344846915,0 -104.1616501715333,20.30681237313341,0 -104.1611609933666,20.30694556332513,0 -104.1608643853697,20.30688992740409,0 -104.1605011253352,20.30676168617406,0 -104.1603204698339,20.30651685731059,0 -104.1601787577856,20.30615475195201,0 -104.1599501679555,20.30591872830658,0 -104.1597205063888,20.30588148313887,0 -104.1595763585287,20.3059711472282,0 -104.1594124218258,20.30617817934306,0 -104.1594305037429,20.30637705008621,0 -104.159429040778,20.30664811198631,0 -104.1594942296058,20.30699177908359,0 -104.1595385472088,20.30703636413231,0 -104.1596656968874,20.30716427959438,0 -104.1600094610706,20.30735567839177,0 -104.1604586268632,20.30753854664218,0 -104.1608507184176,20.30764885500819,0 -104.1611944365291,20.30784928695517,0 -104.161327110114,20.30811195626076,0 -104.1613635224366,20.30846452045222,0 -104.1612268091916,20.30895178926575,0 -104.1606185534262,20.30985243537005,0 -104.1604500831424,20.31089976000628,0 -104.1604965587189,20.31116201623717,0 -104.1604095800595,20.31130616890395,0 -104.1601399913956,20.31156690815134,0 -104.1600690954961,20.31162690321442,0 -104.1598320909482,20.31182746296682,0 -104.1596933549462,20.31172898961709,0 -104.1589733662136,20.31121795010904,0 -104.1576840454925,20.31053407569369,0 -104.1560487678469,20.31006537858006,0 -104.155823491628,20.31003770901729,0 -104.1555893369602,20.31000894814098,0 -104.155560751165,20.30998170331569,0 -104.1551707169001,20.30949189694233,0 -104.1550183583912,20.30932852004821,0 -104.1547595682603,20.30936341254798,0 -104.1543949342473,20.3094881493478,0 -104.154154759,20.30962252270674,0 -104.1539334439448,20.30981120063037,0 -104.1536169417744,20.30989099040686,0 -104.1535026984047,20.30976393908183,0 -104.1533322179852,20.30941072513489,0 -104.1531047153675,20.30897591448557,0 -104.1526738741336,20.30894672173995,0 -104.1522788878024,20.30909183152081,0 -104.1522612043897,20.30909832829371,0 -104.151626872108,20.30950185640414,0 -104.150591411862,20.30969561609793,0 -104.1492788906897,20.30976152412,0 -104.1488089478828,20.30987670142579,0 -104.1481266170624,20.31029805412675,0 -104.1475987611162,20.31049426656443,0 -104.1469679755443,20.31024723091484,0 -104.1464039378855,20.31005473232779,0 -104.146010513929,20.31018834652466,0 -104.1452421248936,20.31058216079795,0 -104.1447314843541,20.31113083694762,0 -104.144204565241,20.3111553671026,0 -104.1436306523233,20.31101702487974,0 -104.1430874126211,20.31052644273591,0 -104.1425517637381,20.31039732006662,0 -104.1421498036983,20.3103411360927,0 -104.1413829493362,20.31045483717243,0 -104.1409033719838,20.31057898129401,0 -104.1402118892682,20.31091893705837,0 -104.1388907782702,20.31080401265287,0 -104.1382278233035,20.31118024315774,0 -104.1369750194682,20.31256554787197,0 -104.136441980984,20.31369236538814,0 -104.1357892878883,20.31394213848201,0 -104.135264767894,20.31353294535308,0 
					</coordinates>
				</LinearRing>
			</outerBoundaryIs>
		</Polygon>
	</Placemark>
</Document>
</kml>
