<?xml version="1.0" encoding="UTF-8"?>
<kml xmlns="http://www.opengis.net/kml/2.2" xmlns:gx="http://www.google.com/kml/ext/2.2" xmlns:kml="http://www.opengis.net/kml/2.2" xmlns:atom="http://www.w3.org/2005/Atom">
<Document>
	<name>Elemento_114.kml</name>
	<Style id="normal00">
		<LineStyle>
			<color>7fff00aa</color>
		</LineStyle>
		<PolyStyle>
			<color>7fff55aa</color>
		</PolyStyle>
	</Style>
	<Style id="highlight00">
		<LineStyle>
			<color>7fff00aa</color>
		</LineStyle>
		<PolyStyle>
			<color>7fff55aa</color>
		</PolyStyle>
	</Style>
	<StyleMap id="styleMapID00">
		<Pair>
			<key>normal</key>
			<styleUrl>#normal00</styleUrl>
		</Pair>
		<Pair>
			<key>highlight</key>
			<styleUrl>#highlight00</styleUrl>
		</Pair>
	</StyleMap>
	<Placemark>
		<name>Elemento_114</name>
		<styleUrl>#styleMapID00</styleUrl>
		<ExtendedData>
			<SchemaData schemaUrl="#schemaID">
				<SimpleData name="MUNICIPIO">VILLA CORONA</SimpleData>
				<SimpleData name="REGION">CENTRO</SimpleData>
				<SimpleData name="CLAVE">114</SimpleData>
				<SimpleData name="AREA_KMS2">362.641568776</SimpleData>
				<SimpleData name="GID">113</SimpleData>
			</SchemaData>
		</ExtendedData>
		<Polygon>
			<outerBoundaryIs>
				<LinearRing>
					<coordinates>
						-103.7546139229373,20.52283084228838,0 -103.7546603744628,20.52195952258471,0 -103.7531524533561,20.52223994685406,0 -103.7524632376189,20.5225472153935,0 -103.7522143635115,20.52265892774968,0 -103.7509138722381,20.52334512249742,0 -103.7503271303282,20.52338815298581,0 -103.7502578574968,20.52250002332929,0 -103.7505779871489,20.52194303138843,0 -103.7505326666434,20.52141745423849,0 -103.7505216296212,20.52130873282907,0 -103.7505203371704,20.52120897065736,0 -103.7504855839688,20.52075583790719,0 -103.7505087050323,20.52031110941086,0 -103.7505056501775,20.52007530806381,0 -103.7504834600008,20.51984879643059,0 -103.75049883512,20.51954928811587,0 -103.7504962501423,20.5193497637691,0 -103.7504449468403,20.51910544681234,0 -103.7501901965558,20.51801989909626,0 -103.7500154008341,20.51790399076477,0 -103.7473526302495,20.517471978067,0 -103.7461265234479,20.51571727712031,0 -103.7458244881013,20.5154395522944,0 -103.7456200020803,20.5152604853323,0 -103.7454346505671,20.51507212806698,0 -103.7452397904599,20.51489295049374,0 -103.7445994971652,20.51457288348477,0 -103.7418871542266,20.51321700997942,0 -103.7412531841518,20.51258025169527,0 -103.7409550224616,20.51260180324329,0 -103.7405414687161,20.512633744842,0 -103.7398189590141,20.51259665173618,0 -103.7393187739723,20.51262958025416,0 -103.7390358942615,20.51234255324987,0 -103.7387926852584,20.51214577883064,0 -103.7369415302648,20.51193107938956,0 -103.7365426828116,20.51160908931533,0 -103.7364258943106,20.51151064565579,0 -103.7360604250654,20.51078916828547,0 -103.7357845015731,20.51029343425144,0 -103.7349616756431,20.50993999237344,0 -103.7347372616699,20.50970671566089,0 -103.7340657721449,20.50914292176615,0 -103.7337410344405,20.50859331653253,0 -103.7334151363727,20.50795301956305,0 -103.7328933896292,20.50780476143747,0 -103.7327985324253,20.50791468805753,0 -103.7326183249122,20.50812536186536,0 -103.7325213736145,20.50807204244007,0 -103.7316758319121,20.50744672584647,0 -103.7306264248372,20.5066876650881,0 -103.7295919943867,20.50634567273601,0 -103.7282073522864,20.50647024729422,0 -103.7265151695245,20.50588172589505,0 -103.7263099200357,20.50488629604972,0 -103.7262687553203,20.50467814149415,0 -103.7259840663733,20.50424598511071,0 -103.725680708615,20.50385939215673,0 -103.7257048346926,20.50348722794526,0 -103.7258127018062,20.50213449850226,0 -103.7252395191187,20.50097090283863,0 -103.7244870627571,20.50009052197328,0 -103.7242538889991,20.49916797463837,0 -103.7237449583223,20.49851159484911,0 -103.7234523092664,20.49745366328315,0 -103.7218212435805,20.49711837704424,0 -103.7204015063185,20.49599155361969,0 -103.720111428505,20.49513313996498,0 -103.7192208353692,20.49398218594434,0 -103.7181287168992,20.49136409478769,0 -103.7171628419047,20.49110288317345,0 -103.7164446645727,20.49063932283465,0 -103.7163091201809,20.49057735921383,0 -103.7157097760072,20.4903754973275,0 -103.7156984254941,20.4902395694563,0 -103.7154145147537,20.48834705538476,0 -103.7138787832622,20.48792897933135,0 -103.7130359820568,20.4875030890897,0 -103.7124264578699,20.48725597788339,0 -103.711964370167,20.48649019420416,0 -103.7117765270135,20.48457845898014,0 -103.7118261133044,20.48393390582242,0 -103.7111433426945,20.48170120736013,0 -103.7109547562917,20.48124981022888,0 -103.7110570549053,20.48096747996057,0 -103.7111295646219,20.48061292128361,0 -103.7112610767625,20.48035747274451,0 -103.7113170943654,20.48022078767774,0 -103.7109857661274,20.47989798165742,0 -103.7100470212787,20.47949129799705,0 -103.7096091525183,20.47911526438579,0 -103.7091998119658,20.47871169778427,0 -103.707060466271,20.47697607049983,0 -103.7059832441994,20.47703350211186,0 -103.7047006612574,20.47454447323365,0 -103.7029431054336,20.47407435661481,0 -103.7019395761828,20.47386789680465,0 -103.7012962423096,20.47322203041271,0 -103.7002673159524,20.47252604939062,0 -103.6993059878415,20.47184744758519,0 -103.6980907798489,20.47164332661163,0 -103.6977205573039,20.47128464715128,0 -103.6963981399161,20.47097286659367,0 -103.6960327036466,20.47099508028877,0 -103.6942302940322,20.47077933241279,0 -103.6937767375578,20.46991363707654,0 -103.693004731891,20.46897892318781,0 -103.692154167652,20.46791809733062,0 -103.6911716260889,20.46707641841748,0 -103.6906649042057,20.46657411706019,0 -103.6892777885212,20.4657006421167,0 -103.6877566565675,20.46488306201426,0 -103.6870217396551,20.46382999833936,0 -103.6864183663321,20.46406344213565,0 -103.685648803378,20.46486107623066,0 -103.6843695716777,20.46526403571868,0 -103.6840671090588,20.46535931079022,0 -103.6827370269089,20.46674362678994,0 -103.6821380093537,20.465008770496,0 -103.6817545019072,20.46435088492788,0 -103.6811727995036,20.46323260972805,0 -103.6806378274994,20.46277593979109,0 -103.6806583492629,20.46210451956242,0 -103.6798251827662,20.4601092123701,0 -103.6791963521932,20.45829305187437,0 -103.6789111235377,20.45779734108644,0 -103.6785662510406,20.45714809616568,0 -103.6774277303718,20.45690668759373,0 -103.6762877015943,20.4557673444996,0 -103.6728733209201,20.4551337337876,0 -103.6711772217425,20.45493468963388,0 -103.6709433872473,20.45470143416546,0 -103.670209456028,20.45449181012167,0 -103.669494545629,20.45426383245959,0 -103.667114772355,20.45402689317224,0 -103.6666892344663,20.44682990949965,0 -103.6656130402825,20.44539048697121,0 -103.6646712258276,20.44392237852832,0 -103.6641883980439,20.44378254089734,0 -103.6608011705993,20.44279908465714,0 -103.6600241916483,20.44176318689517,0 -103.6598216411449,20.44080398562638,0 -103.6601052163439,20.44015569573764,0 -103.6596571636999,20.43876998918054,0 -103.6592573007426,20.43845974110835,0 -103.6581461915426,20.43837890302521,0 -103.656999337448,20.4379996485755,0 -103.6557323783344,20.43820669161843,0 -103.655168970624,20.43796744605043,0 -103.6548669225339,20.43743208560727,0 -103.6546640940397,20.43650901491883,0 -103.6545992866399,20.43624651801911,0 -103.6544984236651,20.43572174641837,0 -103.6542820064446,20.43525932181494,0 -103.6543084053751,20.43442836626914,0 -103.6541834310086,20.43337038174304,0 -103.6540712577593,20.43304427804058,0 -103.6531643703497,20.43152852840404,0 -103.6528235347569,20.43104707095938,0 -103.6526592941982,20.43009719385058,0 -103.6524613479567,20.42971621938478,0 -103.6521095969026,20.42938826009386,0 -103.6514124539436,20.42910279682161,0 -103.6505282966492,20.4282828554094,0 -103.6499816107997,20.42723063403157,0 -103.6499733676011,20.42707698635003,0 -103.6494575310668,20.42688326491091,0 -103.648322262535,20.42628722373954,0 -103.6482063967084,20.4263857019413,0 -103.6480723116156,20.42637562658378,0 -103.6479131872982,20.42594074297515,0 -103.6478483948119,20.42567824414411,0 -103.6476606014648,20.42523410337897,0 -103.6473752414487,20.42498795994237,0 -103.6472433689159,20.42472493984746,0 -103.6471982968246,20.424399353677,0 -103.6472003501398,20.42416447693947,0 -103.6470611859488,20.42363940439132,0 -103.647024354704,20.42346746588317,0 -103.6469671728826,20.42343088426851,0 -103.6468545470922,20.42315897913729,0 -103.6464076030739,20.42166484061525,0 -103.6462106303777,20.42117545551334,0 -103.6461084593875,20.42080425356579,0 -103.6461374448235,20.42077737588707,0 -103.6460553090091,20.42030695197376,0 -103.6460324084887,20.41963823314713,0 -103.6457242407238,20.41871433504232,0 -103.6457932951416,20.41848901355821,0 -103.6461525146416,20.41795878019239,0 -103.6462313876485,20.41770643177141,0 -103.646271456042,20.417507987746,0 -103.6462635324414,20.41731820506138,0 -103.6462658233925,20.41705622705019,0 -103.6460875471169,20.41662119320289,0 -103.64604074058,20.4164943486484,0 -103.64604121463,20.41644014630181,0 -103.6460127040978,20.41641282167626,0 -103.6455695178611,20.41558725150177,0 -103.6455147892817,20.41527062413072,0 -103.6454993389921,20.41484589009201,0 -103.6453956712298,20.41464632855301,0 -103.6449011813052,20.41420883451614,0 -103.644693532069,20.4138458456703,0 -103.6445640449714,20.41331181234969,0 -103.6445847912066,20.41313128700937,0 -103.6445383822072,20.41295927351868,0 -103.6445673663435,20.41293239601027,0 -103.6444986161355,20.41202842729938,0 -103.6444700275737,20.41201013619226,0 -103.6443787130495,20.41149446840734,0 -103.6443044280316,20.41122286023384,0 -103.6442899582634,20.41116995460303,0 -103.6442897781404,20.4111692964005,0 -103.6442897623518,20.41116923755224,0 -103.6436663985118,20.41114737241537,0 -103.6423185407608,20.41110008748573,0 -103.6418348202115,20.41123233919709,0 -103.6381245701892,20.41251698073444,0 -103.6362519836375,20.41315231802698,0 -103.6362007048803,20.41317347607952,0 -103.635180850628,20.41359427309439,0 -103.6262229473946,20.41675372848128,0 -103.6244283077609,20.41738834744552,0 -103.6245529901611,20.41748006148686,0 -103.624462569518,20.41745704452958,0 -103.624489950313,20.41747821034795,0 -103.6251127857728,20.41795110239598,0 -103.6251325884105,20.41813853113611,0 -103.6223109378658,20.41826440493615,0 -103.6221471708625,20.41814462689194,0 -103.6217517035598,20.41827573373114,0 -103.621685252676,20.4181182663872,0 -103.6213634210456,20.41785000714325,0 -103.6213517017642,20.41756270962988,0 -103.6213799693232,20.41730691667781,0 -103.6215010276746,20.41701999062718,0 -103.6216368263871,20.41681033734776,0 -103.621978996198,20.4165856936567,0 -103.622421351464,20.4164945920211,0 -103.6226204115611,20.41650968597939,0 -103.6231458931915,20.41644517986632,0 -103.6228394013258,20.41621048044267,0 -103.6227691104788,20.41615477227265,0 -103.6226516185179,20.41606014525663,0 -103.6234319896012,20.41385153786104,0 -103.6236396291382,20.41363290021672,0 -103.6249312790517,20.41053885301239,0 -103.6298142764181,20.40920982566858,0 -103.6293107530483,20.40599661208274,0 -103.6289466518823,20.40331624473598,0 -103.6282457089208,20.40159943187978,0 -103.6278146968075,20.400117590129,0 -103.6277816984229,20.40012705667377,0 -103.6276882704172,20.39986724805238,0 -103.6261124592121,20.39518274542629,0 -103.6261843041944,20.39522936487396,0 -103.6254064935701,20.39297278940159,0 -103.6246706163167,20.3908626355292,0 -103.6240258417068,20.38902186810061,0 -103.6234001419657,20.38721015271562,0 -103.6226807795248,20.3851588451136,0 -103.621746718178,20.38247820586441,0 -103.6211568756102,20.38271702219789,0 -103.6202632909251,20.3830373599904,0 -103.6209080002213,20.38486277845848,0 -103.6186074084704,20.38556957499121,0 -103.6186823864509,20.38516091094041,0 -103.6181646782711,20.38344120822716,0 -103.6174467684229,20.3834552139522,0 -103.61728203944,20.38371625302998,0 -103.6171881604038,20.3839703687435,0 -103.6161162256816,20.38426803619551,0 -103.6159071209499,20.38426195196475,0 -103.6156420463411,20.38342815484988,0 -103.6154325563721,20.38342414492992,0 -103.6139000928793,20.38340863345974,0 -103.6139004445111,20.38348441940449,0 -103.6137150813649,20.38348504219228,0 -103.6134965459224,20.38349197805365,0 -103.6134134393935,20.37534997488661,0 -103.6133972412589,20.37459982520777,0 -103.6133669628309,20.37287493752161,0 -103.6132951669532,20.36955562560418,0 -103.6132995220815,20.36736779517004,0 -103.6132995331246,20.36736248490913,0 -103.613262067738,20.36546453938077,0 -103.6132209617515,20.36399596463825,0 -103.6132203775745,20.3639552984652,0 -103.6131988761609,20.36284355510856,0 -103.6132468210618,20.36094695393883,0 -103.6132501277816,20.35866135935379,0 -103.6131810127887,20.35683849513112,0 -103.6131662621713,20.35644943951285,0 -103.6132191327032,20.35625031245266,0 -103.6132190820306,20.35624804802932,0 -103.6132187881088,20.35623483483973,0 -103.6132184722659,20.35622064306775,0 -103.6132098481998,20.3558331158941,0 -103.6131140233103,20.35152719587078,0 -103.6131139790528,20.35152711060214,0 -103.6131139760792,20.3515270139094,0 -103.6131139650995,20.35152631184237,0 -103.6131138955917,20.35152197393104,0 -103.6131138736483,20.35152056800501,0 -103.6131104388253,20.35130573382678,0 -103.6131035148337,20.35087260034128,0 -103.6130823061977,20.34954600932347,0 -103.613079677996,20.349133602965,0 -103.6130643919483,20.34673477005433,0 -103.6130582377681,20.34576920075543,0 -103.6130399727103,20.34508152465354,0 -103.6129903528588,20.3432133748058,0 -103.6129517085166,20.34175848264901,0 -103.6129472576148,20.34159091134537,0 -103.6129217020874,20.34062878952323,0 -103.6128316819304,20.3340095183544,0 -103.6128125790345,20.33260491598725,0 -103.6128111792782,20.33250199579087,0 -103.6130303885743,20.3325036830665,0 -103.6136195689466,20.33252703596013,0 -103.6179134157662,20.33269716904885,0 -103.6183256464813,20.33165514236976,0 -103.6199323887496,20.32753290875799,0 -103.620405310481,20.32631953901455,0 -103.6206085227665,20.32579815279123,0 -103.6225958203043,20.32288031433575,0 -103.6228919270859,20.32244554611723,0 -103.624467025205,20.32013280010485,0 -103.624616066443,20.31983703699615,0 -103.6251208994432,20.31883521725671,0 -103.6251723688043,20.31873307635255,0 -103.6250779741621,20.3175387144948,0 -103.6250165093125,20.31676100036073,0 -103.6250125330218,20.31671069277772,0 -103.6255055467577,20.31639294697627,0 -103.6298938765183,20.31279996806709,0 -103.6339690116697,20.31115100475836,0 -103.6334859184889,20.30298505023088,0 -103.6339826165692,20.30272578105347,0 -103.6346076491124,20.30274626774313,0 -103.6351580313603,20.30136186983417,0 -103.635597494868,20.30113948668853,0 -103.6371882441906,20.30232853044739,0 -103.637713388989,20.30124366911147,0 -103.638024785425,20.29997066370506,0 -103.6383223347094,20.29914218539378,0 -103.6389818392008,20.29883580162972,0 -103.639201288252,20.29790840586951,0 -103.6399127938053,20.29792793772201,0 -103.6403999601762,20.2976778206205,0 -103.6411210753741,20.2976972432924,0 -103.6413447153399,20.29236232272909,0 -103.641840148552,20.29200328569146,0 -103.6440485394055,20.29340322736706,0 -103.6443209290137,20.2936723466347,0 -103.6451350385647,20.29343681590698,0 -103.6453752000308,20.29263615535924,0 -103.6456669374629,20.2921251396143,0 -103.646584870291,20.2917343054798,0 -103.6468040246887,20.2915777609271,0 -103.646079632926,20.29128633537225,0 -103.6456064432591,20.29031202296784,0 -103.6463106290973,20.28973305936798,0 -103.6465323294577,20.28899608118828,0 -103.6470807604679,20.28825556257637,0 -103.6468287273097,20.28570995267748,0 -103.646985596039,20.28359522059412,0 -103.6476757153709,20.28265365405745,0 -103.6478909892634,20.28217974231933,0 -103.6483762075638,20.28177545451551,0 -103.6487412482225,20.28018445733345,0 -103.6503617771893,20.27988573624514,0 -103.6512878951662,20.2793859627847,0 -103.6516904643982,20.27851098650838,0 -103.6524250504764,20.27806770095765,0 -103.6540043073521,20.27675368903343,0 -103.6550481365221,20.27645212544516,0 -103.65529453172,20.27616831080481,0 -103.6563813388555,20.27623808794908,0 -103.6579866413112,20.27705490864654,0 -103.6590659609746,20.27729705564169,0 -103.6600761729448,20.27660586748322,0 -103.660813503052,20.27638923030822,0 -103.662602048728,20.27490960544567,0 -103.6629337896424,20.27453415654012,0 -103.6636282105964,20.27395522633142,0 -103.6643834002491,20.27362955151563,0 -103.6651565755161,20.27320392031955,0 -103.6660287448447,20.27223307592173,0 -103.6665423632574,20.27180121460664,0 -103.6672059185961,20.27105936968304,0 -103.6677157306764,20.27109911929935,0 -103.6681043170768,20.270659556144,0 -103.6689151151187,20.27017001248843,0 -103.6726596239771,20.26990212684099,0 -103.6736792086148,20.26920167942539,0 -103.6748968962598,20.26897968268465,0 -103.6755924721795,20.26850044265464,0 -103.6764527329541,20.26812820666687,0 -103.6788666754479,20.26828293232095,0 -103.6796790660646,20.26870018426858,0 -103.6810759979305,20.26898400528046,0 -103.682945752969,20.27019665580161,0 -103.6835639667185,20.27045280162418,0 -103.6840282209875,20.27069251351244,0 -103.685406981695,20.27105811561364,0 -103.6860840982924,20.2714133534449,0 -103.687331968245,20.27129974734067,0 -103.6885948669104,20.27085042140302,0 -103.689812545292,20.27062830516598,0 -103.6911159035514,20.2703417449358,0 -103.6924497527738,20.2694200233638,0 -103.6939985240064,20.26954786658594,0 -103.6941027413975,20.26942881174512,0 -103.694388041929,20.26918984436145,0 -103.6942957367217,20.26795752768392,0 -103.6943420350109,20.26705014007619,0 -103.6942966775487,20.26649745531741,0 -103.6953640047073,20.26501642208029,0 -103.695710367648,20.2635162245714,0 -103.6968845929749,20.26213374727589,0 -103.696937865256,20.26101770670529,0 -103.6968570826134,20.25993943802329,0 -103.6973880661544,20.25937125167083,0 -103.6990048710157,20.25803823028167,0 -103.6998457850457,20.25766607962757,0 -103.7002824197678,20.2564732041546,0 -103.6994698296967,20.25374357169457,0 -103.6999001499979,20.2528137610268,0 -103.7004196630053,20.2521005977495,0 -103.700306050424,20.25070530703157,0 -103.7010804983455,20.24963561475391,0 -103.701492378918,20.24876948932134,0 -103.7022926347944,20.24822548001115,0 -103.703699599973,20.2477925573357,0 -103.7048544944618,20.24718107898064,0 -103.7060870328512,20.24663220009872,0 -103.7063393050198,20.24641995818016,0 -103.7090912939053,20.24410458722304,0 -103.7110962094743,20.24385530861473,0 -103.7119440869741,20.24328350869897,0 -103.7141744133588,20.24338532289538,0 -103.7154606805371,20.24177474501487,0 -103.7160441115305,20.23929245206515,0 -103.7180438186046,20.23788237368903,0 -103.7191925948139,20.23831373601356,0 -103.7196566866145,20.23854426497089,0 -103.7210451682109,20.23893662613997,0 -103.722514776344,20.23966359005569,0 -103.7235035307701,20.23959796588039,0 -103.7246605589061,20.2399203721807,0 -103.7247857706867,20.24069884355494,0 -103.7260228888931,20.24202693727257,0 -103.7262655850208,20.24297637680665,0 -103.7272410498356,20.24337337505931,0 -103.7277052879867,20.2436129476507,0 -103.7288184912476,20.24350960072505,0 -103.7299327465245,20.24424053922404,0 -103.7315784915418,20.24445757561841,0 -103.7328530650524,20.24495088445059,0 -103.7346797204743,20.24728786938842,0 -103.734031370115,20.24842884367227,0 -103.7338040889975,20.24943805079025,0 -103.7334827088527,20.25060249849097,0 -103.7349388754111,20.25176479875286,0 -103.735649962609,20.25251844222223,0 -103.7382388358556,20.25433885003286,0 -103.740080146283,20.25630381046443,0 -103.7404181787837,20.25793229797524,0 -103.7411315450654,20.25885819962303,0 -103.7413644206833,20.25978053661216,0 -103.7418667045702,20.25998336029129,0 -103.7424567436011,20.26028493044249,0 -103.7431485856103,20.2610296977588,0 -103.7435582737402,20.26224927231013,0 -103.7444167386255,20.26324604694951,0 -103.7454775879635,20.26354220142236,0 -103.7480768797364,20.26539861841684,0 -103.748892981881,20.26534388500081,0 -103.7491814587413,20.26535870198539,0 -103.7504669652143,20.26667700543131,0 -103.7520486924014,20.26712128343674,0 -103.752986913443,20.26759110710098,0 -103.7534736444307,20.2673315674219,0 -103.7549312724606,20.26709709105795,0 -103.7556266730629,20.26662655193344,0 -103.7588728208992,20.26648019605057,0 -103.7592483010356,20.26727391322,0 -103.759558767577,20.27119709787801,0 -103.7600367198219,20.27247933190062,0 -103.7604555589262,20.27438799927741,0 -103.7611415382469,20.27546223251583,0 -103.7622606377762,20.27721469041091,0 -103.7627335585836,20.27810702127896,0 -103.7643182638861,20.27950337293712,0 -103.764707206564,20.28058712135578,0 -103.7649563047716,20.28126439417435,0 -103.7652054059422,20.28194166670654,0 -103.7657006565212,20.28306952331689,0 -103.7662077503177,20.28510413270175,0 -103.7666998260874,20.28598716677647,0 -103.7666911217534,20.28752898335211,0 -103.7678563324265,20.28990963292602,0 -103.7674395245586,20.2911115818343,0 -103.7681686349667,20.29260791649224,0 -103.7684765307668,20.29323979316114,0 -103.7687256712313,20.29391706706363,0 -103.7694582859427,20.29481543765079,0 -103.7699553986919,20.29607930854509,0 -103.7678801619975,20.29688339283551,0 -103.7673226460646,20.29688080745595,0 -103.7670535566329,20.29688393654138,0 -103.7671188791865,20.29894184096849,0 -103.7656659903492,20.30030093988293,0 -103.7657000023072,20.30143417242868,0 -103.7656872363186,20.30340230193916,0 -103.7661301365474,20.30419523272997,0 -103.7650324318393,20.30552299654495,0 -103.7641344082075,20.30668519232344,0 -103.7638607360532,20.30781293376739,0 -103.7643470842135,20.30825167417498,0 -103.7646195073152,20.30850244613595,0 -103.7652897455307,20.30977340553469,0 -103.766397832719,20.31144738651502,0 -103.7674130646704,20.31189811012144,0 -103.7663525943884,20.31240016866582,0 -103.7660058239901,20.31381898094769,0 -103.7667060228705,20.31443661455747,0 -103.7660093470195,20.31532230115589,0 -103.765438899068,20.31604750389359,0 -103.7660298271468,20.316394336293,0 -103.7672307147914,20.31560043425916,0 -103.7675715051642,20.31593203024985,0 -103.7691664557342,20.31513352984559,0 -103.7702059325634,20.31523025857059,0 -103.7692371680839,20.31613031249884,0 -103.7692841462309,20.31751734665402,0 -103.7702275219422,20.31834979592854,0 -103.7688079156086,20.32006225557684,0 -103.7688572702698,20.32089604573635,0 -103.7693884281477,20.32034571287558,0 -103.7699107930967,20.32132817326822,0 -103.7695852721782,20.32363553883177,0 -103.7696602586693,20.32569337710889,0 -103.7701173777264,20.32609617018087,0 -103.7706061865554,20.32745086279397,0 -103.7708494655954,20.3276747599298,0 -103.7710932212053,20.32793492833509,0 -103.7690451623503,20.32791342816936,0 -103.7686703931643,20.32792685725471,0 -103.7682209625257,20.32884807867125,0 -103.7687267442233,20.32929565764544,0 -103.7687141484886,20.33053829152988,0 -103.769922853488,20.33106838062286,0 -103.770662916848,20.33178530375755,0 -103.7700975368806,20.33339714947611,0 -103.7704519082846,20.33402787278464,0 -103.7706981670443,20.33447846982002,0 -103.7716743088364,20.33560075883167,0 -103.7719205744171,20.33605135438233,0 -103.772163871076,20.33627525121418,0 -103.7724363644919,20.33652601525931,0 -103.7728997088415,20.33740033582727,0 -103.773140038257,20.33739753296312,0 -103.7735976834935,20.33783659115251,0 -103.7748660563448,20.33851105827532,0 -103.7758020850038,20.33803759289782,0 -103.7762792056817,20.33849455412122,0 -103.7766489156267,20.33882579960015,0 -103.7772429502965,20.33939929411153,0 -103.7788479887309,20.3408134791465,0 -103.7801782057546,20.34253015597304,0 -103.7809176697523,20.34319262860468,0 -103.7828261930416,20.34501134407379,0 -103.7851136589916,20.34493915725982,0 -103.7863546314952,20.34571361905008,0 -103.7852851506925,20.34700496484767,0 -103.7851645991091,20.34734194783421,0 -103.7838395568798,20.34748447060581,0 -103.7831328419908,20.3471209153211,0 -103.7797179403957,20.34774136746771,0 -103.7792889643429,20.34729291826927,0 -103.7787861810485,20.34708113555816,0 -103.7779187471563,20.34619341185878,0 -103.776975879761,20.3461500174988,0 -103.7763736633234,20.34642006674664,0 -103.7759152948272,20.34666122585247,0 -103.7744568464344,20.34689591872026,0 -103.7732922923507,20.34827898343336,0 -103.7730355674839,20.34849964298645,0 -103.7727038319724,20.34886628708762,0 -103.7719465199227,20.34951744980012,0 -103.7696135660324,20.35152334413083,0 -103.7690401297792,20.35399690153306,0 -103.7686322744881,20.3550332598155,0 -103.7682118345593,20.35610157689483,0 -103.7694424804215,20.35755651355955,0 -103.7701812613141,20.35816463871702,0 -103.7705224041511,20.35851437606585,0 -103.7716216849365,20.35874644835925,0 -103.7712270114172,20.35944939605429,0 -103.7712835161066,20.36009267102468,0 -103.7712377025066,20.36100015309792,0 -103.7713200884374,20.36215101964811,0 -103.7705784319078,20.36279452258737,0 -103.7706009858639,20.36304820584637,0 -103.7705765332418,20.36338406319787,0 -103.7706098893504,20.3637283161703,0 -103.7696379333043,20.3644107746624,0 -103.7694228354513,20.36487582246964,0 -103.7686942098628,20.36578218210464,0 -103.7677985438007,20.36715302654504,0 -103.7675920509958,20.37119333687079,0 -103.766197923805,20.37301753191622,0 -103.7655696922722,20.37491037695305,0 -103.7656436044302,20.37525421858173,0 -103.7658101593567,20.37599624246232,0 -103.7658194523739,20.37603244700989,0 -103.7659211009365,20.37650297056578,0 -103.7660434200622,20.37678391149067,0 -103.7662973527622,20.37738199765173,0 -103.7660720417545,20.37800379878424,0 -103.7658688368031,20.37825533313098,0 -103.7652711715412,20.37871187403077,0 -103.7650208522158,20.37886369213237,0 -103.7643250725509,20.37960864524648,0 -103.7637971265404,20.37973139071706,0 -103.7632528274712,20.37950166558519,0 -103.7628492860177,20.37964335943132,0 -103.7625012817071,20.38062078925344,0 -103.7623102377854,20.38115736386584,0 -103.7616424559651,20.38199285056501,0 -103.7617440945698,20.38246337578892,0 -103.7626907930796,20.38389757424422,0 -103.7636626504273,20.38578368087615,0 -103.7648662061758,20.38745459129826,0 -103.7651363617607,20.38842321619909,0 -103.7650803963767,20.38943470505195,0 -103.7650688721473,20.38967856002305,0 -103.7656828828105,20.39078513921409,0 -103.7655674025994,20.39084756457401,0 -103.7653725370983,20.39125274592594,0 -103.7647642288935,20.39183569238163,0 -103.7636978047044,20.39339113448045,0 -103.7628436775997,20.39355673503262,0 -103.7623940626378,20.39346747627278,0 -103.7623157191353,20.39345192350076,0 -103.762123546402,20.39374135204817,0 -103.7623474613167,20.39386503263801,0 -103.7624383673753,20.39391524576437,0 -103.7626573732587,20.39408845899155,0 -103.7626757431311,20.39418797080854,0 -103.7624439817482,20.39441219283915,0 -103.7624619187204,20.39456590965691,0 -103.7625566529338,20.39470210220385,0 -103.7628900627272,20.39494840454596,0 -103.7632908335024,20.39515904541144,0 -103.7635005487118,20.39529605305897,0 -103.7636911009627,20.39543292458134,0 -103.7637951302275,20.39560532114241,0 -103.7638976466076,20.39596743517865,0 -103.7639640700791,20.39604921822947,0 -103.7640405076051,20.39607686417694,0 -103.7642873990935,20.39635868937426,0 -103.7643525264171,20.39660308733266,0 -103.7642621847196,20.39711742368662,0 -103.7642899215541,20.39724410579479,0 -103.7642300535643,20.39754182580608,0 -103.7643052672558,20.3977230525217,0 -103.7646975454838,20.39779811010851,0 -103.7648025134422,20.39785306196569,0 -103.7649262851255,20.39795332038214,0 -103.7649921339736,20.39810737645058,0 -103.7649329149083,20.39832378920578,0 -103.7646528806651,20.39859284531668,0 -103.7645267318003,20.39879071421748,0 -103.764524570961,20.39906173922792,0 -103.7647139043087,20.39935219070247,0 -103.7648361648159,20.39964216673992,0 -103.7648164248391,20.39971430428488,0 -103.7647571327692,20.39993975106393,0 -103.7647281708561,20.39996664985786,0 -103.7646978405088,20.40016519780822,0 -103.7647633298395,20.40036442479337,0 -103.7650864530366,20.40070099735353,0 -103.7651611650811,20.40094546293599,0 -103.7650614566494,20.40143262907925,0 -103.7651268028905,20.40164992428369,0 -103.7652314855567,20.40174101266702,0 -103.7653942366747,20.4017602348997,0 -103.7658371706028,20.40149233139273,0 -103.7660765779917,20.40151209573697,0 -103.766228811761,20.40164869355979,0 -103.7664081376324,20.40199328063116,0 -103.7663504293294,20.40201997622994,0 -103.7659177243886,20.40220664132396,0 -103.7656384760966,20.402376322788,0 -103.7653099487043,20.40271731353261,0 -103.7649345174127,20.402931485771,0 -103.7644833645301,20.40302766963344,0 -103.7642346612436,20.40297169840676,0 -103.7639964051763,20.40280738485325,0 -103.7637572845763,20.40275148092282,0 -103.7635366073976,20.40278605422474,0 -103.7631322109255,20.40302712098139,0 -103.7628250775937,20.40308818379929,0 -103.7625657104396,20.40316765454067,0 -103.7621904911122,20.40335471814032,0 -103.7619220464553,20.40337088075267,0 -103.7618454614353,20.40336130203889,0 -103.7616062687243,20.40331442930856,0 -103.7611576415827,20.40309440910013,0 -103.7612844485221,20.40281523576979,0 -103.7614013839849,20.40257213083146,0 -103.761489067275,20.40239206059768,0 -103.7615669516323,20.40223902468255,0 -103.7617327351417,20.40187881586397,0 -103.7617951369303,20.40126490176136,0 -103.7617981691342,20.4008854672324,0 -103.7617991798536,20.40075898905231,0 -103.7618133099518,20.40018990528272,0 -103.7618138874782,20.40011763203101,0 -103.7614405524699,20.40006980637635,0 -103.7606638368338,20.40013656307359,0 -103.7599353196779,20.40016752051587,0 -103.7590228642206,20.40043206668266,0 -103.7584174634183,20.40064458737356,0 -103.7572007707388,20.40060881271663,0 -103.7563496042876,20.4008382608874,0 -103.7562212349584,20.40087286557499,0 -103.7555878087283,20.40099482966784,0 -103.754990822173,20.40135195260526,0 -103.7549315878296,20.40156836109612,0 -103.7549461782139,20.40213764824861,0 -103.7549436372313,20.40245384282138,0 -103.755172518133,20.40259099740483,0 -103.7555179810088,20.40253022185071,0 -103.7558033393782,20.40279426399651,0 -103.756348213492,20.40296077650935,0 -103.7566167300218,20.40293558834099,0 -103.7566959865669,20.40295668590627,0 -103.7572095887121,20.40309340587852,0 -103.7580187819375,20.40375870392112,0 -103.7585593908068,20.40445822411383,0 -103.7587119098647,20.40455869170141,0 -103.7587000111762,20.40484771596743,0 -103.7586996492236,20.40489288667193,0 -103.7584749135446,20.4054333651736,0 -103.7583469406078,20.40585708222451,0 -103.7584618872118,20.40606124234761,0 -103.7585359075216,20.40619271071618,0 -103.7578561428107,20.4061155896145,0 -103.7569505607801,20.40790702782242,0 -103.756926640306,20.40816391824616,0 -103.7569049009879,20.40839738111909,0 -103.7567513077661,20.41004681777364,0 -103.7568634701207,20.41039996925137,0 -103.7568136716951,20.41063451474513,0 -103.7566010414772,20.41085886362365,0 -103.7563781025283,20.41117348507237,0 -103.7563480487405,20.41133589414869,0 -103.756595891316,20.41150028665092,0 -103.7567378175902,20.41172716557237,0 -103.7567163312256,20.41201612087077,0 -103.7568300177574,20.41217955570005,0 -103.7569663607602,20.41310206222626,0 -103.756634308343,20.41415886728595,0 -103.7566123140092,20.41422886609011,0 -103.7565979428824,20.41482504985843,0 -103.756031611668,20.41493845707984,0 -103.7560004677422,20.41523637778555,0 -103.7562390351985,20.41567086847563,0 -103.7562743793405,20.41573523876286,0 -103.7561964097451,20.41589730557942,0 -103.755994660571,20.41595910742564,0 -103.7557945811115,20.41581312428157,0 -103.7557714946684,20.41630082983098,0 -103.7552691147438,20.41680318040367,0 -103.7551921445679,20.41695731601606,0 -103.7550353458601,20.41727131082779,0 -103.7545972796021,20.41811743486769,0 -103.7544812655099,20.41824309019187,0 -103.7546622119411,20.41839897195765,0 -103.7547667947554,20.41848906675595,0 -103.7551665227013,20.41883524004969,0 -103.7557407816984,20.41892968959436,0 -103.7565798809239,20.41826711857364,0 -103.7571270580626,20.41815357346503,0 -103.7575302712951,20.4180661036791,0 -103.7595017009771,20.41841443671206,0 -103.7600088803278,20.4185083944837,0 -103.7609361254824,20.41880410178088,0 -103.7610697828003,20.41886829507033,0 -103.7620528694482,20.41937219076003,0 -103.7636087164416,20.42016022221173,0 -103.7643735694136,20.42039151642786,0 -103.7652042101735,20.42078589764698,0 -103.7653282878691,20.42085001988943,0 -103.7665180582612,20.42187936682064,0 -103.7678163546524,20.42252098360967,0 -103.7685928225145,20.42249937158934,0 -103.7686796477701,20.4224277081704,0 -103.7698750372851,20.42368293990327,0 -103.7752385732535,20.44497932282529,0 -103.775348004553,20.44510265908018,0 -103.7756678363693,20.44546312967039,0 -103.7760936211049,20.44594301349009,0 -103.7765272298696,20.44686759857325,0 -103.7767209238181,20.44767030969497,0 -103.7768242232407,20.44809840073094,0 -103.777003978684,20.44839780826276,0 -103.7771916757879,20.44890506864903,0 -103.7776669258536,20.44941434952205,0 -103.778118508715,20.45049264666596,0 -103.7779705881802,20.45101561794343,0 -103.7775535664629,20.45162704470383,0 -103.7776081475211,20.45199784928188,0 -103.7775963467759,20.45227784076897,0 -103.7775611632721,20.45321878895021,0 -103.7775598719896,20.45325332748626,0 -103.7775867695675,20.45348841760985,0 -103.7777460836765,20.45516094868214,0 -103.7782606242868,20.45555305407984,0 -103.7783431070306,20.45603247028121,0 -103.7782622079635,20.45656494671915,0 -103.7783095639464,20.45663755663009,0 -103.7787011415152,20.45682100000933,0 -103.7790601791185,20.45748305093676,0 -103.7800992054736,20.46065247269195,0 -103.7801349864912,20.46183048781598,0 -103.7798274020114,20.46202899656635,0 -103.7783513769388,20.46321631711581,0 -103.7762050462636,20.46319603555251,0 -103.7753864246775,20.46241647717185,0 -103.7745003384596,20.46162863111782,0 -103.7744669138918,20.46162969922582,0 -103.773605728858,20.46165720278221,0 -103.7719672668904,20.46293705664953,0 -103.7707884987496,20.46331358883725,0 -103.7690233659784,20.46374228233668,0 -103.7668154419241,20.46563640987092,0 -103.7670049045817,20.4661421446534,0 -103.7647585100077,20.4687804552968,0 -103.7638956051714,20.47050474652269,0 -103.7643551152171,20.4718616749988,0 -103.7647864023528,20.47307537771531,0 -103.7651179539089,20.47357463706803,0 -103.7652166116185,20.47442459091144,0 -103.7648236469661,20.47680693349967,0 -103.7648483709433,20.47707280241398,0 -103.7648766118503,20.47737648983383,0 -103.7647931265166,20.47745519493648,0 -103.7642583573926,20.47795934323666,0 -103.7637917502974,20.47876010346033,0 -103.7636392508264,20.47916713101878,0 -103.7632921052819,20.48009366806484,0 -103.7621708186311,20.48123307647155,0 -103.7621096182653,20.48288597023526,0 -103.7620844403183,20.48292741320085,0 -103.7620221745587,20.48302990055706,0 -103.762168523656,20.48309077765251,0 -103.7623757373165,20.48317697305143,0 -103.763506291459,20.48327536919246,0 -103.7639812315951,20.48382985900683,0 -103.763939987422,20.484190949232,0 -103.7640890392014,20.48473408519932,0 -103.7642245413974,20.48491342545525,0 -103.764411603001,20.48516100558965,0 -103.764946969027,20.48535453911993,0 -103.7652704043125,20.48567304912054,0 -103.765574883259,20.48596432007675,0 -103.7656773069782,20.48634450085012,0 -103.7657798757365,20.48670661341215,0 -103.7654068068704,20.48779714794403,0 -103.7655685334047,20.48915348612097,0 -103.7657447666119,20.48989557501806,0 -103.7659230256798,20.4903847096105,0 -103.7661509586362,20.49065736676847,0 -103.7665621406942,20.49079580630134,0 -103.7666905337857,20.49098590154236,0 -103.7668748467203,20.49125879104967,0 -103.7669032483611,20.49130416566766,0 -103.7680005560701,20.49197147861529,0 -103.7684376201967,20.49247148132818,0 -103.7684641464138,20.4927517418845,0 -103.7686323242497,20.49330404473648,0 -103.7689459791012,20.49364958311377,0 -103.7694146985965,20.49378842418006,0 -103.7698145023229,20.494152640751,0 -103.7699382789372,20.49426193272463,0 -103.7700956831697,20.49453083129024,0 -103.7702409816676,20.49477904871163,0 -103.7764075309958,20.49871085000561,0 -103.7777762499797,20.50339706157095,0 -103.7777943520222,20.50353270814718,0 -103.7777932772272,20.50366821970039,0 -103.7777922024234,20.50380373125144,0 -103.7778007160592,20.5039393103119,0 -103.7777996412465,20.50407482185909,0 -103.7778273318205,20.50421053593856,0 -103.7778550940891,20.50433721591103,0 -103.7778923732282,20.50447299749069,0 -103.7779200639364,20.50460871155705,0 -103.7779862519747,20.50472662743197,0 -103.7780524401106,20.50484454328521,0 -103.7781282168571,20.50496252661348,0 -103.7782136538713,20.50507154330186,0 -103.7782990910043,20.50518055995298,0 -103.7783748680965,20.505298543187,0 -103.7784218080512,20.50542535805348,0 -103.7784687480779,20.50555217290936,0 -103.7785156881767,20.50567898775465,0 -103.7785529681635,20.5058147692178,0 -103.7785615540982,20.50594131414607,0 -103.7785700684241,20.50607689317642,0 -103.7785594055734,20.50621233725302,0 -103.7785487426972,20.50634778132595,0 -103.7785476684047,20.50648329287352,0 -103.7786137860443,20.50661024265245,0 -103.7786799754014,20.50672815830661,0 -103.7787461648561,20.50684607393908,0 -103.7788219430486,20.50696405701453,0 -103.7788784724558,20.50709093924255,0 -103.7788965757241,20.50722658571851,0 -103.778924339284,20.50735326554892,0 -103.7789328539375,20.50748884456004,0 -103.7789413685992,20.50762442356943,0 -103.7789402945791,20.50775993511699,0 -103.7789488092488,20.50789551412296,0 -103.7789573239267,20.50803109312722,0 -103.7789658386129,20.50816667212974,0 -103.7790127082033,20.50830252096704,0 -103.7790308832712,20.50842913332099,0 -103.7790585755054,20.50856484723198,0 -103.7790862677819,20.50870056113896,0 -103.7791236204532,20.5088273083932,0 -103.7791609015873,20.50896308974329,0 -103.7792270922836,20.50908100522983,0 -103.7793221925898,20.50918105482264,0 -103.7794172214393,20.50929013847157,0 -103.7794738236692,20.50940798643721,0 -103.7795496035859,20.50952596925276,0 -103.7796157948056,20.50964388461082,0 -103.7797205560829,20.50973496733464,0 -103.7798253174846,20.50982605000054,0 -103.7799396678387,20.5099172000207,0 -103.7800444294954,20.51000828256524,0 -103.7801588516556,20.51009039834773,0 -103.7802636135614,20.51018148077064,0 -103.7803683755917,20.51027256313562,0 -103.7804441566036,20.51039054560508,0 -103.7805199377284,20.51050852804573,0 -103.7805668808258,20.51063534242709,0 -103.7806042351125,20.51076208942024,0 -103.7806415179414,20.51089787051222,0 -103.7806788723418,20.51102461749187,0 -103.7807065663798,20.51116033119715,0 -103.78073426046,20.51129604489839,0 -103.7807716150158,20.51142279186112,0 -103.7808378079304,20.51154070681621,0 -103.7809328392617,20.51164978973379,0 -103.7810183532747,20.51174977114095,0 -103.7811424376712,20.511822919602,0 -103.7831629308266,20.51307755005988,0 -103.8019312788437,20.51836257659553,0 -103.8136709523756,20.53162649879038,0 -103.7966757729601,20.55146284005558,0 -103.771600410851,20.54875794066166,0 -103.7708797188963,20.54814043500683,0 -103.770590754287,20.54739998528892,0 -103.7704157838526,20.54658927198241,0 -103.7703447035249,20.54625991824297,0 -103.769960534805,20.54560221345205,0 -103.7693873807286,20.54448409089458,0 -103.7691049648102,20.5442424601985,0 -103.768136845081,20.54311078173385,0 -103.7666624061751,20.54154957530593,0 -103.7658578780244,20.5404069167379,0 -103.7649663294989,20.53997278564293,0 -103.7628833342666,20.53973386695938,0 -103.761656755283,20.53827236839668,0 -103.7607119677421,20.53714660771531,0 -103.7598386487243,20.53663060074173,0 -103.7598587880013,20.53595913053987,0 -103.7598446720256,20.53561460437526,0 -103.7598564836318,20.53504300909225,0 -103.7576891646784,20.53127647502394,0 -103.7575883160573,20.52944535135367,0 -103.7580526655734,20.52813380630057,0 -103.7573361557608,20.52782460455167,0 -103.7570961506371,20.52713800117689,0 -103.756716463692,20.52681583757982,0 -103.7562482531375,20.52634956369359,0 -103.7559951311085,20.52613478721824,0 -103.7552784849229,20.52507271029471,0 -103.7550268649985,20.52423203748765,0 -103.7549966890698,20.52413260818184,0 -103.7549462007771,20.52395177654908,0 -103.7546139229373,20.52283084228838,0 
					</coordinates>
				</LinearRing>
			</outerBoundaryIs>
		</Polygon>
	</Placemark>
</Document>
</kml>
