<?xml version="1.0" encoding="UTF-8"?>
<kml xmlns="http://www.opengis.net/kml/2.2" xmlns:gx="http://www.google.com/kml/ext/2.2" xmlns:kml="http://www.opengis.net/kml/2.2" xmlns:atom="http://www.w3.org/2005/Atom">
<Document>
	<name>Elemento_60.kml</name>
	<StyleMap id="styleMapID00">
		<Pair>
			<key>normal</key>
			<styleUrl>#normal00</styleUrl>
		</Pair>
		<Pair>
			<key>highlight</key>
			<styleUrl>#highlight00</styleUrl>
		</Pair>
	</StyleMap>
	<Style id="highlight00">
		<LineStyle>
			<color>7f7f00ff</color>
		</LineStyle>
		<PolyStyle>
			<color>7f7f55ff</color>
		</PolyStyle>
	</Style>
	<Style id="normal00">
		<LineStyle>
			<color>7f7f00ff</color>
		</LineStyle>
		<PolyStyle>
			<color>7f7f55ff</color>
		</PolyStyle>
	</Style>
	<Placemark>
		<name>Elemento_60</name>
		<styleUrl>#styleMapID00</styleUrl>
		<ExtendedData>
			<SchemaData schemaUrl="#schemaID">
				<SimpleData name="MUNICIPIO">MEXTICACÁN</SimpleData>
				<SimpleData name="REGION">ALTOS SUR</SimpleData>
				<SimpleData name="CLAVE">60</SimpleData>
				<SimpleData name="AREA_KMS2">286.525948827</SimpleData>
				<SimpleData name="GID">59</SimpleData>
			</SchemaData>
		</ExtendedData>
		<Polygon>
			<outerBoundaryIs>
				<LinearRing>
					<coordinates>
						-102.7282613842395,21.38729345923683,0 -102.7271095781074,21.38714400694409,0 -102.7265312119644,21.38713616566254,0 -102.7256664554011,21.38694383837146,0 -102.7250894870617,21.38684571050601,0 -102.7243197317982,21.38674496513852,0 -102.7242905912388,21.38642532498213,0 -102.7239669472992,21.38552848398182,0 -102.7227422890678,21.38507648822992,0 -102.7221404231702,21.38427728324423,0 -102.721678038436,21.38300680710502,0 -102.7215006372831,21.38201110116665,0 -102.7212198559463,21.38146548933187,0 -102.7205507194932,21.38109519737244,0 -102.7193968392831,21.38089891084622,0 -102.7188753683989,21.38078290665231,0 -102.7186232275275,21.38072681511658,0 -102.7185321316745,21.38070654980105,0 -102.7180529844096,21.38051943195734,0 -102.7172846706831,21.38032837721037,0 -102.716685089582,21.38041616822155,0 -102.7166548735018,21.3807738770028,0 -102.7164039009749,21.38100625857046,0 -102.7153442704629,21.38111464903658,0 -102.7148637236816,21.38101780251754,0 -102.7143873862546,21.38065011506393,0 -102.7140996211892,21.3805558937216,0 -102.7138264464138,21.38019468340256,0 -102.7132638571252,21.37976806557755,0 -102.7134079541816,21.37874421985751,0 -102.7128484317877,21.37826485395623,0 -102.7125041917955,21.37802422106083,0 -102.7122004103968,21.37765344029353,0 -102.7121764447458,21.37717268002041,0 -102.7122471457027,21.37637021694229,0 -102.7116981779942,21.3758407414049,0 -102.7117104066969,21.37538228486909,0 -102.7112032526561,21.37467477839528,0 -102.7102682296858,21.37374171146759,0 -102.7080514779349,21.37179263450945,0 -102.7057742048145,21.36860012826876,0 -102.7055074149394,21.36759757816136,0 -102.7049598242703,21.36630834389403,0 -102.7042591274632,21.36577329466036,0 -102.7040652656388,21.36494092137915,0 -102.7032691652559,21.36441723590902,0 -102.7025110142034,21.36420566008779,0 -102.7022850751565,21.36423542186295,0 -102.7019142118496,21.36379093748763,0 -102.7023598312002,21.36370739242222,0 -102.7022598490043,21.36259539507111,0 -102.7019965143815,21.36197269396606,0 -102.7016975243987,21.3616620015937,0 -102.7013320130405,21.36154982902606,0 -102.7009648551691,21.36146295384384,0 -102.7006278434428,21.36130003852808,0 -102.7012685413275,21.35978962007886,0 -102.7009270500772,21.35910831886218,0 -102.7002211475364,21.35826378579014,0 -102.6998164879324,21.35772394635727,0 -102.6994112753172,21.35706638866779,0 -102.6992829584833,21.35650186253578,0 -102.6993049899152,21.35584254164509,0 -102.6997616471599,21.3551611489681,0 -102.6999696036733,21.35482665181629,0 -102.6999651631514,21.35397436753826,0 -102.699938122264,21.3536140586004,0 -102.6996078272091,21.353449537865,0 -102.6996053423641,21.35316061612315,0 -102.7004725551983,21.35248101779677,0 -102.7009241514217,21.35193402884515,0 -102.7007265018375,21.35041607105164,0 -102.699983118153,21.34976388660565,0 -102.6997524540293,21.34940119082255,0 -102.700704617437,21.34886772889349,0 -102.7009799407668,21.3486311474768,0 -102.7010284222021,21.34825424242634,0 -102.7006392932524,21.34732252471239,0 -102.7001168332835,21.34695677994804,0 -102.699983469578,21.34623872483097,0 -102.7001204115804,21.34587700633033,0 -102.7000864532843,21.34568957369495,0 -102.6996802341381,21.34542644464971,0 -102.6995069852422,21.34496651593773,0 -102.6994722715488,21.34451178717326,0 -102.6992388942408,21.34441377797147,0 -102.6985957747122,21.34434947625717,0 -102.6985083897239,21.34397004651022,0 -102.6983779733656,21.34368320100565,0 -102.6982843972757,21.343268412896,0 -102.6976176199998,21.34330797224632,0 -102.6968523528459,21.34293628396889,0 -102.6962988918599,21.34248215742315,0 -102.6956864514095,21.34175395706151,0 -102.6953196151217,21.3410228792283,0 -102.695055327347,21.34074446081402,0 -102.6940934846087,21.34071144596564,0 -102.6931238535921,21.34098883953919,0 -102.6926572383466,21.34143703661039,0 -102.6921582342488,21.34189910123386,0 -102.6918722921243,21.34222119124186,0 -102.6906273670809,21.34220911085077,0 -102.6893319002162,21.34231234856879,0 -102.6891456523529,21.3428887363632,0 -102.6878607127987,21.34300588655622,0 -102.6865190116549,21.34306586704302,0 -102.6843708947131,21.34308162535305,0 -102.6838657147164,21.34233123940962,0 -102.6830904202311,21.34104521579687,0 -102.6830258767696,21.34094753840759,0 -102.6830302795379,21.34094391858665,0 -102.6862599505042,21.33828860997085,0 -102.6917704482436,21.33191845936145,0 -102.6934144574595,21.33067379166839,0 -102.7010511845841,21.31929936338269,0 -102.7008799165546,21.31928157435873,0 -102.7000892668366,21.31919945096376,0 -102.699935205143,21.31903403517095,0 -102.6996529505929,21.31876307785153,0 -102.6993802859421,21.31847392610272,0 -102.698126143867,21.31823568795316,0 -102.6971410217373,21.31804854501137,0 -102.6937705966456,21.31423424284038,0 -102.6931504609078,21.31228594677171,0 -102.6927122222427,21.31180696154898,0 -102.6924203133674,21.31153603576274,0 -102.6921530642523,21.31041195746531,0 -102.6910352235666,21.3095911938645,0 -102.6909544908174,21.30926044577499,0 -102.6906989007163,21.30821332891979,0 -102.6896569701422,21.30708366766507,0 -102.6884582946905,21.3067768287195,0 -102.687473936152,21.3062495270297,0 -102.6845475510261,21.30585427606147,0 -102.6840805450427,21.30542077072162,0 -102.6838176251112,21.30513155018953,0 -102.6835257955995,21.30486968261472,0 -102.6832600173781,21.30401783245946,0 -102.6828222548834,21.30362049248057,0 -102.6822867454329,21.30304208988858,0 -102.681644636643,21.30244601168911,0 -102.6807170441047,21.30092556623461,0 -102.6801974667439,21.29930027747828,0 -102.6796507499101,21.29877956877644,0 -102.6796175268007,21.29795390683061,0 -102.6802009052068,21.29651749247295,0 -102.6796379476677,21.29624774898394,0 -102.6793653724052,21.29595856517677,0 -102.6782214311714,21.2956823204484,0 -102.6772966215517,21.29469726203967,0 -102.6766166740376,21.29406597604994,0 -102.6753170104082,21.29382575426576,0 -102.6748575718207,21.29295660008773,0 -102.6747360674162,21.29278911450432,0 -102.674175085598,21.29201582937226,0 -102.6738607094774,21.29110973530299,0 -102.6733624695647,21.2902225988446,0 -102.6731186512118,21.28793682653362,0 -102.6726985638247,21.28718546819115,0 -102.6732973795313,21.2849595164016,0 -102.6721785502794,21.2838754649092,0 -102.6714028049641,21.28363385230979,0 -102.6697748196674,21.2833415198768,0 -102.6694477839872,21.28182746864942,0 -102.6675741027907,21.2827431290005,0 -102.6662657144129,21.28246751501037,0 -102.6653418473469,21.28163665836505,0 -102.6650877070224,21.28114772733596,0 -102.6646014877688,21.28071425295774,0 -102.6643680147966,21.28048839797454,0 -102.6636386934689,21.27983818248064,0 -102.6633931698772,21.27913141818609,0 -102.6617358112025,21.27875745633466,0 -102.660719961294,21.27692875323323,0 -102.6609881300139,21.27633773857534,0 -102.6626266063326,21.27485147326187,0 -102.6631168394436,21.27414152262964,0 -102.6637706547525,21.27323121771704,0 -102.6628739844397,21.27201002082525,0 -102.6628602771865,21.27119335839879,0 -102.6628740459978,21.27005896329929,0 -102.6622539550972,21.26995275276868,0 -102.6619842862144,21.2702352351339,0 -102.6614145627054,21.27052808842788,0 -102.6602057845455,21.27079647536374,0 -102.6604490844559,21.27302779940395,0 -102.6609316945522,21.27470453439294,0 -102.6597329592331,21.27505454735277,0 -102.6588437850217,21.2753578441028,0 -102.6567327701763,21.27524894839458,0 -102.6561048396478,21.27552388319738,0 -102.6558770574578,21.27645955476825,0 -102.6551418569497,21.27642644199503,0 -102.6551418467172,21.27642641749939,0 -102.654912211267,21.27587912841198,0 -102.6552586768799,21.27407800473725,0 -102.6556484715875,21.27318948723327,0 -102.6561728154849,21.27232090071557,0 -102.6567704865645,21.27168810599781,0 -102.6569001272497,21.27140998747023,0 -102.6568918732427,21.27071458138945,0 -102.6568788484062,21.2697120971401,0 -102.6568756503503,21.2693057135531,0 -102.6563756713657,21.26742056723439,0 -102.6559609010549,21.26502190976419,0 -102.6554470714272,21.26401245553267,0 -102.6545146913554,21.26145308514011,0 -102.6530911806273,21.25888687065829,0 -102.653056522461,21.25864258464207,0 -102.6526938131311,21.2578248543484,0 -102.6525948912934,21.25738101850944,0 -102.6522853887514,21.256852980841,0 -102.6519423774314,21.25600843468211,0 -102.6521599317286,21.25504528327761,0 -102.6520679865017,21.25355409368211,0 -102.6524249361866,21.25230393142879,0 -102.6525059413396,21.25144723338509,0 -102.6525036227785,21.25130625477067,0 -102.6531073740887,21.25144833388485,0 -102.6533336626154,21.25164261522033,0 -102.6535063188588,21.25168324590675,0 -102.6538018082487,21.25169213766599,0 -102.6542033521582,21.25160216284409,0 -102.6546124137784,21.2513593870705,0 -102.6550546202988,21.25095460966633,0 -102.6551713585878,21.25082483188604,0 -102.6554964930239,21.25050461960993,0 -102.655562275572,21.24999986769142,0 -102.6553844501731,21.24967232226517,0 -102.6552868091454,21.24914723735276,0 -102.6553224204574,21.2488487336756,0 -102.6552496908952,21.24780844966558,0 -102.6551072148505,21.24714945615528,0 -102.6551045835473,21.24676749555648,0 -102.6551251664306,21.24658053425937,0 -102.6552393815797,21.24605839644531,0 -102.6553183630884,21.24532808362646,0 -102.6554402056748,21.24493246839285,0 -102.6557226088861,21.24473774101642,0 -102.6559274028336,21.2445780530117,0 -102.6561363588654,21.24293753915345,0 -102.6562574826907,21.24258706180836,0 -102.6563794626018,21.24218241754284,0 -102.6564905272456,21.24185888941251,0 -102.6564754089136,21.24159681562064,0 -102.6564689205873,21.24139807025392,0 -102.6562748410849,21.24088067481881,0 -102.6561494535421,21.24028296620011,0 -102.6558162199242,21.23942953399491,0 -102.6557941865293,21.23899579823755,0 -102.6559693075399,21.23827585049126,0 -102.656107115267,21.23808814083846,0 -102.6562350078771,21.23791835278381,0 -102.6565066117824,21.23762432840541,0 -102.6566626855415,21.23742342127562,0 -102.6568723569692,21.23705601899948,0 -102.6571114685546,21.23643816621325,0 -102.657158557199,21.23587737349647,0 -102.6570788268189,21.23527898131095,0 -102.6568085860014,21.23464210549592,0 -102.6563583116486,21.23411023790755,0 -102.6558787870563,21.23381687731693,0 -102.6548790725025,21.23338487932473,0 -102.6536989494112,21.23308176813855,0 -102.6532930273332,21.23296860982475,0 -102.6528119995065,21.23277078416829,0 -102.6521824663192,21.23229614112945,0 -102.6512943285476,21.23125644839794,0 -102.6507311452884,21.2306154853792,0 -102.6504268896092,21.22971532406021,0 -102.6503690669774,21.22934420348045,0 -102.6503592996624,21.22835257872198,0 -102.6507740388398,21.22710406156552,0 -102.6508608705356,21.22644826052295,0 -102.6508418280356,21.2260418427117,0 -102.6506716367162,21.22552580974469,0 -102.6507048692465,21.22503650068797,0 -102.6509320003339,21.22437070675698,0 -102.6509538172512,21.22379761924613,0 -102.6509353415575,21.22335537282015,0 -102.6509794167532,21.22298567109903,0 -102.6510676446529,21.22272409437972,0 -102.6510350439071,21.22253012072804,0 -102.6509634374808,21.22238577611359,0 -102.6506508182391,21.22185342535671,0 -102.6504217877917,21.22151336866092,0 -102.6501256165971,21.2212297147714,0 -102.6499718001497,21.22096715749598,0 -102.6495844534632,21.22064878566767,0 -102.6491299176294,21.22022913363823,0 -102.6489381203177,21.2199517116915,0 -102.6488565806224,21.2196304315106,0 -102.648712919285,21.21937040415537,0 -102.648095319129,21.21895086577812,0 -102.6474249564388,21.21864526862446,0 -102.6469539834,21.21845951769208,0 -102.6465954666128,21.21809136996732,0 -102.6461887617972,21.21738807198449,0 -102.6458755587914,21.21705077586812,0 -102.6454036248572,21.21644822789093,0 -102.6446679942938,21.21547177894479,0 -102.6445867646186,21.21452252174671,0 -102.6446265947652,21.21426726491669,0 -102.6446725266343,21.21397290407368,0 -102.6446874456055,21.21387870717896,0 -102.6446939311832,21.21383775657148,0 -102.6451366276504,21.21324797073404,0 -102.6455942786409,21.21292928465558,0 -102.6463888906082,21.21261529655509,0 -102.6472280588697,21.21252766961316,0 -102.6484415552008,21.21251749252581,0 -102.6492675201705,21.21265541561043,0 -102.6498437427067,21.21275373819006,0 -102.6501530175331,21.21329080131071,0 -102.6503719873238,21.21399823751415,0 -102.6504294297712,21.21439324477936,0 -102.6506248954281,21.21492157485584,0 -102.6508490496988,21.21524722896263,0 -102.6512323548675,21.21598124930912,0 -102.6515909464213,21.21666714315981,0 -102.6517432208577,21.21670509963257,0 -102.6520507949482,21.21658992268375,0 -102.6523068542421,21.21650986588426,0 -102.6527516982174,21.21657578254763,0 -102.6534463674556,21.21695575989607,0 -102.6538376218466,21.21718816755746,0 -102.654348127284,21.21793589720812,0 -102.6546833399571,21.21849005836016,0 -102.6547492696203,21.21859201540533,0 -102.6550355398314,21.21875853031323,0 -102.6554158574572,21.21889444665088,0 -102.6561549843617,21.21888082336976,0 -102.657037613088,21.21865416729505,0 -102.6578569314812,21.21840273656726,0 -102.6580240215674,21.21830948968196,0 -102.6581990735779,21.21819635297746,0 -102.6586887380617,21.21793336879566,0 -102.6592242573335,21.21756154617635,0 -102.6594380947366,21.21750485596543,0 -102.6601270215275,21.21744273617112,0 -102.6607779240534,21.21736814086055,0 -102.6621512584587,21.2175305217196,0 -102.6636381019931,21.2177661375891,0 -102.6643755331596,21.21785996713675,0 -102.6645459516291,21.21779782121537,0 -102.6648561782389,21.21766666696764,0 -102.6651471484252,21.21753524565905,0 -102.6653613786225,21.21738470240762,0 -102.665505789139,21.21727831961135,0 -102.6657388136403,21.2170426279164,0 -102.6661494027298,21.21685717495193,0 -102.6665759207148,21.21646886344916,0 -102.6666576011468,21.21613551093927,0 -102.6665804636257,21.21536991566661,0 -102.6665450699786,21.21519023969718,0 -102.6666883676642,21.21498914324819,0 -102.6668964766457,21.21471726730027,0 -102.6671937408645,21.21444662436927,0 -102.6678613087055,21.21412136944189,0 -102.6684380281947,21.21390236794857,0 -102.6689284026693,21.2135029848798,0 -102.6695637551832,21.21279501257217,0 -102.6700571231088,21.21220453441451,0 -102.6702401230796,21.21190841559602,0 -102.6702961307166,21.21158665246143,0 -102.6703255414117,21.211336196794,0 -102.6704311824911,21.21109873886461,0 -102.6707539065807,21.21082843986996,0 -102.6711781459383,21.21058343205247,0 -102.6718192791459,21.21031752271102,0 -102.6724238861791,21.20994359544591,0 -102.6731050957974,21.20955877613671,0 -102.6736323426973,21.20924350577272,0 -102.6749391249876,21.20877173279304,0 -102.6763504073981,21.20813414461449,0 -102.6773526232763,21.20758648292015,0 -102.6778202841467,21.20700756990051,0 -102.6782568312368,21.20597428627855,0 -102.6786628568284,21.20526311824564,0 -102.6793705805155,21.20399464078627,0 -102.6796449423351,21.20355641499359,0 -102.6807311795441,21.20252010354166,0 -102.6812600647033,21.20209731619971,0 -102.6815557867989,21.20192218887472,0 -102.682076032624,21.2012364708173,0 -102.6822706112379,21.20101216976907,0 -102.6823659135387,21.20061926413028,0 -102.6823583973122,21.2002846766306,0 -102.6828804966839,21.19947952176313,0 -102.6833720900215,21.19899648513049,0 -102.6844000622365,21.19842523516115,0 -102.6847196800963,21.19835077437973,0 -102.6849887276494,21.1982517282752,0 -102.6853640086399,21.19820192165707,0 -102.6859331884824,21.1979708039647,0 -102.6862490510007,21.19781027828768,0 -102.6865196967313,21.19760851666815,0 -102.6867798923119,21.19742333580832,0 -102.6870909559643,21.19724362896143,0 -102.6876100633691,21.19646469710864,0 -102.6878083077311,21.1963312277314,0 -102.6883142283464,21.19623541874875,0 -102.6891025025648,21.19616736348622,0 -102.6896906719834,21.19602489172195,0 -102.6900333345193,21.1957787143502,0 -102.6904403558905,21.19532555694982,0 -102.6907496960126,21.19492840317803,0 -102.6910671587461,21.19450030017754,0 -102.6911172077842,21.19373883357559,0 -102.6911320210451,21.19278574922099,0 -102.6913159530685,21.19160561459179,0 -102.6914389190238,21.19106972720486,0 -102.6919852926387,21.19033654436887,0 -102.6923492902769,21.18986367972337,0 -102.6928385941447,21.1895239301492,0 -102.6933003869244,21.18931520967776,0 -102.693670068834,21.18929636477858,0 -102.694645464313,21.18964416656811,0 -102.6957982271305,21.19005411157411,0 -102.6974644329159,21.19103251097362,0 -102.6983771002875,21.19131970669164,0 -102.6990380291738,21.19141233286502,0 -102.6997175650386,21.19145503722872,0 -102.7002942261446,21.19139599203573,0 -102.7004864318379,21.19148700915909,0 -102.7008208229893,21.19177348692173,0 -102.7011204078606,21.19200453808872,0 -102.7012457265831,21.19213764964905,0 -102.7013540601534,21.19254528870795,0 -102.7014585134639,21.19320374112812,0 -102.70157034344,21.19420872762851,0 -102.7015109007207,21.19475743524137,0 -102.7013355444099,21.19538818689324,0 -102.7009082503074,21.19583631852338,0 -102.7004065737162,21.19615203013549,0 -102.6998065257043,21.1962394269548,0 -102.6993251672534,21.19636878104058,0 -102.6989276702378,21.19654396594065,0 -102.6984804992951,21.19681780309158,0 -102.6981975430814,21.1970577571746,0 -102.6977322351659,21.19725910476359,0 -102.6971802841801,21.1974592695036,0 -102.6968611972151,21.19754521817731,0 -102.6964722012794,21.19779275281191,0 -102.6961034382661,21.19797735242531,0 -102.6955241430704,21.19807780823677,0 -102.6950885503839,21.19822537346511,0 -102.6946691276797,21.19857181825568,0 -102.6942572274529,21.19905381452436,0 -102.6941687625111,21.19916999653526,0 -102.6940203013596,21.1997204154054,0 -102.6937461111609,21.2009709957127,0 -102.6934520076788,21.20186292437877,0 -102.6932262198869,21.20245713757005,0 -102.6932463105581,21.20280384491584,0 -102.6934254762351,21.20357083301272,0 -102.6939427681809,21.20471276430041,0 -102.6940805288674,21.2054717276921,0 -102.6942477922751,21.20586230188165,0 -102.6945596081341,21.20624582008476,0 -102.6947772538861,21.20649260202466,0 -102.6950045278142,21.20673951519633,0 -102.6951736170763,21.20701272370964,0 -102.6953512131225,21.20735828819678,0 -102.6958879714405,21.20751912525699,0 -102.6965758297304,21.20787165256449,0 -102.6969518367896,21.20782395283193,0 -102.697373436883,21.2077460827023,0 -102.6977804480494,21.20778747141145,0 -102.698197789193,21.20798429811605,0 -102.6986010979633,21.20826455491846,0 -102.6989010342877,21.20863896911338,0 -102.6993163431543,21.20896717125454,0 -102.6996568992018,21.20918683975476,0 -102.700073875932,21.20940754980559,0 -102.7004541248557,21.2095321903086,0 -102.701227731331,21.20975775483023,0 -102.7022291214812,21.21008198528266,0 -102.7040032091301,21.21069148110068,0 -102.7049012415932,21.21110985820922,0 -102.7058339816875,21.21175567813807,0 -102.7064244939883,21.2122893279449,0 -102.7082639852291,21.21361643213151,0 -102.7100486896022,21.21519364193186,0 -102.710704575794,21.21562065212971,0 -102.7112585680122,21.21604627811648,0 -102.7118911966251,21.21632961559597,0 -102.712373006332,21.21647949997893,0 -102.7134296546893,21.21652965913527,0 -102.7137229817612,21.21650974164002,0 -102.7141837350222,21.21637262990942,0 -102.7147624350307,21.2160220862649,0 -102.7151995499094,21.21576519075371,0 -102.7154907150393,21.21572015427408,0 -102.7156947326144,21.21570858068651,0 -102.7160936551896,21.2157808775903,0 -102.7166830860336,21.21589158985792,0 -102.7172135956609,21.21602300648117,0 -102.717558214509,21.21614712871721,0 -102.7179378375911,21.2163147294455,0 -102.7183251779822,21.21647765498427,0 -102.7186428544633,21.21669697906494,0 -102.7191501397579,21.21717929083447,0 -102.719421266488,21.21744338056013,0 -102.7196708766828,21.21778124407263,0 -102.7199481433212,21.21814337370145,0 -102.7201387594133,21.21850672160844,0 -102.7203041724488,21.21901785958439,0 -102.7204349267931,21.21962887713386,0 -102.7204257503998,21.22022605828765,0 -102.7203956859455,21.22052430467155,0 -102.7202462095211,21.22113153513701,0 -102.7200838103722,21.22175053755309,0 -102.7199891381572,21.22210764114039,0 -102.7199241417999,21.22251940573076,0 -102.7199040518048,21.22257331481041,0 -102.7200941805924,21.22336150269036,0 -102.7202069497901,21.22354362854118,0 -102.7206465170942,21.22409957501069,0 -102.7209358229211,21.22434240554308,0 -102.7212895534015,21.22453832124778,0 -102.721797427501,21.22465269562254,0 -102.7224228797865,21.2245775183237,0 -102.7228696316805,21.2245238185872,0 -102.7231937690461,21.22415786405659,0 -102.723506632447,21.2236961873701,0 -102.7239761995741,21.22298575655004,0 -102.7242404888664,21.22236812373871,0 -102.7245719463113,21.22152441958004,0 -102.7249050481683,21.22057322124234,0 -102.7250639458937,21.22018114190824,0 -102.7255336762644,21.21945876047104,0 -102.7259055286972,21.21847224357001,0 -102.7260387621781,21.21809176297565,0 -102.7260835653473,21.21766230588151,0 -102.7263749563285,21.21693751769359,0 -102.7264950845185,21.21658075185555,0 -102.7265766332791,21.21624735895614,0 -102.7266055856669,21.21602077206957,0 -102.7266152841612,21.21538775754027,0 -102.7265483745344,21.21476565694783,0 -102.7264296018994,21.21420258841529,0 -102.726138548629,21.21324297655572,0 -102.7255791031514,21.21233947771578,0 -102.7248506044303,21.21166067562639,0 -102.7246117130963,21.2114543713227,0 -102.7241825007847,21.2111977159786,0 -102.7233468052763,21.21086390086699,0 -102.7230676916263,21.2107884593523,0 -102.7227754740986,21.21073673248231,0 -102.7225329229023,21.21076929781106,0 -102.722290920509,21.21076603235134,0 -102.7216470197188,21.21038701262705,0 -102.7213568216334,21.2102039044331,0 -102.7208786879121,21.20981517291586,0 -102.7207669913912,21.20962252703257,0 -102.71978416031,21.20891637944038,0 -102.7189768989133,21.20839179083986,0 -102.7184339935694,21.20807385534305,0 -102.718170011623,21.20784331111729,0 -102.7174657573812,21.20724843199141,0 -102.7170040546032,21.20662099201219,0 -102.7165487853392,21.20557552466963,0 -102.7163393699204,21.20428251436019,0 -102.7162959564579,21.20379213738133,0 -102.7162582388958,21.2029315085964,0 -102.7162401139132,21.2024534195718,0 -102.7163437790434,21.20151108061405,0 -102.7166104380038,21.20073819120399,0 -102.7168981603624,21.20025229167221,0 -102.7176609649599,21.19952194524904,0 -102.7184095583914,21.19888697112919,0 -102.7193741054211,21.19829074844739,0 -102.7195922651474,21.19818618018359,0 -102.7201184686591,21.19793046977492,0 -102.7204463096217,21.19792843982838,0 -102.7210398630304,21.19815317388328,0 -102.7214516999398,21.19821127927865,0 -102.7218987379694,21.19813368696575,0 -102.7228979954397,21.19776488778697,0 -102.723397806093,21.19756854230628,0 -102.7238732415167,21.19730018909279,0 -102.7240306464771,21.19700365762703,0 -102.72412012062,21.19691911592422,0 -102.7242769902305,21.19686070266665,0 -102.724476646312,21.19681799751668,0 -102.7249989422789,21.19677963966614,0 -102.7257369486319,21.19670383213561,0 -102.7267270203795,21.19632373550966,0 -102.7286414970813,21.19495126054823,0 -102.7290164919442,21.19458597164633,0 -102.7295743462657,21.19392448615767,0 -102.7298732871867,21.19353427965661,0 -102.7303795394066,21.19318566461351,0 -102.7307205864773,21.19288349648688,0 -102.7313814137343,21.19248601546111,0 -102.7322342216876,21.19212722986663,0 -102.7324176815317,21.19209357211246,0 -102.7328424994066,21.19201800292264,0 -102.7334207942374,21.19198061289011,0 -102.7341866667096,21.19218254484848,0 -102.7349475172552,21.19240778173527,0 -102.7355942966798,21.19259564707742,0 -102.7361259119266,21.19281780471175,0 -102.73675686634,21.1932085393359,0 -102.7371578549938,21.19364397626088,0 -102.7375926876154,21.19436657559836,0 -102.7380020521406,21.19508883299082,0 -102.7389405063979,21.19620045245212,0 -102.7398061949249,21.19707216967263,0 -102.7405438055775,21.19798995479338,0 -102.7413571159368,21.19895653409677,0 -102.7417945256946,21.19951191161795,0 -102.7428896822256,21.20037473798924,0 -102.7431304005313,21.20046157892439,0 -102.7435488816316,21.2005866342227,0 -102.7439267962984,21.20086644842072,0 -102.7441274923917,21.20107221602094,0 -102.7443267375527,21.20137353454119,0 -102.7450738294132,21.20167022299048,0 -102.7457615931918,21.20167940630853,0 -102.7464415152325,21.20136593286506,0 -102.7468041144332,21.20097654488662,0 -102.7470136942704,21.20059706048789,0 -102.7473569768216,21.19980123924023,0 -102.7477020666973,21.19888597808862,0 -102.7478533937985,21.1981473263072,0 -102.7478983036053,21.19770591261205,0 -102.7475013795997,21.19615954742619,0 -102.7471506970148,21.19492440202422,0 -102.747025457459,21.19394313552695,0 -102.7469162149188,21.19274704957915,0 -102.7469479694636,21.19149311182265,0 -102.7470101411166,21.19075327173497,0 -102.7470932546489,21.19031236654518,0 -102.7474605292099,21.18961243316655,0 -102.7479640877143,21.1891651878321,0 -102.7485149640963,21.18895749665501,0 -102.7489379432643,21.18878393871163,0 -102.749350539136,21.18845493972657,0 -102.7495877836055,21.18809732123028,0 -102.7496908588053,21.18801984920649,0 -102.7501423741778,21.18798046679875,0 -102.750585958544,21.18796009100007,0 -102.7509381375401,21.18791938375547,0 -102.7514137130048,21.18797349980841,0 -102.7518038263695,21.18811965886281,0 -102.7521933801589,21.18847128543494,0 -102.7524683185139,21.18882138734736,0 -102.7525669489214,21.18903773301946,0 -102.7525746258038,21.18937233293276,0 -102.75243950316,21.18988422707307,0 -102.7521893995526,21.1904184842943,0 -102.752069358869,21.19077527685354,0 -102.7519858980487,21.19124007233667,0 -102.7519655723065,21.19174154731081,0 -102.7520614926225,21.19213705310805,0 -102.7523629916809,21.19241583029684,0 -102.7529834247947,21.19266301168082,0 -102.7535929316468,21.19279058225257,0 -102.7541626062815,21.19302513830061,0 -102.754427167488,21.1932197970386,0 -102.7545143323003,21.19335236545061,0 -102.7545846084857,21.19375947466891,0 -102.7547025788862,21.19438225239555,0 -102.7547872162081,21.19468203611092,0 -102.7552022657763,21.19503399718987,0 -102.7558583970753,21.19544889171415,0 -102.7565540022667,21.19578068509906,0 -102.757032919691,21.19612154350218,0 -102.7572334494382,21.19633924043473,0 -102.7574318157258,21.19670026525498,0 -102.7576656858329,21.19724095666467,0 -102.7578886255823,21.19766203916482,0 -102.7581783112769,21.19788091885312,0 -102.7585727718376,21.1979100480728,0 -102.759065157728,21.19820329459791,0 -102.7598976403848,21.19875192600671,0 -102.7606560520222,21.19914426831072,0 -102.7609864753231,21.19919643536986,0 -102.7625932298455,21.19908632142408,0 -102.764811504993,21.19897234012628,0 -102.7657927405688,21.19894948632286,0 -102.7662394102728,21.19889566324284,0 -102.7664720764689,21.19867175872963,0 -102.7668055550886,21.19852086622836,0 -102.7671731662411,21.19842722782595,0 -102.7675746763128,21.19836624070939,0 -102.7679362557268,21.19834892206059,0 -102.7683836676422,21.19836956710054,0 -102.768885498174,21.1984277611459,0 -102.7693802504692,21.19843429692325,0 -102.7698286585273,21.19838865591177,0 -102.7701763002264,21.19825328873364,0 -102.770420081422,21.19823440927229,0 -102.7711026484019,21.19828761671856,0 -102.7714244089879,21.19830659528729,0 -102.7717628713457,21.19825949814867,0 -102.7726523841793,21.19813127542882,0 -102.7734727619462,21.19789900872051,0 -102.7741678183878,21.19764298886845,0 -102.7743257646749,21.19758614103558,0 -102.7748018116457,21.19726830143603,0 -102.7751670295641,21.19700792988596,0 -102.7753511823235,21.19677463768421,0 -102.7756564404671,21.19632195431253,0 -102.7757840756688,21.19619104314367,0 -102.7761413259634,21.19593793117845,0 -102.776518690714,21.19539043442648,0 -102.7766440932209,21.19488381740726,0 -102.7766867491482,21.1941330265774,0 -102.7765709945575,21.19294554426513,0 -102.776396108416,21.19256019938378,0 -102.7759963546543,21.191980372025,0 -102.7755961628094,21.19143000432386,0 -102.775102181326,21.1908489353116,0 -102.7745658506208,21.19047356018379,0 -102.774096446448,21.19034951656227,0 -102.7735001844747,21.19030482743934,0 -102.7730345504768,21.19045337990313,0 -102.77274776413,21.19072214813789,0 -102.7724390748846,21.19088013407581,0 -102.7719345060396,21.19100607072668,0 -102.7715263793011,21.19098595495586,0 -102.7708709401644,21.19069739198777,0 -102.7701691604893,21.19035665159377,0 -102.7694752378557,21.19001601225207,0 -102.7690637958239,21.18969383310619,0 -102.7687940362401,21.18935142627435,0 -102.7687019052353,21.18921025252834,0 -102.7684511705519,21.18864711117998,0 -102.7683466523408,21.18828478830642,0 -102.7683181179193,21.18809289023126,0 -102.7682937239535,21.18779468560932,0 -102.7682845762839,21.18755563610159,0 -102.7684061900473,21.18709133143932,0 -102.7685121972523,21.18681796415192,0 -102.7685157842545,21.18657908280928,0 -102.7685319279205,21.18635231358444,0 -102.7687025070959,21.1860200667263,0 -102.769249578153,21.18521493326006,0 -102.7695476859954,21.18487242181358,0 -102.770050628516,21.18446093563287,0 -102.7706814576451,21.18401529440371,0 -102.7709510438762,21.18387549396183,0 -102.7718281523072,21.18399458092261,0 -102.7723371982588,21.18402518546444,0 -102.7736663006123,21.18373209501474,0 -102.7744831343116,21.18362339084842,0 -102.7758332328754,21.18362922136465,0 -102.7767499813546,21.18365323237715,0 -102.7771169766289,21.18381336549259,0 -102.7774938509994,21.18416477064097,0 -102.7780350341669,21.18460196187545,0 -102.7783765642342,21.18476175766346,0 -102.7792124474878,21.18508335512986,0 -102.7799346099802,21.18534372196052,0 -102.7802901279916,21.18542007182207,0 -102.78074681483,21.18554553604035,0 -102.7816103193848,21.18572412638982,0 -102.7820166018145,21.18581308648776,0 -102.7828578471681,21.1857763415895,0 -102.7838797020036,21.18558665714687,0 -102.7844057680842,21.18533073305169,0 -102.7846765924045,21.1851072998272,0 -102.7847953049417,21.1848340855868,0 -102.7846997383038,21.1845245075974,0 -102.7845854930214,21.18379154492499,0 -102.7848822291137,21.18326263981547,0 -102.7849909451974,21.18281768708943,0 -102.7849540667251,21.18187342776938,0 -102.784842379508,21.18082066870653,0 -102.7846719220475,21.18029278626658,0 -102.7847347867677,21.17949319242359,0 -102.784753572612,21.17908725697037,0 -102.7847260463502,21.17837010356828,0 -102.7846911254615,21.17729445781892,0 -102.7847269159445,21.17660202696157,0 -102.7850818559667,21.1750058419424,0 -102.7855895272979,21.17427180868606,0 -102.78581276951,21.1738207636891,0 -102.7858791087943,21.17364243428885,0 -102.7860356546491,21.17339360722649,0 -102.7862420705309,21.17321711225613,0 -102.7865896294863,21.17297078599877,0 -102.7872176971173,21.17270423828332,0 -102.7879639232791,21.17220030289876,0 -102.7884398849931,21.17188397240494,0 -102.7890338261921,21.17134219920858,0 -102.7892941906872,21.17096331405525,0 -102.7896035377969,21.17071648106768,0 -102.7900922252882,21.17040031253359,0 -102.7906688078923,21.17016891683925,0 -102.7911555403628,21.16998413169656,0 -102.7919731796655,21.16981561360363,0 -102.7924186944746,21.16983337808633,0 -102.7927108693252,21.16988497959682,0 -102.7930141822858,21.17004424565587,0 -102.7933026364771,21.17034667522704,0 -102.7938146363646,21.17103431376771,0 -102.794224412212,21.17174451105393,0 -102.794599531904,21.17221532232578,0 -102.794939992446,21.17244674947596,0 -102.7953448340127,21.17263122906052,0 -102.7958655251546,21.17273359150456,0 -102.7966313554028,21.17262411008214,0 -102.7975137389262,21.1723847291686,0 -102.7978844494564,21.17229398628126,0 -102.7981014630715,21.17226097287858,0 -102.7985091377766,21.17225433606325,0 -102.7988814385787,21.17205609172912,0 -102.7999208678921,21.17153202376573,0 -102.8006527265658,21.17113536157368,0 -102.8012315948075,21.1707486517151,0 -102.8019355072531,21.17051887234683,0 -102.8025356027568,21.17041915444796,0 -102.8032389819733,21.17022520189028,0 -102.8038028138664,21.16999359494703,0 -102.8043424094894,21.1696780431073,0 -102.8048809452908,21.16943415636298,0 -102.8053669567274,21.1692971062306,0 -102.8057237651301,21.16918013686322,0 -102.8057804933395,21.16925803726121,0 -102.805802982196,21.1692854035915,0 -102.8058890826722,21.16939017805817,0 -102.8062155555148,21.16978745448614,0 -102.8067389841235,21.17020062017853,0 -102.8074062713604,21.17065177246589,0 -102.8082321471932,21.17144813936189,0 -102.8084296352365,21.1717667688802,0 -102.8085390268679,21.17218359222851,0 -102.8085708787745,21.17263553254605,0 -102.8085319756022,21.17266211985728,0 -102.8085396059451,21.17279767699097,0 -102.8085687968616,21.17343019373794,0 -102.8089080185388,21.17393127125317,0 -102.8094335969325,21.17419996910535,0 -102.8097731706453,21.17402375837125,0 -102.8099690169611,21.17380053205786,0 -102.8101549706918,21.1735952384213,0 -102.8104438312187,21.17293974972452,0 -102.8104728422726,21.17293109493786,0 -102.8105336557822,21.17272417981666,0 -102.8101106673874,21.17137314796498,0 -102.8100958025296,21.17107494705796,0 -102.8102048779968,21.17085962660897,0 -102.8103119592774,21.17077973859371,0 -102.8103308123119,21.1708070744576,0 -102.8104665053598,21.1707456180378,0 -102.8107171774754,21.17072177275329,0 -102.8109765452663,21.17076125360893,0 -102.8112832455858,21.17085553025209,0 -102.8117711119651,21.17106954878146,0 -102.8122286410976,21.17138250961756,0 -102.8124848235297,21.17163868063777,0 -102.8125877877854,21.17183868543014,0 -102.812849083093,21.17240196143949,0 -102.8128180804956,21.17254604939166,0 -102.8130362262775,21.17342483677702,0 -102.813062151394,21.17363368708629,0 -102.8130579346064,21.17391276825025,0 -102.8130507644614,21.17440032607987,0 -102.8131437725518,21.17527749433102,0 -102.8131968155213,21.17625348168894,0 -102.813305027848,21.1767515628178,0 -102.8133267364738,21.17723949419727,0 -102.8132837163064,21.17754597680545,0 -102.8132612765861,21.17776242001879,0 -102.8132820553238,21.17831355326998,0 -102.8136197100149,21.1789229695592,0 -102.8135713122056,21.17894040456528,0 -102.813828172742,21.17915143042567,0 -102.8141136479556,21.17938088718648,0 -102.8146452986662,21.17989347465849,0 -102.8148139310222,21.18021172512362,0 -102.8148106131183,21.18043744644236,0 -102.8147800081036,21.18055444809046,0 -102.8146114455101,21.18088639935721,0 -102.8144344502086,21.18113696623011,0 -102.8143644090363,21.18131667168374,0 -102.8143517291417,21.18152421069891,0 -102.8144164605204,21.18170565922815,0 -102.8144444111871,21.18176923468778,0 -102.8144339880531,21.18182328327581,0 -102.8144821212652,21.18182390579882,0 -102.8145005780772,21.18187832789963,0 -102.8145123629548,21.18188726164281,0 -102.8146174963858,21.18196695967178,0 -102.8147672041353,21.18208044847051,0 -102.8158109385145,21.18247322643975,0 -102.8162309316526,21.18272248007302,0 -102.8168206268737,21.18321775091103,0 -102.8169896649962,21.18350891322947,0 -102.8169701462465,21.1835267222134,0 -102.8170898576069,21.18389852237046,0 -102.8171408024323,21.18501897186588,0 -102.8172059362399,21.18517333309648,0 -102.8172632997007,21.18520116587483,0 -102.8172888653396,21.18542726052352,0 -102.8173389359416,21.18595168070906,0 -102.8174302991438,21.18628699222659,0 -102.8175881233632,21.18668637624268,0 -102.8177773484125,21.18691458479783,0 -102.8182160809584,21.18720019889405,0 -102.818215550731,21.18723631435786,0 -102.8186462484725,21.18741345674292,0 -102.8192238704751,21.18742091359695,0 -102.819706811945,21.18731877963874,0 -102.8200434932134,21.18734118533092,0 -102.8203014367279,21.1874799721746,0 -102.8205091267352,21.18776259977781,0 -102.8206657689641,21.18824324161792,0 -102.8206430719222,21.18847774410689,0 -102.820465943441,21.18873734607008,0 -102.8200166050954,21.1891740471155,0 -102.8199958937006,21.1892731162763,0 -102.8199569876638,21.18929970597134,0 -102.8200859397525,21.18969871567433,0 -102.8200174897175,21.18977007705747,0 -102.8201617651597,21.18978096935646,0 -102.8205155875633,21.18994808506376,0 -102.8207346297372,21.1901134614405,0 -102.8208099260423,21.19023183039035,0 -102.8209003720343,21.19063034292527,0 -102.8208479982856,21.19091864608145,0 -102.820660974652,21.1911961815197,0 -102.8205987079481,21.19150241806942,0 -102.8205704033318,21.1915696892588,0 -102.8204973878083,21.19174322348822,0 -102.8203492830005,21.19209521835645,0 -102.8202680253117,21.19238314846295,0 -102.8202335794466,21.1927619884044,0 -102.8203537017855,21.19310670060094,0 -102.8204297938348,21.19317089654904,0 -102.8204191067069,21.19324300330375,0 -102.8204845117387,21.19337930598953,0 -102.8209658430462,21.19404474871956,0 -102.821077664703,21.1942990476289,0 -102.8211965981125,21.19472501932644,0 -102.8211630804914,21.19504065739015,0 -102.8209958363544,21.19528232557525,0 -102.8206447405568,21.19558483539742,0 -102.8204217166218,21.19569032442717,0 -102.8203334557183,21.19571209418866,0 -102.8202341609508,21.1957365859966,0 -102.8200737988086,21.19577614002767,0 -102.8200548086521,21.19575783376537,0 -102.819967365373,21.19581088857462,0 -102.8195523190627,21.19587777542271,0 -102.8191388631989,21.19583631487012,0 -102.8185393014396,21.19600918338063,0 -102.8183047914414,21.1962409490712,0 -102.8181955723209,21.19646530241382,0 -102.8181214150239,21.19692490340567,0 -102.8181724168892,21.19738612128834,0 -102.818188887033,21.19757597599908,0 -102.8182529651828,21.19780256802185,0 -102.8182805220302,21.19789322970265,0 -102.8183377577866,21.19793009137389,0 -102.8187099235228,21.19816066296271,0 -102.8189022129122,21.19818120764372,0 -102.8191688686395,21.19804284335078,0 -102.8193540265395,21.19790865498502,0 -102.8195734189813,21.19772028513713,0 -102.8197183647114,21.1976860341506,0 -102.8199098585885,21.1977607508323,0 -102.8200048104806,21.19785228229025,0 -102.8200975097084,21.19809730442229,0 -102.8201353120508,21.19880217730194,0 -102.8201734256132,21.1988297609979,0 -102.8202256266465,21.19920971898323,0 -102.8203189894433,21.19940959673397,0 -102.8205826059996,21.19981937506604,0 -102.8208023241821,21.19993960809899,0 -102.8215887625356,21.20015745836572,0 -102.8217409545107,21.20028584973474,0 -102.8220297525591,21.20094880730037,0 -102.8222958921219,21.20118703489746,0 -102.8224875243219,21.20125272024955,0 -102.8228453470678,21.20114896708668,0 -102.8232145178424,21.20092796177615,0 -102.823473810484,21.20097645702671,0 -102.8243366216023,21.20124043248413,0 -102.8247181692154,21.20148917408545,0 -102.8248305309236,21.20170735577559,0 -102.8247793490065,21.20191440011403,0 -102.8243177780235,21.20384099989219,0 -102.8242705333896,21.20443640999588,0 -102.8243698281528,21.20488921897429,0 -102.8245481336747,21.20520758715773,0 -102.8249679119277,21.20613411578579,0 -102.825094507171,21.20669564330269,0 -102.825187351442,21.20693163471248,0 -102.8253960007409,21.20715105662815,0 -102.8266981875744,21.20766450790213,0 -102.8269230640853,21.20775223432413,0 -102.8271930340369,21.20785755180468,0 -102.8282781559421,21.20828086010275,0 -102.828364283613,21.20831809048111,0 -102.8283839367594,21.20829125148601,0 -102.8286435086368,21.20832168219062,0 -102.8289116526984,21.208424467596,0 -102.829026533979,21.20847109805106,0 -102.8293539017357,21.20847530771949,0 -102.8295769405805,21.20836980813662,0 -102.829709230945,21.208543090496,0 -102.8299284419465,21.20869942892759,0 -102.8304700077395,21.2092030735035,0 -102.8305934630699,21.20932205806033,0 -102.8310196225722,21.2098151873718,0 -102.8311230301346,21.20998809769367,0 -102.8312996409473,21.21042383629009,0 -102.8313331424192,21.21076743006069,0 -102.8313529257134,21.21139079662034,0 -102.8313720492832,21.21205930774235,0 -102.8314014631149,21.21202356319261,0 -102.8315109393,21.21244037792805,0 -102.8315268987422,21.21266634830903,0 -102.8315684464522,21.21311841276639,0 -102.8316205448995,21.21416663321964,0 -102.831589019775,21.21434684044787,0 -102.8316176424982,21.21436526940946,0 -102.83159310755,21.21472617868343,0 -102.8316090591932,21.2169298527593,0 -102.8316099796642,21.21752588484068,0 -102.8317133924514,21.21769879517371,0 -102.8318452969212,21.21789916335239,0 -102.8323622340997,21.21811350826489,0 -102.832638708552,21.21830670225225,0 -102.8326768293734,21.2183342836939,0 -102.8327229966753,21.21847033583439,0 -102.8326930541455,21.21854219618557,0 -102.8328174416533,21.21859797737,0 -102.8331450992241,21.2192433587002,0 -102.8332336110846,21.21977730154043,0 -102.833251814603,21.21984978020389,0 -102.8331989211379,21.22017420312904,0 -102.8329977636366,21.22075860977749,0 -102.832943682064,21.22116429278032,0 -102.8329584562955,21.22147152333944,0 -102.8331158243623,21.22190701376912,0 -102.8333994302988,21.22227188025804,0 -102.8335792239119,21.22249092361424,0 -102.8340080644851,21.22280347030083,0 -102.8343139651031,21.22296091753233,0 -102.8347173470834,21.22303833974605,0 -102.8358058698355,21.2230252139116,0 -102.8362030480651,21.22286775680943,0 -102.8365217414978,21.22280862923631,0 -102.8368587719429,21.22281295053098,0 -102.8369732719771,21.22288666348801,0 -102.8370765628167,21.22306860022525,0 -102.8371635101363,21.22371088947336,0 -102.8372268354636,21.22399165073827,0 -102.837510192407,21.22437456931781,0 -102.8380436565128,21.22477875398261,0 -102.8386161683187,21.22514731487749,0 -102.8389239210488,21.22517834924172,0 -102.8391050419823,21.2253070981275,0 -102.8392938198129,21.22557140445045,0 -102.8393393372945,21.22575260014056,0 -102.839363622504,21.22606898343827,0 -102.8391356940823,21.22650856522371,0 -102.8391145929173,21.22663472382201,0 -102.8392347802136,21.2269794274023,0 -102.8394521862917,21.2272621616342,0 -102.8395953172073,21.22735430107701,0 -102.8399844526526,21.22708836501784,0 -102.8408276298746,21.2267289028209,0 -102.8411480393755,21.2265523905809,0 -102.8414208252907,21.22633914573937,0 -102.8416461189829,21.2260801395601,0 -102.8416367520944,21.22606195842883,0 -102.8418036100275,21.2258473575844,0 -102.8418624391169,21.22577586498495,0 -102.842233226784,21.22544647383408,0 -102.8424395210757,21.2251691620652,0 -102.8427014910419,21.22503705234512,0 -102.8435432068328,21.22477689367808,0 -102.8449566086074,21.22428020608072,0 -102.8458253700179,21.22414681017559,0 -102.8462505140221,21.22405290058253,0 -102.8464055050148,21.22399166437511,0 -102.8473625695453,21.22308274950161,0 -102.8475569943406,21.2229588005065,0 -102.8479835750801,21.22276556708166,0 -102.8484858812117,21.22266360492234,0 -102.8489673566381,21.22266974382943,0 -102.8493227322103,21.22273748883876,0 -102.849522595946,21.22290258863211,0 -102.8497201041739,21.22323021051746,0 -102.8501704142562,21.22405774134954,0 -102.8504142414913,21.22451238241655,0 -102.8505539756249,21.22483926744339,0 -102.850572449869,21.2248936869314,0 -102.8506191589093,21.22499361956744,0 -102.8506239473121,21.22532781597436,0 -102.8504845516611,21.22564211398099,0 -102.8502393591889,21.22594603301876,0 -102.8498800485745,21.22614915970414,0 -102.8498321616663,21.22613048801218,0 -102.8497544692217,21.22617465118825,0 -102.8495613507143,21.22620831235098,0 -102.8488854354098,21.22632612461868,0 -102.848431527509,21.22641064297158,0 -102.8480830224464,21.22653262729773,0 -102.8477715945932,21.22675442128581,0 -102.8475955069271,21.22694181879936,0 -102.8474864341923,21.22715716321117,0 -102.8474686791511,21.22771683823695,0 -102.8473582949307,21.22802247245549,0 -102.847280924676,21.22870781595935,0 -102.8467193033665,21.2295766223517,0 -102.8466794724358,21.22966642053774,0 -102.846434658636,21.22994324570937,0 -102.8463164762408,21.23012235005676,0 -102.8462054316955,21.23047312802376,0 -102.8461813190529,21.23080695462222,0 -102.8462987715801,21.23134126342649,0 -102.8465817722513,21.23175125660413,0 -102.8471088049181,21.23193859788399,0 -102.8474751420176,21.2319161815238,0 -102.8477852712324,21.23178467912492,0 -102.8479031913627,21.23162363173514,0 -102.8479937935748,21.23135386766849,0 -102.848038472879,21.23092999623986,0 -102.8480003458493,21.2309024177905,0 -102.8480222267643,21.23072208355845,0 -102.8480008060208,21.23020706206664,0 -102.8480710340438,21.22935004427971,0 -102.8481703469413,21.22914360576201,0 -102.8484026442337,21.22906529287749,0 -102.8490469323697,21.22913672442096,0 -102.8499964993994,21.2294107198149,0 -102.8502264402358,21.22949492659742,0 -102.8504179923748,21.22956961319972,0 -102.8509431915544,21.22988334851253,0 -102.851191477853,21.23003100258769,0 -102.8517460937694,21.23030898761592,0 -102.8518513700065,21.2303554818162,0 -102.8520050580637,21.23038453108681,0 -102.8522644150002,21.23043298711058,0 -102.8530149042622,21.23048769486314,0 -102.8547286611677,21.23053659189405,0 -102.8548153316864,21.23053769418229,0 -102.8549981721845,21.23054905012902,0 -102.8552967040727,21.23055284623777,0 -102.8557970756879,21.23058629985308,0 -102.8562676436816,21.23068258816022,0 -102.8569694649827,21.23077278276917,0 -102.8574302740682,21.23087797464314,0 -102.8578595847086,21.23116337952992,0 -102.8583745249797,21.23152211642904,0 -102.858667452295,21.23191415632275,0 -102.8592785517393,21.2329514153765,0 -102.8593963140716,21.2334676609452,0 -102.8591515152885,21.23374450595344,0 -102.8589553887171,21.23398584557336,0 -102.8584491347503,21.23435870785458,0 -102.8573737742657,21.2347875539827,0 -102.8566901501266,21.23476983661177,0 -102.8560471370471,21.23460814152827,0 -102.8550997439398,21.23418068299281,0 -102.8543332408463,21.23390001205238,0 -102.8539581830493,21.23385911723595,0 -102.853610970551,21.23389082151085,0 -102.8535130991296,21.23399794420012,0 -102.8534882171144,21.23438594722297,0 -102.8535134475037,21.23463912768194,0 -102.8535381550029,21.23492842424322,0 -102.8537248791475,21.2353371817837,0 -102.8539532629202,21.23552973272322,0 -102.8542959050499,21.23581404412373,0 -102.8553527557366,21.23621410538209,0 -102.8554431892699,21.23630234567133,0 -102.8555288443849,21.23648645826592,0 -102.855555069428,21.23654282814724,0 -102.8556669841825,21.23679412708041,0 -102.8557126424369,21.23717968628933,0 -102.8558021181745,21.2374937295911,0 -102.8559420783236,21.23775875133324,0 -102.8561252993143,21.23796219267801,0 -102.8563555232922,21.23821308268646,0 -102.8565652893046,21.23848452632401,0 -102.8568473305489,21.23868936311541,0 -102.8570060867889,21.2388452305168,0 -102.8572069503098,21.23892588338117,0 -102.857472387425,21.23911523550773,0 -102.8576716197832,21.23924360704869,0 -102.8579197204769,21.23944177260536,0 -102.8582309326718,21.23967985869685,0 -102.858563823736,21.23997380721814,0 -102.8588688856204,21.24030511672893,0 -102.8592404184251,21.24058705087884,0 -102.8595712977743,21.24086830565826,0 -102.8599845379114,21.24116361486287,0 -102.8602255642254,21.2413183357106,0 -102.8604640002897,21.24152207094338,0 -102.8605545064391,21.24175022991101,0 -102.8606669103254,21.24188632765114,0 -102.8606994925965,21.24194597985596,0 -102.8606942787355,21.24230714230277,0 -102.8606026475336,21.24264914674385,0 -102.860630888406,21.24269465867245,0 -102.8605615168337,21.24282923909383,0 -102.8605030796642,21.24287365110006,0 -102.8604922754909,21.24295479041494,0 -102.8603247693076,21.24321455531038,0 -102.8602458966382,21.24333998426283,0 -102.8600576933144,21.24369882395104,0 -102.8600368666515,21.24380692812255,0 -102.860071478561,21.24407828877902,0 -102.8601464400295,21.24422373163891,0 -102.8602402724471,21.24439650612503,0 -102.8608673147737,21.24500049071075,0 -102.8609429291966,21.24510078800994,0 -102.8612931522341,21.24552967506358,0 -102.861490191885,21.24589340333774,0 -102.8616190326764,21.24631045063327,0 -102.861690869073,21.2466725904878,0 -102.8616709551849,21.24671749145717,0 -102.8616995880087,21.24673591609291,0 -102.8616415277691,21.24742151391092,0 -102.8615200884081,21.24782635545785,0 -102.8612940080628,21.24813956208152,0 -102.8608786745728,21.24888384077526,0 -102.8608834817406,21.24921803803417,0 -102.8609666433091,21.24946292256805,0 -102.8610032129491,21.24959884729583,0 -102.8610615224592,21.24956346441557,0 -102.861396012072,21.24974832298211,0 -102.8614891971437,21.24996624237268,0 -102.861486850814,21.25012876540557,0 -102.8613372960991,21.25047906553011,0 -102.8612396703069,21.25100808835239,0 -102.8612041016327,21.25120082641996,0 -102.8611909835869,21.25127191134382,0 -102.8612379674347,21.25135378394596,0 -102.8613603081853,21.25155401199021,0 -102.8614242085455,21.25179865197748,0 -102.8614606486206,21.25194360571018,0 -102.8614748273181,21.25229598328191,0 -102.8616144767044,21.25263189147072,0 -102.8617749540225,21.25285969531291,0 -102.8620419004182,21.25305272687623,0 -102.8623298048675,21.25312862464396,0 -102.8625124138352,21.25315803293059,0 -102.8629451834039,21.25320867481704,0 -102.8632809861763,21.25330323981569,0 -102.8633527646997,21.25332371128408,0 -102.8634311263543,21.25336196730924,0 -102.8633445318615,21.25419791207389,0 -102.863427001132,21.25528272387214,0 -102.8633241924628,21.25555280868202,0 -102.863032993905,21.25572958503782,0 -102.8627431540306,21.25581651707519,0 -102.8624564125794,21.25563211236891,0 -102.8620748014942,21.25544642597044,0 -102.8615950228235,21.25534931249685,0 -102.8611115684876,21.25543370254279,0 -102.860911748826,21.25597383654614,0 -102.8609967273857,21.2566974816752,0 -102.8626174688441,21.25780176134452,0 -102.8635541695868,21.25970932881315,0 -102.8635422989911,21.2605451503046,0 -102.8635375055307,21.26088272338561,0 -102.8629677291591,21.26192536121364,0 -102.8623943125103,21.26255066940893,0 -102.8618568309633,21.26296458014058,0 -102.861177628363,21.2635807202296,0 -102.8606599473291,21.26412987601346,0 -102.8603099485576,21.26478544989907,0 -102.859684027903,21.26546201291938,0 -102.8590716919309,21.26612388402571,0 -102.8588252306691,21.26653416707367,0 -102.8590209218087,21.26705606969253,0 -102.8600471211498,21.2682487402396,0 -102.8598214252992,21.26890716545476,0 -102.85956684607,21.26986139701403,0 -102.8594046217976,21.27045001424343,0 -102.8593967719227,21.27047849748855,0 -102.8588163456765,21.27070011929584,0 -102.8579466605436,21.27087711147929,0 -102.8575135749042,21.27109534205056,0 -102.8566368153101,21.27159479915605,0 -102.8555844082583,21.27219743964932,0 -102.8549622650763,21.27255949184526,0 -102.8548859765721,21.27260388745626,0 -102.8548013609185,21.27265312844765,0 -102.8546952822921,21.27271485903993,0 -102.8534794144217,21.27343670512506,0 -102.8521748521091,21.27414764632928,0 -102.8519962186049,21.27546350542798,0 -102.8494030588254,21.27588545350664,0 -102.8468972374696,21.27669071466679,0 -102.8448294517161,21.27732684393655,0 -102.8448530379212,21.27736148386194,0 -102.8450715309416,21.27768237020595,0 -102.8460401991563,21.27912591021167,0 -102.8468014335484,21.28016770724545,0 -102.8479107696562,21.28066893019365,0 -102.8486320265023,21.28099382227753,0 -102.849539405156,21.28131886031736,0 -102.8507882625844,21.28139028898471,0 -102.8503427661691,21.28591303375011,0 -102.8499762698238,21.28843767505522,0 -102.849731280556,21.2902095314426,0 -102.8493250215805,21.291680853849,0 -102.8490754168239,21.29230891563124,0 -102.848777542907,21.29317628519816,0 -102.8460565210227,21.29401212601102,0 -102.8456310324183,21.29397833369464,0 -102.8449427579826,21.29397983850581,0 -102.8449369682462,21.29411223150172,0 -102.844208745657,21.29403645436524,0 -102.8441420109154,21.29413238385908,0 -102.8441298572459,21.29427056420705,0 -102.8440632887539,21.2943765540622,0 -102.8439249818924,21.29445246219781,0 -102.8431514353199,21.29658425114097,0 -102.8431417167261,21.29675627031246,0 -102.8430837683446,21.29691245198515,0 -102.8429944007018,21.29703632571573,0 -102.8429074343774,21.29759261647852,0 -102.840861740851,21.29757139959703,0 -102.8409132439475,21.29813024138506,0 -102.8399288569206,21.29813466888266,0 -102.8401017921113,21.29929652301966,0 -102.8398155615862,21.30074319906059,0 -102.8397394434988,21.30157386205291,0 -102.8377342697779,21.30269891628303,0 -102.8371021381596,21.30341079920709,0 -102.8365186116001,21.30299153691452,0 -102.8352499290152,21.30223025310288,0 -102.8331779130401,21.30111513914033,0 -102.832155492516,21.30038088272224,0 -102.8267341313173,21.29874003106779,0 -102.8253608104949,21.29831930129481,0 -102.8249321862127,21.2982360655322,0 -102.8243653145472,21.29807035976167,0 -102.8241191190212,21.29799839229953,0 -102.8233049822673,21.29760012656562,0 -102.8225378507172,21.29725614281457,0 -102.8221096089873,21.29709310896969,0 -102.8219175333734,21.29699687426034,0 -102.8206251083574,21.29645567421973,0 -102.8194880197373,21.29608661686714,0 -102.8185650415162,21.29574314385405,0 -102.8166890862314,21.29491146653176,0 -102.8155470572043,21.2944934226738,0 -102.815159028986,21.2946689940014,0 -102.8155243888001,21.29511258680732,0 -102.8162209715751,21.29585881788895,0 -102.8160070659788,21.29648772089309,0 -102.8158963865201,21.29693618386809,0 -102.8158910493504,21.29729733325963,0 -102.8160129698811,21.29748385179164,0 -102.816301743467,21.29765973080727,0 -102.8165834395488,21.29788585784828,0 -102.8172241079573,21.29838481660426,0 -102.8174058400337,21.29912308560416,0 -102.8176909441856,21.29967383217498,0 -102.8171301701356,21.30074979501125,0 -102.8174390691531,21.30165781445037,0 -102.8175962800705,21.30321286283466,0 -102.817907882167,21.30427696702599,0 -102.8179935582654,21.30500051604551,0 -102.8179828877026,21.30572281600441,0 -102.8178798709614,21.30617300197861,0 -102.8179695488973,21.30662568884387,0 -102.8180578933558,21.30716866305414,0 -102.8178469652657,21.30744239593389,0 -102.8174063974489,21.30788732618949,0 -102.8171747471712,21.30824085860542,0 -102.8167738774138,21.30877938535851,0 -102.8164562804832,21.30940951081647,0 -102.8163204701962,21.3101324749617,0 -102.8160703241231,21.31067372503627,0 -102.816081774077,21.31111976872115,0 -102.8161476733203,21.31193370413329,0 -102.8162825487063,21.31247163722651,0 -102.8166351312375,21.31296883440225,0 -102.8168998375921,21.31338469776156,0 -102.8176121469981,21.31398177158064,0 -102.8175593607509,21.31538682352816,0 -102.8175625591228,21.31592672203461,0 -102.8176171451494,21.31628755170866,0 -102.8173844648467,21.31682694458443,0 -102.817517694101,21.31763698756383,0 -102.8175110192634,21.31808842366567,0 -102.8176006997254,21.31854111065725,0 -102.8170402489136,21.31904518508648,0 -102.8157030032198,21.31882917570911,0 -102.8142944961585,21.32050829480379,0 -102.8127340898604,21.32261316543128,0 -102.8119637884213,21.32371681965976,0 -102.8108394802935,21.32386326415436,0 -102.8101719951527,21.32332555082496,0 -102.8077338310713,21.32272297147943,0 -102.8073783476574,21.32190480971763,0 -102.807255141967,21.32097258485714,0 -102.8065628113076,21.32087053082556,0 -102.8057372213929,21.32023538756762,0 -102.8046261800264,21.31846537187615,0 -102.804022077837,21.31710376678879,0 -102.8036242350176,21.3163747979933,0 -102.8027960165839,21.31509935182141,0 -102.8016810808393,21.31327667185426,0 -102.8008408177624,21.31145960684208,0 -102.8000875066352,21.31027580323933,0 -102.800001918698,21.30955225280342,0 -102.7996561466294,21.30873978231735,0 -102.7992706294058,21.30862961330562,0 -102.7991576573373,21.30800604091116,0 -102.7984993761283,21.30691377938655,0 -102.7962507698041,21.31336313993474,0 -102.7931831654051,21.32274230672346,0 -102.7913707403512,21.32795432295811,0 -102.7912047369464,21.32803385021249,0 -102.7897898683845,21.32871166032694,0 -102.7889160226118,21.32950739730637,0 -102.7867973796585,21.3299639217462,0 -102.7849445149024,21.32993959751152,0 -102.78371298375,21.32952340258386,0 -102.7821292600185,21.32815706381669,0 -102.7804192317477,21.32628835547992,0 -102.7792172638802,21.32398837905383,0 -102.7784774888752,21.32293077369015,0 -102.7780821567223,21.32252459489447,0 -102.7761256404668,21.32066209090835,0 -102.7761055995402,21.31946123278611,0 -102.7759076220665,21.31895991158569,0 -102.775516378831,21.31863986480016,0 -102.7752866939879,21.31835524086729,0 -102.7748539717093,21.31757176780675,0 -102.7739347968583,21.31676212415228,0 -102.7718177261361,21.31600588254244,0 -102.7709638964673,21.31589433576056,0 -102.7702171830286,21.31583310416781,0 -102.7698375949455,21.31637004189063,0 -102.7694214577337,21.31693252958916,0 -102.7682985512088,21.31783059814343,0 -102.7675210340076,21.31841480058074,0 -102.7661429846471,21.3189284204431,0 -102.7645371588845,21.31903221431117,0 -102.7631676279006,21.31898269675775,0 -102.7620281137128,21.31918657125353,0 -102.7587562125172,21.3204749100112,0 -102.7576235493307,21.32137699685539,0 -102.7560675638017,21.32246209955199,0 -102.755280876557,21.32315859331149,0 -102.7555628612328,21.32445049575541,0 -102.7567191526038,21.32580119362134,0 -102.7570165911047,21.32612484809576,0 -102.757993986108,21.32665687801154,0 -102.7584659837175,21.32695280742603,0 -102.7587149211746,21.32720901336621,0 -102.7589022212286,21.32750413254392,0 -102.7587187555945,21.32788815312815,0 -102.7580552814482,21.32849301716023,0 -102.7570006000877,21.32927863579543,0 -102.7561651960029,21.32997369943644,0 -102.755228352225,21.33100516097055,0 -102.7551572075704,21.33190475055824,0 -102.7551210225254,21.33280769493489,0 -102.755255809408,21.33342099840349,0 -102.7562959414262,21.33376983632465,0 -102.7571393846321,21.33381772002852,0 -102.7576793476072,21.33394453302888,0 -102.7584395788939,21.3343539514668,0 -102.7592514323045,21.33544403482622,0 -102.7590036796376,21.33556208212954,0 -102.7590284282914,21.33629116545172,0 -102.7586750012541,21.33697677920608,0 -102.7584049048635,21.33784695902294,0 -102.7581651654002,21.33813516417412,0 -102.7577654306374,21.33918618323695,0 -102.7571922606634,21.33979475133386,0 -102.7565270304426,21.34036073477794,0 -102.7559188173667,21.34102021215891,0 -102.7555425378205,21.34135672650047,0 -102.7552662381759,21.3416419474897,0 -102.7546621552453,21.34209869624901,0 -102.7538672651393,21.34257887421928,0 -102.7532462689025,21.34303637804138,0 -102.7528212655138,21.34365049098523,0 -102.7521117410603,21.34425912027546,0 -102.7512647218872,21.34512223347018,0 -102.7509794473232,21.34565647446922,0 -102.750106615545,21.34600598697246,0 -102.7488538191802,21.3459891975615,0 -102.748181995718,21.34579958790849,0 -102.7474151854584,21.34551840046149,0 -102.7463330681691,21.34521048009371,0 -102.7457546882964,21.34553352796853,0 -102.7448467623485,21.34622500861175,0 -102.7444571047668,21.3466441005594,0 -102.7444017610413,21.34689458447069,0 -102.7442260805583,21.34694559246403,0 -102.7439563308878,21.34674725264405,0 -102.7436183873377,21.3465996284264,0 -102.7426665925631,21.34642625905969,0 -102.7420868863898,21.34632389421447,0 -102.7419318188244,21.34641364876043,0 -102.7416727782816,21.34646580417205,0 -102.7414650562746,21.34641591050535,0 -102.7412689459695,21.34622157131088,0 -102.7404586792492,21.34659885500487,0 -102.7397771754584,21.34704118740804,0 -102.739159569523,21.34784162025342,0 -102.7388919519238,21.34846013098809,0 -102.7383195475852,21.34937253999032,0 -102.7376071113941,21.35037762513561,0 -102.736723184889,21.35133448236209,0 -102.7361085887288,21.35170757164514,0 -102.7359141769383,21.35207618914047,0 -102.7352522531538,21.35265156174688,0 -102.7348950455987,21.35297657971571,0 -102.7344397358502,21.35315627982492,0 -102.7338540755791,21.35336828585975,0 -102.7334935161001,21.35352985572703,0 -102.7329740998902,21.35375034254411,0 -102.7323353114522,21.35431761296696,0 -102.7314177258225,21.35475798149186,0 -102.7307819587214,21.35531780192892,0 -102.7302931349149,21.35576269468019,0 -102.7297801799024,21.35619062249948,0 -102.7289309427501,21.35623313099983,0 -102.7285054750528,21.35666205027066,0 -102.7279597644085,21.35708780294291,0 -102.727857327493,21.35744544518282,0 -102.7279481322226,21.35780787392817,0 -102.7279425618262,21.35816899901944,0 -102.7281297427395,21.3585327331383,0 -102.7282177635214,21.35907572616173,0 -102.7282094083431,21.35961741291688,0 -102.7282769994026,21.35988810479275,0 -102.7283938064668,21.3601617103554,0 -102.7284846135455,21.36052413896878,0 -102.7285783543549,21.36072081260246,0 -102.7286690135144,21.36106843624201,0 -102.7287584292693,21.3615211460668,0 -102.7288506300727,21.36179329419015,0 -102.7291369795159,21.36197776928106,0 -102.7300879069772,21.36198865418206,0 -102.7303759804266,21.36289753154936,0 -102.7302559447907,21.36443101206789,0 -102.7306075686497,21.36521699513189,0 -102.7315165020341,21.36727077138602,0 -102.732044051059,21.36725449514343,0 -102.7322574112201,21.36772132160041,0 -102.732468972742,21.36843837981974,0 -102.7326598567084,21.36916319247676,0 -102.7325215139563,21.36967969498925,0 -102.7320419185404,21.37016464721104,0 -102.7318026028243,21.37041173858414,0 -102.7313964817979,21.37095179964378,0 -102.7312089938381,21.37139701314274,0 -102.7310120501035,21.37166525010107,0 -102.7306914620537,21.37202413080174,0 -102.730438941319,21.3724734028022,0 -102.7302125913648,21.3727303659069,0 -102.7300899427775,21.37357717234854,0 -102.7293097685548,21.37435691346459,0 -102.7294534600874,21.37895846626827,0 -102.7291280658947,21.38735554015079,0 -102.7287434181632,21.387311205826,0 -102.7282613842395,21.38729345923683,0 
					</coordinates>
				</LinearRing>
			</outerBoundaryIs>
		</Polygon>
	</Placemark>
</Document>
</kml>
