<?xml version="1.0" encoding="UTF-8"?>
<kml xmlns="http://www.opengis.net/kml/2.2" xmlns:gx="http://www.google.com/kml/ext/2.2" xmlns:kml="http://www.opengis.net/kml/2.2" xmlns:atom="http://www.w3.org/2005/Atom">
<Document>
	<name>Elemento_125.kml</name>
	<Style id="highlight00">
		<LineStyle>
			<color>7f00ff00</color>
		</LineStyle>
		<PolyStyle>
			<color>7f7fffaa</color>
		</PolyStyle>
	</Style>
	<StyleMap id="styleMapID00">
		<Pair>
			<key>normal</key>
			<styleUrl>#normal00</styleUrl>
		</Pair>
		<Pair>
			<key>highlight</key>
			<styleUrl>#highlight00</styleUrl>
		</Pair>
	</StyleMap>
	<Style id="normal00">
		<LineStyle>
			<color>7f00ff00</color>
		</LineStyle>
		<PolyStyle>
			<color>7f7fffaa</color>
		</PolyStyle>
	</Style>
	<Placemark>
		<name>Elemento_125</name>
		<styleUrl>#styleMapID00</styleUrl>
		<ExtendedData>
			<SchemaData schemaUrl="C:/Documents and Settings/Jaime/Escritorio/LimiteMunicipalMGJ2013.kml#schemaID">
				<SimpleData name="MUNICIPIO">ZAPOTLANEJO</SimpleData>
				<SimpleData name="REGION">CENTRO</SimpleData>
				<SimpleData name="CLAVE">124</SimpleData>
				<SimpleData name="AREA_KMS2">718.126284628</SimpleData>
				<SimpleData name="GID">124</SimpleData>
			</SchemaData>
		</ExtendedData>
		<Polygon>
			<outerBoundaryIs>
				<LinearRing>
					<coordinates>
						-103.0279394655163,20.79497776879953,0 -103.0270272759763,20.79439184878614,0 -103.0254653037903,20.79256728341125,0 -103.0248433455973,20.79232354648404,0 -103.024452144498,20.79221509153804,0 -103.0244907880941,20.79207500219972,0 -103.0246743737971,20.79151131637539,0 -103.024713245492,20.79139196035592,0 -103.0247809133378,20.79118419179475,0 -103.0250241603257,20.79094313259,0 -103.0252539595176,20.79025935860401,0 -103.0253066240324,20.7884265032377,0 -103.0247233598839,20.78748951175611,0 -103.0244576948823,20.78650198420398,0 -103.0250398793536,20.7853074516323,0 -103.0251878271825,20.78427049328302,0 -103.0250589146497,20.78384451369136,0 -103.0250105821533,20.78313044261477,0 -103.0255824109662,20.78273058914206,0 -103.0254998064869,20.78095939868627,0 -103.0255899853829,20.78067141717545,0 -103.0254730250666,20.78006493856862,0 -103.0251639337975,20.77872467067378,0 -103.0253922377075,20.77667706908139,0 -103.0253668007313,20.77420205150849,0 -103.0258974382964,20.7717966503185,0 -103.0258481615552,20.77115482252524,0 -103.0261713745348,20.76993020644906,0 -103.0266953922601,20.76877111976888,0 -103.0268810046425,20.76778878022886,0 -103.0270392171358,20.76669774316118,0 -103.026955619228,20.76648001818733,0 -103.0268174626851,20.76602683806972,0 -103.0271730784584,20.76526321528857,0 -103.0279214044604,20.76457635584537,0 -103.0279134441018,20.76444981835551,0 -103.0284305132144,20.7638235238545,0 -103.030463392417,20.76256432002026,0 -103.0309699073809,20.76201015059189,0 -103.0326247943246,20.76101754127237,0 -103.0329054462891,20.76084914944445,0 -103.0330300263302,20.7608686397561,0 -103.0337298322347,20.76021732334747,0 -103.034562527823,20.759684938694,0 -103.0353254428208,20.75935045332523,0 -103.0358589818942,20.75893205488874,0 -103.0366712951407,20.75848974495269,0 -103.037721411549,20.7582217534117,0 -103.0381041235115,20.75758485857588,0 -103.0383958794354,20.75729916878351,0 -103.0402173142298,20.75678707211227,0 -103.0419249243263,20.75616527492382,0 -103.042758617725,20.7555515707514,0 -103.0464252903423,20.75243992153814,0 -103.0458476803957,20.75257089063572,0 -103.0452216427687,20.75267497328869,0 -103.0435655274657,20.75301290364671,0 -103.0415471396398,20.75264569013802,0 -103.0402763181343,20.75167461156045,0 -103.0397829076092,20.75146932609288,0 -103.0390656800713,20.75100248245966,0 -103.0376079603226,20.75080375909711,0 -103.0371335643022,20.75056204825782,0 -103.0348822658099,20.74999675256275,0 -103.0332354404612,20.74902816974733,0 -103.0318107724745,20.74810342498112,0 -103.0302658934931,20.74785079169734,0 -103.0297603760035,20.74731897310018,0 -103.0293818816895,20.74700401737675,0 -103.0280732177019,20.74484469759555,0 -103.0272005412759,20.7454851436357,0 -103.0267882046794,20.74578774816991,0 -103.0267323003543,20.74569905644278,0 -103.0263647327091,20.74462941552687,0 -103.0249843166474,20.74570916930044,0 -103.0228319156189,20.74545147320133,0 -103.0220543791028,20.74464930198285,0 -103.0214795263177,20.74514302928671,0 -103.0210417272812,20.74590798919582,0 -103.0206809969531,20.746663360934,0 -103.0187695907808,20.74639492116409,0 -103.0170813453573,20.74502728662896,0 -103.0157742501321,20.7443284055329,0 -103.0144885251248,20.74262240889088,0 -103.0141432622246,20.74159052915984,0 -103.0120718775762,20.74055197483007,0 -103.0112505048761,20.74032156139635,0 -103.0095063052051,20.73961412814158,0 -103.0094812033183,20.73885392894058,0 -103.0094580719391,20.73817412297005,0 -103.0094620057129,20.7377079373111,0 -103.0094652768916,20.73732027739388,0 -103.0094456769447,20.73651756938632,0 -103.008604105292,20.73642119520737,0 -103.0077889013626,20.73622269813705,0 -103.0070126630914,20.73622737687605,0 -103.0062507825437,20.73600369418645,0 -103.0055230764821,20.7358559023371,0 -103.0052775346608,20.73552022150513,0 -103.0052664322886,20.7352131181682,0 -103.0050365359357,20.73499186175373,0 -103.0049821370156,20.73476119347892,0 -103.0046556589766,20.73454877908096,0 -103.0039283354333,20.73473511935674,0 -103.0029262968684,20.73436065886813,0 -103.0027193161699,20.73310829698274,0 -103.0025852539511,20.73193618031667,0 -103.0024930038561,20.73120029604074,0 -103.003190443572,20.72994333902525,0 -103.0036172028187,20.72898297485717,0 -103.0039657980476,20.72827421585302,0 -103.0043418868102,20.72724388327011,0 -103.0045179304493,20.72667123933479,0 -103.0042233415171,20.7261731778455,0 -103.0043530199356,20.72525550047079,0 -103.0046526004851,20.72475234479268,0 -103.0042418852104,20.72452580350683,0 -103.0039624197577,20.72424568935457,0 -103.0040471550237,20.72374793635931,0 -103.0049471672943,20.7236094281508,0 -103.0053514734517,20.72311130839632,0 -103.0040092144393,20.72112602407089,0 -103.0036139635104,20.72037893811319,0 -103.0033209823239,20.71961215403744,0 -103.0028787570485,20.71909935487861,0 -103.0021141665836,20.71863510071596,0 -103.0018744192527,20.71801662538648,0 -103.0013676144761,20.71754199820511,0 -103.0008237545442,20.71688715593091,0 -103.0000512646193,20.716229162081,0 -102.9994578149777,20.71559101490506,0 -102.9993210871644,20.7153472920561,0 -102.998771554973,20.71524707923872,0 -102.9970980464072,20.71488385291391,0 -102.9966783171001,20.71509922443377,0 -102.99594419791,20.71556438003062,0 -102.9955181105863,20.71547311341234,0 -102.9944146641754,20.71433113370772,0 -102.9940384807833,20.71396648549241,0 -102.9935544236756,20.71393771768152,0 -102.9931861424797,20.71349321164302,0 -102.9929617264235,20.71359044260853,0 -102.9928362222701,20.71359923991723,0 -102.9928104933304,20.71320038337614,0 -102.9925057196279,20.71315447865553,0 -102.9922161730103,20.71310657166298,0 -102.99233294613,20.71252979895572,0 -102.9922971665319,20.71179537635161,0 -102.9926651511358,20.71175034880529,0 -102.9927752514265,20.711309339078,0 -102.9926509085694,20.7108470113994,0 -102.9922768700473,20.71032707397239,0 -102.9920608130376,20.7096781763347,0 -102.992215805879,20.7091232896915,0 -102.9924675503371,20.70825473073009,0 -102.9926073101173,20.70757748400826,0 -102.9927929627911,20.70644747477268,0 -102.9928167324184,20.70497164593498,0 -102.9930685640672,20.70408385735462,0 -102.9927871049286,20.70356519598343,0 -102.9924407272763,20.70300176818198,0 -102.9920839184194,20.70248869132221,0 -102.9913868181954,20.7019975330767,0 -102.990755650611,20.70226417093215,0 -102.9900044559253,20.70265442641554,0 -102.9895430756949,20.70290271822483,0 -102.9891184736603,20.70310745992181,0 -102.9890895491291,20.70313721771361,0 -102.9891903048493,20.70151757998733,0 -102.9894933197614,20.70057486603426,0 -102.9904946194692,20.7001501846987,0 -102.9914847116662,20.69976330976654,0 -102.99219046119,20.69912039177972,0 -102.9921885789543,20.69820877093458,0 -102.9922101427364,20.69747043429582,0 -102.9922824075239,20.69720354962565,0 -102.9924073361525,20.69675707947439,0 -102.9928565021894,20.69622577035361,0 -102.9932489597065,20.69558652314437,0 -102.9929593354621,20.69487298355905,0 -102.9925965623969,20.69430560050302,0 -102.9918309390459,20.69403123844887,0 -102.9913309254618,20.69438893583866,0 -102.9911622008765,20.69432069732815,0 -102.9911732177968,20.69326962723387,0 -102.991074890241,20.69237499466461,0 -102.9911864112801,20.6914806526456,0 -102.990837478136,20.69038933118196,0 -102.9913442758459,20.68983207392307,0 -102.990808603844,20.6881631529669,0 -102.9860574405846,20.69112599612037,0 -102.9825836177755,20.69306514784677,0 -102.9815311246249,20.69383560017842,0 -102.9807935589058,20.69437550793223,0 -102.9791474335981,20.69570776434346,0 -102.9783158179555,20.69633558754776,0 -102.9754356530513,20.69775212553498,0 -102.9750151961426,20.69779505984192,0 -102.9742823052207,20.69864058986135,0 -102.9735041857872,20.69992650409695,0 -102.9730695583537,20.70074826904247,0 -102.9723999113616,20.7014651599415,0 -102.9713407131202,20.70203750600442,0 -102.9657097943233,20.70418762907675,0 -102.9594958966633,20.7065371684197,0 -102.9587731409533,20.70684895166267,0 -102.9589436407727,20.70661528574199,0 -102.9588944720651,20.7064379826439,0 -102.9591020585419,20.70621708170282,0 -102.9592770652622,20.70602939010583,0 -102.9592486547541,20.70589413880395,0 -102.9591524711545,20.70569227866976,0 -102.9591545974939,20.7055845926536,0 -102.9592279759117,20.7054644838238,0 -102.9594064035105,20.70534489404247,0 -102.9596163476709,20.70517349099015,0 -102.9597970433463,20.70501456596398,0 -102.9597787059394,20.70488557557118,0 -102.9596517902789,20.70473483725187,0 -102.9595497809433,20.70456971492369,0 -102.9595971015101,20.70450063374637,0 -102.9597781027325,20.70425965717524,0 -102.959734551995,20.70378996296732,0 -102.9596691277118,20.70347742549314,0 -102.9595377270829,20.70341565609983,0 -102.959240803718,20.70347161464146,0 -102.9588940075057,20.70355026941222,0 -102.9588043724903,20.70350791138966,0 -102.9588460914426,20.70332105021607,0 -102.9589856584037,20.70310687861859,0 -102.9591382833522,20.70282032318314,0 -102.9592843816704,20.70254997601147,0 -102.9591874621733,20.70207046217962,0 -102.9590786405449,20.70167946177513,0 -102.9589398676069,20.70110995092922,0 -102.9588516988714,20.70051808062496,0 -102.9587269875899,20.69985777247262,0 -102.9586063490213,20.69914310323611,0 -102.9584934524182,20.69859157295403,0 -102.9584561514034,20.6978174194609,0 -102.958538433005,20.69678226932137,0 -102.9586224108471,20.69621643925609,0 -102.9584850432153,20.69587712159622,0 -102.9583140254881,20.69582182649443,0 -102.9579425503447,20.69577366569896,0 -102.9574415543828,20.69581231273835,0 -102.9569243437475,20.69601132393132,0 -102.9565204561508,20.69615039317205,0 -102.9559726596196,20.6963867445308,0 -102.9554830640302,20.6966745824694,0 -102.9550192332038,20.69719784232285,0 -102.9547344314631,20.69752124846283,0 -102.9544323981094,20.69773381832226,0 -102.9541596424805,20.69792061238071,0 -102.9536555717938,20.69820755901345,0 -102.9532355810986,20.69852476761946,0 -102.9527557932452,20.69911121177161,0 -102.9523783958899,20.69959088457359,0 -102.9521303890887,20.69996434368592,0 -102.9518292711493,20.70047365440555,0 -102.9516525437266,20.7008342342551,0 -102.9511654398016,20.70044107430461,0 -102.9507237504429,20.70011084663297,0 -102.9501237979512,20.69977164958623,0 -102.9497256619411,20.69926834360034,0 -102.9495022722396,20.69903294928078,0 -102.9491135152807,20.69866224643147,0 -102.9490093292288,20.69824046015432,0 -102.9489628419711,20.69779854055472,0 -102.9488831107685,20.69742712750567,0 -102.9486059938834,20.69777444570563,0 -102.9481006370931,20.69787987379261,0 -102.9475363393104,20.69830182516144,0 -102.9471598379014,20.69842183218466,0 -102.9471470035868,20.69820609159269,0 -102.9469292236213,20.69737123362675,0 -102.9470565458444,20.69583530521527,0 -102.9480248276886,20.69402779808279,0 -102.947847986496,20.69158516983292,0 -102.9479884185773,20.69074185210213,0 -102.9479741373854,20.69059138175862,0 -102.9478975313925,20.68978425090783,0 -102.9478759697985,20.6895570688395,0 -102.9179537738207,20.6712029494828,0 -102.9175940851626,20.67096285233032,0 -102.9172785834944,20.6707522504793,0 -102.916365871841,20.67012708025276,0 -102.9161749646264,20.67005252086007,0 -102.9156247615177,20.6695852638694,0 -102.9151838007004,20.66884838217545,0 -102.9139037073961,20.66772202626265,0 -102.9125903156534,20.66622496878523,0 -102.9115136827643,20.66566101158145,0 -102.9102188176405,20.6656182279101,0 -102.9096723115262,20.66558450886445,0 -102.9094169727187,20.66531046945713,0 -102.9093709477619,20.66376553260147,0 -102.9090693718109,20.66336449193184,0 -102.9082292881392,20.66304723378791,0 -102.9072317433534,20.66301706718647,0 -102.9067098810576,20.66258625496203,0 -102.9068944531522,20.66172147656799,0 -102.9057791850382,20.66098825663891,0 -102.9054109032038,20.66074613055788,0 -102.9056226772962,20.66018545761681,0 -102.9059983608882,20.65919082484214,0 -102.9060552408511,20.65854125136075,0 -102.9054445119967,20.65619469128279,0 -102.9054417258138,20.6556979279361,0 -102.905047456776,20.65506093866483,0 -102.9046589463392,20.65470399339254,0 -102.9044756176715,20.6540785967856,0 -102.9053372980111,20.65141575374617,0 -102.9055241428698,20.64968398369766,0 -102.9055687022523,20.64923295203149,0 -102.9055200506288,20.64858209685015,0 -102.910409870276,20.64467016304166,0 -102.9152015922542,20.64500111335102,0 -102.9157776682389,20.63688691655937,0 -102.9162567199663,20.63210614403977,0 -102.9164648566588,20.63012126722286,0 -102.9165323907944,20.62914070478404,0 -102.9172781315312,20.62928080027574,0 -102.9180381203106,20.62882378709418,0 -102.918607596076,20.62839177445279,0 -102.9183746438953,20.62730417873057,0 -102.9183489563078,20.62664391275681,0 -102.9182388816836,20.62575793950147,0 -102.9183638265221,20.6249351316097,0 -102.9187504989055,20.62448608029718,0 -102.919026301036,20.62398781046853,0 -102.9193701942327,20.62352259845003,0 -102.9193508701616,20.6226929545608,0 -102.9194598165244,20.62255838748672,0 -102.9198858921864,20.62250779760075,0 -102.9207245116453,20.62206949751244,0 -102.9206951792964,20.62137853209224,0 -102.920592679117,20.62099408979253,0 -102.9205296188207,20.62053427893171,0 -102.9203462955651,20.62030668876803,0 -102.9204323697842,20.61982537383472,0 -102.9206015905528,20.61932192993167,0 -102.9191488596519,20.61903036855419,0 -102.9188281672159,20.6188261314459,0 -102.9173291687206,20.61979145972897,0 -102.9170956661123,20.61924648237747,0 -102.9168083863679,20.6191942252384,0 -102.9168279332505,20.61890393927584,0 -102.9168901538084,20.61855940974677,0 -102.916609717746,20.61845987446749,0 -102.9168866737073,20.61824857841684,0 -102.9170133385164,20.61788815998886,0 -102.9169638457882,20.61765974375472,0 -102.9168800165996,20.6172681327626,0 -102.9160555174305,20.61673727088634,0 -102.9165558654256,20.61609906876195,0 -102.915686665211,20.61596281931413,0 -102.9155170915969,20.61573873059064,0 -102.9154262811492,20.61561872581219,0 -102.9145680392616,20.61565075298908,0 -102.9133642206314,20.6158702510698,0 -102.9122948799093,20.61591834898467,0 -102.9123049491214,20.61568575030336,0 -102.9120136254085,20.61555328041658,0 -102.9120414071503,20.61536014314151,0 -102.9121237442316,20.61478773027109,0 -102.9113953873972,20.61392759312006,0 -102.910527353786,20.61323008446093,0 -102.9090089043452,20.61295391682917,0 -102.9085131758997,20.61288920122513,0 -102.908459339632,20.61328598962715,0 -102.90617692008,20.61306742757964,0 -102.9060114481668,20.61258081520096,0 -102.9038849157554,20.61223136921827,0 -102.9031702324116,20.61253497265677,0 -102.8998955502645,20.61228090465935,0 -102.8983696723658,20.61199717733591,0 -102.8860201190965,20.61010276692862,0 -102.886278054309,20.60956947317996,0 -102.887180739943,20.60883859224576,0 -102.8876977861475,20.60762414810691,0 -102.8873698777649,20.6068222472316,0 -102.8876517609151,20.60508364166163,0 -102.888478736854,20.60489674458671,0 -102.8887337851684,20.60458385279367,0 -102.889316541571,20.60396286933967,0 -102.8899348832412,20.60345819652583,0 -102.8899545127409,20.60310700355072,0 -102.8902448177689,20.60274734746165,0 -102.890872533931,20.60251650425554,0 -102.8915593680645,20.60237480830365,0 -102.8917969929291,20.60175246497019,0 -102.8923707428296,20.60177113206728,0 -102.8926744372498,20.59969769299795,0 -102.8929348886832,20.59873232777637,0 -102.8940357630078,20.59880296971501,0 -102.8942424492516,20.59777501627759,0 -102.8997217031298,20.59231548926468,0 -102.89770957197,20.59236280807313,0 -102.8963470640809,20.59211709623964,0 -102.895446860606,20.5921488434394,0 -102.8950808947935,20.59222391647194,0 -102.8946706896764,20.59238430222165,0 -102.8941072065873,20.59247501216614,0 -102.8939720741942,20.59260693255257,0 -102.8936896356109,20.59257662567187,0 -102.8934561231117,20.59255560443448,0 -102.8932312015395,20.59265925202543,0 -102.8929043678375,20.59209198191849,0 -102.8925198324801,20.5919561989726,0 -102.8921888492055,20.59207892752862,0 -102.8919872542458,20.59210313182566,0 -102.8917679066176,20.59221942983675,0 -102.8918060499443,20.59244286045602,0 -102.8915971688464,20.59270358657819,0 -102.8913990601238,20.59284853241083,0 -102.8912204456187,20.59264827129276,0 -102.8911503195735,20.59255975149755,0 -102.8910603517934,20.59265953092231,0 -102.8908825420993,20.5928017939175,0 -102.8907924371881,20.59290970704737,0 -102.8906726754783,20.59304728244696,0 -102.8906408902155,20.59326254377976,0 -102.8904625535218,20.59321250157909,0 -102.8903362910914,20.59328136207507,0 -102.8899481960492,20.59344951902283,0 -102.8897466701146,20.59371231739658,0 -102.8897084320621,20.59385790706807,0 -102.8899417892688,20.594014890801,0 -102.8897139388898,20.59423477737536,0 -102.8895879754617,20.59435756849447,0 -102.8894805589168,20.59408285879718,0 -102.8894105664644,20.59398961653643,0 -102.8892323415486,20.59395658329986,0 -102.8892942308395,20.59373766727675,0 -102.8892080132382,20.5936181459073,0 -102.8891531206312,20.59353048506738,0 -102.8890385407899,20.59354534288864,0 -102.888888892997,20.59372787533558,0 -102.888853617799,20.59387284344542,0 -102.8887088757712,20.59388220648299,0 -102.888620856308,20.59380607963853,0 -102.8885346671194,20.59375766007094,0 -102.8884468909639,20.59374382497346,0 -102.8883786154304,20.59379443781329,0 -102.8883605544248,20.59394872147215,0 -102.8882809624597,20.5940173338831,0 -102.8881093591702,20.59397988181574,0 -102.8879867384702,20.59392560895057,0 -102.8878696637169,20.59390376878934,0 -102.8877725343489,20.5938468945422,0 -102.8877086996033,20.59383727118603,0 -102.8876025803322,20.5938679017676,0 -102.8876302163271,20.59403270522081,0 -102.887658886015,20.59416237370159,0 -102.8876920130457,20.59428979815736,0 -102.8876089682258,20.59440529258423,0 -102.8874793348951,20.59417389072483,0 -102.8874173175593,20.59396025966152,0 -102.8871969226828,20.59418595248511,0 -102.8872235513597,20.59438776524058,0 -102.8873598039026,20.59456936761639,0 -102.8871977097856,20.5946657039595,0 -102.8870006648721,20.59462402114995,0 -102.8868045184829,20.59464742225532,0 -102.8866935464411,20.59457562088958,0 -102.8866130109647,20.59455090377806,0 -102.8864753827952,20.594605585684,0 -102.886361989252,20.59467555408535,0 -102.8863496020711,20.59482365972286,0 -102.8861089862072,20.59490067146833,0 -102.8860611229486,20.5947528904798,0 -102.8860339011875,20.5946843460868,0 -102.8859668401001,20.59466899189155,0 -102.8858662676638,20.59475776838999,0 -102.8856796228448,20.59489114250465,0 -102.8855406082029,20.59513698454522,0 -102.8854241060583,20.59511031247347,0 -102.8852968307286,20.59505883379397,0 -102.8852455741319,20.59505913171723,0 -102.8851675580245,20.59509687708707,0 -102.8850919142943,20.59512964985357,0 -102.8849786838144,20.59542708617083,0 -102.8847665173899,20.59532385366586,0 -102.8845515792059,20.59528485724561,0 -102.8844537324925,20.59549393472846,0 -102.8842822565702,20.59570422541422,0 -102.8840458965884,20.59578516606367,0 -102.8838667122728,20.595555414166,0 -102.8838651229819,20.59531270999955,0 -102.8838810129573,20.59515345591128,0 -102.883791942697,20.59511815661022,0 -102.8837078478628,20.59515078376125,0 -102.8836625499545,20.59529423689025,0 -102.8833406419804,20.59546985149349,0 -102.8830843960141,20.59544369776693,0 -102.8829159652861,20.59536175723433,0 -102.8826899252877,20.59533542821326,0 -102.8823280345485,20.59552812450793,0 -102.8821781581558,20.59574295741217,0 -102.8818439455515,20.59599293455095,0 -102.8817053601366,20.59598585123304,0 -102.8815497507937,20.59593935937615,0 -102.8813639322508,20.59583805414053,0 -102.8812290876487,20.59576380199389,0 -102.8810296901221,20.59584394321103,0 -102.8808088450515,20.59588884181298,0 -102.8805889259485,20.5961151830881,0 -102.8804755028663,20.59619875637269,0 -102.8803408220108,20.59621533240163,0 -102.8799027381634,20.59625468079167,0 -102.8794509338826,20.59630863874903,0 -102.8791247707123,20.5965039958678,0 -102.8787379011072,20.59712854916243,0 -102.8784772830442,20.59736233195739,0 -102.8782088344354,20.59741936898886,0 -102.8779005806795,20.5971991621386,0 -102.8776663250863,20.59697873972013,0 -102.8774244747497,20.59662913106648,0 -102.8772007164149,20.59678999986285,0 -102.8771339514109,20.59689630390845,0 -102.8768234694353,20.59695052150153,0 -102.8764507361592,20.59695846929362,0 -102.8761652786961,20.5971442350692,0 -102.8759339916009,20.59729474723408,0 -102.8745857905776,20.59708668875911,0 -102.8739357329278,20.59711019282014,0 -102.8732669126025,20.59721153429172,0 -102.872892248445,20.59713452967683,0 -102.8728207451849,20.59752530726547,0 -102.8727301101253,20.59714487516006,0 -102.8718221508883,20.59483973746728,0 -102.871999900917,20.59308984243457,0 -102.8715390380676,20.59105211543708,0 -102.8715112092692,20.59029313905875,0 -102.8705247048716,20.58812250103295,0 -102.8705272171507,20.58656010772677,0 -102.8702648102903,20.58404616018588,0 -102.8698569395418,20.58302962619532,0 -102.870065894029,20.58179490333997,0 -102.8697116748457,20.58105900190949,0 -102.8699504562379,20.58043877844271,0 -102.8707958908851,20.57894997953737,0 -102.8709937370676,20.57782349374443,0 -102.8709666000627,20.57770575208249,0 -102.8731415364201,20.57428500562041,0 -102.8731163084937,20.57159259699773,0 -102.8735528093971,20.56962737735658,0 -102.8732767196157,20.56809768135619,0 -102.8727360284062,20.56731183111637,0 -102.8730867113249,20.56658689337744,0 -102.8733381023509,20.56606720850387,0 -102.8742534766852,20.56416665936018,0 -102.8752613588513,20.56447881537283,0 -102.8766789488706,20.56489025064062,0 -102.8771431451338,20.56114185774638,0 -102.8774803854109,20.55855594943208,0 -102.8798546071106,20.55166047459166,0 -102.8800311358335,20.5514922836562,0 -102.883132440652,20.54791251080529,0 -102.8848871497665,20.54825718589859,0 -102.8858663857893,20.54848464846483,0 -102.886639271194,20.54837730365911,0 -102.8868829018373,20.54823494785258,0 -102.8871923540824,20.54818617742321,0 -102.8877826666895,20.54794112033699,0 -102.8886142539694,20.54817080140536,0 -102.8899943493582,20.54783538805117,0 -102.8924917350228,20.54850085465425,0 -102.8929910259874,20.54863389318555,0 -102.9058746313396,20.54661942892425,0 -102.9061153465891,20.54661799618608,0 -102.9105709810624,20.54194740371893,0 -102.9128166443205,20.54084551873854,0 -102.9137536476892,20.5412934129801,0 -102.9163549746729,20.5381472266514,0 -102.9181396525508,20.53424144103839,0 -102.9182787618059,20.53289771323846,0 -102.918469207155,20.5322858506138,0 -102.9185430301817,20.53178999828918,0 -102.9185501172632,20.53126624970362,0 -102.9188249430187,20.53008640761122,0 -102.9185065974339,20.52952262522244,0 -102.9185145390205,20.52893566545881,0 -102.9189463320728,20.52820025648979,0 -102.9416127694443,20.5238357423912,0 -102.9421157761078,20.52417729822376,0 -102.9424277619718,20.52473771886669,0 -102.942808216239,20.5254519100416,0 -102.9450878857315,20.52653527002336,0 -102.9462928696368,20.52675453988438,0 -102.9472571776645,20.52697529830866,0 -102.9484621685801,20.52719455089434,0 -102.9489451225121,20.52741829686339,0 -102.9494280769969,20.52764204155424,0 -102.9499110329964,20.52786578415131,0 -102.9506346727403,20.52808802282042,0 -102.951090283683,20.52852961833911,0 -102.9518428749279,20.52876074121368,0 -102.9523338042671,20.52874860065468,0 -102.9528088687869,20.52921727966553,0 -102.9568747366878,20.52555461587681,0 -102.9573544846988,20.525324843967,0 -102.9580732994931,20.52486681138105,0 -102.9638567572694,20.52449470424872,0 -102.9645666950299,20.5241455392542,0 -102.967674523921,20.52388998993005,0 -102.972580971889,20.51938711571406,0 -102.9729512391924,20.51599250687464,0 -102.9741721064623,20.51441556248533,0 -102.9753330258644,20.5138729895567,0 -102.9748486372476,20.51344979633378,0 -102.9748083086313,20.51186278117745,0 -102.9757802819162,20.51048696557232,0 -102.976032974218,20.50815432770252,0 -102.9766067891644,20.50763365111298,0 -102.9772140019574,20.50773859506583,0 -102.978159038626,20.50796834759706,0 -102.9793830965495,20.50817815892982,0 -102.9813006047917,20.50976214744246,0 -102.9821889620286,20.5101373632407,0 -102.9845977039861,20.51043018479297,0 -102.9852904456746,20.51038035231096,0 -102.9882179425891,20.51052463646694,0 -102.9894909662907,20.51084289084466,0 -102.9904744170339,20.51105417695991,0 -102.9913729659572,20.51150183425298,0 -102.9936560126258,20.51171370079097,0 -102.9954725326937,20.51262698547818,0 -102.9967687262862,20.51347109686133,0 -102.9974575428067,20.51419219677436,0 -102.9995279621638,20.51558449033879,0 -103.0013273525286,20.51547289272773,0 -103.0015688724573,20.5168862498908,0 -103.0020240730155,20.5172551315521,0 -103.0034434037344,20.51652016718017,0 -103.0039686793758,20.5159543537941,0 -103.0042652105303,20.51569843286776,0 -103.005546056621,20.51576253832049,0 -103.007008656718,20.51567123801818,0 -103.0078908322279,20.51520282052317,0 -103.0114540679566,20.51537872961055,0 -103.012383270895,20.51476485159045,0 -103.0131220470918,20.51443340987866,0 -103.0138221110058,20.51407501253889,0 -103.0150430098511,20.51384919266937,0 -103.0159846073173,20.51360708601825,0 -103.0172054977922,20.51338124851836,0 -103.0176657797871,20.51314234805671,0 -103.0207720203685,20.51272246276093,0 -103.0237536585934,20.51110609204448,0 -103.0268430857139,20.50848215343648,0 -103.0273643014919,20.50739929215281,0 -103.0277442974309,20.50673460856557,0 -103.0279621700274,20.5062705613718,0 -103.0283326715975,20.505624080702,0 -103.0299061783098,20.50368151133151,0 -103.0313598400953,20.50243813608515,0 -103.0332790137744,20.50039342264295,0 -103.0331711117751,20.49887038373616,0 -103.0332557830291,20.49735511026634,0 -103.0351936878333,20.49525583312614,0 -103.0358095049288,20.49397276849195,0 -103.037650657732,20.49181970302029,0 -103.0388114065505,20.49131293498409,0 -103.0395300431254,20.49089080713253,0 -103.0393733992848,20.49054721711249,0 -103.0396778968202,20.49009163781178,0 -103.0392789685931,20.48953202407833,0 -103.0466052628723,20.4907038380304,0 -103.0470501101491,20.49062624074851,0 -103.0481125437745,20.49025909389608,0 -103.0503905098343,20.48976984978129,0 -103.0515633153938,20.49026172102277,0 -103.0522030620406,20.4904585750662,0 -103.0523472819069,20.49042406393624,0 -103.0541392017154,20.49122995753337,0 -103.055098442507,20.49193618626694,0 -103.0614130354571,20.49365067418818,0 -103.0634399551996,20.49407071409426,0 -103.064133954309,20.49453006687413,0 -103.0646758516507,20.49488836674063,0 -103.064712532763,20.49490366535027,0 -103.0652098674676,20.49511109327747,0 -103.0661383272027,20.49522079311512,0 -103.0683807101091,20.49451414291627,0 -103.069053667127,20.49435904797198,0 -103.0702426067421,20.49433613835527,0 -103.0703489415655,20.49426506198326,0 -103.07197472231,20.49380441289012,0 -103.0725797914926,20.49371177593834,0 -103.0732161992378,20.49417948705845,0 -103.0739798270657,20.4943641894205,0 -103.0740381039911,20.494378285003,0 -103.074335113827,20.49439061191455,0 -103.0751652087656,20.49444641300365,0 -103.0759442007507,20.49449877511873,0 -103.0764691008581,20.49468523773773,0 -103.0772757745474,20.49472260448807,0 -103.0774942064582,20.4947327217009,0 -103.121660197154,20.50005800220882,0 -103.1233456105958,20.50132445775434,0 -103.12293782831,20.50206214659165,0 -103.1232526234837,20.50287613534903,0 -103.123502560032,20.50515089518699,0 -103.1237957009753,20.50567480022306,0 -103.1237582826757,20.50696303892185,0 -103.1245218014322,20.50964216952687,0 -103.1241994257731,20.51023411329749,0 -103.124371586926,20.51357067369665,0 -103.1230468953556,20.51513596866204,0 -103.1228653498542,20.51535048378486,0 -103.1221606124754,20.51627177289074,0 -103.1211029239047,20.51758567961429,0 -103.1205042045739,20.51968531413804,0 -103.1199824850772,20.52062338998144,0 -103.1201207112666,20.52336159306081,0 -103.1211146977,20.52596651849731,0 -103.1210299452382,20.52851589801149,0 -103.1215477169269,20.52941911620081,0 -103.1218042771359,20.53017006235074,0 -103.1222829471648,20.53100100473108,0 -103.1226034770248,20.53365625145724,0 -103.1192362687803,20.5374633847609,0 -103.1189960608506,20.54101167309161,0 -103.1187531510591,20.5430724406922,0 -103.11800192128,20.54305074800998,0 -103.116356347503,20.54200158486181,0 -103.1146961839269,20.54151487721115,0 -103.1145833582611,20.54197718071886,0 -103.1145828675825,20.54197919143152,0 -103.11459758915,20.54198869474969,0 -103.1152382751223,20.54240227418667,0 -103.1158111251391,20.54277205996125,0 -103.1172807195544,20.54372069679003,0 -103.11787664603,20.54411620661892,0 -103.1186689086974,20.54438157108926,0 -103.1199261455601,20.5445008906518,0 -103.1204839836173,20.54455009515761,0 -103.1213518011228,20.54468017371394,0 -103.1218986718664,20.54475226407762,0 -103.1223225410983,20.54484841634131,0 -103.1224807930686,20.54489662034379,0 -103.1233767354447,20.54521004897105,0 -103.1245379215896,20.54559265631086,0 -103.1253899169487,20.54588369383026,0 -103.1268266986578,20.54630762269104,0 -103.1269800372163,20.54630176906307,0 -103.1278349862374,20.54631744608031,0 -103.1285112032183,20.54633985411752,0 -103.1285291078998,20.5463694445975,0 -103.1286087906491,20.54713082376997,0 -103.1290732169303,20.54698684280911,0 -103.1290132620632,20.54637018905682,0 -103.12943025619,20.54632276940301,0 -103.1294224438816,20.5469924753315,0 -103.1303125659368,20.54688747689307,0 -103.1318160026973,20.54665348719605,0 -103.1322042517297,20.546845757522,0 -103.132083528457,20.54722143564231,0 -103.132240110645,20.54726866555784,0 -103.1322103478392,20.54742893858771,0 -103.1323013043355,20.54746861611453,0 -103.1319752325073,20.54832373542872,0 -103.1318940729906,20.54836984000781,0 -103.1316623710353,20.54855565680788,0 -103.1315613351788,20.54872844051917,0 -103.1315201547481,20.54884036944406,0 -103.1314958351477,20.54918274061165,0 -103.1314935543522,20.54937200240768,0 -103.1310802427303,20.54945131744649,0 -103.1306884104108,20.54943886841787,0 -103.1306900437081,20.54948820785539,0 -103.1310406777068,20.5502819343179,0 -103.1311102794676,20.55169407344635,0 -103.1313041677305,20.55197900633127,0 -103.1313987453627,20.55197541642834,0 -103.131665568331,20.55231400644702,0 -103.1316441282606,20.55239960085904,0 -103.1315430374666,20.55239455237497,0 -103.1314733673985,20.55242603773312,0 -103.1315525835398,20.552765041894,0 -103.1324835497126,20.553356743582,0 -103.1329689717332,20.55378169162524,0 -103.1340130029276,20.555407074103,0 -103.1345520499846,20.55560940250023,0 -103.1351711856521,20.55628903363937,0 -103.1331432160847,20.5581373810675,0 -103.1329073585162,20.55905811614903,0 -103.1328836591339,20.55915342958264,0 -103.1321154292048,20.56224307474371,0 -103.1302805440837,20.56836606598935,0 -103.1370102979554,20.57178548226212,0 -103.1374218845963,20.57191866457421,0 -103.13832483879,20.5719398496072,0 -103.1386454845284,20.5719473701002,0 -103.1392458058674,20.57204868159729,0 -103.1398860256394,20.57216213135713,0 -103.1413195189022,20.57248592708369,0 -103.1412084969403,20.57273766718561,0 -103.1409366571081,20.57294136118955,0 -103.1406305490978,20.57307302727728,0 -103.1405625447504,20.57314455659178,0 -103.1405420521308,20.57325272630436,0 -103.1406663924472,20.57328115963662,0 -103.1407027828572,20.57344413541492,0 -103.1406736849665,20.57347092028237,0 -103.1404527890579,20.57349564446465,0 -103.1403269167466,20.57359364935502,0 -103.1400956646975,20.57368148920064,0 -103.1400082611178,20.57377087475389,0 -103.1399186685108,20.57404088646902,0 -103.1399154945281,20.57430279447327,0 -103.1399849906745,20.57489968552664,0 -103.1398466809864,20.57523240090873,0 -103.139901484634,20.57545880211598,0 -103.1399752495777,20.5757034720845,0 -103.1400502186747,20.57584879762993,0 -103.1401543958438,20.57595830711784,0 -103.1403347464664,20.57611379758795,0 -103.1404573381617,20.57628673221348,0 -103.1405505033246,20.57651354549648,0 -103.1406302488848,20.57705635159685,0 -103.1406555177599,20.57734566269044,0 -103.1406917993278,20.57751766978261,0 -103.1407664416146,20.57769008904221,0 -103.1408973121641,20.57797150224108,0 -103.1410001784101,20.57818938709335,0 -103.1411318155576,20.57840758097941,0 -103.1412548473884,20.57854438995465,0 -103.1417637852931,20.5784956613217,0 -103.1419667108372,20.57837138557374,0 -103.1424282436761,20.57827698343013,0 -103.1425536816149,20.57821510253151,0 -103.1426036002741,20.57805305348896,0 -103.1427207594246,20.57788269365551,0 -103.1428754046557,20.57778499600033,0 -103.1431351045172,20.57772455553381,0 -103.143385432557,20.57764594911539,0 -103.1436546129685,20.5775946420565,0 -103.1439530006683,20.57750751785019,0 -103.1442313340349,20.57749243804003,0 -103.1445105409567,20.57740510713218,0 -103.1450858418683,20.57742030749967,0 -103.1452482198523,20.57747624305282,0 -103.1455145620037,20.57765974775257,0 -103.1457804683124,20.57787937743423,0 -103.1459496002892,20.57817022991852,0 -103.1460320933703,20.57848725152612,0 -103.1462670490329,20.57888719910091,0 -103.1463886678676,20.57914141219727,0 -103.1465188955702,20.57947701001366,0 -103.1466872669369,20.57983108134225,0 -103.1468710021328,20.58050145487696,0 -103.1469160090191,20.58074581462847,0 -103.1469302814564,20.58115243033479,0 -103.146895401801,20.581657877155,0 -103.1468513676404,20.5821270958456,0 -103.1466941017109,20.58244154895234,0 -103.1465178722884,20.58273773369123,0 -103.1461807857875,20.58285154454682,0 -103.1458927429085,20.58287555530722,0 -103.14557625593,20.58287216319079,0 -103.1448237184303,20.58323442754762,0 -103.1444952372846,20.58342961969703,0 -103.1441193488467,20.583579140127,0 -103.1437914125197,20.58372917420376,0 -103.1435683160742,20.58393452763219,0 -103.1434691315084,20.58420443799399,0 -103.1434855802677,20.5844304267963,0 -103.1435397357297,20.58471101519441,0 -103.1437281602454,20.58499304441193,0 -103.1438978412289,20.58523874238252,0 -103.1440593525682,20.58536693016436,0 -103.1443643964838,20.58552375503584,0 -103.1445631788464,20.58574266713647,0 -103.1448188506171,20.58601638413746,0 -103.1452180565458,20.58631873740139,0 -103.1454359134339,20.58654688565112,0 -103.1455229384156,20.58675730846422,0 -103.1457576585902,20.5871813243975,0 -103.1459543006057,20.58757112963212,0 -103.1460723872093,20.58781755086704,0 -103.1462236069008,20.58796970632815,0 -103.1463285885491,20.58808294640484,0 -103.146403132356,20.5882643952387,0 -103.1464497768898,20.58837328508392,0 -103.1465353306665,20.58843742937169,0 -103.146638865769,20.58860112378964,0 -103.1466551008684,20.58884517523421,0 -103.1466981442722,20.58925209891411,0 -103.1466490982897,20.58934189835865,0 -103.1464641419777,20.5895657288088,0 -103.1462983670138,20.58978976460162,0 -103.1461703003735,20.59006839935865,0 -103.1461196161577,20.59029366848631,0 -103.1460504048654,20.59046454401258,0 -103.1460489855056,20.59058195123701,0 -103.1460663114201,20.59073568938073,0 -103.1460934467356,20.59087146768316,0 -103.1460139889515,20.59109642829671,0 -103.1458957299537,20.59135710285712,0 -103.1457300612494,20.59157210652739,0 -103.1455612247385,20.59204901830747,0 -103.1454235634598,20.59232754934967,0 -103.145391513207,20.59259818037319,0 -103.1454474214909,20.59273426729874,0 -103.1455305741162,20.59299710124193,0 -103.1455287172589,20.59315063367564,0 -103.1454693133935,20.59330354898116,0 -103.145275305232,20.59348211811869,0 -103.1450613494426,20.59372370045741,0 -103.1448863041302,20.5939205374658,0 -103.1447393763196,20.59417187084785,0 -103.1446479189307,20.59459541646897,0 -103.1446922687077,20.59489396434867,0 -103.1447657202983,20.59516572699382,0 -103.1448785207997,20.59535661939421,0 -103.1450283755273,20.59565629907933,0 -103.1452147386568,20.59610992255741,0 -103.1453069372667,20.59641801607962,0 -103.1453228422112,20.59668916128635,0 -103.1452709518328,20.59701377419684,0 -103.1451621683204,20.59728358184042,0 -103.1450441208053,20.59752619254149,0 -103.1451569231537,20.59771708486998,0 -103.1451933219798,20.59788006007609,0 -103.1451807800816,20.59812380262604,0 -103.1451217013669,20.59824962361872,0 -103.1451003327704,20.59843004405919,0 -103.1450005927927,20.59874511091677,0 -103.1448534412511,20.5990145065444,0 -103.1447824541988,20.59920937758564,0 -103.1447676084558,20.59937795676747,0 -103.1448268844011,20.59946813814856,0 -103.1449493936409,20.59947117606932,0 -103.1451170859036,20.59942379701741,0 -103.1451327717875,20.59971300477195,0 -103.1453121702679,20.59994977396973,0 -103.1455388716604,20.60024124532107,0 -103.145632165347,20.60045902564644,0 -103.1456673631979,20.6007213452284,0 -103.1457971665143,20.60109306932543,0 -103.1459748195328,20.60147433901099,0 -103.1460738825599,20.60200831800323,0 -103.1460785581447,20.60241482994856,0 -103.1461678115997,20.60296676866275,0 -103.1463266114675,20.60332073847479,0 -103.1464487924745,20.60352979576959,0 -103.1466087949675,20.60378442094219,0 -103.1467504880277,20.6039665898133,0 -103.1469099453893,20.60426637134264,0 -103.147154965859,20.60463029733915,0 -103.1473144246237,20.60493007858635,0 -103.1474626542976,20.60536522667436,0 -103.1474808555091,20.60544671412971,0 -103.1474419601193,20.60574465837353,0 -103.1473344369599,20.60609827125171,0 -103.146816023387,20.60672909736834,0 -103.1465179384656,20.60706348193672,0 -103.1461885260455,20.60759911949955,0 -103.1461765008287,20.6077992396813,0 -103.1460783944706,20.60797883693818,0 -103.1459210959156,20.6082932863068,0 -103.145705916009,20.60863421190107,0 -103.1450077071103,20.61004481764904,0 -103.1447924131003,20.61039477299503,0 -103.1446323745365,20.61093500313175,0 -103.1445539956089,20.61106964866351,0 -103.1443284502516,20.61147368797633,0 -103.1437237688299,20.61228914806107,0 -103.1436061433187,20.61249563116617,0 -103.1433911707285,20.61281849029959,0 -103.142913260658,20.61346369205981,0 -103.1426312476441,20.61377679703464,0 -103.1423094396652,20.61420689558835,0 -103.1419684448638,20.61463678708158,0 -103.141635616015,20.61518418750371,0 -103.1412253866376,20.61578494914442,0 -103.1409314708911,20.61628760418702,0 -103.1407518968969,20.61685471623904,0 -103.1407108948662,20.61707105379452,0 -103.1407466338128,20.61728821720119,0 -103.1406960389525,20.6175044514999,0 -103.140538718291,20.61781889404706,0 -103.1403219762462,20.6182862483751,0 -103.1401627891491,20.61875422194545,0 -103.1399365613773,20.61921244101496,0 -103.1397363674349,20.61989675111281,0 -103.1396460819816,20.62022094678971,0 -103.1396106097303,20.62077154376372,0 -103.1396246378213,20.62119621961541,0 -103.1396028183119,20.62141276322163,0 -103.1396864109428,20.62163947453737,0 -103.1399432250055,20.62182288898501,0 -103.1402296961494,20.62193436284886,0 -103.1408130004487,20.62209419363847,0 -103.1411855900903,20.62222465778042,0 -103.1415398715548,20.62228266459199,0 -103.1419136681026,20.62231378326926,0 -103.142334443434,20.62242669845009,0 -103.1426879590445,20.62254792189192,0 -103.1433744917952,20.62289853583327,0 -103.1440140481175,20.62316735035694,0 -103.144386096271,20.62334296439331,0 -103.1450655607513,20.62348574953197,0 -103.1458810797484,20.62348547319451,0 -103.146400745138,20.62335556377797,0 -103.147133424303,20.62306535345497,0 -103.147501784659,20.62275316801879,0 -103.1476963768121,20.6225294430813,0 -103.147892060952,20.62221540486276,0 -103.1482694645128,20.62194847686007,0 -103.1485585643091,20.62184318606533,0 -103.1487692820105,20.62187254190195,0 -103.1489607046751,20.62191072319912,0 -103.1491235668837,20.62193053330929,0 -103.1500729444633,20.62196780078637,0 -103.1505516118512,20.62205421879913,0 -103.1508781008499,20.62203061670371,0 -103.1513393279089,20.62197232609271,0 -103.151927988993,20.62168958544547,0 -103.1522762790289,20.62144943411142,0 -103.1528208943301,20.6208410492709,0 -103.1533452302201,20.62032277056319,0 -103.15369340608,20.62009164726245,0 -103.1539239620284,20.62006701375228,0 -103.1542129462091,20.61997074423775,0 -103.1544633408447,20.61989212695738,0 -103.1546759079653,20.6197679427207,0 -103.1549944315583,20.61960875984396,0 -103.1555162539217,20.61929819448708,0 -103.1558831750135,20.61910339654084,0 -103.1564807579773,20.61887492929745,0 -103.1570482565105,20.61875452906769,0 -103.1577974745603,20.61868122732938,0 -103.1588635810073,20.61858420217827,0 -103.1589982062302,20.6185585392996,0 -103.1595845622885,20.61846542903282,0 -103.1603056512015,20.61833762142186,0 -103.1606425929601,20.61824185132541,0 -103.1608831724461,20.61818118486688,0 -103.1622638867129,20.61825007272934,0 -103.1628661756427,20.61842809660342,0 -103.1631231237176,20.61860244695177,0 -103.1632366128835,20.61873914162081,0 -103.1633017046239,20.61891145182993,0 -103.1633950335019,20.6191292248939,0 -103.1634585007257,20.61943700581795,0 -103.1634841380966,20.61969922188706,0 -103.1636038634393,20.62011599126296,0 -103.163905747445,20.62054372934682,0 -103.1641332714972,20.62077196093083,0 -103.1644570510518,20.62097411746299,0 -103.1647918317991,20.62105896731147,0 -103.1653655725743,20.62121861493414,0 -103.1660823447635,20.62145203963501,0 -103.1664543101476,20.6216366391424,0 -103.1667889856108,20.62173051670257,0 -103.1671620338043,20.62182480079785,0 -103.1674497177539,20.62183688558244,0 -103.1676810323141,20.62174901391906,0 -103.1682945564242,20.62179165098039,0 -103.1688497664682,20.62189689559352,0 -103.1697778124246,20.62211447991398,0 -103.1701607808604,20.62218176513454,0 -103.1707613698628,20.62250426592168,0 -103.1711235352765,20.62270681721032,0 -103.1711606132073,20.62281560052353,0 -103.1711298917396,20.62297786135194,0 -103.1710697433107,20.6231940059498,0 -103.1709708982319,20.62343683843225,0 -103.1709414712407,20.62349072218364,0 -103.1705961040804,20.62429096232333,0 -103.1706021356441,20.62458910061557,0 -103.1705951200356,20.62517614253742,0 -103.1706481466617,20.62555607158877,0 -103.170798294107,20.62583767114823,0 -103.1711589564044,20.62616666270223,0 -103.1716262262873,20.62640645663956,0 -103.1724487769036,20.62662291162869,0 -103.1728607539606,20.62667243346273,0 -103.1732346811003,20.6266944541675,0 -103.1736369575869,20.62675290413574,0 -103.174028994594,20.62686544033675,0 -103.1746105312624,20.6271786952625,0 -103.1749428557183,20.62747124977706,0 -103.1750937667514,20.62768962623802,0 -103.1751953109157,20.62802490439595,0 -103.1751722473873,20.62834983327279,0 -103.1749613061714,20.62914247035178,0 -103.1749004059511,20.62942183638137,0 -103.1749239091956,20.62986468068261,0 -103.1750042203881,20.63037135334488,0 -103.1752490244923,20.63076234092586,0 -103.1755352195185,20.63090085359085,0 -103.1759481784643,20.63086908605865,0 -103.1762650928767,20.63084533574592,0 -103.1765150667031,20.63080281280877,0 -103.1769486114229,20.63065383674754,0 -103.1773571391553,20.63018845525583,0 -103.1775711032579,20.62994683387244,0 -103.1778040388413,20.62972347752589,0 -103.1782674353344,20.62948448702963,0 -103.1789315436884,20.62931083999634,0 -103.1799117022747,20.62918568461974,0 -103.1815744000809,20.62895028835422,0 -103.1827572004195,20.6287278916033,0 -103.1841208829029,20.62862481246469,0 -103.1847249574727,20.62865826114408,0 -103.1850693628348,20.62874317454038,0 -103.1851735001691,20.62886169287513,0 -103.1855726409009,20.62999496327248,0 -103.1865670568711,20.63271519257685,0 -103.1865854953405,20.63277861450316,0 -103.1871343051697,20.63423862807533,0 -103.1878376989768,20.63560993688585,0 -103.1879771169116,20.63599076997573,0 -103.188049162897,20.63638896111313,0 -103.188026016805,20.63672292484261,0 -103.1878680177717,20.63710063612086,0 -103.187605445156,20.6373959558529,0 -103.1873145170779,20.63765484693499,0 -103.1870527987081,20.63787791378863,0 -103.1869936280387,20.63801278147873,0 -103.1869412683034,20.63838256845059,0 -103.1870527595092,20.63869084802595,0 -103.1874298557908,20.6400677643563,0 -103.1881329187473,20.6422791020749,0 -103.1881490047761,20.64254121655467,0 -103.1881837448285,20.64284868988657,0 -103.1880935422425,20.64317291680252,0 -103.1879671715806,20.64412001368736,0 -103.18786544652,20.64460670626347,0 -103.1875684024801,20.64538039086796,0 -103.1872756378794,20.64579281562519,0 -103.1868192262405,20.64624868343044,0 -103.1862871253332,20.64661342838162,0 -103.1857762475161,20.64680677534548,0 -103.1853918151294,20.64685692889606,0 -103.1851984197093,20.64698135145511,0 -103.1847355132694,20.64717519964898,0 -103.1844063961624,20.64741561715119,0 -103.1840667178569,20.64773721609716,0 -103.1839109485217,20.64792526111625,0 -103.1839467530633,20.64814242000492,0 -103.1840823080561,20.64884838830763,0 -103.1841859684694,20.64981596587722,0 -103.1842898442293,20.65076548046702,0 -103.1843598938132,20.65213917047874,0 -103.1843781659048,20.65302455596388,0 -103.1844216358248,20.65340438192325,0 -103.1845122234966,20.65385696437739,0 -103.1845611052377,20.65458911797911,0 -103.1844890037349,20.65500385798304,0 -103.1843675305994,20.65553550184265,0 -103.1842187728302,20.6559404022194,0 -103.1839945394594,20.65623611690876,0 -103.1838388678262,20.65641512958715,0 -103.1836644345164,20.65655781424048,0 -103.183285599858,20.65694222566564,0 -103.1825962741078,20.65761240739914,0 -103.1822924785559,20.65814212800068,0 -103.1822617584718,20.65830439053476,0 -103.1819783331571,20.65873496679624,0 -103.1818874606985,20.65911337683406,0 -103.1818578145418,20.65918532488099,0 -103.1821650103825,20.65998342880529,0 -103.1823260932173,20.66015674527932,0 -103.1825363359578,20.66023122139049,0 -103.1829581109644,20.66027179561368,0 -103.1833512069587,20.66030303417749,0 -103.183752717823,20.6604337187807,0 -103.1841121975849,20.66087106752093,0 -103.184422949917,20.6613711307046,0 -103.1846666417962,20.66186145500191,0 -103.1849875299565,20.66231646116572,0 -103.1855734535043,20.66308136312427,0 -103.1863077687237,20.66428138796772,0 -103.1866448562938,20.66498947420028,0 -103.1868181728068,20.66575003343893,0 -103.1869514987796,20.66664566078014,0 -103.1870037145692,20.66709783880447,0 -103.1870739434139,20.66764956458235,0 -103.1870546988296,20.66846229436707,0 -103.1870418864312,20.66873313700728,0 -103.1870927089477,20.66930272383539,0 -103.1871283061096,20.66953794516344,0 -103.187217620989,20.67009890410846,0 -103.187442141287,20.67058902390929,0 -103.18769738105,20.67091687999273,0 -103.1880208675056,20.67115512726186,0 -103.1886695575961,20.6714871168817,0 -103.189126217114,20.67182611980995,0 -103.1895922608855,20.67218328536296,0 -103.1901526648599,20.67267692923844,0 -103.1906650904066,20.67317006793342,0 -103.1909584060723,20.67352541721014,0 -103.1911850828179,20.67383490388538,0 -103.1912876481685,20.67408889257889,0 -103.1913436222148,20.67422496872082,0 -103.1916003739055,20.67442637941312,0 -103.1918177775775,20.67470867033781,0 -103.1921282598516,20.67523581723722,0 -103.1923824478611,20.67565398224031,0 -103.1925810891208,20.67589994523682,0 -103.1927897552706,20.67610988277311,0 -103.1930271049659,20.67632915338317,0 -103.1937128259775,20.67677893786649,0 -103.1944284094356,20.67713870669806,0 -103.1951916596611,20.67752606969436,0 -103.1962229823978,20.67797043086228,0 -103.1966525954021,20.6781646111405,0 -103.1973507059636,20.67837966406859,0 -103.1980298383484,20.67857645064392,0 -103.1985464664633,20.67871734050799,0 -103.1991289947239,20.67896730885094,0 -103.2000167069494,20.67938305003931,0 -103.2008951467762,20.67977159228123,0 -103.2014188249207,20.68012933044954,0 -103.2016650458218,20.6804119111758,0 -103.2017862945048,20.680711252896,0 -103.2018595587894,20.68101009389023,0 -103.2019366745858,20.68179673665519,0 -103.2020417308255,20.68265593186586,0 -103.2022124781685,20.68364226907581,0 -103.2023424760171,20.6840139627868,0 -103.2025753787533,20.68455300780239,0 -103.203021392238,20.68502647183366,0 -103.20349058132,20.68537003898447,0 -103.2044390126701,20.68554736822904,0 -103.2055478122966,20.68550183852593,0 -103.2066227830733,20.68541408415114,0 -103.2071342363822,20.68525958043948,0 -103.2080840581424,20.68531893438877,0 -103.2088736637705,20.6855288259757,0 -103.2097741098074,20.6856599619965,0 -103.2104071893368,20.68582635495993,0 -103.2114077169833,20.6862494765145,0 -103.2119875977578,20.68646859259673,0 -103.2126362852511,20.68668462330259,0 -103.2130543040587,20.68690966407345,0 -103.2134380403353,20.68723582856773,0 -103.2140493071069,20.68788526974487,0 -103.2146534030653,20.68845473177859,0 -103.2152748726693,20.68883348189274,0 -103.2156558342288,20.68911522490423,0 -103.2163925289244,20.68941586504782,0 -103.217274193825,20.68983429269928,0 -103.2179318785849,20.69008971886054,0 -103.2190593397871,20.69052758492045,0 -103.2197704945052,20.6909383005357,0 -103.2208393525077,20.69140471472844,0 -103.222057633979,20.69168748220959,0 -103.2234011333998,20.69152629153184,0 -103.2242735775164,20.69128793927779,0 -103.2255199393465,20.69154692338018,0 -103.2264095408152,20.69229761460422,0 -103.2263755306709,20.69331391045517,0 -103.2263110804309,20.69387220573347,0 -103.2261591158725,20.69483663577067,0 -103.2261200736214,20.69510046812803,0 -103.2260057832208,20.69566355287372,0 -103.2259227149257,20.69585698066729,0 -103.2258120570605,20.69595842791021,0 -103.225708903798,20.69605285623706,0 -103.2258089134195,20.69653261941405,0 -103.2258703210118,20.69703005030317,0 -103.2260304418801,20.69729364786157,0 -103.2262016321849,20.69743090154327,0 -103.2264979136936,20.6975423451678,0 -103.2267851226337,20.69760853139944,0 -103.2269954416789,20.69768295831733,0 -103.227503303706,20.69776044752672,0 -103.2279813223643,20.69792795524352,0 -103.2282687427351,20.69797607584652,0 -103.2284415098389,20.6979778531066,0 -103.2289107714035,20.69807300660753,0 -103.2303974420882,20.69817861599528,0 -103.2307816843264,20.69815546560852,0 -103.230906460883,20.69815674739312,0 -103.2309636309582,20.69819346550758,0 -103.2310884075582,20.69819474716264,0 -103.2315572530513,20.69832602017623,0 -103.2318435237908,20.69847348300462,0 -103.23186282496,20.69846464845059,0 -103.232423780761,20.69893107545977,0 -103.2327186050269,20.69916895193461,0 -103.2338245770968,20.69982162141484,0 -103.2343102215501,20.7001608123173,0 -103.2349888810333,20.7004116531183,0 -103.2351879376546,20.70063047868969,0 -103.2355436871157,20.70141093882742,0 -103.235704352012,20.7016293705138,0 -103.2357604794834,20.70175640377552,0 -103.2358274596085,20.70177515546693,0 -103.2360741979743,20.70202156685827,0 -103.2362459255343,20.70211365321786,0 -103.2365047709344,20.70214340253186,0 -103.2365337753036,20.70212563411176,0 -103.236600755707,20.70214438552002,0 -103.2367930386299,20.70211925634896,0 -103.2375317038816,20.70216294939758,0 -103.2380490826571,20.70224953882878,0 -103.2384697466588,20.70239836653662,0 -103.2386412675747,20.70250851397884,0 -103.2389445597792,20.70284582746977,0 -103.2392202051094,20.70308349764351,0 -103.2395635627529,20.70327669602611,0 -103.2401566928757,20.70345438131217,0 -103.2403866417809,20.70349286236583,0 -103.2406177374068,20.70343199464524,0 -103.2406851359244,20.70341461781903,0 -103.2407521175237,20.70343336768645,0 -103.2408773159459,20.7033985158359,0 -103.2410805534107,20.70325606813989,0 -103.2416628221307,20.7027110174751,0 -103.2417740563352,20.70248927746452,0 -103.2419665073278,20.70226243204225,0 -103.242259536435,20.70205894111611,0 -103.2427919023023,20.70167930834125,0 -103.2433238789566,20.70133314603811,0 -103.2437231268582,20.70135906507877,0 -103.2445883407681,20.70125046141308,0 -103.2451362848629,20.70118378419296,0 -103.2453380604456,20.70116777480486,0 -103.2458005531977,20.70101892979902,0 -103.24632157076,20.7007893845949,0 -103.2469276227449,20.70067812941001,0 -103.2480627295587,20.70047289470027,0 -103.2483513050904,20.70042163363507,0 -103.2486592848045,20.70035250386158,0 -103.2489853201911,20.70038291767112,0 -103.2492048395996,20.70049354297917,0 -103.2494717294106,20.70065884624833,0 -103.2496726747862,20.70071508550595,0 -103.2505363287061,20.70074192731819,0 -103.2515338439617,20.70081528795657,0 -103.2522247269508,20.70084036702643,0 -103.2524544692781,20.70089689538218,0 -103.2527785406439,20.70109890521974,0 -103.2531987014728,20.70129285646222,0 -103.2537800729034,20.70166006469889,0 -103.2539505709753,20.70186051508435,0 -103.2542560698844,20.7020081372651,0 -103.25450552906,20.70201969893666,0 -103.254764380089,20.70204942103234,0 -103.2550295218495,20.70236825603864,0 -103.2551988853537,20.70266805460696,0 -103.2553469850419,20.70314829356511,0 -103.255516659995,20.70342099664605,0 -103.2558021396327,20.70364067591294,0 -103.2560585140819,20.70388715836537,0 -103.2564191321781,20.7042521225471,0 -103.256676748113,20.70439022313185,0 -103.2569734823658,20.70446548974857,0 -103.25716525043,20.70448549658411,0 -103.2573645523209,20.70468623554971,0 -103.2575175127988,20.70474198044923,0 -103.2577378711266,20.70478034162236,0 -103.2578521271695,20.70486279299931,0 -103.258022427743,20.70508130344101,0 -103.2581457669179,20.70520901057591,0 -103.2582707574782,20.70519220942444,0 -103.2585688356199,20.70515006051238,0 -103.2589228557575,20.70525300173673,0 -103.2592874034722,20.7052747534,0 -103.2596049885764,20.705205701467,0 -103.2598178116444,20.70506332761928,0 -103.2600215510173,20.70487569761468,0 -103.2600610800916,20.70477673612837,0 -103.2604083878077,20.70462668764341,0 -103.2607640570689,20.70458511667816,0 -103.2609952514867,20.70451518936066,0 -103.2613702209364,20.70446477922678,0 -103.261801855836,20.70449623570816,0 -103.2627602906352,20.70463236826256,0 -103.2632972043858,20.70469198172381,0 -103.2635547252099,20.70483910429051,0 -103.2638127608951,20.70494106755394,0 -103.2641006218751,20.70495300287123,0 -103.2645235859021,20.70490306974581,0 -103.2648694509681,20.70487945710076,0 -103.2654050308636,20.70505647747115,0 -103.2657974518047,20.70515979167998,0 -103.2657761990898,20.70534023429953,0 -103.26579231412,20.70561138164152,0 -103.265943737983,20.70580259632284,0 -103.2663161417283,20.70597797055311,0 -103.2669955053393,20.70617449976394,0 -103.2675776500231,20.70647844223285,0 -103.2680258226172,20.70674490378649,0 -103.2682834544998,20.7068829880031,0 -103.2686383074854,20.70691365548311,0 -103.2693872302536,20.706903119726,0 -103.2695014947205,20.70698556390872,0 -103.2698755462994,20.70701642183892,0 -103.2702379491368,20.70722781889731,0 -103.2704087832857,20.70740115937462,0 -103.270643633931,20.7078551611016,0 -103.2708141618081,20.70805559670791,0 -103.2717469804238,20.70876049338477,0 -103.2722215074167,20.70924399785446,0 -103.2723733525914,20.70939908032087,0 -103.2726585621773,20.70964582947624,0 -103.2730856106972,20.7100836911518,0 -103.2735219538795,20.71054874368789,0 -103.2737405868647,20.7107406263601,0 -103.2738840634918,20.71078722943063,0 -103.2741722444768,20.71077205322713,0 -103.2744018074296,20.71084661752742,0 -103.2745730594328,20.71098382708038,0 -103.274725317783,20.71110278038886,0 -103.2750272792204,20.7115664825735,0 -103.2751477758821,20.71194707025049,0 -103.2752280356206,20.71248984618546,0 -103.275483946468,20.71278146192103,0 -103.2760266130222,20.71318434407996,0 -103.2761949058291,20.71358347564365,0 -103.2762488237762,20.71390919873355,0 -103.2761975567781,20.71419773691011,0 -103.2760298696988,20.71459350330833,0 -103.2758550352082,20.71477240920135,0 -103.275746681184,20.71501521095445,0 -103.2757153272562,20.71524071834913,0 -103.2757715954637,20.7153587092616,0 -103.2759585775668,20.71580319261289,0 -103.2765329101952,20.7168025598923,0 -103.2768757377142,20.71704988011692,0 -103.2771630114115,20.71711598629788,0 -103.2774689740328,20.71722744340094,0 -103.2777554315195,20.7173658033827,0 -103.2779549821498,20.71754845763094,0 -103.2781528998447,20.71787562120244,0 -103.2783610305242,20.71814868955906,0 -103.2786090917689,20.71828666411794,0 -103.2788372396835,20.71848766925594,0 -103.279121660156,20.71880666417279,0 -103.279321316328,20.71898028520507,0 -103.279492581718,20.71911749069212,0 -103.2799008840197,20.71951901886813,0 -103.2800604090398,20.719845796797,0 -103.2802376047035,20.7203082442932,0 -103.2802906148439,20.72071525332053,0 -103.2802663161054,20.7211666540365,0 -103.2802913425202,20.72150112039066,0 -103.2801636878477,20.72175276485971,0 -103.2798321895113,20.72220109452158,0 -103.2798684471309,20.72239114724379,0 -103.2797663262636,20.72293209834665,0 -103.2796852411054,20.7233106680445,0 -103.2796820782334,20.72359065529114,0 -103.2798050522268,20.72460356591904,0 -103.2799163767795,20.7249479278965,0 -103.2800005336089,20.72514749234552,0 -103.2801140011902,20.7253021854546,0 -103.280131977367,20.72541075956239,0 -103.2800331191924,20.725662691497,0 -103.2800118784104,20.72584313645291,0 -103.2800390466639,20.72598793392801,0 -103.280151392679,20.7262419773502,0 -103.2803212384452,20.72650562837816,0 -103.2806037380215,20.72699622692824,0 -103.2808511014864,20.72719742221004,0 -103.2812038649535,20.7274177360518,0 -103.2814223270389,20.72762767468496,0 -103.2816592768361,20.72790102783612,0 -103.281944422902,20.72828915229373,0 -103.2820141381615,20.72845506067358,0 -103.2822206064045,20.72874978670772,0 -103.2823774437455,20.72893282684766,0 -103.2824805469861,20.72914673310266,0 -103.2826125075227,20.72936483957804,0 -103.2827449778181,20.72953778669929,0 -103.2829346436364,20.72974743618205,0 -103.2832008081494,20.72998494764936,0 -103.28342887708,20.73019497994714,0 -103.2837042363439,20.73046871397628,0 -103.2834743334988,20.73042125542926,0 -103.2831096164547,20.73040858245628,0 -103.2823223759715,20.73040072267856,0 -103.2817200844435,20.73039470699122,0 -103.2810761340525,20.73040134252984,0 -103.279994757888,20.73028735908349,0 -103.2789478249075,20.73017699968033,0 -103.2784082399269,20.73010867064861,0 -103.27805251239,20.73015027411144,0 -103.2771984810391,20.73010559088658,0 -103.276986862324,20.73013960259945,0 -103.2768234502482,20.73015603129342,0 -103.2767078359105,20.73019100441293,0 -103.2765636246702,20.7302076252234,0 -103.2763720247212,20.73016957395361,0 -103.2761796067078,20.73020377706033,0 -103.2760449958811,20.73022049364542,0 -103.2758721878199,20.7302187615561,0 -103.2755647689151,20.73023374549787,0 -103.2753823604369,20.73023191666604,0 -103.2752387630702,20.73019434544136,0 -103.2750667738166,20.73012035800329,0 -103.274807664389,20.73010872652607,0 -103.2746254608613,20.73008883327092,0 -103.2745480431891,20.7301422537371,0 -103.2744617416429,20.73013235515072,0 -103.2743852453013,20.73010448920777,0 -103.2742902648138,20.73001320789605,0 -103.2740996898175,20.72988483601652,0 -103.2739665127991,20.72977510559943,0 -103.2737654395113,20.72956829165615,0 -103.2735257972128,20.72932180744548,0 -103.2732861051467,20.72898115510573,0 -103.2731995761086,20.72865946534761,0 -103.2731289442692,20.72839687443459,0 -103.2731308272589,20.72826429667244,0 -103.2732088339217,20.72813671770823,0 -103.2733832553215,20.72801949880562,0 -103.2735042816526,20.72791426692864,0 -103.2735284670777,20.72783624009356,0 -103.2735077700252,20.72776929143228,0 -103.2733998751745,20.7275989782448,0 -103.2733100887448,20.72743873591014,0 -103.2732044073578,20.727279435109,0 -103.2730030059556,20.72711257843229,0 -103.2724390158897,20.7267750490879,0 -103.2720293845272,20.72652989642711,0 -103.271760347749,20.72633889263229,0 -103.271514656862,20.72616279869025,0 -103.2712820865107,20.72606595668472,0 -103.2710789681916,20.72605072844557,0 -103.270858782843,20.72603422099503,0 -103.270554594622,20.72598775689068,0 -103.2703326861249,20.72598113054488,0 -103.2697627242927,20.72596441063483,0 -103.2691956739051,20.72589716860156,0 -103.2688843405081,20.72586024878598,0 -103.2687192145349,20.72598278211272,0 -103.2683944530441,20.72583498834236,0 -103.267992069378,20.72575867511358,0 -103.2677041683688,20.72574674352978,0 -103.2669932453825,20.72578474756017,0 -103.2666568298683,20.72581748959075,0 -103.2663684148792,20.72585071467373,0 -103.2660702968295,20.72589287428362,0 -103.2658108877514,20.72590832513307,0 -103.2655995821498,20.7259152277477,0 -103.2652735895542,20.72587580961239,0 -103.265080661006,20.72595515939321,0 -103.2648296168906,20.72607908684006,0 -103.264540892426,20.72613940410833,0 -103.2640799831586,20.72614378664876,0 -103.2635692193477,20.72631025525817,0 -103.2631362859525,20.72638718004923,0 -103.2628877780386,20.72635930766343,0 -103.2624128927934,20.72630521885677,0 -103.2620269382633,20.72624373783532,0 -103.2617085975423,20.72613712838325,0 -103.2612719624516,20.72600841823547,0 -103.2610225712269,20.7259085148955,0 -103.2607101589554,20.7256631159874,0 -103.2605144113018,20.72550935697581,0 -103.2601835610283,20.72532476835914,0 -103.2599827383612,20.72522535567584,0 -103.2596264403858,20.72501827264488,0 -103.2592523361335,20.72498202660187,0 -103.258905062719,20.72499278333234,0 -103.2584775552019,20.72493195077344,0 -103.2581174184672,20.7248247709798,0 -103.2579833726397,20.72478487808318,0 -103.2577217332434,20.72466136269827,0 -103.2574832834068,20.72452345594646,0 -103.2573596204118,20.7244228427523,0 -103.2571320117117,20.72417665194221,0 -103.256960452792,20.72406652049888,0 -103.2567883771857,20.72400154758286,0 -103.2565875018785,20.72393628266726,0 -103.2562150687664,20.72376088540096,0 -103.2560626074631,20.72365997946848,0 -103.2560156421223,20.72356917559111,0 -103.25592067723,20.72347788513531,0 -103.2557673888441,20.72344923282954,0 -103.2554807363415,20.72332890038433,0 -103.2552134910783,20.72319069874038,0 -103.2549946597278,20.72301685662939,0 -103.2548713101545,20.72288914664805,0 -103.2547000649452,20.72275191797046,0 -103.2544711173759,20.72262313652625,0 -103.2543377546108,20.72253145572372,0 -103.2541752818659,20.72246657778367,0 -103.2540127057251,20.72241073142421,0 -103.2536769183586,20.72238925806534,0 -103.2535238387821,20.72234254041947,0 -103.2533905804594,20.7222418272158,0 -103.2533247282446,20.72212373266739,0 -103.2532396764982,20.72200544318454,0 -103.2530973368307,20.72185947372205,0 -103.2529733682034,20.72178595286577,0 -103.2527528836886,20.72175661571313,0 -103.252322136615,20.72164384778212,0 -103.2524177206158,20.72151982586123,0 -103.2525345891585,20.72134580237057,0 -103.252546108574,20.72124804205703,0 -103.2525085654236,20.72110109049794,0 -103.2523609363285,20.72084717757794,0 -103.2522135068619,20.72063422564711,0 -103.2521470374442,20.72020728411838,0 -103.2518647952062,20.71992583368341,0 -103.2513594438388,20.71942189772609,0 -103.2508339793822,20.71916853004526,0 -103.2503078875603,20.71899200434479,0 -103.2498783237219,20.71879967596421,0 -103.2494807333269,20.71876498642268,0 -103.2490023181113,20.71878696979101,0 -103.2483030006583,20.71877985251884,0 -103.2479989518357,20.71884388594435,0 -103.2477063563248,20.71894890681854,0 -103.2469243565887,20.71899464525078,0 -103.2465087132874,20.71901895383823,0 -103.2463510855101,20.7190810230126,0 -103.2459769093734,20.71905914389356,0 -103.245669618464,20.71906504411268,0 -103.2454099093745,20.71910755994123,0 -103.2452076936789,20.71915969442096,0 -103.2450439803046,20.71920318858264,0 -103.2448798505738,20.71928280931657,0 -103.2446769059407,20.71939816492102,0 -103.2444264834369,20.71946787217073,0 -103.2441863891206,20.7194744552301,0 -103.2438980885189,20.71949861147869,0 -103.2437246707505,20.71955103803971,0 -103.2435231830923,20.71953994871403,0 -103.2433886844162,20.71954760849396,0 -103.2431372194818,20.7197076305556,0 -103.2430013662857,20.71983270178477,0 -103.2427981070543,20.71997515002971,0 -103.2426148803916,20.72004554071519,0 -103.242317187479,20.72005153283331,0 -103.242078239015,20.71995876451218,0 -103.2418598453652,20.71974878035586,0 -103.2414982925019,20.71946507115707,0 -103.2412312767591,20.71930878578707,0 -103.2410600487103,20.7191715446411,0 -103.2408790128016,20.71905226854005,0 -103.2406695957822,20.71889657117924,0 -103.2404977427639,20.71881351951517,0 -103.2403065865242,20.71873930302608,0 -103.2400768236411,20.71868275695531,0 -103.2398271313339,20.7186892358277,0 -103.2394529582434,20.71866734265086,0 -103.2391943972926,20.71861050079408,0 -103.2387250647918,20.71851537052944,0 -103.2378825013541,20.718317057637,0 -103.2374620043447,20.7181501623346,0 -103.2370219957892,20.71801016432031,0 -103.2368601636371,20.71789108098735,0 -103.2367457017977,20.71782667919364,0 -103.2365447403568,20.7177704236669,0 -103.2363433608168,20.71775029449095,0 -103.2361428179725,20.71765791194004,0 -103.2358661073874,20.71751055208317,0 -103.2355414002103,20.71736269970335,0 -103.2350445320049,20.71715888489052,0 -103.2347577008082,20.71705658311859,0 -103.2346430312447,20.71701024330159,0 -103.2345669686906,20.71694623405199,0 -103.2344818301654,20.71683696811392,0 -103.2343965870833,20.71673673377656,0 -103.234244043781,20.71664484159955,0 -103.23408169191,20.71657091406602,0 -103.2339380154304,20.71654234157693,0 -103.2338423358537,20.71651426155343,0 -103.2336609950537,20.71642207335106,0 -103.2334993768284,20.71628492388308,0 -103.2334335428626,20.71616682293292,0 -103.233301037327,20.71600287402092,0 -103.2332350988851,20.71589380464161,0 -103.2331784456225,20.71581192868267,0 -103.2330926802306,20.71575685194142,0 -103.2329492142723,20.71571021543375,0 -103.2327192498615,20.71567172329843,0 -103.2323943404236,20.71554192870472,0 -103.2314376609462,20.71525208660433,0 -103.2312367052921,20.71519582524644,0 -103.2310164464027,20.71514839795303,0 -103.2308536783753,20.71511059406814,0 -103.2305666445231,20.71502634900309,0 -103.2302025022771,20.71496840866189,0 -103.2299252782421,20.71486619804978,0 -103.2297342378532,20.71478293889274,0 -103.2294607958185,20.71461730730827,0 -103.2288527808108,20.71459397141636,0 -103.2281120725341,20.71475721322618,0 -103.2278231502381,20.71483553263569,0 -103.2276398192632,20.71491493895979,0 -103.2275046944557,20.71497677618135,0 -103.2271184128112,20.715171516529,0 -103.2269338197858,20.7153593012471,0 -103.2264970168395,20.71577030393513,0 -103.2263109501972,20.71608453021721,0 -103.2259207727795,20.71661343653041,0 -103.2256359751889,20.71716149367798,0 -103.2255869263508,20.71725131471067,0 -103.2250688991732,20.71804084789683,0 -103.2248744901049,20.7182465940725,0 -103.2247960106011,20.71839030725837,0 -103.2241523394664,20.71925080221381,0 -103.2231331198154,20.72020677588798,0 -103.222795976564,20.72030265336712,0 -103.2220889894533,20.7208282768087,0 -103.2215746224908,20.72130169208468,0 -103.2209657330062,20.72164767112038,0 -103.2205101185754,20.72202233107532,0 -103.2202272959364,20.72239877715145,0 -103.21982115392,20.7226474896516,0 -103.2195789445626,20.722834669046,0 -103.2193261844757,20.72310303269142,0 -103.2191800765932,20.72328217339133,0 -103.2188799501773,20.72349585011824,0 -103.2186371044418,20.72373721729153,0 -103.218383073187,20.7241139578855,0 -103.2181026720068,20.7242826741218,0 -103.2178699520546,20.72447898170753,0 -103.2176761592546,20.72463052902507,0 -103.2175211881732,20.72474634777333,0 -103.2172790784375,20.72492449189346,0 -103.2171438351259,20.72499535149787,0 -103.2169976170731,20.72518352152823,0 -103.2169002439262,20.72529993658877,0 -103.2167933765553,20.72540722053578,0 -103.2166001104248,20.72551360876662,0 -103.2164066324519,20.72563805983474,0 -103.2161553434054,20.72577997648096,0 -103.2158459255728,20.72596645303674,0 -103.2155557067687,20.72615312813548,0 -103.2153043102799,20.7263040749419,0 -103.2150815012493,20.72647338322503,0 -103.214724081242,20.7266593595043,0 -103.2145303885555,20.72680187128233,0 -103.2142884840471,20.72696194760599,0 -103.2141334021838,20.72708679443551,0 -103.2140263197618,20.72721213945685,0 -103.2139284133124,20.72737371016694,0 -103.2138608958174,20.72740010699695,0 -103.2138124722471,20.72743573468668,0 -103.213782400898,20.72754381391201,0 -103.2137334474555,20.72762459918666,0 -103.2136560119547,20.72767799080337,0 -103.2134641186222,20.72766696533831,0 -103.2130704141294,20.72767190860494,0 -103.2128103670256,20.72774146799086,0 -103.2125594955532,20.7278472527851,0 -103.2121544938563,20.72799659839686,0 -103.2119993032091,20.72813047459605,0 -103.2119216547477,20.72820192839133,0 -103.2117455663533,20.72848010893396,0 -103.2115509138247,20.72870390055035,0 -103.2112789298817,20.72897205081932,0 -103.2109872142077,20.72928515842105,0 -103.2107070081225,20.72943579819642,0 -103.210494638982,20.72953294759812,0 -103.2103786949901,20.72959496956528,0 -103.2102331012439,20.72972894379735,0 -103.2099680582949,20.73022297908627,0 -103.2096851940948,20.73059940447033,0 -103.2095428352563,20.73067183643578,0 -103.2095010493066,20.7308576311659,0 -103.2093916802189,20.73095333203446,0 -103.2090287779181,20.73105632522394,0 -103.2087321909151,20.7311326946066,0 -103.2082221338232,20.73117704301507,0 -103.2075284815275,20.73117990301211,0 -103.2068125239431,20.73122210121057,0 -103.205575298177,20.7311943534632,0 -103.2045644209768,20.73117138866138,0 -103.2037547848422,20.73114275622181,0 -103.2033709927855,20.73112068245022,0 -103.2031310961901,20.73110914377851,0 -103.202747411056,20.73107803716287,0 -103.2025554086085,20.73107603073329,0 -103.2023542326859,20.73103779790213,0 -103.2020871361313,20.73089048485267,0 -103.2019254278274,20.73076233834216,0 -103.2017259595834,20.73057960145895,0 -103.2014975848964,20.73040559468886,0 -103.201297477357,20.7302770461221,0 -103.201097690341,20.73012140297397,0 -103.2009544366715,20.73005667666204,0 -103.200848515917,20.73008266647157,0 -103.2007515547095,20.73016294536886,0 -103.2006741137714,20.73021633069546,0 -103.2002712317234,20.73018501789558,0 -103.1999255230378,20.730190432794,0 -103.1995990144866,20.73019604797192,0 -103.1987335140349,20.73031344214265,0 -103.198011371994,20.73048652922545,0 -103.1973491336369,20.7304933274554,0 -103.1965838069298,20.73064712741174,0 -103.1960665691887,20.73073777988575,0 -103.1955255583583,20.73081360010515,0 -103.1950572949527,20.73085419271404,0 -103.1947230850055,20.73092654052126,0 -103.1945478557151,20.73108248625929,0 -103.1942787320989,20.73110675865319,0 -103.1938172853557,20.73115610869314,0 -103.1935387758646,20.73116221625801,0 -103.1933089099371,20.73111463908943,0 -103.1931363229974,20.73109476099682,0 -103.1929055996112,20.73111943462881,0 -103.192702818567,20.7312166618919,0 -103.192499179344,20.73138614019944,0 -103.1916421966942,20.73159391272936,0 -103.1897759124395,20.73189945101452,0 -103.189670526103,20.7318802767046,0 -103.188678813936,20.73211371338087,0 -103.1881872731762,20.73227112131087,0 -103.1872916657132,20.73249652955604,0 -103.18679969223,20.73269005884736,0 -103.185497536908,20.73319117859619,0 -103.1848512025221,20.73344630087204,0 -103.1841560031856,20.73377316467744,0 -103.1838668119421,20.73386946849324,0 -103.183587112786,20.73397490455886,0 -103.1830085129785,20.73418557237182,0 -103.1828068006646,20.73419247354288,0 -103.1824896701004,20.73421621970178,0 -103.1819411634297,20.73431881183254,0 -103.1811054051235,20.73435513674878,0 -103.1805770695145,20.73437664534358,0 -103.1801262915366,20.73433574563734,0 -103.1797988043733,20.73442260460766,0 -103.1796072322448,20.73438444687541,0 -103.1794531967869,20.73441894622006,0 -103.1793083293133,20.73448967243537,0 -103.1790388750123,20.7345410143602,0 -103.1786255253986,20.7345817993914,0 -103.1784233804093,20.73462482072021,0 -103.178153493236,20.73471228656677,0 -103.1777871709969,20.73483486007192,0 -103.1775854580964,20.73484175503323,0 -103.1773448034917,20.7348933994221,0 -103.177238011142,20.73499162478281,0 -103.177055173993,20.73502581661409,0 -103.1767761180262,20.73507705309269,0 -103.1765056882372,20.73520967286135,0 -103.1759541445961,20.73556512243475,0 -103.175411982176,20.73593873454152,0 -103.1750837314356,20.7360888033009,0 -103.1749770451483,20.73617799575283,0 -103.1748703587371,20.73626718812833,0 -103.1746760778384,20.73645480778444,0 -103.1745203060912,20.73663380353747,0 -103.1743263493402,20.7367943287755,0 -103.1741413423482,20.73700914359027,0 -103.173908441418,20.73721441708471,0 -103.1737820110049,20.73734856132719,0 -103.173615986512,20.73758164200357,0 -103.1734700295347,20.73774267595482,0 -103.1733241806609,20.73789467844651,0 -103.1730334579491,20.73811740121393,0 -103.1727717525664,20.73832236687845,0 -103.1724810282539,20.73854508857965,0 -103.1720439094807,20.73896496745079,0 -103.1718118708479,20.73909798721815,0 -103.1713393859026,20.73926457932872,0 -103.1707996966595,20.73943045510731,0 -103.170355685431,20.73962444464076,0 -103.1701240789263,20.73972133676726,0 -103.1698734884143,20.73979996159607,0 -103.1695744605633,20.73991420015861,0 -103.1694207438592,20.73992159603987,0 -103.1693251734944,20.73988444869107,0 -103.1692096414821,20.73991031584411,0 -103.169131859383,20.73999077957249,0 -103.1690345501298,20.74009813263812,0 -103.1686673391888,20.74029293538835,0 -103.1683387469369,20.7404700838414,0 -103.167768400251,20.74078917441177,0 -103.1674587895278,20.74098458819585,0 -103.1673324592009,20.74110969570315,0 -103.1671381630304,20.74129730558209,0 -103.1670026668402,20.74138618535498,0 -103.1667416010746,20.7415369530992,0 -103.1663472149592,20.74159597419281,0 -103.1660870191923,20.7416744907095,0 -103.1658650078207,20.74177147904887,0 -103.1657004909263,20.7418781129602,0 -103.1655550661315,20.74199398284815,0 -103.1653512750062,20.74217245673096,0 -103.1652245063169,20.74233368752531,0 -103.165077228879,20.74260308841778,0 -103.1649967197879,20.74290933154589,0 -103.1649541772947,20.74325210958119,0 -103.1649420708692,20.74345972611449,0 -103.1648730138032,20.74361254015127,0 -103.1645820503414,20.74385330925777,0 -103.1643703470127,20.74394579257466,0 -103.1640264250318,20.74416780565844,0 -103.163688173908,20.74442975483788,0 -103.1635100619707,20.74459349041225,0 -103.1632528855548,20.74474188933854,0 -103.1630505595974,20.74483969002188,0 -103.1629458950258,20.74496488441285,0 -103.1626943110187,20.74512477903866,0 -103.1623737751315,20.74542845475868,0 -103.1622960957209,20.74549988361607,0 -103.1619948690486,20.74579473253786,0 -103.1617913960701,20.74594610770045,0 -103.16149202336,20.74608742448504,0 -103.1611158432769,20.74622791903642,0 -103.1609036416467,20.74630694041555,0 -103.1600336647549,20.74678537978993,0 -103.1594909879592,20.74719506020764,0 -103.1591440435635,20.74729973358453,0 -103.1587961147426,20.74748568725781,0 -103.1584933465886,20.74790696631089,0 -103.1583376535219,20.74807691364204,0 -103.1581255574528,20.74814690004954,0 -103.1578460356718,20.74823422831591,0 -103.1575284379701,20.74829405076755,0 -103.1572093080015,20.74848030964958,0 -103.1569103643257,20.74858549285482,0 -103.1564971937266,20.74860815886659,0 -103.156121113018,20.74873961041563,0 -103.1557550708011,20.7488350392771,0 -103.1554570019359,20.74886797015973,0 -103.1552358504788,20.74889269373872,0 -103.1551001218555,20.74899962543202,0 -103.1549739940483,20.7491066600699,0 -103.1547795631706,20.74930328510075,0 -103.1546336848842,20.7494552693032,0 -103.1545654913469,20.74953582849598,0 -103.1544882447099,20.7495711285501,0 -103.1543732515583,20.74955182895118,0 -103.1542972106143,20.74948778570523,0 -103.1538927616261,20.7495827979357,0 -103.153682306557,20.74951731056642,0 -103.1534521013412,20.74949677262916,0 -103.1532312778807,20.74949439994547,0 -103.1529614621356,20.74957279182505,0 -103.1526705790191,20.74980450713405,0 -103.1525249176926,20.7499384269594,0 -103.1524569423192,20.75000092282834,0 -103.1523752693585,20.75049206603561,0 -103.1521080165951,20.75092181600817,0 -103.1517607093063,20.75139815695482,0 -103.1515799208385,20.75160397227584,0 -103.151422897034,20.7519090549088,0 -103.1512997706757,20.75215375396729,0 -103.1511489368087,20.75241173581311,0 -103.1509143927749,20.75273542327334,0 -103.1505550706545,20.75309127207045,0 -103.1502105572916,20.75337368013858,0 -103.1497047331766,20.75380273591885,0 -103.1491249919789,20.75424200429469,0 -103.1486917177959,20.75449247097331,0 -103.1482088171852,20.75475428097025,0 -103.147786277951,20.75491921251952,0 -103.147211434449,20.75509946622325,0 -103.1469861571086,20.75513896057443,0 -103.146672578468,20.75526679058298,0 -103.146319124282,20.7553929830655,0 -103.1459253724567,20.7555800921567,0 -103.1455033178287,20.75586347306083,0 -103.1452546514508,20.75596698309678,0 -103.1450972269921,20.75600354736526,0 -103.1448938764026,20.75600724919647,0 -103.144739372507,20.75607783968206,0 -103.1424168313662,20.75597145519367,0 -103.1419840830129,20.75594448802774,0 -103.1416416623341,20.75593312817288,0 -103.1413131609506,20.7559193964067,0 -103.140990354047,20.7559144598718,0 -103.1404046095975,20.75592211889342,0 -103.1391264462631,20.75590708408837,0 -103.1385916540716,20.7559273377982,0 -103.1382766824337,20.75592717967555,0 -103.1378236659063,20.75589296976303,0 -103.1374358908233,20.75590178495868,0 -103.1360777725879,20.7560730615197,0 -103.1353978518691,20.75619587683664,0 -103.1350267496113,20.75625695040004,0 -103.1345465513488,20.7562942642799,0 -103.1341548739282,20.7563388399722,0 -103.1337596143816,20.75639312980941,0 -103.1323890230602,20.75683777307892,0 -103.1315185976723,20.75715431890306,0 -103.1309404078842,20.75744747907826,0 -103.1306398763518,20.75760436535296,0 -103.1306134505218,20.75767699540007,0 -103.129695871654,20.75810959067882,0 -103.1288458316041,20.75851581946797,0 -103.1278596980507,20.75905604476503,0 -103.1275115969591,20.75925096093668,0 -103.127086460403,20.75946310105514,0 -103.1256950459303,20.76016147479798,0 -103.1247589051598,20.76053964561995,0 -103.1226061562456,20.76145548645085,0 -103.1224124504847,20.7615888530217,0 -103.12213143705,20.76179352288953,0 -103.1219473320946,20.76192699382853,0 -103.1216381822528,20.7620771617426,0 -103.1214258297921,20.76216516198867,0 -103.1204198868595,20.76275028556502,0 -103.1200526769976,20.76293594401962,0 -103.1199466115301,20.76297091210238,0 -103.1195127475271,20.76311067862466,0 -103.1194259628806,20.76310218120997,0 -103.1192869690251,20.76312896103105,0 -103.1191322299842,20.7631630370853,0 -103.1188576801434,20.76317949866207,0 -103.1185779880835,20.76318073835555,0 -103.1180780396863,20.76319656960666,0 -103.1175434330498,20.76316202349982,0 -103.1171682109162,20.76314246954146,0 -103.1165601614121,20.76303639671585,0 -103.1163543530755,20.76303091182205,0 -103.1162585602616,20.76301179690313,0 -103.1158653397357,20.76297135534747,0 -103.1154538121539,20.76285845433445,0 -103.1150694099078,20.76288133323529,0 -103.114569655278,20.76282229564589,0 -103.1140111353479,20.76277730775034,0 -103.1134048698235,20.76277209447079,0 -103.1128050901858,20.76277918711548,0 -103.1122569082116,20.76281209876049,0 -103.1119339928475,20.7628687538616,0 -103.1117374147363,20.76286280222154,0 -103.1096338115455,20.76367965884194,0 -103.1094506704518,20.76374230015755,0 -103.109207364094,20.76380922321896,0 -103.1090239717364,20.76388161331464,0 -103.1087059746713,20.76414968209858,0 -103.1084619325288,20.76440168798309,0 -103.1081174168375,20.76468777351692,0 -103.1077791372376,20.76496867925588,0 -103.1074745321597,20.76512093236266,0 -103.1071363501996,20.76522663242707,0 -103.1066750354543,20.76528360163555,0 -103.1063480871005,20.76530687433375,0 -103.1060193385702,20.76531092594173,0 -103.1057264433296,20.76522322609688,0 -103.1054414040001,20.76506619027008,0 -103.1050887731649,20.76469370902606,0 -103.1048983021423,20.76420706043977,0 -103.1047753399159,20.7635894620785,0 -103.1046227221488,20.763181864144,0 -103.104274767552,20.76241508225655,0 -103.1037908263755,20.76157566501168,0 -103.103317755892,20.76096615052823,0 -103.1026288724896,20.76048690604242,0 -103.1019560834665,20.76022191179713,0 -103.1017006667988,20.76017487176144,0 -103.1009530389894,20.75994579686651,0 -103.1000349206165,20.7597828608956,0 -103.0988931630793,20.75959318057304,0 -103.098394441303,20.75953197770021,0 -103.097876651435,20.75948977368867,0 -103.0972352643333,20.75961100157387,0 -103.0969434629284,20.75968040679728,0 -103.0965261328224,20.75969998944723,0 -103.0959464714454,20.75964826964808,0 -103.0949577753201,20.75966442322039,0 -103.0945209630222,20.75968281578988,0 -103.0942422231308,20.7596796940739,0 -103.0938877767492,20.75969900773794,0 -103.0935825019251,20.7597382158676,0 -103.0933858558392,20.75983303141509,0 -103.0928093221455,20.75986276040146,0 -103.0926359404272,20.75977787178714,0 -103.0923090431084,20.75975219281006,0 -103.0918708645444,20.75973889857592,0 -103.0913254439538,20.75973283966037,0 -103.0905914175112,20.75968972403556,0 -103.0896677555748,20.75962812596074,0 -103.0883589989355,20.75953546975525,0 -103.0879620115976,20.75951492771927,0 -103.0875296569675,20.75943982186908,0 -103.0869768105715,20.75931272571356,0 -103.0864002007014,20.75925793161922,0 -103.0858942212859,20.75926841897654,0 -103.0847957493513,20.75940404377081,0 -103.0842455471195,20.75952153955755,0 -103.0837997383902,20.75962447039488,0 -103.0832745703915,20.75979598672582,0 -103.082904976042,20.76005585170961,0 -103.0827112773961,20.76023106487239,0 -103.082535661796,20.76055965755096,0 -103.0824749045959,20.76079940539793,0 -103.0824006528291,20.76133653846715,0 -103.0823907095975,20.7613635237295,0 -103.0823950683692,20.7614059066732,0 -103.0823775175756,20.76148671682643,0 -103.0823444665266,20.76161025545286,0 -103.0823439232267,20.76193708262158,0 -103.082303645171,20.76231324384767,0 -103.0824505999573,20.76282818229173,0 -103.0827761295063,20.76344418421489,0 -103.0831648720902,20.7642091229839,0 -103.0838260498043,20.76513410726681,0 -103.0843590339815,20.76605024068248,0 -103.0845570939398,20.76662005601288,0 -103.0846416580837,20.76693507200835,0 -103.0848188917969,20.76789650938497,0 -103.0848554683,20.76850614885296,0 -103.0848508344072,20.76977552565176,0 -103.0849159222355,20.77072015168329,0 -103.0849132214056,20.77125366955864,0 -103.0848445054611,20.77190167341679,0 -103.0846990978871,20.77258117827697,0 -103.0843501405234,20.77374813879507,0 -103.0841224458823,20.77486809895635,0 -103.084118961431,20.77514429539106,0 -103.0842876011454,20.77549430788228,0 -103.0842738247937,20.77594824832055,0 -103.0848293319843,20.77692568749872,0 -103.0849779954683,20.77726412058681,0 -103.0851521903568,20.77749310578367,0 -103.0853511063947,20.7776769622999,0 -103.0855330688775,20.77797198426493,0 -103.0856654920156,20.77832160178509,0 -103.0857039009243,20.77910532213151,0 -103.0855858077456,20.77989730828419,0 -103.0850421542738,20.78056102534905,0 -103.0845705066142,20.78115943450663,0 -103.0840282889775,20.78170964224441,0 -103.0833280642263,20.78234132503573,0 -103.0827347751297,20.78295780856048,0 -103.0826121463976,20.78310780619217,0 -103.0820177698238,20.78364227888656,0 -103.0817483128642,20.78394577234476,0 -103.081469309729,20.78436646791785,0 -103.0809843621942,20.78503683931337,0 -103.0806323470853,20.78550212093066,0 -103.0804124049456,20.78602564002014,0 -103.0801931593631,20.78645987107559,0 -103.0800265001258,20.78722616103196,0 -103.0798606099262,20.78820622625718,0 -103.0795673478935,20.78906366814237,0 -103.0792682165139,20.78948413356745,0 -103.0787861054479,20.79005011887077,0 -103.0774523238889,20.79108544066505,0 -103.076163498091,20.7913984871825,0 -103.0755176333799,20.79148627016459,0 -103.0745981894103,20.79157435971478,0 -103.0741965727658,20.79160644022281,0 -103.0727606385792,20.7916064609342,0 -103.0722899890572,20.79153955458256,0 -103.0719931342787,20.79152131897854,0 -103.0715134766805,20.79154945345325,0 -103.0710072792651,20.79148416272225,0 -103.0705135318605,20.79137431113232,0 -103.0702131438235,20.79132250773578,0 -103.0698811186591,20.79126662314427,0 -103.0695798308395,20.79128558333956,0 -103.0692077730976,20.7912627720529,0 -103.0684539841294,20.79135486290835,0 -103.067841067711,20.79158263675822,0 -103.0674065179921,20.79180124306604,0 -103.0669601799538,20.79201226486157,0 -103.0661824065034,20.79243187507953,0 -103.0657860376373,20.79273371077052,0 -103.0653443770599,20.79309115408208,0 -103.0650329090908,20.79333780232128,0 -103.0648055023706,20.79360116252159,0 -103.0645464436378,20.79405009326043,0 -103.0642811760544,20.79451495444353,0 -103.0638239165203,20.79524616103039,0 -103.063322690201,20.79554160782607,0 -103.0627079753532,20.79570091406972,0 -103.0615827333875,20.79588506933925,0 -103.0606537346458,20.79588783659222,0 -103.059814427809,20.79579231579479,0 -103.0576051663098,20.79551460369132,0 -103.0570203247362,20.79558527260299,0 -103.054844046484,20.79574611176522,0 -103.0535700084122,20.79577601947764,0 -103.0530255404548,20.79572195357478,0 -103.0526057422586,20.79560225812107,0 -103.0521367373255,20.79555761560772,0 -103.0514117448339,20.79551842425463,0 -103.0507228915686,20.79548717223182,0 -103.0501886641972,20.79550296739917,0 -103.0497929261603,20.79547660272405,0 -103.0472628462366,20.79539763762879,0 -103.0467372527245,20.7953629776882,0 -103.0462334192097,20.79541459296076,0 -103.0454559084245,20.79540573618081,0 -103.0443133435651,20.79532819251472,0 -103.0433909114,20.79532484370949,0 -103.0418366349703,20.79524975690853,0 -103.0409233087083,20.79513179294035,0 -103.0405730385563,20.79509911633949,0 -103.0403374783802,20.79503907315744,0 -103.0400858397971,20.79504336708261,0 -103.0392559026034,20.79496219278975,0 -103.0385779548105,20.79491859806833,0 -103.0382060239047,20.7947924708835,0 -103.0379697237704,20.79478976851433,0 -103.0375737201822,20.79475656282313,0 -103.037024894616,20.79475028384365,0 -103.0365375136309,20.79470886067988,0 -103.0358362365284,20.79470083300383,0 -103.0352420477612,20.7946653527825,0 -103.0347334991593,20.79470349215476,0 -103.034281212138,20.79477056518579,0 -103.0339824592416,20.79484842844676,0 -103.0337703691588,20.79490922074726,0 -103.0333944388119,20.79501329393528,0 -103.0333935022521,20.79508553806011,0 -103.0332309028511,20.79513697278195,0 -103.0329839126637,20.7953707195863,0 -103.0325783353734,20.79548794271432,0 -103.0319896285938,20.79561740120053,0 -103.0316219764698,20.79574939508363,0 -103.0309279475261,20.79577010627346,0 -103.03039566864,20.79566362937818,0 -103.0298522468941,20.79560487991887,0 -103.0291049542187,20.79546081834989,0 -103.0286458770481,20.79531103404601,0 -103.0284170430425,20.79518195852942,0 -103.0279394655163,20.79497776879953,0 
					</coordinates>
				</LinearRing>
			</outerBoundaryIs>
		</Polygon>
	</Placemark>
</Document>
</kml>
