<?xml version="1.0" encoding="UTF-8"?>
<kml xmlns="http://www.opengis.net/kml/2.2" xmlns:gx="http://www.google.com/kml/ext/2.2" xmlns:kml="http://www.opengis.net/kml/2.2" xmlns:atom="http://www.w3.org/2005/Atom">
<Document>
	<name>Elemento_94.kml</name>
	<Style id="highlight00">
		<LineStyle>
			<color>7f00ff00</color>
		</LineStyle>
		<PolyStyle>
			<color>7f7fffaa</color>
		</PolyStyle>
	</Style>
	<StyleMap id="styleMapID00">
		<Pair>
			<key>normal</key>
			<styleUrl>#normal00</styleUrl>
		</Pair>
		<Pair>
			<key>highlight</key>
			<styleUrl>#highlight00</styleUrl>
		</Pair>
	</StyleMap>
	<Style id="normal00">
		<LineStyle>
			<color>7f00ff00</color>
		</LineStyle>
		<PolyStyle>
			<color>7f7fffaa</color>
		</PolyStyle>
	</Style>
	<Placemark>
		<name>Elemento_94</name>
		<styleUrl>#styleMapID00</styleUrl>
		<ExtendedData>
			<SchemaData schemaUrl="#schemaID">
				<SimpleData name="MUNICIPIO">TEOCUITATLÁN DE CORONA</SimpleData>
				<SimpleData name="REGION">SUR</SimpleData>
				<SimpleData name="CLAVE">92</SimpleData>
				<SimpleData name="AREA_KMS2">362.883133972</SimpleData>
				<SimpleData name="GID">93</SimpleData>
			</SchemaData>
		</ExtendedData>
		<Polygon>
			<outerBoundaryIs>
				<LinearRing>
					<coordinates>
						-103.3798605543244,20.18242459640032,0 -103.3789724681848,20.18204686085135,0 -103.3772615808499,20.18228086126167,0 -103.3756137717511,20.18299263887074,0 -103.374991487138,20.18258213807379,0 -103.3741053197514,20.18223066540762,0 -103.373563940457,20.18184624302267,0 -103.3716859209234,20.18118746980874,0 -103.3711838512536,20.18070403387041,0 -103.3703089611581,20.18019004097642,0 -103.3695997178967,20.17938850148007,0 -103.3678337508728,20.17808030250987,0 -103.367699817678,20.17807905950505,0 -103.3671781668294,20.17764060001473,0 -103.367001198702,20.177178238705,0 -103.3670132396018,20.17602203791586,0 -103.3669120528625,20.17563264966445,0 -103.3658012788018,20.17388786452859,0 -103.3642817735961,20.17280776628975,0 -103.3642819620105,20.17278970066927,0 -103.364142706895,20.17238188986997,0 -103.3635956842083,20.17162700630863,0 -103.3627679470328,20.17118568795764,0 -103.3623807306581,20.17070329875297,0 -103.3614541323571,20.17056819947417,0 -103.3607885597236,20.1701735511007,0 -103.3598732327104,20.16987594264152,0 -103.3581830558844,20.1695711003849,0 -103.3485892374513,20.16873242051139,0 -103.3476049587756,20.16864791532106,0 -103.2880289381972,20.15024571613706,0 -103.2524839868909,20.14483623545259,0 -103.2519316814637,20.14428767675077,0 -103.2513939226352,20.14427397417956,0 -103.2493816339782,20.14468951139007,0 -103.2484755684279,20.14429799707209,0 -103.2480529487826,20.13594133056099,0 -103.2486667039443,20.13483006624184,0 -103.2481329850903,20.13420880761284,0 -103.2433147458647,20.13325999674963,0 -103.2421714135982,20.13210873644379,0 -103.2420316112256,20.13196011983995,0 -103.2416017912553,20.13070796026383,0 -103.2395857253401,20.12859361517104,0 -103.2392502444568,20.12759895143359,0 -103.2385008677993,20.12648072271855,0 -103.238168299996,20.12580338942329,0 -103.2398582458539,20.1220051482856,0 -103.2400083564821,20.12141045013645,0 -103.239974796009,20.12013642133176,0 -103.2402023130382,20.11946119593512,0 -103.2408293278864,20.11897965613945,0 -103.23939055818,20.11850459546861,0 -103.2382139270996,20.11767984526044,0 -103.2379208336946,20.11737881774717,0 -103.2367448718118,20.1173489940277,0 -103.2353563748795,20.11665760624356,0 -103.2345165515344,20.11735379380463,0 -103.2331908421924,20.11703338224756,0 -103.2320106029963,20.11653375460263,0 -103.2315193751462,20.11684499213482,0 -103.2314402368664,20.11707906307838,0 -103.2311702590528,20.11727508636564,0 -103.230484823613,20.1169972104631,0 -103.2300015276975,20.11745305514064,0 -103.2288952529399,20.1171799808985,0 -103.2277331320737,20.11761996504002,0 -103.2272582756321,20.11732612708885,0 -103.2267510775068,20.11650803458027,0 -103.2259404294161,20.11631018148659,0 -103.2245716098758,20.11642286822962,0 -103.2238369532728,20.11627093702757,0 -103.221920810417,20.11488760616081,0 -103.2210999395171,20.11390373810097,0 -103.2186517067882,20.11306603245116,0 -103.2173026086576,20.11228457553987,0 -103.2168643991278,20.11213561356465,0 -103.2166948443761,20.11190806872087,0 -103.216405388388,20.111290883073,0 -103.2154495795319,20.11040499229899,0 -103.2152878488863,20.11033108999183,0 -103.2140702983459,20.10975870556452,0 -103.2133306365519,20.10920922167479,0 -103.2123664250113,20.10822386566327,0 -103.212408775218,20.10786296702539,0 -103.2122696602893,20.10748216271281,0 -103.2116332424477,20.10710534982308,0 -103.2116021804648,20.1064727112005,0 -103.2117604827766,20.10516450269165,0 -103.2117925532542,20.10486673229669,0 -103.2114463752698,20.10419476596857,0 -103.2114604521246,20.10379744801711,0 -103.2112774356385,20.10307293653384,0 -103.2111994577696,20.10067834829658,0 -103.2116162105063,20.09934565953803,0 -103.2117254857265,20.09898543904469,0 -103.211782522889,20.09817302882378,0 -103.2118298150997,20.09821867413968,0 -103.2121035742667,20.09768848926943,0 -103.2127679980035,20.09727969296599,0 -103.2128854972053,20.09703698642672,0 -103.2129638297912,20.09687518200488,0 -103.2151439577223,20.09604400288779,0 -103.2179117773483,20.09425076095701,0 -103.2192496541685,20.09138186803948,0 -103.218956802826,20.09043245372107,0 -103.2145401703562,20.09038783025278,0 -103.2095216213954,20.0918178283372,0 -103.209464976401,20.09175402125386,0 -103.2077525933156,20.09014679783213,0 -103.2069370725292,20.08871127023959,0 -103.2067026887184,20.08830239540552,0 -103.2058785465377,20.0876255644184,0 -103.205279846146,20.087303316615,0 -103.2046567900302,20.08660142534986,0 -103.2042101469162,20.08552193304536,0 -103.2041657557637,20.08438329988422,0 -103.2041523997464,20.08387730550041,0 -103.1973679107488,20.07943400767023,0 -103.1993969209541,20.07916775103216,0 -103.1998040685857,20.07700393985173,0 -103.1994021155385,20.07536483685457,0 -103.1987846354561,20.0733441418981,0 -103.1982154167684,20.07044771950199,0 -103.1975973061547,20.06932129975999,0 -103.1974558178346,20.06831717348208,0 -103.197713953827,20.06747972162099,0 -103.197687173597,20.06647676553924,0 -103.1983170410693,20.06662774802996,0 -103.1983692230706,20.06663052220433,0 -103.1984231582751,20.06663339011989,0 -103.1985266136228,20.06663889118647,0 -103.1985266878829,20.06663900214311,0 -103.1986300093818,20.06679350957125,0 -103.1992490785753,20.06699855076148,0 -103.1994576250206,20.06715424048026,0 -103.2006017252584,20.06742785965962,0 -103.2016251660972,20.06738408166658,0 -103.2027591992165,20.067702750717,0 -103.2057480205631,20.06801316101333,0 -103.2071772738431,20.06843416603929,0 -103.2116696534064,20.07020504702892,0 -103.2130066276894,20.07033600934247,0 -103.2137205084111,20.07061422685684,0 -103.214839207746,20.07144756093743,0 -103.2150680201314,20.07150407270761,0 -103.2159580676206,20.07142273207819,0 -103.2176893061264,20.07219900226116,0 -103.2184039192485,20.07241397649134,0 -103.2197635081618,20.07223798650407,0 -103.2203371791042,20.07223473425404,0 -103.2217484183183,20.07256511197749,0 -103.2232787477715,20.07335737357023,0 -103.2233738345909,20.0734034964133,0 -103.2238395064886,20.07365207828354,0 -103.2259898122974,20.07457701737336,0 -103.2262457891114,20.0747692872406,0 -103.2263597938772,20.07483366513641,0 -103.2269776176436,20.07515603347426,0 -103.2277906139016,20.07597718908264,0 -103.2287681649022,20.07661932619025,0 -103.2348570632288,20.0724315616482,0 -103.2349828113816,20.06978009553425,0 -103.2361823851226,20.06937654432341,0 -103.2382220686731,20.06908073152759,0 -103.239254482693,20.06909102475029,0 -103.2403554255623,20.06895746115212,0 -103.2421703011721,20.06910199634463,0 -103.2429834547841,20.06905588576838,0 -103.2439946405212,20.06925564050518,0 -103.2450673067711,20.06908563281511,0 -103.2539632773734,20.05574005300158,0 -103.2571601801,20.05274648276618,0 -103.2577542025187,20.05262587041175,0 -103.259215560109,20.05187242596889,0 -103.259476725557,20.05159496130984,0 -103.2596117395873,20.05062068051342,0 -103.2596993580952,20.05047700820334,0 -103.2602441822798,20.04961516124973,0 -103.2607918856526,20.04849137092736,0 -103.2611218401292,20.04804294458498,0 -103.2612211027322,20.04770968367894,0 -103.2616954213782,20.04717234126423,0 -103.2631167886467,20.04657203504081,0 -103.2634625707497,20.0464218626991,0 -103.2646136182002,20.04606279174742,0 -103.2651841787436,20.04578982224549,0 -103.2658532629259,20.04546971202746,0 -103.2669920908865,20.04379608328352,0 -103.2669900963365,20.04379160028241,0 -103.2670000507991,20.04375556399314,0 -103.2669338386311,20.04369168090207,0 -103.2669161103078,20.04356503872371,0 -103.2669652878676,20.04343905221846,0 -103.2669785130562,20.0431049437835,0 -103.2669409750178,20.0430413416996,0 -103.266904329053,20.04289644720673,0 -103.266717036017,20.04254230671431,0 -103.2666171526931,20.04206255436543,0 -103.266622307265,20.04159286493906,0 -103.2665797716219,20.04111367462114,0 -103.2666616431441,20.03975042426938,0 -103.2667614822732,20.03936296374857,0 -103.2668888048172,20.03908417398892,0 -103.26721782936,20.03871702552553,0 -103.2675839934749,20.03844960823315,0 -103.268342614842,20.03813183180412,0 -103.2686779251148,20.03806284634212,0 -103.2689740147843,20.03808381113495,0 -103.2694023287903,20.03825060473046,0 -103.2695738723311,20.03829745038125,0 -103.2698132101178,20.0382636577407,0 -103.2703227341882,20.03799763661955,0 -103.270418508653,20.03798050617458,0 -103.2713274757149,20.03789905692161,0 -103.2718461588011,20.03766925460023,0 -103.2723644453774,20.03747558072374,0 -103.2730839348632,20.03723870218878,0 -103.2740888684428,20.03712204124829,0 -103.2750368496846,20.03696868514991,0 -103.275812890814,20.03680461452342,0 -103.2768726052546,20.0369233424478,0 -103.2782553131846,20.03722587835569,0 -103.2792827204103,20.03767851755485,0 -103.2802366219237,20.03785943106916,0 -103.2808380697237,20.03792851219389,0 -103.2816130309948,20.03786377423549,0 -103.2824250443579,20.03790779488142,0 -103.2830087528081,20.03785022709917,0 -103.2835234960106,20.03798169219434,0 -103.2839442325943,20.03796770741874,0 -103.2845861702396,20.03782939753452,0 -103.2849027520825,20.03772406502948,0 -103.2854310738357,20.03748528144164,0 -103.2864376711276,20.03721499577069,0 -103.2871769796632,20.04043809564352,0 -103.3023937905013,20.04408983677306,0 -103.3034412622461,20.04357594058179,0 -103.3045139111579,20.04338748859184,0 -103.3045713571194,20.04337900573681,0 -103.3059293922829,20.0433197511435,0 -103.3066498383603,20.04299240764203,0 -103.3068985440064,20.0429767216252,0 -103.3071185751718,20.04296076077414,0 -103.3071760209048,20.04295227705086,0 -103.30777295848,20.04344580483305,0 -103.307811191223,20.04344617067333,0 -103.3083382460185,20.0433247425494,0 -103.3087871904186,20.0433561372525,0 -103.3091339928131,20.04310651224112,0 -103.3097167513866,20.04313918390745,0 -103.310962980422,20.04370214148541,0 -103.3111060639031,20.04373060886816,0 -103.3118790247062,20.04385542615284,0 -103.3125899085289,20.04442229543669,0 -103.3126443628612,20.04469382377754,0 -103.3127891891294,20.04545403011323,0 -103.3129386485186,20.04578066658222,0 -103.3129947441857,20.0458986388819,0 -103.3130808659183,20.04589042686303,0 -103.3134730481218,20.04586706689237,0 -103.3135157189754,20.04545192702476,0 -103.3137313071615,20.04495713344866,0 -103.3140779133856,20.0447255638909,0 -103.3144051264648,20.04541523907319,0 -103.3148291791214,20.04598839948011,0 -103.3153629063801,20.04613802320282,0 -103.3161275774334,20.04614530656718,0 -103.3175333656786,20.04698978275885,0 -103.3183191787574,20.04680755156147,0 -103.3190699688107,20.04722120442694,0 -103.3197471785417,20.04736314570205,0 -103.3204788113573,20.04688227953045,0 -103.3210246999146,20.04678809354386,0 -103.3217193950539,20.04708376541807,0 -103.3229694101167,20.04819773176334,0 -103.3235141515389,20.0482119313274,0 -103.3241538359566,20.04738689847435,0 -103.3246044275033,20.04726469718204,0 -103.3255181163979,20.04764373254407,0 -103.3258763604306,20.04811687557837,0 -103.3265301569137,20.04866508494215,0 -103.3280794086032,20.04951083965796,0 -103.3289138778018,20.0501510861778,0 -103.3297080164644,20.05098968905951,0 -103.3299467973285,20.05191338019154,0 -103.3304824727246,20.05188230503499,0 -103.3306544357588,20.05189296259834,0 -103.3315068884384,20.05173840367966,0 -103.3318677226674,20.05106428229225,0 -103.3327771212345,20.05004301985312,0 -103.3328370134918,20.04992342567958,0 -103.3328503816275,20.04988360026259,0 -103.3329052496588,20.0497201470803,0 -103.3332630118908,20.04951528083134,0 -103.3332661312084,20.04914970309894,0 -103.3332704843778,20.04881194809608,0 -103.3332699601327,20.04875873380471,0 -103.3328573241606,20.04826144941811,0 -103.3327050928496,20.04815129528993,0 -103.3321664409025,20.04776152991602,0 -103.3317181172909,20.04753708623342,0 -103.3310592981758,20.04717514050914,0 -103.3305725733955,20.047143143946,0 -103.3300554598438,20.04676073785615,0 -103.3295861823066,20.04630684526172,0 -103.3292755748406,20.04554622783013,0 -103.3290435965319,20.045141577257,0 -103.3289054669919,20.04490063098162,0 -103.3282131767789,20.04427785868495,0 -103.3273624836635,20.04440316248492,0 -103.3265622274522,20.04448667805977,0 -103.3259477734217,20.04424602760836,0 -103.3261517815071,20.04298440607119,0 -103.3263213969829,20.04189333590629,0 -103.3255659690171,20.04154551475738,0 -103.324278830208,20.04139811632276,0 -103.3231625675579,20.04081502166615,0 -103.3230661180926,20.04076463978679,0 -103.3236367714938,20.03947995216667,0 -103.3245304934488,20.03746790376207,0 -103.3222131735689,20.03679292749703,0 -103.3201439341294,20.03658975904397,0 -103.3198221921735,20.03655816699666,0 -103.3176197235246,20.03568202760464,0 -103.3173383402279,20.03466344603706,0 -103.3175059779643,20.03335583929012,0 -103.3182547868751,20.03272323231117,0 -103.3192379860182,20.03173047402622,0 -103.3201015484427,20.03145660362684,0 -103.3204685623775,20.03110307196496,0 -103.321009138089,20.03058235168205,0 -103.3220877986662,20.02885720625449,0 -103.3218025917884,20.02813721721853,0 -103.3214304896666,20.027359146372,0 -103.3212791374045,20.02647622303985,0 -103.3212796748187,20.02599240270505,0 -103.32147289317,20.0245607475487,0 -103.3215645482749,20.02384752005862,0 -103.3215678557524,20.02382560503322,0 -103.3215830141965,20.0237251804893,0 -103.3217656561563,20.0224506741878,0 -103.3220006511441,20.02238083504938,0 -103.3221365530633,20.02225109524157,0 -103.3225691479713,20.0218568534256,0 -103.3231009158923,20.02159954843722,0 -103.3233873928794,20.0209765737995,0 -103.3236511123035,20.02067563988043,0 -103.3239266108826,20.02020579405009,0 -103.3243253517511,20.01998019821266,0 -103.3248408537802,20.02002199702985,0 -103.3247201112984,20.02094516803781,0 -103.3255438591965,20.02110446716392,0 -103.3257538797667,20.0207404391796,0 -103.3259988499448,20.01962678298122,0 -103.327179988683,20.01944336882077,0 -103.3272865322395,20.01926471786469,0 -103.3275225919001,20.019072144607,0 -103.3276466225352,20.01897096180498,0 -103.3280156459868,20.01838258182921,0 -103.3282624800593,20.0177910434389,0 -103.3285298194163,20.01715035785102,0 -103.3293530911531,20.0174072963541,0 -103.3298784928523,20.01582453708887,0 -103.3298580278034,20.01575433093902,0 -103.3301051568593,20.01552864831421,0 -103.3303715458072,20.01576455205071,0 -103.3307185010934,20.01557726365497,0 -103.3325834414751,20.01540238596872,0 -103.3329588218802,20.01544786340082,0 -103.3337004099278,20.01530975898135,0 -103.3339595370762,20.01539998452168,0 -103.3340808419991,20.01544669208023,0 -103.3347364705397,20.01545683636685,0 -103.3349597428373,20.01501349917942,0 -103.3355284872837,20.01487292933619,0 -103.3360644672812,20.01431960993601,0 -103.3366252748348,20.01441008363314,0 -103.3374413270061,20.01367941854051,0 -103.3396842102178,20.0142352607664,0 -103.3403474827557,20.01424301655882,0 -103.3426593554761,20.01329232421939,0 -103.3425420449465,20.01412664028568,0 -103.3432678408228,20.01400521841542,0 -103.3439490779412,20.0143555002817,0 -103.3459760130018,20.01511564019889,0 -103.3467511532302,20.01586107896733,0 -103.347943429254,20.01619397666213,0 -103.3499528298195,20.0159507426074,0 -103.3513009372236,20.01556954376031,0 -103.3522262013047,20.0152536363409,0 -103.3528954836769,20.01540150189434,0 -103.3534137150333,20.01572661537558,0 -103.3542110654337,20.01613880179542,0 -103.355119062768,20.01648880066312,0 -103.356649257717,20.01699923025005,0 -103.3576953881281,20.01734906765966,0 -103.3587913225598,20.01759537086522,0 -103.3595754956163,20.01850799944324,0 -103.3601694009086,20.0193106375446,0 -103.3601696331688,20.01931118893984,0 -103.3643202539372,20.02918950501443,0 -103.3643403238778,20.02928751328721,0 -103.364420340036,20.02967825648476,0 -103.3644001304469,20.03005715051149,0 -103.3643254628817,20.03145704203669,0 -103.3646942192467,20.03277035442891,0 -103.3647936536279,20.03332233642376,0 -103.3652543258238,20.03406736679913,0 -103.366114661286,20.03498773033807,0 -103.3663306652625,20.03536011185076,0 -103.3666656350221,20.03716996935602,0 -103.3665554848635,20.03857822833057,0 -103.3664063210196,20.03913694762824,0 -103.36637615183,20.03928121010222,0 -103.365803059384,20.04016123027243,0 -103.3654593600064,20.04104336821978,0 -103.3652282288253,20.04305577220729,0 -103.3655542677998,20.04388086260603,0 -103.3661222639822,20.04441910618394,0 -103.366809480943,20.04544627523983,0 -103.3667287147671,20.04586108474734,0 -103.3659677890145,20.04641415130357,0 -103.3660210283319,20.04681213094367,0 -103.3664689115681,20.04787322505887,0 -103.3672163927234,20.04862090177116,0 -103.3676203231741,20.04931120129654,0 -103.3673455769586,20.04999523423933,0 -103.3817435003768,20.05737275760457,0 -103.3971141397936,20.05926929435039,0 -103.397115545574,20.05926944170697,0 -103.397116322276,20.05926996998307,0 -103.397124483064,20.05927552215199,0 -103.3978217283829,20.05974989648205,0 -103.3979375252155,20.05987653107957,0 -103.3980170395265,20.05996348682879,0 -103.3986703387406,20.0606779252534,0 -103.3996416432582,20.06100062412176,0 -103.401059787314,20.06108180137802,0 -103.4021323903646,20.06100933828455,0 -103.4030326134098,20.06092595095802,0 -103.4039114241573,20.06067174539189,0 -103.4043061262945,20.06070815252506,0 -103.4057403982787,20.06084044337657,0 -103.4069864869003,20.06327755307517,0 -103.408194888964,20.06378493347594,0 -103.408864521707,20.06375751268025,0 -103.4098675662024,20.06463720437373,0 -103.4101315360633,20.06518789671885,0 -103.4105280335211,20.06601505794407,0 -103.4112221646157,20.0686110052322,0 -103.4121147521621,20.06878887179844,0 -103.4118986821327,20.07034269439421,0 -103.4124151121947,20.07089888302236,0 -103.4140825099147,20.07163871372088,0 -103.4147544820112,20.0723600058387,0 -103.414238630409,20.07456308152857,0 -103.4147184435042,20.07546777721584,0 -103.4153222035238,20.07548405415688,0 -103.415513929932,20.07530156023823,0 -103.4159592164046,20.07504278647843,0 -103.4172338183102,20.07459206563567,0 -103.4174687697077,20.07458428956596,0 -103.420030541397,20.07449947579604,0 -103.4208600164669,20.07443779645979,0 -103.4222571860695,20.07427469437759,0 -103.422290834967,20.07445584701914,0 -103.4229957912973,20.07516338886763,0 -103.4231338364938,20.07562975472952,0 -103.4230928296296,20.07653988072914,0 -103.4239570493802,20.07699625936302,0 -103.4243250236387,20.07779634432113,0 -103.4251088762215,20.07876181911163,0 -103.4258720904945,20.0791688636779,0 -103.4264567598428,20.07928458982718,0 -103.4270691793949,20.07984839406397,0 -103.4278701935772,20.08027768730201,0 -103.4288138152595,20.08031933179893,0 -103.4292653868706,20.08187978779594,0 -103.4294573626522,20.08254317399118,0 -103.4294823369282,20.08264351714737,0 -103.4300630027211,20.08319234497384,0 -103.4304472578574,20.08327689281328,0 -103.4309727099385,20.08346578880932,0 -103.4314197921495,20.08367184182671,0 -103.431961249677,20.08419193714428,0 -103.4327594660065,20.08444264528214,0 -103.4327007194288,20.08544128248041,0 -103.4327433821043,20.08544579247985,0 -103.4336333582574,20.08572515984345,0 -103.4347024112175,20.08567685375572,0 -103.4347412983059,20.08567708742769,0 -103.4366130622205,20.08561842915632,0 -103.4366499379882,20.08701873948941,0 -103.4386124705169,20.08780846248051,0 -103.4386833956656,20.08781315599928,0 -103.4406421563944,20.08863675954947,0 -103.440698538704,20.08865168314689,0 -103.4415832638984,20.0889572719479,0 -103.4425893901748,20.08947429045899,0 -103.4426537708472,20.08949319574913,0 -103.4430236113002,20.08964247893869,0 -103.4446249147583,20.09028882402117,0 -103.4446638198098,20.09029454116702,0 -103.4456925960192,20.09071281982602,0 -103.4466384733323,20.09105129191184,0 -103.4466430094255,20.09111097368593,0 -103.4479656371471,20.09160563725403,0 -103.4543990834151,20.09411139006753,0 -103.4546531035327,20.093826059349,0 -103.455873784346,20.0925255675975,0 -103.4562037481777,20.09212661677238,0 -103.4569142490106,20.091282273613,0 -103.4578556895936,20.09019544477063,0 -103.4582315259384,20.08974395142859,0 -103.4600099587001,20.08823416521818,0 -103.4599468016393,20.08782376116769,0 -103.4594744780286,20.08475444544502,0 -103.4594515959039,20.08461542072468,0 -103.4593198648962,20.08376202511669,0 -103.4591597631327,20.08272036342357,0 -103.4588457507273,20.08098679516876,0 -103.4585040360599,20.07868190989954,0 -103.4584037181635,20.07804905431357,0 -103.4591113219332,20.07769061093742,0 -103.4601601135953,20.07705833123119,0 -103.462202789386,20.0758513971575,0 -103.4622083306657,20.07580323308438,0 -103.4622200125473,20.07546105059037,0 -103.4622710499412,20.07430433505637,0 -103.4619341360664,20.07338598359968,0 -103.4619976522999,20.07234183144333,0 -103.462114332617,20.0721710673414,0 -103.4622043278071,20.07199538123248,0 -103.4627804660025,20.07096923769525,0 -103.4630407056397,20.07112872005456,0 -103.4651498049072,20.06839721983876,0 -103.4680552980928,20.06791075583738,0 -103.4686254337774,20.06812185112513,0 -103.4697382618509,20.06907400139026,0 -103.4714910786493,20.07060078498647,0 -103.4726297588376,20.07161292405401,0 -103.4744092970506,20.06910888719011,0 -103.4739723095465,20.06860554625037,0 -103.4741018427579,20.06855428231935,0 -103.474134278372,20.06865797007672,0 -103.4750994471485,20.06909411843189,0 -103.4752909480977,20.07025110500976,0 -103.475483536487,20.07166060631346,0 -103.4751253389181,20.07366961982512,0 -103.4783613434414,20.07470041103971,0 -103.4793110129094,20.07650604477726,0 -103.4801487620311,20.07838564135039,0 -103.4804119843925,20.07887395076163,0 -103.4810433012374,20.07895111412245,0 -103.4818524077072,20.07896416149893,0 -103.4829254770279,20.07907100359229,0 -103.4833239823153,20.07913031462577,0 -103.4838578341906,20.07920976853713,0 -103.4848606036046,20.07938129356157,0 -103.4859975024089,20.07962004353008,0 -103.487241647076,20.07992464460606,0 -103.4882083185893,20.08012877952427,0 -103.4892425354578,20.08036633552387,0 -103.4900359613445,20.08052337929357,0 -103.4907260611158,20.08088325665177,0 -103.491585324528,20.08135425807769,0 -103.4925012747985,20.08217938234555,0 -103.4931342239935,20.08240263294729,0 -103.4936499716157,20.08278851175987,0 -103.4941073573424,20.08336427368853,0 -103.4947057206303,20.08410529138021,0 -103.4949894553436,20.08459771634922,0 -103.495385387987,20.08508232674407,0 -103.4962153069179,20.08593375704003,0 -103.496698819388,20.08670083349381,0 -103.4970092737144,20.08743897066894,0 -103.4970617787838,20.08784808457226,0 -103.4970286948609,20.0885018451379,0 -103.497014237928,20.09005973229072,0 -103.4964471495886,20.09145878176252,0 -103.4956014693048,20.09292114189941,0 -103.4949042948186,20.09366640131553,0 -103.4946917155382,20.09385884880667,0 -103.4946936839818,20.09386210795144,0 -103.5206022714841,20.13673556248445,0 -103.5250150912357,20.14403533542809,0 -103.4723463979287,20.16153961699215,0 -103.4523296393242,20.17595999604417,0 -103.4400548637342,20.18931889674661,0 -103.4402950189757,20.19113020322891,0 -103.4407972641105,20.19320199695169,0 -103.4402891075851,20.19418615464984,0 -103.4396131557893,20.19474570812243,0 -103.4380755235097,20.1964650501667,0 -103.4364189549127,20.19784092063765,0 -103.4381189286933,20.19964750027691,0 -103.440182622219,20.20313726839953,0 -103.4412712890628,20.20435112679684,0 -103.4411192650882,20.20450672596227,0 -103.4393672280818,20.20504021522616,0 -103.4384120261644,20.20553893685242,0 -103.4345292896715,20.20532174796581,0 -103.4330673679841,20.20422924644134,0 -103.4307490705095,20.2038974467355,0 -103.4304190875953,20.20357410522545,0 -103.4285114808382,20.20302077139137,0 -103.427225369399,20.20219860341074,0 -103.4258745284748,20.20161280066042,0 -103.4246257168767,20.20068144601111,0 -103.4238924001796,20.20036187452704,0 -103.422450586682,20.1993416319418,0 -103.4215738950157,20.19908686761044,0 -103.4194392312447,20.19793706145785,0 -103.4185902247215,20.19757320608647,0 -103.4172462244179,20.19671522713398,0 -103.4159349389861,20.19622871864945,0 -103.4152262696229,20.19618051924886,0 -103.4130035271084,20.19602931757599,0 -103.4109702145567,20.19537719051965,0 -103.4080357173798,20.19487847991884,0 -103.406305890751,20.19385169278725,0 -103.3820679956092,20.18577035969095,0 -103.38125848474,20.18422403912041,0 -103.3805278571952,20.18331903665608,0 -103.3798605543244,20.18242459640032,0 
					</coordinates>
				</LinearRing>
			</outerBoundaryIs>
		</Polygon>
	</Placemark>
</Document>
</kml>
