<?xml version="1.0" encoding="UTF-8"?>
<kml xmlns="http://www.opengis.net/kml/2.2" xmlns:gx="http://www.google.com/kml/ext/2.2" xmlns:kml="http://www.opengis.net/kml/2.2" xmlns:atom="http://www.w3.org/2005/Atom">
<Document>
	<name>Elemento_97.kml</name>
	<Style id="highlight00">
		<LineStyle>
			<color>7f7f00ff</color>
		</LineStyle>
		<PolyStyle>
			<color>7f7f55ff</color>
		</PolyStyle>
	</Style>
	<StyleMap id="styleMapID00">
		<Pair>
			<key>normal</key>
			<styleUrl>#normal00</styleUrl>
		</Pair>
		<Pair>
			<key>highlight</key>
			<styleUrl>#highlight00</styleUrl>
		</Pair>
	</StyleMap>
	<Style id="normal00">
		<LineStyle>
			<color>7f7f00ff</color>
		</LineStyle>
		<PolyStyle>
			<color>7f7f55ff</color>
		</PolyStyle>
	</Style>
	<Placemark>
		<name>Elemento_97</name>
		<styleUrl>#styleMapID00</styleUrl>
		<ExtendedData>
			<SchemaData schemaUrl="#schemaID">
				<SimpleData name="MUNICIPIO">TEUCHITLÁN</SimpleData>
				<SimpleData name="REGION">VALLES</SimpleData>
				<SimpleData name="CLAVE">95</SimpleData>
				<SimpleData name="AREA_KMS2">236.233819292</SimpleData>
				<SimpleData name="GID">96</SimpleData>
			</SchemaData>
		</ExtendedData>
		<Polygon>
			<outerBoundaryIs>
				<LinearRing>
					<coordinates>
						-103.8423436391293,20.78132474745771,0 -103.8413107816409,20.78127371611486,0 -103.8407711703086,20.78131652076321,0 -103.8402180766824,20.78107823933701,0 -103.8395576562992,20.78075052573113,0 -103.8370805661786,20.78089833220581,0 -103.8368461371018,20.77997576139162,0 -103.8358520238536,20.77851799124085,0 -103.8349397955447,20.77669633148513,0 -103.8341180681791,20.77585340667915,0 -103.8329235496713,20.77525991569173,0 -103.8318111247571,20.77502832783946,0 -103.8306374316122,20.77383578815562,0 -103.8294978599671,20.77302387346686,0 -103.8290160188695,20.77305687126039,0 -103.826840548652,20.77125032014484,0 -103.8207907809345,20.77110494724432,0 -103.8203246838633,20.77087462961377,0 -103.8171680268395,20.77068547293047,0 -103.8158291795351,20.76954521200474,0 -103.8140164081401,20.76800127998979,0 -103.8132678578489,20.76756563663049,0 -103.8123135027397,20.76688748269835,0 -103.8118091028866,20.76667574015935,0 -103.8106136689959,20.76600043948276,0 -103.809868182998,20.76579155382151,0 -103.8092911758985,20.76519962486656,0 -103.8084270540075,20.76477440372147,0 -103.8067295803447,20.76405966627326,0 -103.8050866417428,20.76237352286307,0 -103.8027658019393,20.76047764570048,0 -103.8014455431427,20.75911425726726,0 -103.8008539164882,20.75886722145115,0 -103.7996053487108,20.7578619328202,0 -103.7987772966445,20.7571952128249,0 -103.7983708961368,20.75564864251334,0 -103.7984668108568,20.75488543757161,0 -103.7976691743896,20.75365194145136,0 -103.797333533343,20.7516237073907,0 -103.7955268351502,20.75065611912627,0 -103.7941158766581,20.75043685162921,0 -103.7937611445144,20.74986947320146,0 -103.7927627775783,20.74876532880054,0 -103.7925347330503,20.74829625382379,0 -103.7910554808126,20.74656269682166,0 -103.7907775592594,20.74524141553089,0 -103.7898038446309,20.74381036743591,0 -103.7895465492261,20.74258863958772,0 -103.7890536210474,20.74177792635235,0 -103.7883104398107,20.73882003909102,0 -103.7855941310583,20.73613930038337,0 -103.784148510649,20.7340151979772,0 -103.7843624657159,20.73342300407947,0 -103.7846546304422,20.73291154450355,0 -103.7855115053059,20.73062440381408,0 -103.785352659325,20.72985040463926,0 -103.7847797062932,20.72705855974542,0 -103.7851222607431,20.7259840408631,0 -103.7855895013021,20.72558846845987,0 -103.7754325867327,20.72949364124876,0 -103.7754328156064,20.72949348296766,0 -103.7754328841981,20.72949343558623,0 -103.7754330859957,20.72949329606728,0 -103.7754364909917,20.7294909415706,0 -103.7754386782732,20.72948942941116,0 -103.7754539852712,20.72947884619589,0 -103.7754554298104,20.7294744016339,0 -103.7754630325375,20.7294510033969,0 -103.7754846581613,20.72938444749439,0 -103.7754827398049,20.72934726821903,0 -103.7754766931702,20.72923006918302,0 -103.7754704446381,20.72910896403821,0 -103.775459372099,20.72908020649593,0 -103.7754413471465,20.72903339395227,0 -103.775358509792,20.72881825231973,0 -103.7754018893331,20.72863430224713,0 -103.7754461695092,20.7284465316446,0 -103.7754583614627,20.72795849639016,0 -103.7754451483091,20.72792689492268,0 -103.7753292547249,20.72764970116699,0 -103.7753556579077,20.72739802237343,0 -103.7753603651264,20.72735314776815,0 -103.7752013100019,20.7270494036454,0 -103.7750768102901,20.72658346907483,0 -103.7750556374703,20.72650422957809,0 -103.7751144462151,20.72610183236976,0 -103.7751644310307,20.72596144792276,0 -103.7752724379502,20.72565810869678,0 -103.7754891651029,20.72534760368242,0 -103.7757475853638,20.72515184343907,0 -103.7758841173605,20.72504841711209,0 -103.776211050152,20.72483003719504,0 -103.7766988790258,20.72459648266338,0 -103.7767867195101,20.72455442780621,0 -103.7771521420685,20.72428423543469,0 -103.7771680727814,20.72426358493617,0 -103.777186072328,20.72424025323459,0 -103.7772922112229,20.72410266934963,0 -103.7775050075632,20.72394550941973,0 -103.7780275641204,20.72373467153815,0 -103.7784053941428,20.72363089570207,0 -103.7786182128,20.72346102944162,0 -103.7787092842715,20.7233290590975,0 -103.7787476463841,20.7232734690078,0 -103.77910459531,20.72321058570751,0 -103.7793698381777,20.72305803525204,0 -103.7794743726262,20.72285932441783,0 -103.7794927755043,20.72237801662578,0 -103.779534420302,20.72200770484938,0 -103.7795836525469,20.72172887584785,0 -103.7796398123799,20.72112552532183,0 -103.7796877894419,20.72078526789401,0 -103.7798320089628,20.7204434387292,0 -103.7799270944514,20.72027774441957,0 -103.7801093936305,20.72008665011546,0 -103.7802824548944,20.71993223300124,0 -103.7805479298438,20.71989293369989,0 -103.7806259114609,20.71984812630512,0 -103.7808084874351,20.71974321772107,0 -103.780955560217,20.71958605813096,0 -103.7810804798809,20.71938207340129,0 -103.7810929345924,20.71914200645597,0 -103.7809752514548,20.7189083501164,0 -103.7808034521811,20.71864672560227,0 -103.780451779196,20.71826606489471,0 -103.7803722467376,20.71810753934149,0 -103.7803850755205,20.7179618014445,0 -103.780351631169,20.71783167236538,0 -103.7794848846159,20.71774787938577,0 -103.7792128581455,20.71779275286822,0 -103.7789523509818,20.71787160651163,0 -103.77878782791,20.71789095091644,0 -103.7786143570361,20.7178561897461,0 -103.7783339904183,20.71771665490045,0 -103.7779775554907,20.7175057489628,0 -103.777539422294,20.71696375231525,0 -103.7771919276405,20.71639742483582,0 -103.7770081098728,20.71605181720121,0 -103.7767557315135,20.71566032254317,0 -103.7766034062175,20.71542902825464,0 -103.7763115846835,20.71524657413995,0 -103.7759849128418,20.7151123936621,0 -103.7756021356305,20.71507193652651,0 -103.7752445025376,20.71512663149296,0 -103.7745243177818,20.71511861656172,0 -103.7742136002281,20.71500434887505,0 -103.7740110555743,20.71486515185289,0 -103.773969745185,20.71464446824397,0 -103.7739604117519,20.71434827169867,0 -103.7740742503227,20.71391271063633,0 -103.7745540298582,20.71343539331375,0 -103.7750942426264,20.71285906023471,0 -103.7751643977673,20.71275111415266,0 -103.7751560326989,20.71262767195175,0 -103.7749514447337,20.71248479812813,0 -103.7745477788689,20.71237981210887,0 -103.7743020694121,20.71218689153625,0 -103.7741124655304,20.71186953383627,0 -103.7740163274703,20.71160919182143,0 -103.7740679003801,20.71136165535723,0 -103.7741646452699,20.71113683318136,0 -103.7742214955443,20.71089101282921,0 -103.7741956852844,20.71067745750299,0 -103.7740407420426,20.71031489903989,0 -103.7739543463688,20.71006060529542,0 -103.7739704567183,20.70949105186061,0 -103.7739967753847,20.70880606545339,0 -103.7739651877156,20.70838342749898,0 -103.7739333097458,20.70810015473986,0 -103.7737241935203,20.70947729135969,0 -103.7734182423222,20.71024983902944,0 -103.7733709527568,20.71024950755932,0 -103.7729797898396,20.70915252090018,0 -103.7732511497444,20.70783682189032,0 -103.7727838511966,20.70733838462294,0 -103.7719827005206,20.70668308745174,0 -103.771928679767,20.7065486191734,0 -103.7719148988381,20.70634941465468,0 -103.7718950626154,20.70611356050497,0 -103.7717968940146,20.70586287509362,0 -103.7713770639638,20.70570266999517,0 -103.7713189611381,20.70568821418195,0 -103.7708813326677,20.70554706720691,0 -103.7702374984667,20.705340822021,0 -103.7696969768357,20.70512674445087,0 -103.7692398552558,20.70484149937716,0 -103.7689564549801,20.70452068630242,0 -103.768831774441,20.70389073434947,0 -103.7688306130026,20.70388486543367,0 -103.7689144214974,20.70338256636601,0 -103.769104935463,20.70309629045066,0 -103.7691432724151,20.70273419427669,0 -103.7691540711027,20.70212222872279,0 -103.7691489475512,20.70170499758985,0 -103.7690699192765,20.70007635904311,0 -103.7691400745219,20.69931088053645,0 -103.7692359579617,20.69876050483859,0 -103.7688943706181,20.69760820069695,0 -103.7685226987409,20.6960691380628,0 -103.7685322244394,20.69587713319274,0 -103.7686395337673,20.69522608232408,0 -103.7684694791663,20.69459770180252,0 -103.76813284569,20.69362125546169,0 -103.767977598555,20.69314201356581,0 -103.7677817638488,20.6928909041628,0 -103.7673982036959,20.69267820294526,0 -103.7668571976555,20.69221622371013,0 -103.766577131754,20.6919593298441,0 -103.7662782880766,20.69167663980538,0 -103.766061531752,20.69132363078692,0 -103.7662243970326,20.69093573463117,0 -103.7665066926452,20.69073152145083,0 -103.7665601764647,20.69051662286407,0 -103.7665356716895,20.69031629315904,0 -103.7664652088896,20.69008437093038,0 -103.766478374577,20.68991343508323,0 -103.7666353414941,20.68962208920957,0 -103.766767458977,20.68923995120072,0 -103.7667557658787,20.68867162936866,0 -103.766714622822,20.68819696499546,0 -103.7666744126652,20.68761176598594,0 -103.7662530270044,20.68682336061317,0 -103.7661101319566,20.68669474204441,0 -103.7659302076644,20.68663567328789,0 -103.7655110532875,20.68668438488986,0 -103.7650720595641,20.68691637589442,0 -103.764563957757,20.68768023079579,0 -103.7644416512861,20.68794056158075,0 -103.7642518743791,20.6879914935941,0 -103.7640557365066,20.68796924275807,0 -103.763809234413,20.68784853864624,0 -103.7635123911524,20.68777376698062,0 -103.7632535077173,20.68773260055187,0 -103.7629854639384,20.68778306877878,0 -103.7624554424797,20.68768914695244,0 -103.7620977969697,20.68760394688611,0 -103.7618190555998,20.68747856349142,0 -103.7617597213615,20.68719397777824,0 -103.7616550455599,20.68699754262774,0 -103.7615257539844,20.68691025288638,0 -103.7613442459631,20.68695674473154,0 -103.7610707168976,20.6871882006645,0 -103.7603513891057,20.68685406764972,0 -103.7605906530242,20.68578141362955,0 -103.7601708287848,20.68548211302552,0 -103.7597106525427,20.68518078823452,0 -103.7586554021528,20.68409063250351,0 -103.7581075928515,20.6832947169938,0 -103.7574284719731,20.68217262651671,0 -103.757235929646,20.68157917667742,0 -103.7571458937375,20.68082879242884,0 -103.7572389801029,20.67884881857534,0 -103.7573255780813,20.67782927597803,0 -103.7569238922486,20.67768671923541,0 -103.7568708727411,20.67738097121178,0 -103.7568602360604,20.67731460292981,0 -103.7568058054984,20.67704907207983,0 -103.7576330455554,20.67695154231693,0 -103.7576413993383,20.67693336119314,0 -103.7576767386916,20.67684867820159,0 -103.7580663467648,20.67615951560348,0 -103.7582262158707,20.67588325553821,0 -103.7585212383797,20.67562539865589,0 -103.7588343697804,20.67509694524291,0 -103.7591700743147,20.67476685369385,0 -103.7598185797699,20.67447881456658,0 -103.7603358544861,20.67423796460631,0 -103.7609363801674,20.67399614565047,0 -103.7612062479994,20.67361277961457,0 -103.7618486946789,20.67226676078213,0 -103.7622781910207,20.67207884450949,0 -103.7625663469804,20.67184684314042,0 -103.7629221416591,20.6713286233302,0 -103.7630866643939,20.67087473438142,0 -103.7633889903191,20.67003840335794,0 -103.7635938823833,20.66985460131279,0 -103.7638583657333,20.66971241037548,0 -103.7643633910205,20.66948395219863,0 -103.7649710463366,20.66940120719029,0 -103.765219136303,20.66951427691904,0 -103.7654758121306,20.66952985236896,0 -103.7656816899908,20.66942621434028,0 -103.7658667642937,20.6688760486221,0 -103.7660579648619,20.66829147457758,0 -103.7666828267373,20.66788051042054,0 -103.767647568349,20.66729679912287,0 -103.7684533245737,20.66686466562789,0 -103.7692021720136,20.66663779247409,0 -103.7695237244894,20.66656694875859,0 -103.7697095381867,20.66665213282171,0 -103.7707576175625,20.66647334884195,0 -103.7713550103593,20.66618674860076,0 -103.7714091396769,20.66597190785997,0 -103.7712213382108,20.66571301552705,0 -103.7708815907892,20.66536953317955,0 -103.7699433236831,20.66544343300456,0 -103.7694276556036,20.66548162549288,0 -103.7693749447906,20.6653235363214,0 -103.7688215543056,20.66328440737999,0 -103.7686390057375,20.66309620818602,0 -103.7704945799803,20.66295478802335,0 -103.7705789503727,20.66284828170603,0 -103.7706200925573,20.66295024482617,0 -103.7711048012187,20.65985417517254,0 -103.7712382747982,20.65829266982283,0 -103.7693849947729,20.65829025529609,0 -103.7672084872886,20.65887343315001,0 -103.7671524217043,20.65880321713641,0 -103.7656709782927,20.6553061520879,0 -103.7649280394815,20.65378386445605,0 -103.7645397082011,20.65261867643637,0 -103.7645133015516,20.65253778558199,0 -103.764500731009,20.65249927214703,0 -103.7650476601963,20.65255887541358,0 -103.7657597320484,20.65252224359594,0 -103.7666042308029,20.65255698240384,0 -103.766536913471,20.64995563090594,0 -103.7665769270426,20.64996977750683,0 -103.7670851448415,20.65041340406106,0 -103.7675916832103,20.65049345980964,0 -103.767878187333,20.65027308952383,0 -103.7682022223651,20.65036375497452,0 -103.7683692208964,20.65070001519485,0 -103.7683717756721,20.65102175609071,0 -103.7680267957033,20.65161140335006,0 -103.7680007372547,20.65205942286624,0 -103.7677480796218,20.65284487855367,0 -103.7683826851114,20.6527848915435,0 -103.768935907997,20.65254818712347,0 -103.7693723360832,20.65273894448972,0 -103.769749099575,20.6522566126194,0 -103.7701654457141,20.65262930764646,0 -103.7702728993499,20.65300946478794,0 -103.7711683397874,20.65328509007655,0 -103.7718699530481,20.65371198822543,0 -103.7719102734423,20.6537265984021,0 -103.7729094202088,20.65375815476284,0 -103.7731077617216,20.65356040980729,0 -103.7730964283004,20.65278943609589,0 -103.7732113912082,20.652078631639,0 -103.7726635052707,20.65162768598911,0 -103.772553294613,20.65139087265369,0 -103.7725909116434,20.65112403767185,0 -103.7733710695197,20.65075269372528,0 -103.7740719790811,20.6507085792751,0 -103.7742464374053,20.65058353947275,0 -103.7743487666562,20.64946810468594,0 -103.7745463164452,20.64897225024785,0 -103.7747568018427,20.64778547789728,0 -103.7746526609555,20.64719016289075,0 -103.7748542693776,20.64707670741041,0 -103.7749630449345,20.64671985319681,0 -103.7753132046358,20.64659193743228,0 -103.7753301791724,20.64643855970304,0 -103.7755946658232,20.64651737808829,0 -103.7772096468637,20.64513859981523,0 -103.777448049886,20.64469216634107,0 -103.7779494607336,20.64432260690248,0 -103.7790180533173,20.64389595399343,0 -103.7798693819537,20.64361639834081,0 -103.7806291728431,20.64333124631816,0 -103.7806843644932,20.64331053254189,0 -103.7806932300145,20.64327234858989,0 -103.7807422239886,20.64314621197271,0 -103.7808485847523,20.64304758392376,0 -103.7810026431203,20.64298543053448,0 -103.7811374350964,20.64293217544675,0 -103.7812437234822,20.64284258110171,0 -103.7813500117442,20.64275298668408,0 -103.781465825044,20.64267249390849,0 -103.7815912353478,20.6425920687848,0 -103.7817069764516,20.64252060980539,0 -103.7818323145655,20.64244921846498,0 -103.7819480554538,20.6423777593117,0 -103.7820733933442,20.64230636778358,0 -103.7821987311208,20.64223497615802,0 -103.782314471684,20.64216351674061,0 -103.7824302840488,20.64208302326477,0 -103.782555693384,20.64200259738539,0 -103.7826715055042,20.64192210373378,0 -103.7827872456193,20.64185064397394,0 -103.7829030575069,20.64177015015373,0 -103.783028466347,20.64168972390274,0 -103.7831442061269,20.64161826388452,0 -103.7832409672441,20.64151956656685,0 -103.7833473252928,20.64142093682278,0 -103.7834440143089,20.6413312733553,0 -103.7835503720959,20.64123264347093,0 -103.7836471327059,20.64113394589598,0 -103.7837438931905,20.64103524825944,0 -103.7838406535497,20.64093655056132,0 -103.7839374137834,20.64083785280163,0 -103.7840437709082,20.6407392225747,0 -103.7841405308853,20.64064052468615,0 -103.7842563411595,20.64056002986557,0 -103.7843721513138,20.64047953496046,0 -103.7844784361313,20.64038993841874,0 -103.7845752673817,20.64028220627366,0 -103.7846720267268,20.64018350805051,0 -103.7847687859465,20.6400848097658,0 -103.7848750702581,20.63999521295056,0 -103.7849814261942,20.63989658207704,0 -103.7850877102516,20.63980698511622,0 -103.7851939941852,20.63971738808284,0 -103.785300277995,20.63962779097689,0 -103.7854160869058,20.63954729530024,0 -103.7855318956967,20.63946679953909,0 -103.7856477043678,20.63938630369343,0 -103.7857444624553,20.63928760479633,0 -103.7858507456489,20.63919800731612,0 -103.785947503486,20.63909930829063,0 -103.7860442611976,20.63900060920359,0 -103.7861410904598,20.63889287606433,0 -103.7862187257811,20.6387850079295,0 -103.786306029551,20.63866817322373,0 -103.786374067749,20.63856023754301,0 -103.7864517743857,20.63844333529058,0 -103.7865199556781,20.63831733155451,0 -103.786578539988,20.63819126033914,0 -103.7866370525531,20.63807422309046,0 -103.7866860398135,20.63794808438418,0 -103.7867350986249,20.6378129116644,0 -103.7867648920407,20.63768663805281,0 -103.786794757034,20.63755133043756,0 -103.7868150251502,20.63741595538302,0 -103.7868352932238,20.63728058032224,0 -103.786855561255,20.63714520525523,0 -103.786866160825,20.63701879675172,0 -103.7868864287814,20.63688342167399,0 -103.7868970999189,20.63674797916723,0 -103.7869173677987,20.63661260407857,0 -103.7869088453578,20.63647702672141,0 -103.7869003229251,20.63634144936251,0 -103.7869301874705,20.63620614168421,0 -103.7869887705439,20.63608007024239,0 -103.7870473535159,20.6359539987741,0 -103.7871535619608,20.63587343430173,0 -103.7872883456588,20.63582017394829,0 -103.7874232008562,20.63575787948637,0 -103.7875671516025,20.63575889028729,0 -103.787711030786,20.63576893496747,0 -103.787854909995,20.63577897952867,0 -103.7879987892297,20.63578902397087,0 -103.7881426684899,20.63579906829409,0 -103.7882866193134,20.63580007849724,0 -103.788421188012,20.63577391924063,0 -103.7885653533897,20.63574782720425,0 -103.7887093757,20.63573980305011,0 -103.788853326498,20.63574081277813,0 -103.7889972773047,20.6357418223862,0 -103.789141156633,20.63575186587835,0 -103.7892849645083,20.63577094325599,0 -103.7894287724261,20.63579002051557,0 -103.789562912197,20.63581806439074,0 -103.7897067202064,20.63583714142261,0 -103.7898505282582,20.63585621833642,0 -103.7899942649154,20.63588432913891,0 -103.7901284048964,20.63591237258364,0 -103.7902721416698,20.63594048315974,0 -103.7904158070898,20.63597762762675,0 -103.7905499472472,20.63600567075153,0 -103.790693612808,20.63604281499346,0 -103.7908276816963,20.63607989191685,0 -103.7909713474062,20.63611703593414,0 -103.7911054164379,20.63615411264811,0 -103.7912490822969,20.63619125644076,0 -103.791383151472,20.63622833294528,0 -103.7915268888281,20.63625644250183,0 -103.791660958139,20.63629351879651,0 -103.7918046956196,20.63632162812711,0 -103.791948504483,20.63634070332778,0 -103.7920922420738,20.63636881242363,0 -103.7922264542578,20.63638782026313,0 -103.792370334554,20.63639786110388,0 -103.7925142861662,20.63639886781102,0 -103.7926581665051,20.63640890841331,0 -103.7928021894163,20.63640088086547,0 -103.7929462123191,20.63639285319671,0 -103.7930902352135,20.63638482540705,0 -103.7932344005948,20.63635872946237,0 -103.7933785659334,20.63633263339478,0 -103.7935226599989,20.63631557122235,0 -103.7936572997115,20.63628037384521,0 -103.7938014649231,20.63625427741699,0 -103.793936104529,20.6362190798163,0 -103.7940804120418,20.63617491510972,0 -103.7942150515248,20.63613971728452,0 -103.794349762132,20.63609548533006,0 -103.7944844726666,20.6360512532664,0 -103.7946191831284,20.63600702109354,0 -103.7947634902724,20.63596285579522,0 -103.7948296866075,20.63594554965153,0 -103.7948981294386,20.63592765741943,0 -103.795032839688,20.63588342491186,0 -103.7951675498646,20.63583919229509,0 -103.7953117855921,20.63580406054647,0 -103.7954464245142,20.63576886172925,0 -103.7955810633797,20.63573366280383,0 -103.7957253700288,20.63568949667361,0 -103.7958600087714,20.63565429752369,0 -103.7960042441954,20.6356191651793,0 -103.7961388828232,20.63558396580537,0 -103.7962735924597,20.63553973229519,0 -103.7964178276985,20.63550459959476,0 -103.7965525371953,20.63546036585908,0 -103.7966872466193,20.63541613201422,0 -103.7968219559706,20.63537189806017,0 -103.7969566652491,20.63532766399693,0 -103.7970913744549,20.63528342982452,0 -103.7972356803063,20.63523926238705,0 -103.7973609346475,20.63517689308806,0 -103.7974957146103,20.63512362455456,0 -103.7976210397424,20.63505222102314,0 -103.7977367680568,20.63498075057944,0 -103.7978620929655,20.63490934686055,0 -103.7979682953311,20.63482877540713,0 -103.798084165232,20.63473923664269,0 -103.7981904383139,20.63464963100416,0 -103.7982387764673,20.6346047947647,0 -103.7983735556475,20.63455152550246,0 -103.7985178604863,20.63450735693725,0 -103.7986525685731,20.63446312148461,0 -103.7987966605233,20.63444605479045,0 -103.7989311557744,20.63442892122754,0 -103.799075247674,20.63441185429768,0 -103.7992192686612,20.63440382128499,0 -103.7993633605183,20.63438675411187,0 -103.79950738148,20.63437872085689,0 -103.7996514024332,20.63437068748102,0 -103.7997954942308,20.63435361994325,0 -103.7999395860028,20.6343365522836,0 -103.8000743644232,20.63428328165112,0 -103.8001995460888,20.63422994423268,0 -103.8003343951544,20.63416763934453,0 -103.8004596474557,20.63410526768426,0 -103.8005848996586,20.63404289592765,0 -103.8007102225604,20.63397149003027,0 -103.8008069677813,20.63387278197954,0 -103.8009132387316,20.63378317454792,0 -103.8008855106033,20.63364746396116,0 -103.8008193252373,20.63352052086223,0 -103.8007915264374,20.63339384430812,0 -103.8007445344636,20.63326703446545,0 -103.8006975425625,20.633140224612,0 -103.8006698147123,20.63300451399589,0 -103.8006035589787,20.63288660487278,0 -103.800518039389,20.63277759646611,0 -103.8003841122057,20.63272245899174,0 -103.8002897044689,20.63252304337567,0 -103.8003959747231,20.6324334362175,0 -103.8004927191092,20.63233472828776,0 -103.8005799376266,20.63222691960224,0 -103.8006862782973,20.63212827819764,0 -103.8008020737914,20.63204777144927,0 -103.8009177983878,20.63197629866373,0 -103.8010431194014,20.63190489241701,0 -103.8011777537726,20.63186968888038,0 -103.8013125295949,20.63181641713823,0 -103.8014566896081,20.63179031403241,0 -103.8015913945369,20.63174607611351,0 -103.8016786119524,20.63163826681118,0 -103.8017467069667,20.63152129024451,0 -103.8017765573468,20.6313859792283,0 -103.8017872146988,20.63125053504599,0 -103.8017784669023,20.63114205985651,0 -103.8017891949463,20.63099758161831,0 -103.8018193987624,20.63081710032292,0 -103.8018394403025,20.63070882485452,0 -103.801898362588,20.63053757730387,0 -103.8019569311801,20.63041149998489,0 -103.8020344096985,20.63032169197511,0 -103.8021503445104,20.63022311609775,0 -103.8022375606202,20.63011530643242,0 -103.8023247059181,20.63001653076961,0 -103.8024119217842,20.62990872100186,0 -103.8025277853648,20.62981917889388,0 -103.8026245266956,20.62972046959148,0 -103.802644850152,20.62957605775942,0 -103.8026842249817,20.62944984707966,0 -103.8027904916813,20.62936023824255,0 -103.8029637915138,20.62928916301011,0 -103.8030700579425,20.62919955398579,0 -103.8031859206026,20.62911001138369,0 -103.8032540132653,20.62899303407714,0 -103.8033221058205,20.62887605673707,0 -103.80340917908,20.62878631450277,0 -103.8035344257253,20.62872394029569,0 -103.8036691273949,20.6286797005783,0 -103.8038134253195,20.6286355272101,0 -103.8039387422761,20.62856411863383,0 -103.8040544627995,20.62849264351633,0 -103.8041607986208,20.6283939996925,0 -103.8042669931724,20.62831342391964,0 -103.8043922391049,20.62825104905087,0 -103.804536395343,20.62822494317244,0 -103.8046804809969,20.6282078712348,0 -103.8048244960921,20.62819983323942,0 -103.8049584211986,20.628254967182,0 -103.8050826795763,20.62831906870366,0 -103.8051972712332,20.62839213782555,0 -103.8053117219912,20.628483275007,0 -103.8054262433855,20.62856537805266,0 -103.8055407649046,20.62864748102762,0 -103.8056747611674,20.62869358037741,0 -103.8058184243334,20.62873071190739,0 -103.8059524207633,20.62877681104898,0 -103.806096225007,20.62879587421941,0 -103.8062304329457,20.62881487094773,0 -103.8063741668284,20.62884296795857,0 -103.8065181120769,20.62884396264526,0 -103.8066619869068,20.62885399128154,0 -103.8068058617622,20.62886401979885,0 -103.8069499478733,20.62884694598592,0 -103.8070939635573,20.62883890612209,0 -103.8072379792328,20.6288308661374,0 -103.8073632948941,20.62875945500696,0 -103.8074409102447,20.62865157621332,0 -103.8074994735668,20.62852549672799,0 -103.8075389145095,20.62839025064372,0 -103.8075782850056,20.62826403861807,0 -103.8076084813324,20.6280835558927,0 -103.8076482738717,20.62790313939793,0 -103.8076493293469,20.62776762829086,0 -103.8076986476502,20.62759631208735,0 -103.8077285622257,20.62745196561184,0 -103.8077390731478,20.6273345888792,0 -103.8077785135168,20.62719934269657,0 -103.8078176724009,20.62710023280005,0 -103.80785704228,20.62697402066493,0 -103.8079348673533,20.62683903933887,0 -103.8079933591612,20.62672199368238,0 -103.8080996209506,20.62663238130513,0 -103.8082343899493,20.62657910378431,0 -103.8083782628499,20.62658913089447,0 -103.8084935580581,20.62657185707885,0 -103.8086952191721,20.62655517883106,0 -103.8088873543282,20.62652940009683,0 -103.8090313678122,20.62652135850343,0 -103.8091751002073,20.62654945310998,0 -103.8093191137084,20.62654141127684,0 -103.8094253746355,20.6264517980379,0 -103.8095317056873,20.62635315064502,0 -103.8096093182493,20.62624527071291,0 -103.8096678787956,20.62611919032543,0 -103.8097264392407,20.62599310991157,0 -103.8097562110597,20.62586683111535,0 -103.8097668607223,20.62573138599089,0 -103.8097679142014,20.62559587474506,0 -103.8097785638215,20.62546042961429,0 -103.8097892134163,20.62532498447988,0 -103.8098477734238,20.62519890399381,0 -103.8099445773946,20.62509115608038,0 -103.8100602926204,20.62501967664436,0 -103.8101760779457,20.62493916303979,0 -103.8103201601171,20.62492208620818,0 -103.8104642422629,20.62490500925478,0 -103.810608324383,20.62488793217957,0 -103.8107429507044,20.62485272074698,0 -103.8108777172957,20.6247994410311,0 -103.8110124136429,20.62475519529325,0 -103.8111472502112,20.62469288126913,0 -103.8112629646085,20.62462140098194,0 -103.8113882749982,20.62454998663642,0 -103.8114466931302,20.62444197369799,0 -103.811409290589,20.62431523235168,0 -103.8113430297448,20.62419732701205,0 -103.8112961014073,20.62406148552894,0 -103.8112875573815,20.62392590815324,0 -103.8112886094143,20.62379039680406,0 -103.8112223488705,20.62367249142676,0 -103.8111657546018,20.62354561797198,0 -103.8111572106953,20.62341004058897,0 -103.8111486667974,20.62327446320419,0 -103.8111497189169,20.62313895185166,0 -103.811112316884,20.6230122104499,0 -103.8110461269297,20.62288527092752,0 -103.8110567751024,20.62274982561191,0 -103.8111535064769,20.62265111096451,0 -103.8112502377261,20.62255239625573,0 -103.8113660205318,20.6224718817092,0 -103.8114817330991,20.6224004011705,0 -103.8115975156723,20.62231988645585,0 -103.8117228940801,20.62223943765633,0 -103.8118386063122,20.62216795685995,0 -103.8119639143851,20.62209654196581,0 -103.8120891522627,20.62203416106895,0 -103.8122143900419,20.62197178007587,0 -103.8123396277226,20.62190939898657,0 -103.8124744612374,20.62184708375753,0 -103.8126092245969,20.62179380251389,0 -103.8127343919406,20.62174045521901,0 -103.8128691551248,20.62168717376294,0 -103.8129943923257,20.62162479217252,0 -103.8131196994471,20.62155337638751,0 -103.8132354105424,20.62148189459274,0 -103.8133513315461,20.62138331041672,0 -103.8134480605999,20.62128459435472,0 -103.8135160718383,20.62117664644462,0 -103.8135937488548,20.62105973029327,0 -103.8136618998544,20.6209337141116,0 -103.8137012631223,20.62080750024341,0 -103.8137215045725,20.62067212049426,0 -103.8137618473926,20.62041942918073,0 -103.8137724928803,20.62028398353433,0 -103.8138023300041,20.62014866963993,0 -103.8138608845667,20.62002258746145,0 -103.8139193690625,20.61990553935933,0 -103.8139779234269,20.61977945712848,0 -103.8140364776902,20.61965337487127,0 -103.8141141534854,20.61953645840871,0 -103.8141917592113,20.61942857600801,0 -103.8142694347683,20.61931165946132,0 -103.8143661618762,20.61921294276942,0 -103.814472414697,20.61912332595874,0 -103.8145787373177,20.61902467496995,0 -103.8146563424484,20.6189167923257,0 -103.8147340173811,20.61879987553341,0 -103.8148116921922,20.61868295869886,0 -103.814851053846,20.61855674446215,0 -103.8149000111568,20.61843059602289,0 -103.8149298468436,20.61829528183922,0 -103.8149692082844,20.61816906756045,0 -103.8149990438471,20.61803375335537,0 -103.8150288793508,20.61789843914049,0 -103.8150299277386,20.61776292751262,0 -103.8150309761179,20.61762741588257,0 -103.8150320244888,20.61749190425035,0 -103.8150426685113,20.61735645841614,0 -103.8150533125085,20.61722101257828,0 -103.8150735521237,20.61708563253442,0 -103.8151129130821,20.61695941818473,0 -103.8151523438519,20.61682416971113,0 -103.8151917046673,20.61669795533331,0 -103.8152502566361,20.61657187251465,0 -103.8153087386328,20.61645482378053,0 -103.8153672904034,20.61632874090952,0 -103.8154354376622,20.61620272378704,0 -103.8154939193644,20.61608567497159,0 -103.8155524708281,20.61595959201826,0 -103.8156110221909,20.6158335090386,0 -103.8156695734526,20.61570742603259,0 -103.8157089335106,20.61558121148626,0 -103.8157482934985,20.615454996926,0 -103.8157877232548,20.61531974823818,0 -103.8158175574087,20.61518443378588,0 -103.8158186049483,20.61504892207673,0 -103.8158196524795,20.6149134103654,0 -103.8158207000022,20.61477789865189,0 -103.8158121520236,20.61464232118755,0 -103.8158036040536,20.61450674372142,0 -103.8158141772104,20.61438033186531,0 -103.815757582065,20.61425345976342,0 -103.8157202477671,20.6141176850371,0 -103.8156443221991,20.6140087496268,0 -103.8155491359984,20.61390871677988,0 -103.8154539499213,20.61380868388546,0 -103.8153490986767,20.61371761928585,0 -103.8152151818113,20.61366249374726,0 -103.8150910002189,20.61358936566903,0 -103.8150344059419,20.61346249336234,0 -103.8148906843557,20.61343440413661,0 -103.8147566281326,20.6133973464856,0 -103.8147096296038,20.61327053988983,0 -103.814672296439,20.61313476497891,0 -103.8146348934362,20.61300802417334,0 -103.8147125651399,20.6128911071673,0 -103.8148473896487,20.61282878958842,0 -103.8149913901679,20.61282074236956,0 -103.8151351810754,20.61283979737224,0 -103.8152698656647,20.61279554768183,0 -103.815328415902,20.61266946470522,0 -103.8153294637348,20.61253395298072,0 -103.8152727997397,20.61241611486133,0 -103.8152066103454,20.612289176836,0 -103.815159611727,20.61216237034513,0 -103.8151318737007,20.61202666128715,0 -103.8150944705324,20.61189992055984,0 -103.8150571372891,20.61176414571067,0 -103.8150293295377,20.61163747075307,0 -103.8149823312389,20.61151066422153,0 -103.8148968121172,20.61140166275377,0 -103.8148498139917,20.61127485619169,0 -103.8148604574405,20.61113941026024,0 -103.8148038641522,20.6110125378963,0 -103.8147848832732,20.61098530396295,0 -103.8148147172487,20.61084998961949,0 -103.8148541464088,20.61071474105667,0 -103.8148935056195,20.61058852659504,0 -103.8150093471195,20.61049897484719,0 -103.8151345741342,20.61043659113791,0 -103.8152692565724,20.610392341333,0 -103.815413394476,20.61036622541256,0 -103.8155573926694,20.61035817760555,0 -103.8156918654563,20.610341029817,0 -103.815826547672,20.61029677956534,0 -103.8159708250334,20.61025259493176,0 -103.8160959816864,20.61019924461512,0 -103.8162213476377,20.61011879184187,0 -103.8163370484669,20.61004730738594,0 -103.8164433633279,20.60994865478315,0 -103.8165209622413,20.60984077090276,0 -103.8165603896077,20.60970552184919,0 -103.8165710313646,20.60957007570939,0 -103.8165720779267,20.6094345638753,0 -103.8165827196414,20.60929911772921,0 -103.8166029564832,20.60916373726812,0 -103.8166900802441,20.60906495308828,0 -103.8168248308261,20.60901166786002,0 -103.8169594418272,20.60897645077003,0 -103.8171034386998,20.60896840160596,0 -103.8172475750216,20.60894228407105,0 -103.8173916415804,20.60892520053903,0 -103.8175263221106,20.60888094887111,0 -103.8176609328639,20.60884573122076,0 -103.8178051386952,20.60881057908327,0 -103.8179303632647,20.60874819321359,0 -103.8180461319699,20.6086676733853,0 -103.8181237987716,20.6085507545548,0 -103.8182014654518,20.6084338356821,0 -103.8182695369052,20.60831685117413,0 -103.8183280828154,20.60819076691394,0 -103.8183674384449,20.60806455145426,0 -103.8184068636611,20.60792930185075,0 -103.8184270290002,20.60780295519802,0 -103.8184568590193,20.60766763999041,0 -103.8184674988656,20.60753219361419,0 -103.8184781386865,20.60739674723434,0 -103.8185366840358,20.60727066286492,0 -103.8186334004948,20.60717194314604,0 -103.8187397118578,20.60707328892958,0 -103.8188363584327,20.60698360321479,0 -103.8189616507096,20.60691218235926,0 -103.8190869428729,20.60684076140667,0 -103.8192121653174,20.60677837449075,0 -103.8193469130754,20.60672508714189,0 -103.8194720657379,20.60667173416179,0 -103.8196068829021,20.6066094124655,0 -103.8197321049613,20.60654702515179,0 -103.8198573269222,20.60648463774195,0 -103.819982618343,20.60641321609936,0 -103.8200983146621,20.60634172887413,0 -103.8202236754033,20.60626127290697,0 -103.8203489664795,20.60618985097985,0 -103.8204646624668,20.60611836349111,0 -103.8205899533198,20.60604694137702,0 -103.8207056490919,20.60597545371513,0 -103.8208310092281,20.60589499727412,0 -103.820946704778,20.60582350943861,0 -103.8210719951767,20.60575208695012,0 -103.8211877599961,20.60567156480011,0 -103.8213130501639,20.60560014212418,0 -103.8214287452764,20.60552865394192,0 -103.821554035221,20.60545723107904,0 -103.8216887810776,20.6054039418006,0 -103.8218140013597,20.60534155288115,0 -103.8219392909822,20.60527012972138,0 -103.8220455295092,20.60518050742766,0 -103.8221707494726,20.60511811823231,0 -103.8223055642528,20.60505579430055,0 -103.8224403095194,20.60500250440405,0 -103.8225653903868,20.60495818319978,0 -103.8227001354863,20.6049048930916,0 -103.8228348804969,20.60485160287352,0 -103.822960169271,20.60478017892734,0 -103.8230853885622,20.60471778903266,0 -103.823210607755,20.60465539904188,0 -103.8233263706688,20.60457487535495,0 -103.8234326772747,20.6044762179891,0 -103.8235389144027,20.6043865947005,0 -103.8236355565347,20.6042969060566,0 -103.8237513882878,20.60420734790666,0 -103.8238861323509,20.60415405681748,0 -103.8240208763251,20.60410076561841,0 -103.8241460253518,20.60404740905544,0 -103.8242806998547,20.60400315179741,0 -103.8244154435729,20.6039498602768,0 -103.8245596434936,20.60391470218579,0 -103.8246941792332,20.60388851290271,0 -103.8248383097814,20.60386238872818,0 -103.824982509541,20.60382723027539,0 -103.8251170451486,20.60380104065571,0 -103.825251857668,20.60373871430269,0 -103.8253770752426,20.6036763226542,0 -103.8255023619415,20.60360489675209,0 -103.8256180536955,20.60353340558217,0 -103.8257434093791,20.60345294533467,0 -103.8258400496696,20.60336325535793,0 -103.8259367590429,20.60326453116148,0 -103.826033537481,20.60315677274404,0 -103.826130246598,20.6030580484247,0 -103.8262174299706,20.60295022474779,0 -103.8263236644567,20.60286059960236,0 -103.8264394936056,20.60277103950817,0 -103.8265456586815,20.60269044837408,0 -103.8266614875748,20.60260088811695,0 -103.8267962293067,20.6025475946325,0 -103.826930763546,20.60252140352821,0 -103.8270459008188,20.60252218463177,0 -103.8271797438037,20.60258633497112,0 -103.8272845952165,20.60267739247945,0 -103.8273895158629,20.6027594157647,0 -103.8275233592079,20.60282356585321,0 -103.8276574790413,20.60285157918175,0 -103.8277922206943,20.6027982849164,0 -103.8278698079992,20.60269039529124,0 -103.8279761104591,20.60259173490574,0 -103.828120032171,20.6025927104064,0 -103.8282345480232,20.60267479822768,0 -103.8283490639998,20.60275688597825,0 -103.8284539162571,20.60284794281471,0 -103.8285975620837,20.60288505460277,0 -103.8287415531323,20.60287699543064,0 -103.8287504450872,20.60286054669903,0 -103.8288096830899,20.60275097202032,0 -103.8287914598615,20.60262436366745,0 -103.8287240202474,20.60266004538488,0 -103.8285800294031,20.60266810455238,0 -103.8285034782325,20.60264048199776,0 -103.8284559876214,20.60257691777255,0 -103.8283412645587,20.60252193259862,0 -103.82828362684,20.60253057665536,0 -103.8281684895096,20.60252979637557,0 -103.8280824818488,20.60248404028006,0 -103.8280253966936,20.60242041091497,0 -103.8280256039026,20.60239330841398,0 -103.8281125783977,20.60231258619263,0 -103.8282468360343,20.60232253071368,0 -103.8283622494101,20.60228717426102,0 -103.8284777317788,20.60224278355997,0 -103.8285647749954,20.60215302692517,0 -103.8286998608876,20.60205456105594,0 -103.8287580506105,20.60197364349189,0 -103.8288740847801,20.60185697914568,0 -103.8289512567604,20.60180329398772,0 -103.8289901187725,20.60174031471152,0 -103.8290582479749,20.60161429115284,0 -103.829071710833,20.60159660395833,0 -103.8291745576344,20.6014614898895,0 -103.8292807204188,20.60138089695067,0 -103.8296658192287,20.60121184568269,0 -103.8300990975071,20.60101601556858,0 -103.8303874896026,20.60094568936523,0 -103.8306748478351,20.6010108753241,0 -103.8308377508886,20.60103908078884,0 -103.831087488461,20.6010046306177,0 -103.8313468894996,20.60096121074673,0 -103.8315869633264,20.60093572917649,0 -103.8318368382986,20.60088320954459,0 -103.8322598303301,20.60077765083474,0 -103.8326256665254,20.60061749732596,0 -103.8328183165782,20.60051941666028,0 -103.8331265836715,20.60035887344752,0 -103.8332134168942,20.60029621682844,0 -103.8333771447507,20.60021600965085,0 -103.8335020814259,20.60018974854233,0 -103.8336364752492,20.60018162043263,0 -103.8336845172235,20.60017290981877,0 -103.833915269805,20.60011122346812,0 -103.8341460909166,20.60004050261086,0 -103.8342615013981,20.60000514206262,0 -103.8345016421327,20.59997062215653,0 -103.8347808479521,20.59984601860878,0 -103.835127421638,20.59969476444536,0 -103.8351866690535,20.59963977027267,0 -103.8354946248959,20.59935392069652,0 -103.8356492363057,20.59921040727843,0 -103.8358135792103,20.59904888990679,0 -103.8359677098906,20.59896861554346,0 -103.8361219089943,20.59887930683743,0 -103.8365755962134,20.59852097330273,0 -103.8368737813193,20.59842359784054,0 -103.8373350733436,20.59832731851277,0 -103.8377575757999,20.59828498521983,0 -103.8380841326461,20.5982420062742,0 -103.8384971086533,20.59819057248381,0 -103.8387946078675,20.59818353567701,0 -103.839073465223,20.59810409588425,0 -103.8392476031509,20.59791553678291,0 -103.8394986335244,20.59770942414934,0 -103.8395049465939,20.59770491847097,0 -103.8398748702376,20.59744090839305,0 -103.8402607684648,20.59716342187494,0 -103.8406079459054,20.59693084821304,0 -103.8409747209389,20.59664419710754,0 -103.8412737191561,20.59643840313944,0 -103.841495619883,20.59627726556606,0 -103.8416115037806,20.59617866035954,0 -103.8418427935045,20.59604468921633,0 -103.842045026722,20.59594666190999,0 -103.8422948907018,20.59589412657351,0 -103.8424869153061,20.59587734248586,0 -103.842659614693,20.59587849822066,0 -103.8428704872234,20.59590701321622,0 -103.8430429140218,20.59594430545822,0 -103.8433016225395,20.59599120928313,0 -103.8434645232735,20.59601940272272,0 -103.8437712042104,20.59606662664326,0 -103.8439336964765,20.59614902499688,0 -103.8440964613244,20.59619528630448,0 -103.8441924737749,20.59618689329179,0 -103.8442790279616,20.59616036766008,0 -103.8444422695018,20.5961433890636,0 -103.8445290278504,20.59608976062336,0 -103.8446064639907,20.59599993113327,0 -103.8447321443846,20.59587428513888,0 -103.8447518096424,20.59581117371942,0 -103.8454688060594,20.5961592794411,0 -103.8457274173915,20.59627598825442,0 -103.8458327452454,20.59601854040193,0 -103.8460134557347,20.59561934888743,0 -103.8461866945137,20.59536950936489,0 -103.8465049537423,20.59524613498179,0 -103.8467473717335,20.59508042104171,0 -103.8468123625114,20.59487766784409,0 -103.8467630750072,20.59468012822487,0 -103.8466820562537,20.59448237794059,0 -103.8465189415583,20.59423029390191,0 -103.8464243769886,20.59414599841817,0 -103.8463776856376,20.59406668590752,0 -103.846292070594,20.59386092804223,0 -103.8463410614698,20.59372573448817,0 -103.8464184273695,20.59364493829071,0 -103.8464861309582,20.5935731123063,0 -103.8465061349017,20.59346482944385,0 -103.8464559680001,20.59331146622255,0 -103.8463935859043,20.59312076066667,0 -103.8463180551436,20.59295763250919,0 -103.8459847039175,20.59263016004108,0 -103.8458224860152,20.59251162676858,0 -103.8455929729508,20.59241071362769,0 -103.8453637322474,20.592273663262,0 -103.8453196131078,20.59224497995903,0 -103.8451250338285,20.59211848008969,0 -103.8450305206264,20.59192812063126,0 -103.8450228312922,20.59167509805387,0 -103.8450343982688,20.59141316935347,0 -103.8451225821247,20.59116982154361,0 -103.8453163008906,20.59092717814809,0 -103.8455862278577,20.59075732060188,0 -103.8458270320768,20.59063244175415,0 -103.8460576301504,20.59058880668923,0 -103.8463359267641,20.5905816281849,0 -103.8465374706378,20.59057393747347,0 -103.8466055803316,20.59044790591517,0 -103.846684031178,20.59022256164982,0 -103.8468193669424,20.5900879434723,0 -103.8469640248874,20.5899895260857,0 -103.8472434746166,20.58982876395743,0 -103.8474457641887,20.58972169546972,0 -103.8476872440095,20.5895064714329,0 -103.8478904827922,20.58927292296439,0 -103.8480549378959,20.58909332416496,0 -103.8480847375036,20.588958002131,0 -103.8480472434561,20.58884030141065,0 -103.8479423880529,20.58874925621288,0 -103.847837397069,20.58867627944656,0 -103.8477325419042,20.58858523413111,0 -103.84770504933,20.58841339177873,0 -103.8477541048405,20.58826916335416,0 -103.8477648523348,20.58811564508155,0 -103.8476701343993,20.58795238967678,0 -103.8475468384949,20.58776183977098,0 -103.8473276716964,20.58756161637806,0 -103.8470891819004,20.58737933335561,0 -103.8469273079319,20.58721563005382,0 -103.8468619162704,20.58698029212626,0 -103.846883005279,20.58672746118323,0 -103.846942469544,20.58647488598045,0 -103.8470584781703,20.58635820800592,0 -103.8471555705097,20.58620526511353,0 -103.8473121259921,20.58579974676434,0 -103.8474688163225,20.585376159721,0 -103.8476154370197,20.58501574831632,0 -103.8477516491396,20.58476368383987,0 -103.847858469112,20.58459273583268,0 -103.8480704127328,20.58447669583318,0 -103.8483395792605,20.58440620994357,0 -103.8486079320568,20.58444413464621,0 -103.8488859465027,20.58447308850987,0 -103.8490777531164,20.58448339912893,0 -103.8492603725699,20.58443944021022,0 -103.8494915024266,20.58432352601105,0 -103.8497033768094,20.58421651818668,0 -103.8498961312231,20.58410034829918,0 -103.850069427149,20.58402018769756,0 -103.8501565150926,20.58392138465551,0 -103.850138681716,20.5837405720034,0 -103.8501205098695,20.58360493063577,0 -103.8500547759709,20.58341476494778,0 -103.8499402614875,20.58333269152617,0 -103.8498639862817,20.58326894161534,0 -103.8498367627962,20.58306096240144,0 -103.849885340372,20.58297997291143,0 -103.8498961527975,20.58281742003816,0 -103.8499935784843,20.5826193039605,0 -103.8501476854463,20.58253901567134,0 -103.8504067803909,20.5825317024123,0 -103.8507328275707,20.58255193756715,0 -103.8510589425104,20.58256313784991,0 -103.8514421458491,20.58263795942708,0 -103.8517009705879,20.58266678128891,0 -103.8519308118196,20.5827225146146,0 -103.8521609235419,20.58274211058271,0 -103.8525358179074,20.58264521509078,0 -103.8525563562029,20.5824646569932,0 -103.8525961491771,20.5822751918444,0 -103.8526935035335,20.58208610832018,0 -103.8527716704991,20.58189689752567,0 -103.8528403112357,20.58169858881852,0 -103.8529765117545,20.5814465195877,0 -103.8531612917872,20.58125045494282,0 -103.8532472912332,20.58115920320366,0 -103.85337335707,20.58097934418434,0 -103.8534515900711,20.58078109872161,0 -103.8536448772715,20.58059265009948,0 -103.8537899267009,20.58044002063317,0 -103.8539249775792,20.58034153313591,0 -103.8540217893174,20.58022472287552,0 -103.854147246395,20.58012617166006,0 -103.8543595165088,20.57996495200671,0 -103.8545630018349,20.57969525726559,0 -103.8546708218755,20.57938879028358,0 -103.8547977608508,20.57909148444163,0 -103.8548284284409,20.57883871511322,0 -103.8548686892788,20.57858600924225,0 -103.8548328771612,20.57824245277756,0 -103.8548447621946,20.57793535078982,0 -103.8549046137026,20.57762856614398,0 -103.8549827754314,20.57743935401916,0 -103.8551189009844,20.57719631691583,0 -103.8552543523476,20.57704362248603,0 -103.860090709896,20.57560287958068,0 -103.8602672219984,20.57553916979638,0 -103.8605332042746,20.57544316775332,0 -103.8607447909031,20.57537228255863,0 -103.8609942808773,20.57536488970604,0 -103.8611956708569,20.57537524952931,0 -103.8614925907946,20.57544044593979,0 -103.8616837178327,20.57554108512825,0 -103.861941595745,20.57569637146665,0 -103.8621994741912,20.57585165744252,0 -103.8623712818654,20.57597023839887,0 -103.8624478938313,20.57598881140008,0 -103.8625724719943,20.57600769957534,0 -103.8626877916229,20.57598135310247,0 -103.8628131060035,20.57590086374329,0 -103.8634009686986,20.5755433350564,0 -103.8635068953034,20.57548982209532,0 -103.863622147534,20.57547250928123,0 -103.8638236048583,20.57547383175181,0 -103.8639912480538,20.57548621468403,0 -103.8642263190311,20.5755035789218,0 -103.8652616512821,20.57560975154838,0 -103.8657411120489,20.57563999832569,0 -103.8659135898429,20.57566823272873,0 -103.8660188483794,20.57570506135439,0 -103.866066480852,20.57575054716976,0 -103.8660942595608,20.575886250447,0 -103.8661123116004,20.57603995950828,0 -103.8661207036771,20.57620264003879,0 -103.8661389559586,20.57632924614752,0 -103.8661862550077,20.57641990351658,0 -103.8662530075703,20.57647454928687,0 -103.866463525967,20.57654820611605,0 -103.8665313533898,20.57656865504504,0 -103.8670761625546,20.57673291226242,0 -103.868674647891,20.57723124466548,0 -103.8693256636187,20.57741619390498,0 -103.8694499778761,20.5774712145194,0 -103.8701465112258,20.57787492671377,0 -103.8720197684132,20.57896064784884,0 -103.8721216651075,20.57901590448806,0 -103.8721726661683,20.57904295716961,0 -103.8721841200929,20.57902576007445,0 -103.8723763854755,20.57873710259849,0 -103.8725313404958,20.5785393472721,0 -103.8726762372177,20.5784047696359,0 -103.8728982790173,20.57821648566774,0 -103.8731293830619,20.57810053853306,0 -103.8733506281219,20.57802066597003,0 -103.8736199062259,20.57793207094935,0 -103.8737927198694,20.57791512598954,0 -103.8741378169378,20.5779535102597,0 -103.8744348147212,20.57800965059369,0 -103.8749037655923,20.5781662907959,0 -103.875334277591,20.57833171475718,0 -103.8759179547083,20.57854330639901,0 -103.876425018166,20.57873632922469,0 -103.8770085662871,20.57896598601243,0 -103.8772000391201,20.57902143696414,0 -103.8774300842376,20.57905003357226,0 -103.8776314811539,20.57906037453987,0 -103.8778619887982,20.57902573013412,0 -103.8782561136287,20.57891986773974,0 -103.87899632851,20.57871686385003,0 -103.8796885743393,20.57851354621129,0 -103.8802556424134,20.57837265939455,0 -103.8807171158737,20.57824012260971,0 -103.881226621587,20.57809886026312,0 -103.881321567034,20.5780753520007,0 -103.881582236734,20.57801081073612,0 -103.8817936211431,20.57796700262642,0 -103.882024323888,20.5779052494619,0 -103.8821785423113,20.57780686287002,0 -103.8823519473552,20.57770860002931,0 -103.8825060996067,20.57761924748988,0 -103.8826317345523,20.57749357154412,0 -103.8827476443885,20.57738590230298,0 -103.882708547472,20.57748503262301,0 -103.8826111008987,20.57769220372407,0 -103.8824944014366,20.57790828523636,0 -103.8824264581512,20.57801626400996,0 -103.8823386042701,20.57822349685799,0 -103.8822827677115,20.57832048072892,0 -103.8821831354123,20.57849353648131,0 -103.8820760939656,20.57870064523391,0 -103.8819781850401,20.57897105641212,0 -103.8819325551717,20.57906076620801,0 -103.8819003183327,20.57912414476395,0 -103.8817547045328,20.57935810843049,0 -103.8816765082494,20.57955636845989,0 -103.8816079711184,20.57974565607605,0 -103.8815691361415,20.57980864860968,0 -103.8815493565372,20.57988983385303,0 -103.8815101922989,20.57999799816898,0 -103.8814415230515,20.58020535441008,0 -103.881333491536,20.58054797794441,0 -103.8812543061672,20.58088175307663,0 -103.88118491163,20.5811884870953,0 -103.8810877239104,20.58135951961987,0 -103.8809910629715,20.58145827722321,0 -103.8808943360263,20.58156606912199,0 -103.8808455113096,20.58168320554065,0 -103.8808160714911,20.58177336296569,0 -103.8807479934236,20.58189940961068,0 -103.8806704533612,20.58200732545742,0 -103.8805737917361,20.58210608278917,0 -103.8805057133127,20.58223212931809,0 -103.880447228465,20.58235823788134,0 -103.8803983372162,20.58248440848975,0 -103.8803494458823,20.58261057907883,0 -103.8803196759735,20.58274590815488,0 -103.8802994997301,20.58288129929911,0 -103.8802793893677,20.58300765608437,0 -103.8802496193025,20.58314298513589,0 -103.8802007276104,20.5832691556582,0 -103.8801517699016,20.58340436051327,0 -103.8800933502078,20.58352143455432,0 -103.8800539860853,20.58365670146069,0 -103.8800434032274,20.58379215463821,0 -103.8800424141329,20.5839276699072,0 -103.8800222374368,20.5840630609825,0 -103.8800021266422,20.58418941770094,0 -103.8799723560514,20.58432474666477,0 -103.8799042760667,20.58445079285713,0 -103.8797791606575,20.58450419155976,0 -103.8796444513383,20.58455752804919,0 -103.8795098738772,20.58459279573139,0 -103.8793750984142,20.58465516635105,0 -103.8792784342359,20.58475392281396,0 -103.8791437245391,20.5848072588938,0 -103.8791619222949,20.58494289839917,0 -103.8791801860713,20.5850695035547,0 -103.879275332772,20.58517853715761,0 -103.8793705455909,20.58527853636541,0 -103.8795044639251,20.58533361230466,0 -103.8796286565427,20.58540669471945,0 -103.8797142098851,20.58551566597863,0 -103.8796557230085,20.58564177413963,0 -103.879549530423,20.58573143425311,0 -103.8796254239985,20.58584937777795,0 -103.8798553479924,20.58589604033005,0 -103.8799213841488,20.58605005902042,0 -103.880034827649,20.58759573991089,0 -103.8801926503571,20.58831954342901,0 -103.8805052987423,20.58886365327552,0 -103.8817201931508,20.58935938852155,0 -103.8822143482399,20.59001308604424,0 -103.8917750835218,20.59467596996377,0 -103.8919703165231,20.59484384226318,0 -103.892081826918,20.59496699249354,0 -103.8921641185641,20.59515260823944,0 -103.8921941668677,20.59537671723385,0 -103.8922205088301,20.59562285915523,0 -103.8922483558596,20.59588234242784,0 -103.8923273187673,20.59613981217348,0 -103.8924271797442,20.59636874559028,0 -103.8930464367784,20.59655256046646,0 -103.8933872600221,20.59750081113026,0 -103.8943296673311,20.59806965605411,0 -103.8951653704307,20.59858539535151,0 -103.8960440635632,20.59941809126588,0 -103.8970425019323,20.59985922505777,0 -103.8977845854936,20.60056661489095,0 -103.8993173911615,20.60095687910862,0 -103.9003659777616,20.60122384872043,0 -103.9017711775766,20.60318386344781,0 -103.9043558768019,20.60338742195435,0 -103.9063480778872,20.60529470098499,0 -103.9076747061157,20.60645736910389,0 -103.9084314937208,20.60819866767056,0 -103.9087157791292,20.61058995699002,0 -103.9094510435418,20.61148788344361,0 -103.9097110978367,20.6128453366811,0 -103.9109013016686,20.61389176711909,0 -103.9112972674517,20.61463972934066,0 -103.9118111429922,20.6155494960076,0 -103.9129957287199,20.61551648030773,0 -103.9146745952023,20.61655409278597,0 -103.9143906707111,20.61770197171917,0 -103.9146000544642,20.61794722723028,0 -103.9162135372791,20.61912284678202,0 -103.9164687972924,20.6196665371654,0 -103.917116033113,20.620420485226,0 -103.9170480292648,20.62053751176099,0 -103.9169799614201,20.62066357268846,0 -103.9169215535675,20.62078065931038,0 -103.9168630817249,20.62090678033183,0 -103.9167950774538,20.62102380674257,0 -103.9167270730756,20.62114083312036,0 -103.9166018107004,20.62121232632446,0 -103.9164955489389,20.62131104305878,0 -103.9165517202357,20.62151016143108,0 -103.9164836515196,20.62163622211162,0 -103.9165206942613,20.62182618570714,0 -103.916442965155,20.62196122060353,0 -103.9163082974775,20.62200555010305,0 -103.9162020349597,20.62210426661497,0 -103.9161246251523,20.62219412923877,0 -103.9159609764144,20.62226538110939,0 -103.915892970816,20.62238240708936,0 -103.9158249011466,20.6225084674564,0 -103.915795216668,20.62263476867645,0 -103.9157558718321,20.6227700440841,0 -103.9157069945498,20.62289622483236,0 -103.9156581171825,20.6230224055614,0 -103.9155901109932,20.62313943138677,0 -103.9155490382815,20.62351863601949,0 -103.9155480785237,20.62365415229057,0 -103.915547118758,20.62378966855948,0 -103.9155365625779,20.62392512458794,0 -103.9155356027883,20.62406064085209,0 -103.915534642991,20.62419615711406,0 -103.9153700318662,20.62440292455327,0 -103.9151962078901,20.62455542505597,0 -103.9152129044895,20.62490788779234,0 -103.9152791196954,20.62504382583137,0 -103.9154512163237,20.6251352545146,0 -103.9154310634155,20.62527065026069,0 -103.9154588929623,20.62540634724239,0 -103.9154771260446,20.62554198397361,0 -103.9154282475366,20.6256681645536,0 -103.9153793689435,20.62579434511436,0 -103.9152922961613,20.62589318138475,0 -103.9151955627176,20.62600099175662,0 -103.9150893606332,20.62609067296958,0 -103.914983158425,20.62618035411076,0 -103.9148674876076,20.62625190607172,0 -103.9147422201297,20.62632339766072,0 -103.9146264850485,20.62640398386168,0 -103.9145012173388,20.62647547526407,0 -103.9143664810748,20.62652883743633,0 -103.9142318087928,20.62657316508798,0 -103.9141256057597,20.6266628456596,0 -103.9140384675939,20.62677071564023,0 -103.9139991840653,20.62689695605758,0 -103.9139407072753,20.6270230757907,0 -103.9138726978759,20.62714010074888,0 -103.9138046883694,20.62725712567409,0 -103.9136984204988,20.62735584035233,0 -103.9135732157016,20.62741829661162,0 -103.913438478304,20.62747165800273,0 -103.9133227416817,20.62755224325015,0 -103.9132164733008,20.62765095760551,0 -103.9131389305591,20.62775888744433,0 -103.9130613235608,20.62787585164824,0 -103.9129455864364,20.6279564366167,0 -103.9128014441901,20.6279826338667,0 -103.9126668343849,20.62801792580852,0 -103.9125415644726,20.62808941567661,0 -103.912425826925,20.62817000027534,0 -103.9123101534479,20.62824155038686,0 -103.9121754149204,20.62829491073553,0 -103.9120406763034,20.62834827097455,0 -103.9119060660269,20.62838356229972,0 -103.9117713914701,20.62842788791871,0 -103.9116365883774,20.62849028223138,0 -103.9115685765537,20.62860730615488,0 -103.911490967928,20.62872426956899,0 -103.9114900043138,20.62885978557553,0 -103.9114890406918,20.62899530157989,0 -103.911488077062,20.62913081758209,0 -103.9114775166958,20.62926627310346,0 -103.9114573595679,20.62940166814109,0 -103.9113606854404,20.62950044170306,0 -103.9112640111875,20.62959921520422,0 -103.9111482718285,20.62967979885183,0 -103.9110325323494,20.62976038241567,0 -103.9109453902086,20.62986825062149,0 -103.9108677804328,20.62998521368888,0 -103.9108188965871,20.63011139266755,0 -103.9107700126563,20.63023757162696,0 -103.9107019993432,20.63035459512158,0 -103.9105957273162,20.63045330767028,0 -103.9104895837642,20.63053395135516,0 -103.9103738432918,20.63061453442529,0 -103.9102485702058,20.630686022466,0 -103.9101232970057,20.63075751041,0 -103.9100075561779,20.63083809321639,0 -103.9099109445428,20.63092783147468,0 -103.9098046716134,20.63102654348946,0 -103.9097079953864,20.6311253160143,0 -103.9080195639411,20.63902204732666,0 -103.9079809993776,20.63905657561836,0 -103.9068273859327,20.63819978342347,0 -103.9059087970127,20.63825039826765,0 -103.9055696998955,20.63853182935826,0 -103.9054816592015,20.63853261024647,0 -103.9052471926466,20.6386134748982,0 -103.9048823967908,20.63880114579049,0 -103.9042836442787,20.63861223262079,0 -103.9036376964445,20.63859585030327,0 -103.9022586422965,20.63897982973968,0 -103.9017810599797,20.63896518478139,0 -103.9016041586173,20.63891659984019,0 -103.901138344626,20.63925203865401,0 -103.9009896987536,20.63926333644584,0 -103.8997694235213,20.63925904491682,0 -103.8992871511248,20.63900177153045,0 -103.899091737059,20.63910264110227,0 -103.8988637654896,20.63928349083435,0 -103.8981752446194,20.63956028552222,0 -103.8980681131675,20.63956963309227,0 -103.8978821663551,20.63925807229819,0 -103.8971385931568,20.63909468105088,0 -103.896675115134,20.63854292142352,0 -103.8965159312479,20.63828078960347,0 -103.8956271475474,20.63810201016767,0 -103.8949424145485,20.63804226691592,0 -103.8942088419535,20.63748871713947,0 -103.8940474717565,20.63755065137823,0 -103.8933000587977,20.63703459927157,0 -103.8928321819072,20.63676130172643,0 -103.8925980482959,20.63655860988769,0 -103.8914931551349,20.6356476223953,0 -103.8912429419357,20.6367344668129,0 -103.8911220754927,20.63673755666276,0 -103.8905257802187,20.63805227562835,0 -103.8901034512962,20.63751579936356,0 -103.8896425524036,20.63696122235141,0 -103.8892586508175,20.63650983930638,0 -103.8892271360244,20.63644866017741,0 -103.8891767211238,20.63655070948415,0 -103.8887455306761,20.63744986010119,0 -103.8886956824473,20.6374686423708,0 -103.888120599999,20.63715521558415,0 -103.8876410461332,20.63688119125076,0 -103.8871649999881,20.63659106940583,0 -103.8870744572277,20.63656195324264,0 -103.8868103272635,20.63649749625818,0 -103.8859951983681,20.63608265854897,0 -103.8859149909495,20.6359798289616,0 -103.885852988573,20.63649515713808,0 -103.88676358238,20.63836462501058,0 -103.8868069140577,20.63898551594734,0 -103.8881407611043,20.63996775847782,0 -103.888945388267,20.64038502106265,0 -103.8903283852133,20.64124885451849,0 -103.8915974419127,20.64230900187101,0 -103.8919005496116,20.64224761321233,0 -103.8924166557814,20.64366147694109,0 -103.8928321938511,20.64498125147512,0 -103.8936877876051,20.64689371297338,0 -103.8940656046665,20.64806482656262,0 -103.8959006631482,20.64928411828713,0 -103.8965819163161,20.65031276101333,0 -103.8986280501138,20.65192118517332,0 -103.9003919333736,20.65310073417296,0 -103.9017688850143,20.65356527400235,0 -103.9025793652293,20.65431541762998,0 -103.9041277129883,20.65544876137292,0 -103.904378463892,20.65604807916582,0 -103.9043862495514,20.65606668780404,0 -103.9046069136358,20.65659409086739,0 -103.9047960240067,20.65708784039299,0 -103.9045422526829,20.65723794376,0 -103.9052052988131,20.65776873440041,0 -103.9055697953557,20.65778641507232,0 -103.9068875847044,20.65756679507448,0 -103.9074389393199,20.65798535273644,0 -103.9090865864656,20.65812748951738,0 -103.9102420361319,20.65950105976532,0 -103.9097510668271,20.66001275892716,0 -103.9095511787517,20.66028445762091,0 -103.9095157918107,20.66057460961263,0 -103.9092371040194,20.66451323902982,0 -103.9093929819442,20.66468315309603,0 -103.909488594653,20.66477110844656,0 -103.9095791031805,20.66502777468938,0 -103.909261196971,20.66815856742841,0 -103.908942711829,20.67242276179261,0 -103.9089385840972,20.67247151251112,0 -103.9087142019189,20.67684791905105,0 -103.9086200414345,20.67755095473969,0 -103.9082760613289,20.68038265902199,0 -103.9092168152354,20.68186935640942,0 -103.9096597095721,20.6822178443019,0 -103.9103095679687,20.68292162475619,0 -103.9105870051931,20.68333805184386,0 -103.9103301815483,20.68393665720346,0 -103.9106150493482,20.68467942653404,0 -103.9111529641409,20.68502129815868,0 -103.9117331685479,20.68549027407938,0 -103.9122564493318,20.68602346205677,0 -103.912222771067,20.68717335130199,0 -103.9125580368026,20.68744226790387,0 -103.9130151501286,20.68752325362033,0 -103.912978012273,20.68807720453407,0 -103.9134978361783,20.68825198497477,0 -103.9142865295068,20.68867016480427,0 -103.9148562864405,20.68908029580437,0 -103.9156286881283,20.68998000806785,0 -103.9162328480483,20.69035312448479,0 -103.9163308322387,20.69140372818278,0 -103.9162836524637,20.6918264187125,0 -103.9164035571853,20.69213890341498,0 -103.9163177590992,20.69236173993019,0 -103.9152447046033,20.69337476208341,0 -103.9143786527269,20.69424971328991,0 -103.9157479488051,20.69532738474045,0 -103.9134718982335,20.69616061561725,0 -103.9137205365678,20.69679625090833,0 -103.9137513802522,20.69687510094535,0 -103.9134056223944,20.69797236784467,0 -103.9136466191145,20.6981108789503,0 -103.9138432787517,20.69906933714858,0 -103.9135994073496,20.69913668365866,0 -103.9133221717772,20.70004561927996,0 -103.9130709125284,20.69987027695207,0 -103.9126722377347,20.70004521643672,0 -103.9126791481419,20.70077509234227,0 -103.9124587884242,20.70151717208118,0 -103.9123271994047,20.70177032738047,0 -103.9122364355483,20.70179223618808,0 -103.9117385169607,20.70326358059213,0 -103.911595853492,20.70336550420652,0 -103.9112051211988,20.70399275590465,0 -103.9106162911016,20.70450667412642,0 -103.9102935813363,20.7051544821507,0 -103.9099593897259,20.70659943267502,0 -103.9099150390048,20.70679119217352,0 -103.9096462018223,20.70813186813269,0 -103.9093404076493,20.70948456119042,0 -103.9093697628814,20.70987570382904,0 -103.9088661962972,20.70961952581924,0 -103.9090246898839,20.71066800269978,0 -103.909310693314,20.7108427446624,0 -103.9094534589407,20.71125799293593,0 -103.909662860006,20.71135924406957,0 -103.9095992628794,20.71164607395984,0 -103.9091858709507,20.71163640092357,0 -103.9090062706021,20.71176024915069,0 -103.9089608112492,20.71178197505426,0 -103.9087014814082,20.71203990780237,0 -103.9088726704111,20.71224671605254,0 -103.9088225746556,20.71240634188563,0 -103.908555207833,20.71246548047665,0 -103.9082889422333,20.7127731462114,0 -103.9081907278138,20.71296536391131,0 -103.907767687964,20.71327965337752,0 -103.9078794739404,20.71356623801362,0 -103.9076656228384,20.71387740088819,0 -103.9075968453433,20.71394381588484,0 -103.9075558638258,20.71396512530345,0 -103.9070122646162,20.71421497999866,0 -103.9066837844098,20.71407861664546,0 -103.9062210834752,20.71478147679724,0 -103.9063185928879,20.71484147152395,0 -103.9062134888587,20.71496408501964,0 -103.9053427684458,20.71597985752215,0 -103.905882701607,20.71650994038981,0 -103.9052295391745,20.71682442872851,0 -103.9050538261574,20.71671657961801,0 -103.9049505512779,20.71674495744748,0 -103.9045460828423,20.71761395140471,0 -103.9040760483109,20.71810053245054,0 -103.90219612243,20.71958809084016,0 -103.9022588274884,20.7197531327183,0 -103.9019338769305,20.72015381640938,0 -103.9013627802009,20.72012422412994,0 -103.9011970685049,20.72074838117915,0 -103.9010797235045,20.72073062413343,0 -103.9006230337309,20.72083688257717,0 -103.8999051197228,20.72122223931686,0 -103.8997294532005,20.72162899169374,0 -103.8995583825085,20.72202739264394,0 -103.8987009636829,20.72213457837597,0 -103.8979732585877,20.72275229547902,0 -103.8975148051986,20.72338291307715,0 -103.8974681242685,20.72345356426093,0 -103.8970626459517,20.7237506433698,0 -103.8956573210573,20.72498869701481,0 -103.8952246420646,20.72533089495018,0 -103.8945950264772,20.72523320335507,0 -103.8936557803899,20.72588771042386,0 -103.8930424329031,20.72649522269914,0 -103.8930124534133,20.72643988405667,0 -103.8930230099086,20.72632207941796,0 -103.8923473650957,20.72608372807751,0 -103.8916707904347,20.72604008770243,0 -103.8912720289296,20.72626027005304,0 -103.8912263047762,20.72628551732578,0 -103.891206207247,20.72648348807707,0 -103.8909438507915,20.72674961794339,0 -103.8908565864073,20.72668932550966,0 -103.8895376381272,20.72817476983594,0 -103.8887231419355,20.72898123740443,0 -103.8883095609464,20.72942426468633,0 -103.8881759480984,20.72978038378102,0 -103.8881720370879,20.72991788756769,0 -103.8880668426284,20.73006272247672,0 -103.8877319369276,20.72971605282391,0 -103.8878114675194,20.72915860961773,0 -103.8877749211009,20.72871103348861,0 -103.8877267946905,20.7286889633292,0 -103.8878434839268,20.72852042458315,0 -103.8870862080191,20.72826016697256,0 -103.8862510825936,20.72826043120349,0 -103.8861472522821,20.72822263386655,0 -103.8857816783344,20.72808541469441,0 -103.8857246501525,20.72809274561562,0 -103.8846529399474,20.72789381249591,0 -103.8832089796923,20.72762825137987,0 -103.8828657980783,20.72756513448607,0 -103.8812786931318,20.72738293012158,0 -103.8811514416975,20.72740601462429,0 -103.8810071341627,20.72744121469496,0 -103.8808913694112,20.72751273883967,0 -103.8808136838105,20.72762968378193,0 -103.8807456009078,20.7277466911517,0 -103.8806966571475,20.72787285763671,0 -103.8806381104656,20.72799896162649,0 -103.8805508879801,20.72810680974473,0 -103.8804350560868,20.7281873677456,0 -103.8803574362014,20.72829527823988,0 -103.8802797497727,20.72841222289362,0 -103.8802116660896,20.72852923000689,0 -103.880181860923,20.72866455550513,0 -103.8801616585821,20.7287999434989,0 -103.8801510590924,20.72893539399277,0 -103.8801500624793,20.72907090698967,0 -103.8801682716789,20.72920654499693,0 -103.8801960838237,20.72934224550651,0 -103.8801950872293,20.7294777584991,0 -103.8801844876909,20.72961320898377,0 -103.880183491072,20.72974872197155,0 -103.880172891492,20.72988417245,0 -103.8801239464868,20.73001033868825,0 -103.8800367224245,20.73011818645175,0 -103.8799304252056,20.73020784072554,0 -103.879833664376,20.73030659165226,0 -103.8797464399351,20.73041443924776,0 -103.8796878913966,20.73054054279697,0 -103.8796102032344,20.73065748704252,0 -103.8794943688655,20.73073804427505,0 -103.8794262834623,20.73085505097131,0 -103.8793964770424,20.73099037624487,0 -103.8793954796499,20.73112588917435,0 -103.8793752761747,20.73126127699091,0 -103.8793454696117,20.73139660224366,0 -103.8792677807235,20.73151354629114,0 -103.879199694773,20.73163055286354,0 -103.8791603514071,20.73175678130679,0 -103.8791401476115,20.73189216907261,0 -103.8791199437738,20.73202755683231,0 -103.8790997398941,20.73216294458592,0 -103.8790603962861,20.73228917298858,0 -103.8789731701089,20.73239702009057,0 -103.8788574005835,20.73246854261001,0 -103.8787224912579,20.73253090566331,0 -103.8785971849446,20.73259333120872,0 -103.8784813485487,20.73267388764933,0 -103.8783941217419,20.73278173442406,0 -103.8783643139478,20.73291705942982,0 -103.8783249695113,20.73304328761657,0 -103.8783047647478,20.7331786752226,0 -103.8782941631054,20.73331412544497,0 -103.8782643550946,20.73344945041634,0 -103.878244150205,20.73358483800406,0 -103.8782335484618,20.73372028821265,0 -103.8782038068728,20.73384657897249,0 -103.8781836018587,20.73398196654209,0 -103.8781442569535,20.73410819465273,0 -103.8780857055368,20.73423429747774,0 -103.8780367572472,20.73436046291639,0 -103.8780069487567,20.73449578780717,0 -103.8779963466979,20.73463123797452,0 -103.8779761413602,20.73476662549443,0 -103.8779367960489,20.73489285352916,0 -103.8778877808017,20.73502805308707,0 -103.8778484353394,20.73515428109139,0 -103.8777420666253,20.73525296792715,0 -103.877616757648,20.73531539261786,0 -103.8774914485712,20.73537781721212,0 -103.8773565361009,20.73544017902954,0 -103.8772217567989,20.73548447236781,0 -103.8770869774232,20.73552876559663,0 -103.8769522646276,20.73556402453302,0 -103.8768079484721,20.73559922064942,0 -103.8766732355599,20.73563447936112,0 -103.8765289859634,20.73566064105549,0 -103.8763847363234,20.7356868026265,0 -103.8762500899476,20.73571302681762,0 -103.8761057068126,20.73575725651038,0 -103.8759803967998,20.73581967995532,0 -103.8758931663681,20.7359275252591,0 -103.8757963992084,20.73602627356355,0 -103.8757091685252,20.73613411876005,0 -103.8756123343776,20.73624190112526,0 -103.8755251701783,20.73634071203636,0 -103.8753997927077,20.73641216919842,0 -103.8752745486352,20.73646555790946,0 -103.8751302312989,20.73650075255724,0 -103.8749861142228,20.7365088445531,0 -103.8748513333645,20.73655313595306,0 -103.8747164188527,20.73661549559344,0 -103.8746006441636,20.73668701497412,0 -103.8745038088911,20.73679479665612,0 -103.8744932702637,20.73692121224782,0 -103.8745018715814,20.7370567877004,0 -103.8745104729082,20.73719236315115,0 -103.8745094708402,20.73732787575533,0 -103.8745084687641,20.73746338835733,0 -103.874497863259,20.73759883811096,0 -103.87446805087,20.73773416216501,0 -103.8744382384219,20.73786948620938,0 -103.8743510056875,20.7379773306016,0 -103.8742733762787,20.73808523780323,0 -103.8742148200219,20.73821133903586,0 -103.8741946107025,20.73834672588016,0 -103.8741840048167,20.73848217558514,0 -103.8741830023899,20.73861768815377,0 -103.8741916034479,20.73875326358738,0 -103.8742676294991,20.7388621765602,0 -103.8743146446694,20.73899800343712,0 -103.8743425197044,20.73912467041373,0 -103.8743127068093,20.73925999439727,0 -103.8742159364387,20.7393587416305,0 -103.8741287694789,20.73945755167511,0 -103.8740702125177,20.73958365280903,0 -103.8740403992717,20.73971897672302,0 -103.8740490002136,20.73985455214378,0 -103.8740576710334,20.7399191584636,0 -103.8740672047349,20.7399901904404,0 -103.8740950128615,20.74012589161102,0 -103.874132491457,20.74025262148285,0 -103.8741795737051,20.74037941422008,0 -103.8742652041021,20.74048839008303,0 -103.8743314937469,20.74061530851894,0 -103.8743496985774,20.74075094678964,0 -103.8743199521235,20.7408772365658,0 -103.8742040402438,20.74096682382496,0 -103.8740882619149,20.74103834266215,0 -103.8739534099001,20.74109166730714,0 -103.8738186246546,20.7411359576743,0 -103.8736745031626,20.74114404836178,0 -103.873530716043,20.74110696809523,0 -103.8734062700387,20.7410519452151,0 -103.8732916284294,20.74096988267487,0 -103.8731672495273,20.74090582546433,0 -103.8730234627754,20.74086874478857,0 -103.8728796091856,20.74084069816039,0 -103.8726680618452,20.74087544987085,0 -103.8724655155945,20.7409915717565,0 -103.8724261639,20.74111779815713,0 -103.8723868121351,20.74124402454394,0 -103.8723762043097,20.74137947400947,0 -103.8724040111035,20.74151517537448,0 -103.8723837995924,20.74165056186077,0 -103.8723157035506,20.74176756512146,0 -103.8722476074009,20.74188456834881,0 -103.8721603707217,20.74199241140312,0 -103.8720349870034,20.74206386577904,0 -103.8719191398934,20.74214441722177,0 -103.8718510432631,20.74226142026523,0 -103.8718404348444,20.7423968696568,0 -103.8718298264007,20.74253231904476,0 -103.8717909426152,20.74259530611862,0 -103.8719241222356,20.74276783727239,0 -103.8720581727619,20.74282292425259,0 -103.8721922233897,20.74287801113237,0 -103.8723068657524,20.74296007442672,0 -103.8724215751893,20.7430331034885,0 -103.8725264801478,20.74313317198984,0 -103.8725831655733,20.74326002807477,0 -103.8725821614687,20.74339554049334,0 -103.8725524129323,20.74352182983446,0 -103.8725322011929,20.74365721630106,0 -103.8725408008273,20.74379279168492,0 -103.8726263648626,20.74391080251684,0 -103.8727120628983,20.74401074498885,0 -103.8728073648716,20.74411075038213,0 -103.8728929962117,20.74421972693355,0 -103.8729208038584,20.74435542821611,0 -103.8729197999966,20.74449094063323,0 -103.8729091922676,20.74462639009295,0 -103.872869839839,20.74475261651658,0 -103.8727921387744,20.74486955691934,0 -103.8726269315579,20.74513047710449,0 -103.8726685244902,20.74599807124157,0 -103.8724113892158,20.74699922523492,0 -103.87200838043,20.74824335557137,0 -103.8714823202005,20.74924274279733,0 -103.871479974251,20.74955893809727,0 -103.8715352533727,20.74987551167958,0 -103.8715727317869,20.75000224198112,0 -103.8718095531385,20.75044649138421,0 -103.87168027493,20.75104192584252,0 -103.8712842878104,20.75133746755548,0 -103.8716465023645,20.75171026380287,0 -103.8714786037225,20.75233254819286,0 -103.8709090975265,20.75293730473936,0 -103.8708106050942,20.75304189345894,0 -103.8699247194498,20.7533432471041,0 -103.869460081574,20.75382805900697,0 -103.8682081217477,20.75685543759242,0 -103.8681936078994,20.75751486604631,0 -103.8676398176781,20.75836046782867,0 -103.8674169380426,20.75991294542919,0 -103.8672134868493,20.76014650317052,0 -103.8666523945486,20.76210401204249,0 -103.8665724682868,20.762382848982,0 -103.8672863772777,20.76325487547788,0 -103.8676449739373,20.7641155232125,0 -103.8673854800152,20.7654238248328,0 -103.8676214142674,20.76727746601076,0 -103.8679540318824,20.76775849019805,0 -103.8686235109449,20.76815138713467,0 -103.869257387423,20.76945653843474,0 -103.8705247672898,20.77082909660559,0 -103.8712171765891,20.77201717689418,0 -103.8713934411349,20.77285855006316,0 -103.8724809742132,20.77387756496641,0 -103.8727339594433,20.77473750977342,0 -103.8720511581371,20.77613338429996,0 -103.8720314768218,20.77619649698483,0 -103.8712042324452,20.77634464882872,0 -103.870460550517,20.7768818324343,0 -103.8696523785568,20.77704817115258,0 -103.8685827593668,20.77749285480642,0 -103.8676024840947,20.77754963493736,0 -103.866008373784,20.7774758731057,0 -103.8655174601268,20.77760814869233,0 -103.863135537427,20.78011303253407,0 -103.8612371131929,20.7809045256537,0 -103.8604929683158,20.78149586764259,0 -103.8590761813806,20.78210984100505,0 -103.8578824329867,20.78244521580166,0 -103.8553013666256,20.7833043741495,0 -103.853528156367,20.78404240628069,0 -103.8522576002022,20.78436819329395,0 -103.8506779271533,20.78491776404059,0 -103.8484481758184,20.7863122030757,0 -103.8465870485891,20.7868893113794,0 -103.8455729928189,20.78539554694121,0 -103.8450776762139,20.78374126812625,0 -103.8448299443121,20.78255576548331,0 -103.8423436391293,20.78132474745771,0 
					</coordinates>
				</LinearRing>
			</outerBoundaryIs>
		</Polygon>
	</Placemark>
</Document>
</kml>
