<?xml version="1.0" encoding="UTF-8"?>
<kml xmlns="http://www.opengis.net/kml/2.2" xmlns:gx="http://www.google.com/kml/ext/2.2" xmlns:kml="http://www.opengis.net/kml/2.2" xmlns:atom="http://www.w3.org/2005/Atom">
<Document>
	<name>Elemento_98.kml</name>
	<Style id="normal00">
		<LineStyle>
			<color>7f00ff00</color>
		</LineStyle>
		<PolyStyle>
			<color>7f7fffaa</color>
		</PolyStyle>
	</Style>
	<Style id="highlight00">
		<LineStyle>
			<color>7f00ff00</color>
		</LineStyle>
		<PolyStyle>
			<color>7f7fffaa</color>
		</PolyStyle>
	</Style>
	<StyleMap id="styleMapID00">
		<Pair>
			<key>normal</key>
			<styleUrl>#normal00</styleUrl>
		</Pair>
		<Pair>
			<key>highlight</key>
			<styleUrl>#highlight00</styleUrl>
		</Pair>
	</StyleMap>
	<Placemark>
		<name>Elemento_98</name>
		<styleUrl>#styleMapID00</styleUrl>
		<ExtendedData>
			<SchemaData schemaUrl="#schemaID">
				<SimpleData name="MUNICIPIO">TIZAPÁN EL ALTO</SimpleData>
				<SimpleData name="REGION">CIÉNEGA</SimpleData>
				<SimpleData name="CLAVE">96</SimpleData>
				<SimpleData name="AREA_KMS2">187.332555532</SimpleData>
				<SimpleData name="GID">97</SimpleData>
			</SchemaData>
		</ExtendedData>
		<Polygon>
			<outerBoundaryIs>
				<LinearRing>
					<coordinates>
						-103.0518020822293,20.18626249241756,0 -103.0523305173407,20.18531090354252,0 -103.0528246389786,20.18481055735182,0 -103.05368519016,20.18484718409934,0 -103.0551483643475,20.18489047431216,0 -103.0562644961388,20.18514669597236,0 -103.0573499205768,20.18556515673392,0 -103.0586680564882,20.18573327063237,0 -103.0612516390087,20.1856895219609,0 -103.062688476969,20.18554277629899,0 -103.0650176943375,20.18518002945671,0 -103.0657096437014,20.18492570018221,0 -103.0659519212991,20.18389865485116,0 -103.0659085713045,20.18276007640688,0 -103.0661775332451,20.18189590971818,0 -103.0666708227001,20.18145873921505,0 -103.0670809175637,20.18078580603781,0 -103.0664018444437,20.17767113986504,0 -103.065527337899,20.17644212709021,0 -103.0663808753382,20.17471726203178,0 -103.067714183829,20.1736480074432,0 -103.0688115806546,20.17309100801397,0 -103.0696246953014,20.1723140996091,0 -103.0704621624372,20.17188972461032,0 -103.0712685987152,20.17165468930887,0 -103.0720420087701,20.17177155906933,0 -103.0729074956616,20.17140167437324,0 -103.0734386343746,20.17021519004961,0 -103.0745336606861,20.16984781016296,0 -103.0751108635095,20.16958314897339,0 -103.0761227918716,20.16897096891113,0 -103.0776685106431,20.16773233303228,0 -103.077890707812,20.16755410849173,0 -103.0792895602509,20.16580802479752,0 -103.0801670455963,20.16445367524105,0 -103.0806933524386,20.16365551299946,0 -103.0823840292532,20.16150611327178,0 -103.0831101677034,20.16079141326238,0 -103.0832553945964,20.16064847282967,0 -103.0844393880959,20.16003811198518,0 -103.085510256909,20.15929102208719,0 -103.0861147744067,20.15913500942975,0 -103.0869769693245,20.15902695902929,0 -103.0874382444505,20.15885131923041,0 -103.087728246636,20.15860155595317,0 -103.0882156814411,20.15863394949222,0 -103.0884154258117,20.15872644580746,0 -103.088470279883,20.15893479292077,0 -103.0885237040365,20.15926054914783,0 -103.0885200738895,20.15955858768519,0 -103.0892346307849,20.15979216404053,0 -103.0897808837093,20.15970776740622,0 -103.0900720932906,20.15935865384618,0 -103.0904206858791,20.15901016233622,0 -103.09094637942,20.15904296354444,0 -103.0913648915017,20.15923718903429,0 -103.0914099738765,20.1602493377722,0 -103.0920373637188,20.16057228463983,0 -103.0927503948534,20.16093228836002,0 -103.0938097351079,20.16191929626229,0 -103.0945966588869,20.16249687808126,0 -103.0947351882739,20.16290484899135,0 -103.0955020050968,20.16356350377576,0 -103.0956542675494,20.16362838055527,0 -103.0959109709846,20.16375761626177,0 -103.0968163002833,20.16403839157848,0 -103.0972572483852,20.16396186615173,0 -103.0977123595954,20.16350611935949,0 -103.0983755850926,20.16324230712076,0 -103.0988442386821,20.16324737123927,0 -103.099390063734,20.16319907143885,0 -103.099728097832,20.16293174107204,0 -103.1004483760983,20.16269563482642,0 -103.1011957060009,20.16259530808394,0 -103.1019697617342,20.16265785527126,0 -103.1030923932374,20.16237188093255,0 -103.1042153485965,20.16205880443742,0 -103.1051120286492,20.16147230213936,0 -103.1056904651574,20.16109915495976,0 -103.1062059547188,20.16118599778671,0 -103.1073546486182,20.16111706112493,0 -103.1082173937306,20.16096374845751,0 -103.1091052389622,20.1611087817816,0 -103.1098206024503,20.16127905643086,0 -103.110396091995,20.16114974557537,0 -103.1114887047636,20.16097178647267,0 -103.1120338695021,20.16097763602509,0 -103.1126352253322,20.16108344691228,0 -103.1131183351579,20.16147703637348,0 -103.1135725372084,20.16188838029792,0 -103.1138555597688,20.16221659360093,0 -103.1141989006242,20.16230156826497,0 -103.1144780181414,20.16295491844308,0 -103.1148190822437,20.16322955574887,0 -103.1152189447566,20.16338739628977,0 -103.1154158930952,20.1637146854562,0 -103.1161562838407,20.16419231786425,0 -103.1171613168294,20.16413984574812,0 -103.117564543622,20.16401770115136,0 -103.1178266858523,20.1636953253669,0 -103.1182275280414,20.16377187479766,0 -103.1190536846348,20.16427751115893,0 -103.1195072615637,20.1647430312864,0 -103.1200133585049,20.16561558696187,0 -103.120553997702,20.16600073995239,0 -103.1215569884019,20.16611984462491,0 -103.1223910598574,20.16596615724205,0 -103.1229942816875,20.16591839677608,0 -103.1236504623713,20.16624154379984,0 -103.1244208824598,20.16661107042885,0 -103.125854294372,20.16673473897037,0 -103.1272932081967,20.16639778101933,0 -103.1286457113435,20.16608699025543,0 -103.1295361976792,20.16601516389075,0 -103.1302235644077,20.1661308638572,0 -103.1314242000633,20.16652299797026,0 -103.1320548277803,20.16658389140865,0 -103.13257261435,20.16648099392803,0 -103.1330872834004,20.16664001406602,0 -103.1334034577082,20.16659820454073,0 -103.1339744424758,20.16684814802675,0 -103.1347765950344,20.16696504804358,0 -103.1357541353844,20.16681281757953,0 -103.1368487042163,20.16647213099158,0 -103.1378549347461,20.16632019229604,0 -103.1384702947888,20.16605571832539,0 -103.1392173096016,20.16598232455481,0 -103.1399101480467,20.16563736888292,0 -103.1406712210805,20.16518473691524,0 -103.1411192235156,20.16451200526746,0 -103.1417804695451,20.16441059526128,0 -103.142518553035,20.16428289522423,0 -103.1429336820938,20.16396209340363,0 -103.1436727246406,20.16375310249634,0 -103.1447946710573,20.16352104711338,0 -103.1454967321851,20.16320326364854,0 -103.1458345888508,20.16294487018144,0 -103.1461532085419,20.16269530621258,0 -103.1468007914837,20.16132009441048,0 -103.1476150848378,20.16040731194791,0 -103.1483678261986,20.1598461606278,0 -103.1489448877363,20.15958124391387,0 -103.1495799727963,20.1592627377905,0 -103.1505118851721,20.158107287811,0 -103.151204028041,20.15781647346085,0 -103.1520093450539,20.15766233830379,0 -103.1525270937382,20.15755937862962,0 -103.1529338965389,20.1571300678878,0 -103.1533655645387,20.15702620222142,0 -103.1541986130922,20.15695364390236,0 -103.1547498293997,20.15644454648846,0 -103.1552787180251,20.15539323704385,0 -103.1554008114639,20.15477124403261,0 -103.1552414508327,20.15416307747788,0 -103.1550077571442,20.15416040606444,0 -103.1547273332873,20.15415292677914,0 -103.1544056356994,20.15358360761472,0 -103.1541468175093,20.15343356231837,0 -103.1535922268631,20.15311204801891,0 -103.1522634043783,20.15266026338755,0 -103.1529214004257,20.15235832545205,0 -103.1529822768466,20.15218109586378,0 -103.1533355094049,20.15115271789889,0 -103.153774451614,20.15053582686233,0 -103.1570140613899,20.14966332207938,0 -103.156518337766,20.1480595711189,0 -103.1563631132411,20.14788596493385,0 -103.1565464727854,20.14797892415799,0 -103.1566333314921,20.14796493999328,0 -103.1566018412586,20.14770726169568,0 -103.1564658973974,20.1470898836286,0 -103.1563139617688,20.14670041270995,0 -103.1569938669336,20.14453754201571,0 -103.1564272440604,20.14368025382215,0 -103.1556186272406,20.14343251147526,0 -103.1549311162563,20.14321004849985,0 -103.1543512609418,20.14258268318861,0 -103.1540952612692,20.14222681666613,0 -103.1531043664585,20.14162179356264,0 -103.1528996037864,20.14131965601981,0 -103.1529564224868,20.1409887530155,0 -103.1528756512567,20.14071276083443,0 -103.1528764990537,20.14064122704445,0 -103.1531118148843,20.14083473233292,0 -103.1532842564569,20.14077900969239,0 -103.1534925595994,20.14044941283311,0 -103.1536451346395,20.1394785212784,0 -103.1536241122093,20.13928725960918,0 -103.1537817081852,20.13921638149277,0 -103.153785812426,20.1391815311572,0 -103.1539482684947,20.13837930183192,0 -103.1539300972857,20.13829781489108,0 -103.1538681430695,20.13787261718613,0 -103.1532093497004,20.13777538205724,0 -103.1525518317109,20.13756976261314,0 -103.1525273902826,20.13720818867532,0 -103.1531685316804,20.13636581503854,0 -103.1531893561531,20.13622150626031,0 -103.1537161709377,20.13615476483858,0 -103.1545274195846,20.13548579416041,0 -103.154957184871,20.13390952914906,0 -103.1550672539196,20.13349516597312,0 -103.1565056031495,20.13317600270116,0 -103.1577668406028,20.13327952476404,0 -103.1584155955607,20.13259980169439,0 -103.1587200846923,20.13191647843902,0 -103.1586274196642,20.13166258690272,0 -103.1580670205898,20.12888360819814,0 -103.1581550558938,20.12789993464058,0 -103.1582094290285,20.12734045872437,0 -103.1579626705189,20.12636231875592,0 -103.1583370461352,20.125426802226,0 -103.158576486515,20.12458020451258,0 -103.1594711281525,20.12331589938829,0 -103.1602718759667,20.12271904941511,0 -103.1612978285931,20.12167289530472,0 -103.1619722478056,20.12124634551337,0 -103.1616023987793,20.11881015246367,0 -103.163096587391,20.11843602647707,0 -103.1639784405705,20.11829326065163,0 -103.1648089499666,20.11776099465752,0 -103.1652711428801,20.11681446338327,0 -103.1662909418481,20.11597245339338,0 -103.1664232220071,20.11597657155399,0 -103.1669918229029,20.11599426933128,0 -103.1668734460963,20.11562342565352,0 -103.1662252377137,20.11502997452234,0 -103.166800085852,20.11379242657218,0 -103.1662363927169,20.11298071535207,0 -103.1652919987912,20.11254367792803,0 -103.1644943825125,20.11179187281802,0 -103.1634739167769,20.11207706440679,0 -103.1627975438138,20.11267160956453,0 -103.1619487511332,20.11218848362141,0 -103.1603088466181,20.11123084447819,0 -103.1605808961163,20.10825475543662,0 -103.1610649649556,20.10654845446433,0 -103.161111938507,20.10638287610653,0 -103.1608608635372,20.10396389046645,0 -103.1604783482043,20.10300570795015,0 -103.1606751903068,20.10133586797059,0 -103.161068275522,20.09904797303098,0 -103.1624564518937,20.09864746788361,0 -103.1630097113645,20.09825334834514,0 -103.1633237544653,20.09794266433515,0 -103.1636923380522,20.09727794799432,0 -103.1638171884267,20.09617081702168,0 -103.1629525179805,20.09494433414213,0 -103.1624443270356,20.09387832357944,0 -103.1607309421522,20.09215964534054,0 -103.157507693071,20.09118689324031,0 -103.1571857606033,20.09018755425297,0 -103.1569164426027,20.0893780129259,0 -103.1570617758283,20.08842872027358,0 -103.1571764500862,20.08770230373522,0 -103.1572257502955,20.08738999914859,0 -103.157653765575,20.087282822632,0 -103.1587196043384,20.08701592673754,0 -103.159653246827,20.08621997607671,0 -103.1599557093776,20.08554505670617,0 -103.1600066160901,20.08543146330126,0 -103.1600487405314,20.08533746487536,0 -103.160075434714,20.08510864951428,0 -103.1601292030059,20.08464776540595,0 -103.1604672467979,20.08415273145681,0 -103.1605462103779,20.08403709603876,0 -103.1606026962443,20.083946492609,0 -103.1603902247024,20.07926911726208,0 -103.1602617597583,20.07883489017236,0 -103.1602129862576,20.07873679461935,0 -103.1594988461554,20.07826950944335,0 -103.1581562768012,20.07724614084873,0 -103.1557855644162,20.07735672635249,0 -103.1554916501577,20.07737043450658,0 -103.1539741797072,20.07744119696311,0 -103.1536646995309,20.07743361568289,0 -103.1503540919397,20.07733297895396,0 -103.1483248527685,20.0777469800807,0 -103.1476828376033,20.07772851024411,0 -103.1458293356621,20.07767517082462,0 -103.1424403233247,20.07536203895136,0 -103.1423712210622,20.07523873939122,0 -103.1418597845557,20.07432617481203,0 -103.1411502991532,20.07368640207138,0 -103.1401985966165,20.07169816673768,0 -103.1397510106981,20.0691190622826,0 -103.1395651606825,20.06866545744463,0 -103.1381325828252,20.06692507130987,0 -103.1365419766229,20.0656165899839,0 -103.1352984440402,20.06487180150441,0 -103.1347316573275,20.06429674362096,0 -103.1340673666807,20.06388324731704,0 -103.1337346928198,20.06291320981203,0 -103.1325775418185,20.06214221787155,0 -103.1316436671331,20.06108452629989,0 -103.1303005447241,20.06068190440454,0 -103.1298080093626,20.06029730969675,0 -103.1295609931231,20.06016823440275,0 -103.1282402157314,20.05949484673643,0 -103.1279331739774,20.05959095640489,0 -103.127355821714,20.05991002406572,0 -103.1271182593927,20.05979007862093,0 -103.1271913846207,20.05926694474393,0 -103.126343278889,20.05904116499377,0 -103.1259176771801,20.05946119872056,0 -103.1257086840791,20.05935058737165,0 -103.1257412207874,20.0590257478395,0 -103.1252533245404,20.05905670428248,0 -103.124916427154,20.05925185384061,0 -103.1246116386422,20.05915829060168,0 -103.1244674071175,20.05922902313732,0 -103.1239414923409,20.059241506597,0 -103.1236463701524,20.05913901145166,0 -103.1230924259088,20.05909699741449,0 -103.1226379321881,20.05873085400055,0 -103.1225812335817,20.05787212671915,0 -103.1214362093087,20.0568934399863,0 -103.0987986195744,20.04510744554451,0 -103.0977878595355,20.04411199883904,0 -103.096931854779,20.04375954181326,0 -103.0954417111489,20.04368026889597,0 -103.0945306283425,20.04393240480448,0 -103.0935502445394,20.04438251004348,0 -103.0931752269443,20.04456815496126,0 -103.0921605355044,20.04469270168878,0 -103.0906613213168,20.04378227444412,0 -103.0893526600997,20.04371394258403,0 -103.0892852143753,20.04375837769226,0 -103.0879552537693,20.04387046074978,0 -103.0854566735036,20.04340082095451,0 -103.0770938859758,20.04165158536302,0 -103.0741620073699,20.04235683773013,0 -103.0728895098686,20.04246040046352,0 -103.0718500894533,20.04304522871046,0 -103.0709033626262,20.04386591167688,0 -103.0707207874457,20.04394521407334,0 -103.0693854145166,20.04449969905721,0 -103.0687762555223,20.04507113913854,0 -103.0677417192371,20.04603536680615,0 -103.0668179381454,20.04654013178528,0 -103.0662380971659,20.04705768626241,0 -103.0660544100046,20.04722729797386,0 -103.0659675107889,20.04729860881899,0 -103.0653425344774,20.04759888202358,0 -103.0650042708992,20.04790229103922,0 -103.0645113196095,20.04834852861578,0 -103.0641730528395,20.04865193575108,0 -103.0631309305073,20.05023027027319,0 -103.0631522889443,20.0508266599157,0 -103.0635181558334,20.05139069319329,0 -103.0647256307526,20.05191877852207,0 -103.0653710710511,20.05384980195885,0 -103.0652940572886,20.05389412234023,0 -103.0646818882941,20.0554862021116,0 -103.0645830846454,20.05808652665797,0 -103.0646837894806,20.05844893592964,0 -103.0648725410787,20.05942653023574,0 -103.0648434561532,20.060239151104,0 -103.0653375112753,20.06126525155965,0 -103.0652829653929,20.06181564659282,0 -103.0649692440379,20.0624535299862,0 -103.0638175978689,20.06204347730711,0 -103.063240901674,20.06229910393634,0 -103.0630517587657,20.06291125079585,0 -103.0630915650334,20.06356203792369,0 -103.062829392679,20.06389337161585,0 -103.0611880838997,20.0652121991142,0 -103.0601212380318,20.06567921787858,0 -103.0596538888534,20.06636959831925,0 -103.0595026258312,20.06700925372233,0 -103.0584973378822,20.06713369771283,0 -103.058048876557,20.06706554007812,0 -103.0574979442107,20.06677947165272,0 -103.0565047874225,20.06591948215164,0 -103.0560584456793,20.06567972332914,0 -103.0559155180704,20.06564202011421,0 -103.0554372746864,20.06566385464302,0 -103.0552545556076,20.06575216952938,0 -103.0550801695257,20.06593993470358,0 -103.0550299284204,20.06613809909183,0 -103.0550061344087,20.06651720689282,0 -103.0548771993494,20.06689515703103,0 -103.0547217052157,20.06710119494174,0 -103.0545105320497,20.06717113034657,0 -103.0539358099467,20.06726415878785,0 -103.0532467224364,20.0673288272135,0 -103.0527312446845,20.06726895024944,0 -103.0526650058668,20.06721402447271,0 -103.0526077677895,20.06720436090834,0 -103.0523977090377,20.06718397997226,0 -103.0517598715354,20.0669691970067,0 -103.0513137584701,20.06671136383357,0 -103.050745957368,20.06624443728565,0 -103.0504328812143,20.06605129812341,0 -103.0501466940135,20.06600297672956,0 -103.049477510043,20.06600462226096,0 -103.0493137924468,20.06610217310233,0 -103.0492078705697,20.06616423163209,0 -103.0486282342466,20.06665462238502,0 -103.0484820674471,20.06687882242963,0 -103.048422036074,20.06709494131627,0 -103.0484574752283,20.06732114745725,0 -103.0486256126849,20.06763914533187,0 -103.0487004027251,20.06777546026622,0 -103.0487275132003,20.06790221593191,0 -103.0487058265678,20.068109725856,0 -103.0485695518953,20.06830693736671,0 -103.0483860440883,20.06845846399178,0 -103.04818375461,20.06858268512497,0 -103.0478955516588,20.06869692401082,0 -103.0475129949597,20.06871076112473,0 -103.0472270280032,20.06864437199825,0 -103.0470447488695,20.06869655232249,0 -103.0466747089409,20.06924344801231,0 -103.0463667158487,20.06941166083071,0 -103.0462037761192,20.06944598894158,0 -103.046088628157,20.06948084555611,0 -103.0446616328569,20.06969086914615,0 -103.0439258626229,20.06966465767592,0 -103.0433439231258,20.06956788673885,0 -103.0430020639449,20.06938344835373,0 -103.0423960478323,20.06891607274807,0 -103.0421009736368,20.06881344427965,0 -103.041881356985,20.06879294482514,0 -103.0417099804887,20.06873684967702,0 -103.0415470408577,20.06877117346565,0 -103.0412800816192,20.06871401816101,0 -103.040832973736,20.06853744134593,0 -103.0404628941401,20.06831655519761,0 -103.0403026481764,20.06813412651081,0 -103.0402198785315,20.06787126429522,0 -103.0403813386869,20.06718658154155,0 -103.0403659253487,20.06688833634119,0 -103.0402710169061,20.06683308820128,0 -103.0399643698052,20.0668929140497,0 -103.0398488860339,20.06695486055847,0 -103.0394278772669,20.06698631882715,0 -103.039322961882,20.06696708932985,0 -103.0391618203119,20.06685691021568,0 -103.0390494803504,20.0666659797617,0 -103.0390102233908,20.06597907041225,0 -103.0389460115113,20.06576157650729,0 -103.0387107649472,20.06546089099366,0 -103.038473834595,20.0652956747167,0 -103.0379987397184,20.0650645855876,0 -103.0375220732378,20.06495993340903,0 -103.0370830776957,20.06490086123599,0 -103.0363977099342,20.06466743167781,0 -103.0363500322741,20.06465786923059,0 -103.0361111943081,20.06464618195553,0 -103.0358807898623,20.06472491347343,0 -103.0356970506474,20.0648944888654,0 -103.0355788675884,20.06517318338046,0 -103.0356427371219,20.06541777196514,0 -103.0358684193151,20.06571835480884,0 -103.035899341554,20.06630581333667,0 -103.0359367867727,20.06636945738422,0 -103.0359140716553,20.06665824593573,0 -103.0358058953987,20.06690092160848,0 -103.0356604984742,20.06706189051684,0 -103.0353529499112,20.06719395841234,0 -103.0347223362298,20.06716887894429,0 -103.0340270674083,20.06696242719407,0 -103.0334478494561,20.06664887445802,0 -103.0331907938054,20.06656472004673,0 -103.0328783046647,20.0663263951665,0 -103.0324580863885,20.06629461798231,0 -103.032296049485,20.06625668316883,0 -103.0317595567892,20.06635006445046,0 -103.0315602343092,20.06638475770307,0 -103.0316227328394,20.0664138676887,0 -103.0321009638262,20.06749599904382,0 -103.0324068223137,20.06872543486947,0 -103.0322859232219,20.06961003259034,0 -103.0318279545146,20.0702808902557,0 -103.031325144125,20.07078848071869,0 -103.0309862404022,20.07124325101459,0 -103.0307301049058,20.07177501693145,0 -103.0305536169789,20.07213279756516,0 -103.0305071800689,20.07271455031043,0 -103.0306051963667,20.07299829303241,0 -103.0307990662032,20.07328137835142,0 -103.0310033047865,20.07345152552683,0 -103.0315794509358,20.07368194611431,0 -103.0321455817095,20.07386689834149,0 -103.0325852557627,20.0740578215378,0 -103.0329985374281,20.07437820002288,0 -103.0334168233086,20.07470801996645,0 -103.0336827635639,20.07517487956347,0 -103.0337787774096,20.07567637353589,0 -103.0337187381211,20.07617223602263,0 -103.0335308546717,20.07664218673933,0 -103.0331850264669,20.07685879088746,0 -103.0327035476863,20.07695580199065,0 -103.0322367719801,20.07694910527108,0 -103.0318455437079,20.07696370985075,0 -103.0314360292625,20.07719875573627,0 -103.0310199634631,20.07750494521901,0 -103.0307097876899,20.0777480826189,0 -103.0306160300935,20.07812360198065,0 -103.0307288280099,20.07854944720453,0 -103.0312077856111,20.07888939827747,0 -103.031648407104,20.07901361567432,0 -103.0317711497571,20.07930068030827,0 -103.0320151059037,20.07967395994821,0 -103.0324370074732,20.08013306934756,0 -103.0327441757936,20.08042557483833,0 -103.0329520273839,20.08050182443506,0 -103.0332285860133,20.08049994202315,0 -103.0335993235781,20.08075853629894,0 -103.0340759713799,20.08095615017912,0 -103.0346371540729,20.08107953800713,0 -103.0354480384226,20.08139819476646,0 -103.0355841550406,20.08157804108201,0 -103.0355770245324,20.08186046643503,0 -103.0354028798638,20.08237361883925,0 -103.0353446556164,20.0827178838986,0 -103.0353605260845,20.08293872218733,0 -103.0355687860995,20.08327876463513,0 -103.035662868064,20.08352585097223,0 -103.0356942523029,20.08392066289727,0 -103.0358870015469,20.08408673145776,0 -103.0362923085318,20.08425770713364,0 -103.0366909157229,20.08444915094626,0 -103.0372278486781,20.08510832400741,0 -103.0378576955566,20.08586059617936,0 -103.0383304063598,20.08646664226449,0 -103.0386382057544,20.0868378680596,0 -103.0388451966982,20.08701053141285,0 -103.0390405199913,20.08751134760091,0 -103.0391217622346,20.0879326005794,0 -103.0392814250178,20.08840688030578,0 -103.0393602552107,20.08851346729291,0 -103.0394813267927,20.08857959164815,0 -103.0396092862925,20.08861888724767,0 -103.0397728326181,20.0886495373336,0 -103.0399787209936,20.08870339779542,0 -103.0401714373619,20.08886363419743,0 -103.0402390204536,20.08908262417115,0 -103.0403220931807,20.08919840513745,0 -103.0403665110813,20.08933097470423,0 -103.0404598859878,20.08948432884149,0 -103.0405576922179,20.08955876883622,0 -103.04064065565,20.08966162019409,0 -103.0408444854329,20.08969594483887,0 -103.0410382435185,20.08978165642406,0 -103.0412309558957,20.08994102468404,0 -103.0413962271462,20.09022109706875,0 -103.0415700155419,20.09044082809567,0 -103.0417109336636,20.09064065775418,0 -103.0417343189503,20.09082052469647,0 -103.0416618229056,20.09093180952005,0 -103.041427304899,20.09096111447707,0 -103.0411782814916,20.09101128856987,0 -103.0409201595222,20.09102781081267,0 -103.0407008275505,20.09109626867843,0 -103.0406172612706,20.09129676362572,0 -103.0406613541775,20.09149732375022,0 -103.0406698354727,20.09167804145589,0 -103.0406790867914,20.09195918504878,0 -103.0406096598905,20.09215382759514,0 -103.0405209265168,20.09233829556306,0 -103.0401892870605,20.0928262506574,0 -103.0399308440542,20.09334356801137,0 -103.0400058055567,20.09386978023574,0 -103.0400988451754,20.09410039879875,0 -103.0400867479549,20.09430732879444,0 -103.0400118191579,20.09465310346593,0 -103.0395699447324,20.09562350136126,0 -103.0393432408988,20.09625520997152,0 -103.0391061156347,20.09677907775359,0 -103.0387259134517,20.09714323323965,0 -103.0380157427522,20.09751467790126,0 -103.0377020735926,20.09774036881481,0 -103.0374167558784,20.09809048210299,0 -103.037032726622,20.0983207506444,0 -103.0366803654717,20.09855401360991,0 -103.0363815255562,20.09887925157755,0 -103.0360935573817,20.09942434550665,0 -103.0356151501408,20.10056576500123,0 -103.0354283420738,20.10147561690257,0 -103.0352093166063,20.10251490834535,0 -103.0350355936249,20.10298564385534,0 -103.0348402269466,20.10340879054592,0 -103.034623940108,20.10387894828664,0 -103.0342394247944,20.10461137528899,0 -103.0339967555346,20.10534283691069,0 -103.0338928369848,20.10571429768725,0 -103.0338310458032,20.10593517404648,0 -103.0338501860399,20.10658450640966,0 -103.0339182612182,20.10713976981988,0 -103.0338610914511,20.10801448811575,0 -103.0337505856932,20.10869742367411,0 -103.0335297377193,20.10929976740724,0 -103.0331408799,20.1102520385373,0 -103.0329005585284,20.11077039029433,0 -103.0327278807157,20.11109711707686,0 -103.0326825512136,20.11137962699492,0 -103.0329137705084,20.11182977045491,0 -103.0334685806171,20.11202682969647,0 -103.0340922267577,20.11229047268404,0 -103.034427989486,20.11258664171771,0 -103.034710291017,20.11332792237671,0 -103.0347136145599,20.1137631103167,0 -103.0344943650212,20.11425989904896,0 -103.034482883753,20.11491829338017,0 -103.0343706523243,20.11642135981497,0 -103.0347142798633,20.11696583732791,0 -103.0352113974144,20.11737962148089,0 -103.0356759585544,20.11759443800929,0 -103.0360832249321,20.11772034513086,0 -103.0366092163785,20.11769310274935,0 -103.0369737587289,20.11749855779292,0 -103.0372106531286,20.11723638809605,0 -103.0374568341726,20.11710930841483,0 -103.0374575464019,20.11710894059839,0 -103.0374626448692,20.11710819617985,0 -103.0382299046218,20.11699616738272,0 -103.0388512545001,20.1168155080905,0 -103.0394388027851,20.11653516904986,0 -103.0408063970014,20.11552424418726,0 -103.0414050677943,20.11528815531345,0 -103.041930638702,20.1152939931499,0 -103.0423377692987,20.11543091836911,0 -103.0426766583579,20.11554723163401,0 -103.0429016583351,20.11576481629398,0 -103.0429454143713,20.11631496959349,0 -103.0428385764195,20.11676785637387,0 -103.0424525722628,20.11728933986147,0 -103.0420441288569,20.11778477532303,0 -103.0419644832702,20.11788138402748,0 -103.041628771391,20.11842732118651,0 -103.0416249943581,20.1187306568727,0 -103.0417565253362,20.11901309057573,0 -103.0418590365343,20.11946198806183,0 -103.0420938622276,20.11992552823881,0 -103.0422698566704,20.12040002066043,0 -103.042352255521,20.12078285297402,0 -103.0423939754539,20.12107304679291,0 -103.0426423540546,20.12147277636558,0 -103.0434192826447,20.12181136203868,0 -103.0440247636518,20.12252706497415,0 -103.0436963600988,20.12357569564519,0 -103.0429452245403,20.12376989985144,0 -103.0416363408305,20.1241360259198,0 -103.0407017780215,20.12430840115954,0 -103.0399481229633,20.1243147236876,0 -103.038819483273,20.12432931973561,0 -103.038078872959,20.12450714343573,0 -103.0369658324995,20.12468925259465,0 -103.0362185738654,20.12469862030206,0 -103.0354725771925,20.1247079698321,0 -103.0345418495263,20.12471962847673,0 -103.0334390413259,20.12490060665386,0 -103.0327096194769,20.12507653029607,0 -103.0325592394487,20.12577631355212,0 -103.0325816140707,20.12670420863078,0 -103.0331499422512,20.12766404339648,0 -103.033525037472,20.12825896489502,0 -103.0335314460164,20.1290521466963,0 -103.0335378926983,20.12984978079785,0 -103.0341086569809,20.13086064499274,0 -103.0344912516072,20.13147206253779,0 -103.0345042071431,20.13248304602292,0 -103.0341361193031,20.1332889703154,0 -103.03373643688,20.13547614262227,0 -103.0326092808064,20.13573847523891,0 -103.0318345842559,20.1357697904538,0 -103.0306664051602,20.13580715765808,0 -103.0298803032634,20.13581984091688,0 -103.028898947347,20.13583573133797,0 -103.0275273416038,20.13585794256886,0 -103.0259630550389,20.13588325975154,0 -103.0247921157823,20.13590220187403,0 -103.0240125702014,20.13591480312127,0 -103.022844864407,20.1359336632564,0 -103.0222788919392,20.13614176432053,0 -103.0215017258303,20.13615420069893,0 -103.0203375886946,20.13617282152889,0 -103.0195782869278,20.13638374642135,0 -103.0188037091322,20.13639601916229,0 -103.0178663052285,20.13680855399546,0 -103.0167064103921,20.13682658959073,0 -103.0159342115868,20.13683859397768,0 -103.0147650169136,20.13680048586014,0 -103.0137927121156,20.13675840919256,0 -103.0130179208789,20.13672487759972,0 -103.0118607829904,20.13667479108466,0 -103.0112844736313,20.13664984287949,0 -103.0105474329593,20.13697581087806,0 -103.0096106088069,20.13718314959147,0 -103.0090536937291,20.13749198850472,0 -103.0081036774488,20.13770304809773,0 -103.0065643282216,20.13779002281457,0 -103.0059867142517,20.13781401816715,0 -103.0055935459684,20.13761192843727,0 -103.004424157665,20.13725727799035,0 -103.0038096964202,20.1366137758953,0 -103.0032081601669,20.13607844057571,0 -103.0026073407847,20.13554374112212,0 -103.0019893216335,20.13440322497263,0 -103.0015855443023,20.13384104195003,0 -103.0013653563346,20.13285386840101,0 -103.0007589225162,20.13216197631065,0 -103.0005311964299,20.13101718374768,0 -103.0003039262905,20.13010490197382,0 -103.000251958298,20.12882116325775,0 -103.0000274431353,20.12812206838323,0 -102.999990644559,20.1272080530811,0 -102.9997557579544,20.12634118799928,0 -102.9991596329494,20.12562996226575,0 -102.9985689802522,20.12490584000661,0 -102.9974395176292,20.12453499600467,0 -102.9968813921311,20.12453744378183,0 -102.9955827521921,20.12454315179267,0 -102.9952126522245,20.12454477762088,0 -102.9946582839953,20.12454721081181,0 -102.9937518833872,20.1245192920621,0 -102.9928557316545,20.12448094531031,0 -102.9919949962032,20.12438878027526,0 -102.9912691279088,20.1243905042822,0 -102.9907240642548,20.12476900742925,0 -102.9898181997177,20.12495926656911,0 -102.9885491094381,20.12552730361218,0 -102.9876451731637,20.12571807885289,0 -102.9867381709648,20.12573049860221,0 -102.985287372898,20.12575470029025,0 -102.984743162341,20.12576532506793,0 -102.9836441983175,20.12580109960992,0 -102.9829129452819,20.12564207337942,0 -102.981633287098,20.12568380752216,0 -102.9809059376967,20.12534259612184,0 -102.9799959568845,20.12519021730276,0 -102.979084993071,20.12522011250583,0 -102.9781774149675,20.12506798662205,0 -102.9772712143551,20.12491608794783,0 -102.976184884184,20.1247704058561,0 -102.9756479648441,20.12442569354662,0 -102.9745649603232,20.12428068484467,0 -102.9733029043059,20.12414196096309,0 -102.9725799413715,20.12416604967043,0 -102.972038496784,20.12418372971944,0 -102.9709605236368,20.12421605020412,0 -102.9700750635345,20.12441087409482,0 -102.9693586821352,20.12460797899277,0 -102.9682836398424,20.12516844679537,0 -102.9675729489868,20.12571415459701,0 -102.9670407375005,20.12590254900071,0 -102.966323866729,20.12610014029779,0 -102.9642006547573,20.12590827353531,0 -102.9642421427707,20.12655524422873,0 -102.9639389113932,20.12738309539895,0 -102.9639673960263,20.12787204271683,0 -102.9636561689703,20.12853716004404,0 -102.9633725820548,20.12935375861959,0 -102.9630902389806,20.13017326066891,0 -102.9631721454129,20.13080644041417,0 -102.9630764001982,20.13162453202648,0 -102.9627876361084,20.13246265679835,0 -102.9628540545734,20.13312083547314,0 -102.9627668886295,20.13412629187565,0 -102.962815170672,20.13462841141115,0 -102.9628799153919,20.13530182339777,0 -102.9623892671785,20.13600362705754,0 -102.9620904499939,20.13687204683427,0 -102.9621432873957,20.13755771656816,0 -102.9620115578393,20.13825417467934,0 -102.9615089600449,20.13896899705076,0 -102.961004371987,20.13968664367755,0 -102.9606835514578,20.140399554829,0 -102.959775501964,20.14078497042806,0 -102.9590107109442,20.14046627796981,0 -102.9580705977173,20.14032767710427,0 -102.9571333042705,20.14018948564308,0 -102.9562102816542,20.14022740887464,0 -102.9556305722492,20.13973311324051,0 -102.9552161265177,20.13888480349423,0 -102.9548219272619,20.1383843881787,0 -102.9542368432669,20.13772178835961,0 -102.9538535189212,20.13739528983613,0 -102.9527549791654,20.13744244789866,0 -102.9520221699377,20.13747410699092,0 -102.9509045447906,20.13700749306409,0 -102.9507147383953,20.13684483009336,0 -102.9503185597546,20.13617970029193,0 -102.9502763756928,20.13532876258893,0 -102.9498920382266,20.13483646922797,0 -102.9496870536239,20.13417109333194,0 -102.9489495749237,20.1338668492903,0 -102.9482056934101,20.13323052078872,0 -102.9476283367279,20.13257773552364,0 -102.9470542477314,20.13192716804175,0 -102.9464871155858,20.13128197610692,0 -102.9459341120561,20.13097229203491,0 -102.9453695047833,20.13032956591029,0 -102.9448062960472,20.12968842438466,0 -102.9440712458625,20.12922318476936,0 -102.9435268181072,20.12891973977702,0 -102.9426331053484,20.12847736947619,0 -102.9417381079016,20.12819389968096,0 -102.9411958613138,20.12789080083487,0 -102.9401152939015,20.12744783382382,0 -102.9395749471055,20.12698474803704,0 -102.9390431647249,20.12684894141606,0 -102.9374575173115,20.12692837301287,0 -102.936928952453,20.12695433288145,0 -102.9364031745324,20.12698164165162,0 -102.9358799023981,20.12717144740191,0 -102.9348321210356,20.12738829010385,0 -102.9343079742819,20.12741535093152,0 -102.9336098848541,20.12745139193832,0 -102.9327394276468,20.12765872121294,0 -102.9316984058397,20.12771374262442,0 -102.9310073535535,20.12791308277575,0 -102.9299712111487,20.12796824127716,0 -102.928937453617,20.12802326972176,0 -102.9282521502417,20.12822277305343,0 -102.9275675961033,20.12842205588431,0 -102.9270614433061,20.12910081126139,0 -102.9265468090638,20.12961522745214,0 -102.9256754572194,20.12998146210412,0 -102.9249798765606,20.13034009938647,0 -102.9250009020951,20.13116045524953,0 -102.9250178664282,20.13181754842652,0 -102.9248937955721,20.13297952739824,0 -102.9249330829549,20.1338044111864,0 -102.9249582782965,20.13446390798918,0 -102.9249646411406,20.13545261918848,0 -102.9254855798542,20.13592508966037,0 -102.9260074687492,20.13639873978469,0 -102.9265306930986,20.13687359807022,0 -102.9274030479652,20.13733474470066,0 -102.9282963512457,20.13796319640212,0 -102.928824834117,20.13844196886131,0 -102.9298838684082,20.13889983453262,0 -102.9305926541744,20.13937383108024,0 -102.9313022909264,20.13968080525055,0 -102.932015720912,20.14032582031683,0 -102.9332761637772,20.14111867700019,0 -102.9336365518382,20.14127308220162,0 -102.9341887607456,20.14175726931117,0 -102.934747870938,20.14241087215952,0 -102.9354763597284,20.14323371456332,0 -102.9365655042641,20.14404614948035,0 -102.9376578194668,20.14486292098417,0 -102.9383887669601,20.14552581543779,0 -102.9391224668766,20.14619119978838,0 -102.9400413028322,20.14685144838095,0 -102.9404116748372,20.14736288315976,0 -102.9413344951635,20.14802919536189,0 -102.9420704201147,20.14853363524122,0 -102.9428223954909,20.14938717954354,0 -102.9432147845634,20.15006943007577,0 -102.9437976552131,20.15092115218959,0 -102.9441987889253,20.15178029764588,0 -102.9447841138232,20.15263590987231,0 -102.9451726956162,20.15314920378442,0 -102.9457530003595,20.15383308121869,0 -102.9463307767475,20.15452805658185,0 -102.9467256432925,20.15542765277968,0 -102.9472966989592,20.15596215982176,0 -102.9475046790853,20.15669041208329,0 -102.9480856019164,20.15741375244605,0 -102.948482743818,20.15814448285415,0 -102.9490689407645,20.15887430189146,0 -102.9496657312739,20.15978854020216,0 -102.950064960749,20.16032420779149,0 -102.9504766778804,20.16101023507584,0 -102.9508883517839,20.1616961854045,0 -102.9514886258095,20.16237444630678,0 -102.9519002102829,20.16306024943328,0 -102.9523117521576,20.16374597507161,0 -102.952911892553,20.16442405002901,0 -102.9531432455971,20.16529234679917,0 -102.9535641071243,20.16626902549794,0 -102.9536170883374,20.16749426058852,0 -102.9536527246092,20.16831843993909,0 -102.9538803650812,20.16913966003711,0 -102.9543116840063,20.17016779260603,0 -102.9545522370497,20.17118006807062,0 -102.955334526816,20.17133278438498,0 -102.9571814497658,20.17210993085757,0 -102.9576593011128,20.17214257644609,0 -102.9580314774098,20.17221012238277,0 -102.9584126303469,20.17232293230386,0 -102.9586400527749,20.17248814995282,0 -102.9587524710875,20.17267009690676,0 -102.9589125927901,20.17286162951289,0 -102.9590645611776,20.1729446820309,0 -102.959170001831,20.17292784130481,0 -102.9592387137426,20.17279315687345,0 -102.9593538359392,20.17276739624711,0 -102.9597169206266,20.17279870482438,0 -102.9598702993332,20.17277338763282,0 -102.9600910968783,20.17271272377323,0 -102.9604166299226,20.17268940266028,0 -102.9608086421496,20.17270298018772,0 -102.9611618108805,20.17276126718886,0 -102.9614187514252,20.17286359880545,0 -102.961579933334,20.17297385240719,0 -102.9618183331061,20.17303080797523,0 -102.961990722843,20.17301474135448,0 -102.9621834144722,20.17290858852107,0 -102.9623374971883,20.17282908454584,0 -102.9625673889743,20.17280465137917,0 -102.9629405084464,20.17279994106715,0 -102.963342085874,20.17281362375723,0 -102.9638197077311,20.17286431444211,0 -102.9651465495465,20.1730783772103,0 -102.9657193465875,20.17316629249671,0 -102.965938971718,20.17319592902155,0 -102.9663503495237,20.17319165397795,0 -102.9667420135048,20.17323231079912,0 -102.9671424224627,20.17333629287028,0 -102.9677516064299,20.17356913664237,0 -102.9679515191224,20.17364370369672,0 -102.9681717306924,20.17362818352576,0 -102.9684120067529,20.17354063762207,0 -102.9686039934442,20.17348866225014,0 -102.9692738408641,20.1734693012207,0 -102.970181976078,20.17351591297954,0 -102.9705930049344,20.17353872050759,0 -102.9709665949823,20.17349787002529,0 -102.9713016942442,20.17347463909212,0 -102.9715306521356,20.17352244071355,0 -102.9717303333584,20.17361506525875,0 -102.9719010884252,20.17372542037456,0 -102.9720152756662,20.17377189790672,0 -102.972830924248,20.17357356105967,0 -102.9735209519746,20.17347312683789,0 -102.9740672818163,20.17338909901991,0 -102.9745461948263,20.17334042181079,0 -102.9753499427503,20.1733225794539,0 -102.9762403520125,20.17326056965489,0 -102.976823772345,20.17326728175748,0 -102.9776551652307,20.17333103653279,0 -102.9781331463504,20.17335459628404,0 -102.9785727541735,20.17338674591363,0 -102.9793770854978,20.17332373080982,0 -102.980028155242,20.1732770162588,0 -102.9811772656035,20.17318182338298,0 -102.982739847188,20.17291975353482,0 -102.9833443715396,20.17277313825016,0 -102.9843715802599,20.17248684965152,0 -102.9850629925256,20.17227799832042,0 -102.9855515818292,20.17222036920303,0 -102.9863268667089,20.17218408562619,0 -102.9865944341135,20.17220521313187,0 -102.9868426412302,20.17224418311152,0 -102.9870714881202,20.17230099565292,0 -102.9873867614004,20.17233170016324,0 -102.9876830221863,20.17235315436195,0 -102.9880758528241,20.17230345481884,0 -102.9883917057039,20.17228900297365,0 -102.9887081377123,20.17222939597563,0 -102.98917840853,20.17210832148498,0 -102.9896864727277,20.17202380661506,0 -102.9900711270056,20.17186562208896,0 -102.9904749090825,20.17170765519044,0 -102.9908116249832,20.17155795348796,0 -102.9909945026123,20.17146971983835,0 -102.9911659649287,20.17152587163997,0 -102.9912219622877,20.17163489817943,0 -102.9912204584684,20.17175230027726,0 -102.9913247399739,20.17182574920497,0 -102.991449075456,20.17182716905926,0 -102.9915941586912,20.17170237418727,0 -102.9918169121689,20.17148814340984,0 -102.9919615322652,20.17139947191831,0 -102.9921712519426,20.17145605950417,0 -102.9923710607054,20.17153963049966,0 -102.9925411364917,20.17170415226231,0 -102.9928539833007,20.17192449668319,0 -102.9930246379024,20.17204386334919,0 -102.9930997653572,20.17215310767343,0 -102.993069685562,20.17226115157082,0 -102.9929354385586,20.17228671651371,0 -102.9926206257365,20.17221989811982,0 -102.9924384416181,20.17225394783709,0 -102.9923321937573,20.17233402542034,0 -102.9923775873363,20.17252422092977,0 -102.9924718431589,20.1726336838368,0 -102.9927004621452,20.17270855114421,0 -102.992804282645,20.17281812305243,0 -102.9929257293287,20.17304531539826,0 -102.9931996283292,20.17331940850664,0 -102.9935131725309,20.17348556642127,0 -102.9937795887265,20.17359699268468,0 -102.9940941739004,20.17368187115889,0 -102.9944091059875,20.17373965625961,0 -102.9946858962205,20.17378797367009,0 -102.9948956203056,20.17384455834587,0 -102.9950971657728,20.17379266235653,0 -102.995347110433,20.17369615644497,0 -102.9956638901854,20.17360944409062,0 -102.9957597650637,20.17359247211997,0 -102.9959896569583,20.17356799488903,0 -102.9963627840426,20.17356321369361,0 -102.9966782939994,20.17357583998614,0 -102.9970502676725,20.17366136693842,0 -102.9974698332618,20.17376549956408,0 -102.9978136912402,20.17380554344944,0 -102.9980809187165,20.17385374673088,0 -102.9983964296876,20.17386637000005,0 -102.9987961765885,20.1740244676991,0 -102.9991097290137,20.17419061624002,0 -102.9992516978653,20.17430965100422,0 -102.999323834882,20.17465369838909,0 -102.9992622995091,20.17497816055577,0 -102.9992694440586,20.17516791977072,0 -102.9993540267041,20.17528630166195,0 -102.9995541904282,20.17534277227754,0 -102.9997268128277,20.17530860658499,0 -102.9999955412329,20.17523940453446,0 -103.0002313972222,20.17099691094866,0 -103.0013614656066,20.17014265449621,0 -103.0021422487187,20.16892313124495,0 -103.0022433941904,20.1677410484472,0 -103.0025823726718,20.16666102105889,0 -103.0032204953471,20.16612632635242,0 -103.0050217423158,20.16589385565957,0 -103.0065546203774,20.16570348719209,0 -103.0073470546674,20.16582085190054,0 -103.0081484811377,20.16598347656528,0 -103.008778903501,20.1660538390511,0 -103.0096137233183,20.16584650945043,0 -103.0105895962592,20.16583044983368,0 -103.0111986552997,20.16532249224608,0 -103.0122083669606,20.16490035030815,0 -103.0127517972518,20.16504197429626,0 -103.0131206748983,20.16537130491847,0 -103.0133740996224,20.16575352536113,0 -103.0138909001482,20.16573226306057,0 -103.0143516882165,20.16560197882273,0 -103.0150133200053,20.16547395938585,0 -103.0159038020024,20.16540271244792,0 -103.0168789898482,20.16544080410372,0 -103.0178019293682,20.16507184511407,0 -103.0186913826209,20.16508186355301,0 -103.0200931905315,20.16542280946668,0 -103.0214430883313,20.16532960640883,0 -103.0223352773561,20.16512285995893,0 -103.0224838606463,20.16471807250276,0 -103.0228022048251,20.16450487280441,0 -103.0231171342344,20.16456260586954,0 -103.0235140440978,20.1649464255039,0 -103.0240817440445,20.16544055125926,0 -103.0244462130971,20.16612207383688,0 -103.0251273255864,20.16672585893924,0 -103.0256110054188,20.16705645410743,0 -103.0260144056012,20.16692549481574,0 -103.0264393394555,20.16736381755692,0 -103.0266607000989,20.16801663376165,0 -103.0270818899399,20.16875298262032,0 -103.0271328007814,20.16926840066956,0 -103.0282938857185,20.17050079360914,0 -103.0287465068887,20.17102071381149,0 -103.0291191794828,20.17105198704395,0 -103.029577251502,20.17113841063312,0 -103.0298037350067,20.17138482272178,0 -103.0297071027307,20.17222375477644,0 -103.0299271208445,20.17298494194472,0 -103.0307179552471,20.17399639630456,0 -103.0316208549642,20.1752258800536,0 -103.0316434268733,20.17571388325398,0 -103.0318402052507,20.17604125260585,0 -103.0317760143732,20.17658247928317,0 -103.0315990859376,20.17695986052567,0 -103.0315676701646,20.17717628687332,0 -103.0312995534232,20.17795910561632,0 -103.0314065069646,20.17858353955698,0 -103.031570170433,20.17926280277739,0 -103.0317946268227,20.17967177394666,0 -103.0329332454947,20.18041614103676,0 -103.0333561937545,20.18101701183327,0 -103.0336916996013,20.18172529298418,0 -103.0339735555769,20.18213490384177,0 -103.0345163906535,20.18233065386187,0 -103.0348354379107,20.18206324743187,0 -103.0352091578714,20.18201322954766,0 -103.0354950934872,20.18209771645995,0 -103.0357755968692,20.18261569882793,0 -103.0362337073935,20.18270210807951,0 -103.0364936646884,20.18256952496641,0 -103.0364703997941,20.18213570841934,0 -103.0367279803709,20.18219277942284,0 -103.0368376720493,20.18260046373801,0 -103.0371181808164,20.18311844437827,0 -103.0384239398432,20.18427110496,0 -103.0390053891961,20.18444017550715,0 -103.039167321567,20.18449617633224,0 -103.0404866585687,20.18456508124847,0 -103.0413201969975,20.18446598048627,0 -103.0420369198533,20.18452815889707,0 -103.0424373103525,20.18464100710431,0 -103.0435091562533,20.18614329435935,0 -103.0447120362237,20.18634635941432,0 -103.0473343258586,20.18626711725412,0 -103.0503628759807,20.1865988036761,0 -103.0518020822293,20.18626249241756,0 
					</coordinates>
				</LinearRing>
			</outerBoundaryIs>
		</Polygon>
	</Placemark>
</Document>
</kml>
