<?xml version="1.0" encoding="UTF-8"?>
<kml xmlns="http://www.opengis.net/kml/2.2" xmlns:gx="http://www.google.com/kml/ext/2.2" xmlns:kml="http://www.opengis.net/kml/2.2" xmlns:atom="http://www.w3.org/2005/Atom">
<Document>
	<name>Elemento_100.kml</name>
	<Style id="highlight0043">
		<LineStyle>
			<color>7fff00aa</color>
		</LineStyle>
		<PolyStyle>
			<color>7fff55aa</color>
		</PolyStyle>
	</Style>
	<Style id="normal0091">
		<LineStyle>
			<color>7fff00aa</color>
		</LineStyle>
		<PolyStyle>
			<color>7fff55aa</color>
		</PolyStyle>
	</Style>
	<StyleMap id="styleMapID0053">
		<Pair>
			<key>normal</key>
			<styleUrl>#normal0091</styleUrl>
		</Pair>
		<Pair>
			<key>highlight</key>
			<styleUrl>#highlight0043</styleUrl>
		</Pair>
	</StyleMap>
	<Placemark>
		<name>Elemento_100</name>
		<styleUrl>#styleMapID0053</styleUrl>
		<ExtendedData>
			<SchemaData schemaUrl="#schemaID">
				<SimpleData name="MUNICIPIO">TOLIMÁN</SimpleData>
				<SimpleData name="REGION">SUR</SimpleData>
				<SimpleData name="CLAVE">99</SimpleData>
				<SimpleData name="AREA_KMS2">600.758678669</SimpleData>
				<SimpleData name="GID">99</SimpleData>
			</SchemaData>
		</ExtendedData>
		<Polygon>
			<outerBoundaryIs>
				<LinearRing>
					<coordinates>
						-103.9144551750667,19.65827097108084,0 -103.9145879721826,19.65838020222499,0 -103.9147604395115,19.65826377849528,0 -103.9149146214052,19.65802977917788,0 -103.9150198996103,19.65797619999647,0 -103.915258035821,19.65802281600471,0 -103.9156005999838,19.65814234787494,0 -103.9157623750149,19.65819753834349,0 -103.9160778447628,19.65809101154395,0 -103.9163643371719,19.65803852414712,0 -103.9167937114859,19.65801400464372,0 -103.917089377294,19.65801578601417,0 -103.9174801160819,19.65806331833812,0 -103.9178615599538,19.65807465075255,0 -103.9179467318571,19.6581745570226,0 -103.9181376054323,19.65815763430566,0 -103.9183098278091,19.65807734869526,0 -103.9184934653032,19.65771702239332,0 -103.9186577240017,19.65740175819577,0 -103.9190413458713,19.65708781298084,0 -103.9193179956046,19.6570804404865,0 -103.9194990276979,19.65710863601755,0 -103.9197182101181,19.65713706062844,0 -103.9198128598292,19.65724605878988,0 -103.9200408543041,19.65738296538157,0 -103.920231122124,19.6574563946019,0 -103.9203452103451,19.65751129454747,0 -103.9205170682956,19.65748521926661,0 -103.9206320633783,19.65740458769278,0 -103.9206624290782,19.65714273221668,0 -103.9208632619039,19.65706261582804,0 -103.9208915724268,19.65710796470458,0 -103.9209570663602,19.65729810935927,0 -103.9209751746441,19.65744279063957,0 -103.9210313729041,19.65759673632691,0 -103.9211167883033,19.65766049948452,0 -103.9213178632318,19.65754424091314,0 -103.9215765861681,19.6573650774266,0 -103.9218161126291,19.65720386998608,0 -103.9220167639165,19.65715085856742,0 -103.9221020587715,19.65723269212215,0 -103.9219947305335,19.65759348010849,0 -103.9219934023181,19.65779225949657,0 -103.9220499638972,19.65789199235133,0 -103.9221449174944,19.65795581223685,0 -103.9223548658428,19.65793899938118,0 -103.9224792169786,19.65788553006093,0 -103.9226063436291,19.65741643093384,0 -103.9225783945977,19.65731686973064,0 -103.9226745547724,19.65719998075162,0 -103.9229234365694,19.65706593521571,0 -103.9234382242085,19.65710516195798,0 -103.92362975932,19.65698884356508,0 -103.9239372514336,19.65664732422563,0 -103.9241849264545,19.6566939855305,0 -103.9244498095179,19.65702085910567,0 -103.9246787112465,19.65702222845953,0 -103.9248221361132,19.65696887154261,0 -103.9249381523036,19.65673463467227,0 -103.9250443296068,19.65654551786093,0 -103.9251596830363,19.65641067061928,0 -103.9254954224054,19.65612353208415,0 -103.9255814406055,19.65609693878733,0 -103.9256385454013,19.65611535165587,0 -103.9257141838168,19.65621519744769,0 -103.9256461576715,19.65640454270207,0 -103.9257114164118,19.65663082764537,0 -103.9258156677751,19.65673084438435,0 -103.9261407867226,19.65660628556397,0 -103.9263428791082,19.65633641862956,0 -103.9264674081584,19.65625584009581,0 -103.9266488016104,19.65622981579159,0 -103.9271155999699,19.65631392441295,0 -103.9272782187071,19.65624260841362,0 -103.9274214619223,19.65621635567786,0 -103.9274986630921,19.65608127921266,0 -103.9273191320574,19.65582720561578,0 -103.9272733067151,19.65554682229667,0 -103.927331072282,19.65546584473596,0 -103.9274551797591,19.65544851357194,0 -103.9278266014653,19.65553205125284,0 -103.9279402109295,19.65565923001842,0 -103.9278904821626,19.65596615081392,0 -103.9280034916494,19.65618368401152,0 -103.9281462545325,19.65622971426188,0 -103.9282509873808,19.65625744607784,0 -103.9284906859486,19.65606912298845,0 -103.9288074039334,19.65577282880465,0 -103.929055559159,19.65574719980907,0 -103.9291404372849,19.65589227831799,0 -103.9292338337202,19.65619101624516,0 -103.929691515687,19.65621181327185,0 -103.9300263482305,19.6560601976515,0 -103.9304395167676,19.65560182989762,0 -103.9306877314669,19.65556716316907,0 -103.930925271111,19.6557041130297,0 -103.9309443461393,19.65570422645934,0 -103.9312108578906,19.65578713336651,0 -103.9315543282912,19.65577110333939,0 -103.9318127984164,19.65562806624676,0 -103.9323390954677,19.65536915389434,0 -103.9330833191905,19.65532839291963,0 -103.9331783954812,19.65537413620389,0 -103.9333878621574,19.65542959394636,0 -103.9335588803587,19.65553000247133,0 -103.9335771790507,19.65564757664238,0 -103.9335181622843,19.65591830107162,0 -103.9334686828478,19.65618908204622,0 -103.9334683244917,19.65624329481978,0 -103.9334572340336,19.65647816025182,0 -103.9334563381172,19.65661369218024,0 -103.9335979087466,19.65684042743029,0 -103.9337782870018,19.65696799877094,0 -103.9340269809175,19.65686104379588,0 -103.9342862863759,19.65659150664445,0 -103.9346019213892,19.65645784019281,0 -103.9348302862248,19.65654051577815,0 -103.9350091145148,19.65690300803819,0 -103.9351798967885,19.65703955699057,0 -103.9354279341818,19.65703199017871,0 -103.9356670300171,19.65693401187649,0 -103.9358592719093,19.65670925440162,0 -103.935822015489,19.65657349654052,0 -103.9354318689628,19.65643564932208,0 -103.9353468655212,19.65630864444999,0 -103.9353857908202,19.65619140929331,0 -103.9355590166698,19.65595750366983,0 -103.9357501251304,19.65590442015763,0 -103.9360450739451,19.65601459581428,0 -103.9362358249194,19.65601572460519,0 -103.9364653216802,19.65592672417386,0 -103.9366768744734,19.6556659366451,0 -103.9369544153108,19.65552300475573,0 -103.9371064204677,19.65561426174754,0 -103.9372097858904,19.65584980429422,0 -103.9374750520602,19.65612244703113,0 -103.9379034690492,19.65624244430571,0 -103.9381794044368,19.65634346838248,0 -103.938379515153,19.65637175767877,0 -103.9386183112103,19.65631895270076,0 -103.9387908789763,19.65618443401135,0 -103.9390118472343,19.65594177083844,0 -103.939183642009,19.65592471296429,0 -103.9393837524436,19.65595300112786,0 -103.9394982624947,19.65594464081915,0 -103.9396790604026,19.65600895805676,0 -103.9399552934635,19.65606480203604,0 -103.9402708045544,19.65594919631996,0 -103.940586018586,19.65587876744539,0 -103.9409017068363,19.65573605412817,0 -103.9407995222359,19.65531980376171,0 -103.9404962200798,19.65502886991958,0 -103.9407097227582,19.6544699062529,0 -103.9408536744342,19.65433521680296,0 -103.940884125258,19.65405528528647,0 -103.9410098316727,19.65379398650146,0 -103.941096380057,19.6536860662113,0 -103.94149772248,19.65357096356681,0 -103.9416128826672,19.65346321144752,0 -103.9417578399727,19.65317491785954,0 -103.9416656658371,19.652686440055,0 -103.9416196382082,19.65243316564492,0 -103.9416121748569,19.65211686735009,0 -103.9415942260771,19.65194508075517,0 -103.941614189564,19.65180966067391,0 -103.9418485353766,19.65097974259358,0 -103.9431911680405,19.65055540615409,0 -103.9435988109898,19.6502963925855,0 -103.9430355996883,19.64837309154564,0 -103.9440195273733,19.64760818524153,0 -103.9455645618462,19.64795087498262,0 -103.945963873782,19.64911493636122,0 -103.9476002063557,19.64981897322632,0 -103.9480819345081,19.65005748937413,0 -103.9489228454371,19.64865994367836,0 -103.9503678377391,19.64869571235529,0 -103.9523630055186,19.64840714866014,0 -103.953073685251,19.64793573944229,0 -103.9544399659123,19.64798187804816,0 -103.9555960853,19.64773260313917,0 -103.9568121047481,19.64818473020079,0 -103.9570027893645,19.64819487207612,0 -103.9573152391053,19.64854908313932,0 -103.9577407362932,19.64912081000649,0 -103.958203219009,19.6498734677988,0 -103.9584022185267,19.65007340990076,0 -103.9586592000587,19.65015622114452,0 -103.9592500448627,19.65023192873329,0 -103.9594879525724,19.65031462842476,0 -103.9596545708658,19.64961982955445,0 -103.9599141724899,19.64929603943495,0 -103.9602875211221,19.64908133716569,0 -103.9608884237831,19.6490757744328,0 -103.9611272030857,19.64902293867756,0 -103.9613007916675,19.64872575713823,0 -103.9615880700841,19.64854669843473,0 -103.9617608436522,19.64837601410923,0 -103.961933152001,19.64827761402314,0 -103.9622764901661,19.64827959551618,0 -103.9625428341164,19.64838956288217,0 -103.9626762965619,19.64839936864739,0 -103.9627336357678,19.64838162759665,0 -103.962878609234,19.64808427932202,0 -103.963638252142,19.64712181795968,0 -103.9645881633166,19.64623273556063,0 -103.9653836189543,19.64563190799827,0 -103.9656705401591,19.64550705565495,0 -103.965995203894,19.64544567111915,0 -103.966291661346,19.64532087257281,0 -103.9667433704551,19.6447813139494,0 -103.9670023719925,19.6445478681386,0 -103.9672028794785,19.64451287594718,0 -103.9672428190488,19.64423299224783,0 -103.9674563878635,19.64364688454258,0 -103.9675818121349,19.64342170683775,0 -103.9678037024003,19.64302540037985,0 -103.9678524842031,19.64285399806671,0 -103.9679398175958,19.6426195655733,0 -103.9680932734308,19.6424849073324,0 -103.9684285062123,19.6422609323781,0 -103.9687520084381,19.64238025407128,0 -103.9690643013167,19.64276155234279,0 -103.9692354457914,19.64284385631562,0 -103.9693976302879,19.6428357496935,0 -103.9696852354928,19.64260246357087,0 -103.9702581961771,19.64248827754937,0 -103.9707258476316,19.64243673852972,0 -103.9709839760498,19.64233882026854,0 -103.9712694482599,19.64243984812915,0 -103.97149862053,19.64239597901117,0 -103.9716995849279,19.64228869693763,0 -103.9722438753512,19.64218337650856,0 -103.9724443790327,19.64214837828028,0 -103.9729237498431,19.64175353549607,0 -103.9733355564932,19.64148480862717,0 -103.9736129852883,19.64135085292359,0 -103.9740244453657,19.64113633793589,0 -103.9744820963343,19.6411570192883,0 -103.9754451400919,19.64118961449954,0 -103.9768145269209,19.64127758152727,0 -103.9767456939802,19.64063678933636,0 -103.9765951671769,19.64031063965373,0 -103.9765216791833,19.63986746107728,0 -103.9765165517177,19.63917166535304,0 -103.9764894877876,19.63892754128609,0 -103.9766156973444,19.63857585796731,0 -103.9768393904245,19.63789039946602,0 -103.9768797690739,19.63753822774541,0 -103.9771309818302,19.63702460791746,0 -103.9772849397455,19.63680862069256,0 -103.9775348916777,19.63649378355855,0 -103.9776888485286,19.63627779592849,0 -103.9780152050974,19.63594532025837,0 -103.9786671143781,19.63540686551786,0 -103.9787436916931,19.63536212046579,0 -103.9789159191061,19.63527273848991,0 -103.9793271284879,19.63509435268165,0 -103.9795574301275,19.63486976036221,0 -103.9798740153779,19.63457336936046,0 -103.9800754210668,19.63439379220136,0 -103.980324109053,19.63427773432771,0 -103.9804677823225,19.63417915302778,0 -103.9806693008973,19.63398150390311,0 -103.9812551228295,19.63333423330582,0 -103.9816578706614,19.63298411094673,0 -103.9821467850795,19.63258025929506,0 -103.9825786500789,19.63214897583214,0 -103.9830295852789,19.63171779898703,0 -103.9835278013165,19.63135013961492,0 -103.9838922239782,19.63102690319146,0 -103.9842192388411,19.63058598742298,0 -103.9845085047221,19.63008160629147,0 -103.9849395052718,19.62978585101937,0 -103.9853398532917,19.62981521633562,0 -103.9858838108945,19.62975503041134,0 -103.9863710047383,19.62962223546793,0 -103.9869351667132,19.62938144087329,0 -103.9876237494766,19.62906905660631,0 -103.987884676759,19.62851933022541,0 -103.9879556168232,19.62785106768812,0 -103.9880433083886,19.6275533738448,0 -103.9882635420699,19.62741003640416,0 -103.9887194050294,19.62771078505594,0 -103.9889468566409,19.62793796199965,0 -103.9889833614816,19.62820021010779,0 -103.9892487889088,19.62845470790908,0 -103.9894666496924,19.62869086635653,0 -103.9895997595666,19.62875486541632,0 -103.989751715803,19.62885511403793,0 -103.9902556050666,19.62910191276143,0 -103.9907714022571,19.62896926614068,0 -103.9911538623555,19.62880876278007,0 -103.9914715991381,19.62832260091231,0 -103.9919321493061,19.62787338216185,0 -103.9925816150618,19.62771437075786,0 -103.9931651717758,19.62741944864433,0 -103.9937853515085,19.62736870070102,0 -103.9942730949349,19.62714552706735,0 -103.9944292132169,19.626577132506,0 -103.9945665394579,19.6259634528632,0 -103.9948455546197,19.62556742782747,0 -103.9949707578025,19.62536933526016,0 -103.9951624873085,19.6252077578804,0 -103.9954015027963,19.62510969605719,0 -103.9957069324245,19.62506622034079,0 -103.9969850238183,19.6250281661463,0 -103.9973586055968,19.62475916759593,0 -103.9980475421176,19.624383491775,0 -103.9984394085517,19.62424109648655,0 -103.9987178516098,19.623935421637,0 -104.0026535485048,19.62060511472609,0 -104.0063483241254,19.61748080680828,0 -104.0066124989667,19.61638890633752,0 -104.0074018356019,19.61518243219346,0 -104.0075967567619,19.61449676884869,0 -104.0075172603262,19.61346622437079,0 -104.0076932190312,19.61276238416142,0 -104.0077226561892,19.61262700599639,0 -104.0079862581554,19.61162545937194,0 -104.0078482191257,19.61081145686531,0 -104.008378235646,19.6083475399967,0 -104.0087273072082,19.60740067801523,0 -104.0090187226422,19.60652578622862,0 -104.0097961328661,19.60569874562811,0 -104.0106569722271,19.60526070899776,0 -104.0109741052438,19.60485582846862,0 -104.0109797937254,19.60392514779713,0 -104.0107718189299,19.60207161815225,0 -104.0110591818099,19.60185633050701,0 -104.0114223237065,19.60172278248504,0 -104.0118525931749,19.60152634952546,0 -104.0120843459424,19.6010487099337,0 -104.0122674873045,19.60072441628113,0 -104.0124590597395,19.60058088950097,0 -104.0127462524107,19.6003927061475,0 -104.0133381073226,19.60027847898861,0 -104.0143299697094,19.60023872655384,0 -104.0148764056222,19.59975376778023,0 -104.0153832164173,19.59951256411663,0 -104.0158151787323,19.59903601284092,0 -104.0165122898951,19.59885909735857,0 -104.0172706544635,19.59958611876284,0 -104.0176683598596,19.60004008987581,0 -104.0179345580083,19.60016804552058,0 -104.0180152699196,19.60100883859389,0 -104.0183728694489,19.60178788775714,0 -104.0187509112607,19.60234114619249,0 -104.0195103421052,19.60289647961006,0 -104.0198272298856,19.60252772527371,0 -104.0202581487463,19.60222284276497,0 -104.0206411195562,19.60196287886885,0 -104.02104228382,19.60184758993095,0 -104.0215326460022,19.60117254853374,0 -104.0219648139957,19.60065983893815,0 -104.0224533130859,19.60029201080758,0 -104.0225140127186,19.59971403180957,0 -104.0226017328316,19.5993982452375,0 -104.0228320328899,19.59915552028545,0 -104.0232517123981,19.59913068715145,0 -104.0239477819604,19.59912542229847,0 -104.0245222452676,19.59873094548691,0 -104.0252858161061,19.59859953571638,0 -104.0257452633369,19.59830382953583,0 -104.0260154889975,19.59776312556984,0 -104.026150111884,19.59757409543865,0 -104.0264466011641,19.59742208392187,0 -104.0264848472884,19.59740421835652,0 -104.026648181034,19.59719727073557,0 -104.0265829619718,19.59694390832827,0 -104.0266794462012,19.59675467175241,0 -104.0269091932929,19.59660229895265,0 -104.0274723692419,19.59649690565419,0 -104.0283023423589,19.59642005735227,0 -104.0287021326918,19.59653064523273,0 -104.0288829594412,19.59658583610846,0 -104.0291122708118,19.59650574673193,0 -104.0294183981916,19.59633570987751,0 -104.0296774492162,19.59606602211078,0 -104.0300609321757,19.59571567879623,0 -104.030090184603,19.59560740316959,0 -104.0302813570009,19.59552710699182,0 -104.0308641909887,19.59532241164238,0 -104.0311237246769,19.59497139940768,0 -104.0312421904898,19.59429432939728,0 -104.0311595188559,19.59376979183266,0 -104.0313620066136,19.59339136419685,0 -104.0318499765791,19.59310483067011,0 -104.0321680592677,19.59252822872557,0 -104.0328487035958,19.59190839109033,0 -104.033194357294,19.5915036207946,0 -104.0336546869585,19.5910542839879,0 -104.0336566820536,19.59071995903435,0 -104.0341758825249,19.58999081715502,0 -104.03417814587,19.58961131304949,0 -104.0344938966108,19.58942324611009,0 -104.0346769260398,19.58910796259474,0 -104.034355575233,19.5886363644594,0 -104.0342540971948,19.58806654649264,0 -104.0346208530574,19.5873185139343,0 -104.034802802749,19.58718394643432,0 -104.03513745401,19.58702308760371,0 -104.0354619789661,19.58696157112476,0 -104.0358539930901,19.58677390943456,0 -104.0362667942409,19.58629720248965,0 -104.0367727806843,19.58618243667084,0 -104.0370019124875,19.58612944384246,0 -104.0371855776402,19.58570572741267,0 -104.0371314907014,19.58518134416948,0 -104.0370670109886,19.58480148318444,0 -104.037451041466,19.58435172781515,0 -104.0373948599059,19.58417974178748,0 -104.0373291985519,19.58399866902564,0 -104.037743383514,19.5832870265476,0 -104.0385369214157,19.5829117420485,0 -104.0391386599461,19.5827251906054,0 -104.0395996440661,19.58215837058843,0 -104.0397267393743,19.58162591627887,0 -104.039976697652,19.58127483826669,0 -104.0406259887684,19.58110660689525,0 -104.0411707851972,19.58087456477922,0 -104.0417639419096,19.58052530826167,0 -104.0423688190445,19.57980563069895,0 -104.042762676455,19.57930169819147,0 -104.0436810768541,19.57876440197359,0 -104.0447999897952,19.57817394594012,0 -104.0450769341247,19.57809408706613,0 -104.0455632376404,19.57807858858826,0 -104.0460490623924,19.57814441149271,0 -104.0466387437069,19.57838246865769,0 -104.0499233885618,19.57914076294518,0 -104.0519240182003,19.57938622955449,0 -104.0534791191448,19.57919560151887,0 -104.054424820479,19.57887526017598,0 -104.0552374730951,19.57848192766876,0 -104.0566564661619,19.57874236670976,0 -104.0576113773352,19.57847627343686,0 -104.0597192931431,19.57830655063947,0 -104.0603724321146,19.57746959068885,0 -104.0607192439023,19.57684790133812,0 -104.0610652153501,19.57637078551078,0 -104.0611941720099,19.57550398439623,0 -104.0615924608659,19.57422292030804,0 -104.0623336703527,19.57298881832169,0 -104.0629052077787,19.57141949302361,0 -104.0629214785001,19.57025391057056,0 -104.0625133941966,19.56993552461043,0 -104.0619076318083,19.56918237370189,0 -104.0616820869194,19.56862095804689,0 -104.0619351666099,19.56771865596022,0 -104.0616330482513,19.56721105925368,0 -104.0620814501614,19.56715013698878,0 -104.0629962741534,19.56720910627524,0 -104.063767952147,19.56729443692936,0 -104.0642067688929,19.56724249581879,0 -104.0651809267092,19.56693127810438,0 -104.0662213412975,19.56670172351533,0 -104.0666372790703,19.56565567712479,0 -104.0677450603153,19.56365536774667,0 -104.0686666135444,19.56253963681283,0 -104.06911660831,19.56219858253104,0 -104.0693762126726,19.56181136457306,0 -104.0695158345445,19.56073677649198,0 -104.0695142326102,19.55935422937595,0 -104.0698321125374,19.55877755052693,0 -104.0696612064675,19.55865919922919,0 -104.069662501964,19.5584333008191,0 -104.0696389837318,19.55754763163596,0 -104.0697180905406,19.55705104800822,0 -104.0694350815429,19.55653452587571,0 -104.0689712247206,19.55597188985302,0 -104.0684871657848,19.5556079449854,0 -104.069675560808,19.55283092020184,0 -104.0695534599753,19.55251402379111,0 -104.0694301178119,19.5507513273288,0 -104.0685390095695,19.549897329726,0 -104.068310975376,19.54976964654662,0 -104.0687800493534,19.54941965360142,0 -104.0690764635497,19.54925852991113,0 -104.0695941766964,19.548737097375,0 -104.0697490647515,19.5483222293975,0 -104.0697974994618,19.54818693564982,0 -104.0703516770154,19.54795484735664,0 -104.0705809521703,19.54786566516152,0 -104.0708190862269,19.54789399905052,0 -104.0708859106683,19.54787627038519,0 -104.0712964402957,19.54776091091932,0 -104.0716221155759,19.54748246243982,0 -104.0718236731389,19.54723952042573,0 -104.0722443518147,19.54701577623112,0 -104.0729411335844,19.54684766565491,0 -104.073476755148,19.54652510994442,0 -104.0735725342387,19.54644427521094,0 -104.0736204495307,19.54639933984405,0 -104.0739648203136,19.5461842363071,0 -104.0745094025413,19.54596112177669,0 -104.0746145062283,19.54591647913346,0 -104.0748344508783,19.54579109862489,0 -104.0748920515675,19.54571910382547,0 -104.0749400177762,19.54566513211844,0 -104.0762971344907,19.54503050480257,0 -104.0776176554935,19.54412459301086,0 -104.0781333755596,19.54394650087574,0 -104.0788969609289,19.54376063499436,0 -104.0791837214112,19.54361751713492,0 -104.07958588191,19.54329426204135,0 -104.0797967489372,19.54308750279171,0 -104.0805059552128,19.54240435965137,0 -104.0808025501292,19.54220707166939,0 -104.0811559227934,19.54208236188958,0 -104.081385797633,19.54188473354551,0 -104.0817598668125,19.54147096796519,0 -104.082094838786,19.5412286915483,0 -104.0824963749847,19.54101386125508,0 -104.0833276807474,19.54064759484746,0 -104.0839960357109,19.54044315088931,0 -104.0840248330942,19.54040715188928,0 -104.0846101054356,19.53972336304859,0 -104.0850603084995,19.53932804827364,0 -104.0853760564025,19.53911277679797,0 -104.0857402219296,19.53876220591436,0 -104.0860675837392,19.53817650542922,0 -104.0863174495669,19.53611750240367,0 -104.0868149371704,19.53578567548604,0 -104.0870460150718,19.53537117507521,0 -104.0870393790064,19.53485607468967,0 -104.087822989164,19.53448954491815,0 -104.0880748488294,19.53376791489681,0 -104.0883260469129,19.53316375249952,0 -104.0887101662493,19.53265062256669,0 -104.0895718813075,19.53195013646951,0 -104.0897344092437,19.53186059239521,0 -104.0901078770339,19.53154620345631,0 -104.0904257782791,19.53094237338179,0 -104.0918987307093,19.52937561179722,0 -104.094862844718,19.52945240785702,0 -104.0953340725471,19.52901994275472,0 -104.0956726342503,19.52866181471544,0 -104.0969392167278,19.52836332292993,0 -104.098209155365,19.52642446299445,0 -104.1001243107621,19.52480288701309,0 -104.1009983385478,19.52508074767128,0 -104.101203899098,19.52429135925947,0 -104.1008405482418,19.5241713542144,0 -104.1005094398158,19.52406199817375,0 -104.0997593025871,19.52356126836465,0 -104.0994359759968,19.52343315006701,0 -104.0987534581685,19.52277009972658,0 -104.0983538926905,19.52264159954184,0 -104.0975279291403,19.52206819237883,0 -104.0967621142471,19.52096194077348,0 -104.095393305504,19.5203225579053,0 -104.095145826771,19.52026710197451,0 -104.0947369418227,19.52010240227986,0 -104.0945001512509,19.51983916431718,0 -104.0943970830626,19.51952237803493,0 -104.094265928795,19.51911508812622,0 -104.0939458888173,19.5183996180048,0 -104.0937190347541,19.51806413856196,0 -104.0932540862331,19.51770035638794,0 -104.093134935482,19.51758918281177,0 -104.0928938167923,19.51736420701387,0 -104.0926387298196,19.51696533067189,0 -104.0924045697662,19.51623221630517,0 -104.0923482990175,19.51606928070856,0 -104.0922349507479,19.51588798605164,0 -104.0920549449967,19.51569732043256,0 -104.0916089149264,19.5153607381381,0 -104.0915520899736,19.51529719871141,0 -104.0913161192668,19.51488938036771,0 -104.0911278485417,19.51447276514223,0 -104.0910057306522,19.51415588137254,0 -104.090818067694,19.51363083343609,0 -104.090270707834,19.51267023480081,0 -104.0902045569506,19.5125705029264,0 -104.0899396508479,19.51222579141465,0 -104.0897129650364,19.51186319929703,0 -104.0893930088883,19.51113868589816,0 -104.0891226254044,19.51007104260305,0 -104.0886629745814,19.50876750208671,0 -104.0886070136287,19.50855034924093,0 -104.0885894231323,19.50828820822596,0 -104.0886105572689,19.50791782679569,0 -104.0886987503583,19.50748452908225,0 -104.0887006231433,19.50715019574745,0 -104.0887011799098,19.50705079934821,0 -104.0886727947036,19.50701451121463,0 -104.0885139872826,19.50644442491661,0 -104.0882783400343,19.50598238682278,0 -104.0879782187659,19.50512242666063,0 -104.0879313330023,19.50498664596393,0 -104.087884346004,19.50486893732916,0 -104.087600854655,19.50444280241596,0 -104.086890383304,19.50368920658303,0 -104.0861808826231,19.50276392351546,0 -104.0858102174585,19.50259036189843,0 -104.0849918960025,19.50237839152985,0 -104.0847161666126,19.50226856173694,0 -104.08445969881,19.50212268383091,0 -104.0837192919255,19.50161290453411,0 -104.0834149781004,19.50150292810076,0 -104.0832917642908,19.50138483230318,0 -104.083235812678,19.50116767801457,0 -104.0830468136566,19.5008865956599,0 -104.0832029910837,19.5002277379418,0 -104.0833376667584,19.50000251291268,0 -104.0829618098132,19.49906083501763,0 -104.0827059087946,19.49881555852063,0 -104.082478187186,19.49864271482981,0 -104.0821930900305,19.49850572508523,0 -104.0818792543694,19.49839569799242,0 -104.0815087059092,19.49820405601804,0 -104.0813023577362,19.49800627079115,0 -104.081281241474,19.49798603076293,0 -104.081038852409,19.49703599033733,0 -104.0806190975861,19.4954344362344,0 -104.0804129919715,19.49480988557958,0 -104.0802254852925,19.49426675578417,0 -104.0801449366038,19.49334464521971,0 -104.0800897573167,19.49299194962435,0 -104.0798059998047,19.49262001978842,0 -104.079379063125,19.49229254297394,0 -104.0790091958476,19.4919834280925,0 -104.0787531583094,19.49176525459338,0 -104.0782593745958,19.49146454397581,0 -104.0780403775652,19.49143632008271,0 -104.0779169704331,19.49135436506494,0 -104.0773001926778,19.49089940866195,0 -104.0769574830915,19.49084344414161,0 -104.0767763439997,19.49086059316854,0 -104.0763474192638,19.49088551441371,0 -104.0761563929824,19.49096586635239,0 -104.0760696645947,19.49113711315835,0 -104.0757864324514,19.49067481725527,0 -104.0754161141158,19.49044701958138,0 -104.0747888947636,19.49015465467587,0 -104.0742473286135,19.48988079817245,0 -104.0739631788954,19.48958114795181,0 -104.0737946527423,19.48905618180194,0 -104.0737970681137,19.48863148902165,0 -104.073599136724,19.48825095276006,0 -104.0731437943358,19.48789620778137,0 -104.0730316176674,19.48751610985824,0 -104.0730055022104,19.48708223476151,0 -104.0730368633269,19.48659443618221,0 -104.0730391774937,19.48618781541257,0 -104.0729262306074,19.48594325767233,0 -104.072556853107,19.48555280633799,0 -104.0721581730739,19.48528871209089,0 -104.0721316482601,19.48492712500359,0 -104.072076591411,19.48455635543823,0 -104.0719896761384,19.48259335364309,0 -104.0715857817073,19.48296915206078,0 -104.0699744199135,19.48371815905229,0 -104.0683623542748,19.48446749345416,0 -104.0671520293396,19.48521820075909,0 -104.0663401590243,19.48710047533623,0 -104.065956530241,19.48821541894817,0 -104.065247504299,19.48965272770576,0 -104.0649246556495,19.49109426165966,0 -104.0642229846666,19.4925141015525,0 -104.0639201475398,19.4942985963592,0 -104.0632047117605,19.49571655347277,0 -104.0615885109886,19.49647823009022,0 -104.0603694909705,19.49686896487071,0 -104.0587478540037,19.49726198727001,0 -104.0571228730727,19.49765580792715,0 -104.0547004507193,19.49767529002286,0 -104.0530465995871,19.49771207558989,0 -104.0513875511736,19.49774894893438,0 -104.0501125876432,19.49667193720631,0 -104.0496496927135,19.49483520354622,0 -104.0487761715664,19.49337057152548,0 -104.0475122691961,19.49226843674987,0 -104.0458726058107,19.49114815364919,0 -104.044635968783,19.49002603723,0 -104.0438036520161,19.48890239471954,0 -104.0421710361659,19.48777135949332,0 -104.0410297472499,19.48661165919533,0 -104.0402883351787,19.4850804941309,0 -104.039160349975,19.48354667036409,0 -104.0380162123878,19.48277317078744,0 -104.036101038196,19.48199085937463,0 -104.0341908804688,19.48121056729846,0 -104.0318912475243,19.48080430299477,0 -104.0303651248474,19.48040860556825,0 -104.0288523614063,19.47963774763459,0 -104.0281076950278,19.47887734066122,0 -104.0265292677634,19.47774493138505,0 -104.0230120280855,19.47622252920489,0 -104.0229918175579,19.47585063285363,0 -104.0213946596976,19.47472030607625,0 -104.0198462385016,19.47470816821953,0 -104.0171403107941,19.47468691308587,0 -104.0159821032623,19.4746778127278,0 -104.0132425032833,19.47391285932994,0 -104.0124513272659,19.47353491468377,0 -104.0112749666565,19.47315410633231,0 -104.0097139939429,19.47277058981774,0 -104.007725756756,19.47163967127479,0 -104.0061658045082,19.47125652025817,0 -104.0041998975099,19.47049829101724,0 -104.003363133516,19.46937425168821,0 -104.0017571506877,19.46824449822955,0 -104.0002640331472,19.46972862698323,0 -103.9990070385167,19.47084266517152,0 -103.9965996301477,19.47082949107018,0 -103.9941620772278,19.47081686691398,0 -103.9913144330188,19.47080207232345,0 -103.989174018945,19.47079345162407,0 -103.9883822264372,19.47228662221169,0 -103.9874849171901,19.47378431945934,0 -103.9854978951429,19.47452197039245,0 -103.9841818853389,19.4748723481916,0 -103.9822225702951,19.47483592908706,0 -103.9802309813578,19.47480218061289,0 -103.9782522948426,19.47476863107486,0 -103.9769402577121,19.47474638427435,0 -103.9756338622947,19.47472420360962,0 -103.9755360150787,19.47288535899226,0 -103.9751117914708,19.47103960717424,0 -103.9747070071665,19.46956145952624,0 -103.9738914927694,19.46771108873103,0 -103.9734541009912,19.46660024437738,0 -103.9726253462375,19.46511654241797,0 -103.9714114587914,19.4632597295161,0 -103.9705194798501,19.4610295333549,0 -103.9689813212451,19.45917148946101,0 -103.9686218302717,19.4573210931506,0 -103.9655145660833,19.45293832130923,0 -103.9634614211466,19.45215988049162,0 -103.9622896454258,19.45141423412442,0 -103.9607196099613,19.45103397714944,0 -103.9587520221786,19.45101903161205,0 -103.9563923633929,19.45100107787113,0 -103.9540352934199,19.45061411995321,0 -103.9524620065995,19.45060150689886,0 -103.9501072815558,19.45021467512957,0 -103.9489358242564,19.44946955872242,0 -103.9473721759604,19.44872164248057,0 -103.9458092579522,19.44797405810359,0 -103.94424705575,19.44722679087394,0 -103.9430742232128,19.4468503749169,0 -103.9411183185395,19.44646833644678,0 -103.939166898931,19.44571910533185,0 -103.9364312947884,19.4453320298645,0 -103.9352614380314,19.44495639544461,0 -103.9337013006988,19.44457813119124,0 -103.9317551415583,19.44419860167149,0 -103.9294226753874,19.44344960652629,0 -103.9270902454015,19.44270057630584,0 -103.9255343530412,19.44232359595188,0 -103.923198659077,19.44194143036419,0 -103.9220323106739,19.44156674227667,0 -103.920089826181,19.44082003338275,0 -103.9189241610678,19.4404455417435,0 -103.9173746203858,19.43933461794497,0 -103.9154363178258,19.4382215573097,0 -103.9142716349114,19.43784746424014,0 -103.9131100357741,19.43710670177191,0 -103.9115579378371,19.43636277867718,0 -103.9096139299141,19.43598337110895,0 -103.9076765339951,19.43523860983784,0 -103.9053477726691,19.4348581905975,0 -103.9034018221856,19.4348456101146,0 -103.9018474232742,19.43446872227287,0 -103.9006796268801,19.43446113110919,0 -103.8987331344099,19.43444847854767,0 -103.8975614649961,19.43480747539504,0 -103.8971311867341,19.43626763259508,0 -103.8971013364848,19.4381032900378,0 -103.8978828582376,19.43921138417246,0 -103.89905298736,19.44142219046886,0 -103.8994420033937,19.4425250721525,0 -103.9002009450351,19.44363361985355,0 -103.9013578376326,19.44474396038821,0 -103.9025206070046,19.44658512560529,0 -103.9036871297962,19.44769096491185,0 -103.9044643056142,19.44842770700915,0 -103.9056293527184,19.44953209243214,0 -103.9071765356542,19.45173605557349,0 -103.9071693120701,19.45283515275539,0 -103.9067718892912,19.4539332547037,0 -103.9059816694264,19.4553971064581,0 -103.9048029790519,19.4564944051412,0 -103.9032279881575,19.45832494979986,0 -103.9016565059132,19.45942346188649,0 -103.9000837710075,19.46052282441704,0 -103.8985008799069,19.46163265423757,0 -103.8957208794255,19.46312624836145,0 -103.8949303014529,19.46313057753469,0 -103.8921583778435,19.46314576835427,0 -103.8913649729714,19.46315010864382,0 -103.8897869175679,19.46241620722815,0 -103.888206936398,19.46168138827091,0 -103.8866365339515,19.46020255380856,0 -103.8854728042117,19.45834791164453,0 -103.885092530797,19.45723481921083,0 -103.8839288743026,19.45538021575829,0 -103.8831451728672,19.45463825256178,0 -103.8827770791528,19.45278403946177,0 -103.8820054098739,19.45130067672054,0 -103.8812435485511,19.45018337037153,0 -103.8800798362397,19.44832961367344,0 -103.8792629014219,19.44685525680627,0 -103.8792743981308,19.44500680013748,0 -103.8781079912749,19.44388966947873,0 -103.8769417195225,19.44277264766332,0 -103.8745800989964,19.4423883602878,0 -103.8733718961219,19.44386189704568,0 -103.871672446008,19.44534597926591,0 -103.8694927281,19.44535772314054,0 -103.8677353485196,19.44536718631035,0 -103.8654935634846,19.44575737466926,0 -103.8638044228066,19.44688525493062,0 -103.8627293931181,19.44536126568243,0 -103.8628543894971,19.44347632350535,0 -103.8617721643813,19.44233953220425,0 -103.8611628797524,19.44083455345487,0 -103.860038027559,19.43896262668319,0 -103.8600704655823,19.43784545749776,0 -103.8601136918645,19.43635731935626,0 -103.8601784299406,19.43412818267528,0 -103.8598085695616,19.43263932152381,0 -103.8577517225276,19.43112544172229,0 -103.8560658770783,19.43072715756366,0 -103.8539354024377,19.43069316945993,0 -103.8522238215456,19.43066582905097,0 -103.8504807749998,19.43138683068959,0 -103.8486318650575,19.43247749918314,0 -103.8472649003685,19.43283062981158,0 -103.8451136892315,19.43393960350659,0 -103.843826051508,19.43544121313961,0 -103.8429511668522,19.43694884564876,0 -103.8416934690624,19.43731842221837,0 -103.8396132615524,19.43730296173987,0 -103.837933054851,19.43767021049707,0 -103.8358312042356,19.43765462559679,0 -103.8345565165586,19.43802568482449,0 -103.8349320427466,19.43955089498819,0 -103.8356150057535,19.44342984115342,0 -103.8358254656647,19.44360332352856,0 -103.8369687711524,19.44443306608507,0 -103.8376020680654,19.4446857601648,0 -103.8379899646973,19.44542458806048,0 -103.8380271551406,19.44586472020411,0 -103.8374831491516,19.44722872808591,0 -103.8370133764312,19.4480768145756,0 -103.8369193116253,19.44854479280814,0 -103.8369767973867,19.44896592899375,0 -103.8371558662429,19.44930177794466,0 -103.8371534134115,19.44964602652579,0 -103.8370296497475,19.45003731191119,0 -103.8368664495849,19.4503040254475,0 -103.8363571591958,19.45103710154296,0 -103.8357149028637,19.45203708234097,0 -103.8352658824302,19.45279922937855,0 -103.8349705994254,19.45320853721973,0 -103.8346136670174,19.45378001638358,0 -103.8342238252549,19.45472423550831,0 -103.8338656564395,19.45546783717441,0 -103.8331357138073,19.45603691356629,0 -103.8327804104271,19.45637889033367,0 -103.8318840252057,19.45766410436226,0 -103.8316082023928,19.45816915926897,0 -103.831136240993,19.45931366148407,0 -103.8309089007506,19.46008678787606,0 -103.8307951264955,19.46048769359926,0 -103.8308029991225,19.46074905306421,0 -103.8306802546686,19.46104159911021,0 -103.8304966625306,19.4613368635086,0 -103.8303835043606,19.46165170815183,0 -103.8304485882455,19.46241715656301,0 -103.8307045370134,19.46327946528716,0 -103.8307789506922,19.46415016528247,0 -103.8309554880082,19.46624557036193,0 -103.8310731097215,19.46671490868621,0 -103.8311614463359,19.46705017897004,0 -103.8312194007857,19.46740437832128,0 -103.8312767384746,19.46784463926327,0 -103.8312642577135,19.46817925837778,0 -103.8310592605727,19.46864651674181,0 -103.8307635249197,19.46911318843965,0 -103.8304078437237,19.46950297061322,0 -103.8301518145196,19.47005596289257,0 -103.8299368671825,19.47050402941262,0 -103.8298318601734,19.47108668556373,0 -103.829818551103,19.47153605293802,0 -103.8298727280145,19.47241618526759,0 -103.8299188828698,19.47300937992657,0 -103.829988154339,19.4731915216286,0 -103.8301384259627,19.4733263709205,0 -103.8304199727726,19.47343337999508,0 -103.8308429453214,19.47350305028578,0 -103.8312347792831,19.47369683522639,0 -103.8315245593046,19.47406209222951,0 -103.8316128314564,19.47440692433686,0 -103.8314105029316,19.47590698720342,0 -103.8312660579859,19.47636507212058,0 -103.8308262721523,19.47723245319308,0 -103.8304597351576,19.47772735566107,0 -103.8301941586384,19.47820378242461,0 -103.8296732890273,19.47912801423785,0 -103.8296409808034,19.47941469015158,0 -103.8298102554424,19.47971223185331,0 -103.8299700664816,19.4799236469084,0 -103.8302806362875,19.48020297491099,0 -103.8305817416465,19.48039617589418,0 -103.8313267590617,19.48055399013796,0 -103.8320800790773,19.48096048871786,0 -103.8335583302242,19.48151509679549,0 -103.8344437619459,19.48177899424614,0 -103.835649043372,19.48243702051508,0 -103.8361016070986,19.48260249788346,0 -103.8366855891211,19.48272100385277,0 -103.8373691048753,19.48302184147178,0 -103.8380135182185,19.48315029462358,0 -103.838496471462,19.48329683518831,0 -103.8389181788967,19.48354817343737,0 -103.8392682177502,19.48395205751401,0 -103.8398874987832,19.48477843223427,0 -103.8408097534913,19.48553980418246,0 -103.8415216328648,19.48610856877356,0 -103.8416610950896,19.48634853179046,0 -103.8417496661694,19.48665511061158,0 -103.841756553585,19.48710460873653,0 -103.8417844906017,19.48742992571203,0 -103.8418826691806,19.48780350466636,0 -103.8420726171981,19.48803422862385,0 -103.8423742284237,19.4881604738424,0 -103.8426965494029,19.48821034878091,0 -103.842949172147,19.48813546012888,0 -103.8433936465242,19.48802354558732,0 -103.8437768738473,19.48801643051313,0 -103.8441496111126,19.48806662479384,0 -103.8445510376396,19.48833694727435,0 -103.8451215750574,19.48893348431518,0 -103.8464115384989,19.49046220508696,0 -103.8467522717023,19.49076082488396,0 -103.8474256894415,19.49107112488551,0 -103.8475856022232,19.49127296372281,0 -103.8476549671722,19.49144553666162,0 -103.8477030156837,19.49178054280484,0 -103.8477034885897,19.49313847472003,0 -103.8479017747964,19.49361787984853,0 -103.8479393349864,19.49401019716752,0 -103.8478759239075,19.49442099697163,0 -103.8477120822162,19.49477378030825,0 -103.8473965119832,19.4951925379878,0 -103.8470408769076,19.49557278784412,0 -103.8467956175511,19.49603024325855,0 -103.8466614816524,19.49645971777235,0 -103.8466077428934,19.49692795554946,0 -103.8467752365653,19.49748366952609,0 -103.8471923201251,19.49839479928729,0 -103.8473197520327,19.49891200566681,0 -103.8474071881758,19.49938114272605,0 -103.8475738750563,19.50005160510303,0 -103.8474698934447,19.50019028881838,0 -103.8476966484994,19.50046280560088,0 -103.8480748950385,19.50087182289756,0 -103.8484729030821,19.50118157182003,0 -103.8487858621747,19.50139138550768,0 -103.8490334029094,19.50142006734119,0 -103.8492333028723,19.50144844590035,0 -103.849528995718,19.50140514712833,0 -103.8502589169804,19.50111103640817,0 -103.8508131317317,19.50117193374944,0 -103.8515570527317,19.5015017939717,0 -103.8520181514819,19.50189679707387,0 -103.8523583787981,19.50227190745263,0 -103.8526489295896,19.50254151052643,0 -103.8531211960927,19.50278357637148,0 -103.8533917153413,19.50303392532542,0 -103.8538581916795,19.50409836081113,0 -103.8540380912757,19.50432900890512,0 -103.8549421028754,19.50484156486965,0 -103.8555169042184,19.50484520148722,0 -103.8559616197073,19.50470457085062,0 -103.8564271743955,19.50446844151145,0 -103.8569141728475,19.5040507512832,0 -103.8571787124382,19.50371772148572,0 -103.8573424770417,19.50337449147854,0 -103.8575060385539,19.50305994857013,0 -103.8578918538262,19.50268943116815,0 -103.8583085895111,19.50222347944268,0 -103.8584420308927,19.50188962037422,0 -103.8584037075464,19.50160249147612,0 -103.8583872287142,19.5010764287723,0 -103.8585007689049,19.5007041919024,0 -103.8586470417208,19.49997833432254,0 -103.8587128428616,19.49922328041478,0 -103.8587001849154,19.49815215576182,0 -103.8586584154041,19.49691827816729,0 -103.8584892467392,19.49515763797206,0 -103.8583711938446,19.49473612545417,0 -103.8580114030502,19.49427483684197,0 -103.8576408600799,19.49390910911541,0 -103.8571491150557,19.4935713042423,0 -103.8562872366848,19.49281039221152,0 -103.8556889480917,19.49185032132431,0 -103.85552243643,19.49115117720695,0 -103.855555845431,19.49070193281373,0 -103.855689347827,19.49035851207634,0 -103.8560085822988,19.48941380244362,0 -103.8561627204699,19.4890035708443,0 -103.8563467707202,19.48864134359053,0 -103.8569063163418,19.48793722224201,0 -103.8573017744398,19.48762414215323,0 -103.8578472058322,19.48749370260216,0 -103.8584933995848,19.48737346008045,0 -103.8592493027373,19.48742603752973,0 -103.8597922541728,19.48764940404849,0 -103.8609699137427,19.48795326613009,0 -103.8622671746854,19.4884586940547,0 -103.8626676327184,19.48887241511954,0 -103.8629788121296,19.48907519124028,0 -103.863421075637,19.4892787888888,0 -103.8640155904039,19.48933989722782,0 -103.8643975553234,19.48951442640756,0 -103.8646282047879,19.48969756776549,0 -103.8649566891289,19.49031165462044,0 -103.8651356578762,19.49067616715344,0 -103.8652823770033,19.49132736630732,0 -103.8653581134407,19.49203549700186,0 -103.8655043013297,19.49276319528405,0 -103.8658924299291,19.49350197187191,0 -103.8665104210215,19.49453863779332,0 -103.8669509724861,19.494990853499,0 -103.8676927083684,19.49563621089748,0 -103.867889926682,19.49627815970264,0 -103.8677994125088,19.49769290669443,0 -103.8677463322652,19.49807509138303,0 -103.8675426591209,19.49836070510745,0 -103.8672589794273,19.49855018826862,0 -103.8669460460048,19.49859604427948,0 -103.8659771930849,19.49870473117057,0 -103.8650081391028,19.49884210023142,0 -103.8639979476102,19.49909396143363,0 -103.8631076903893,19.49949957621128,0 -103.8624688605715,19.50000239636806,0 -103.8621991718864,19.50045517095433,0 -103.8623304817312,19.50075417779021,0 -103.8625369439838,19.50120726548177,0 -103.8629340351305,19.50165251504442,0 -103.8631045333361,19.5017981590347,0 -103.8634076069543,19.50206210098793,0 -103.8638636386461,19.50225471645332,0 -103.8645205220315,19.50234016159366,0 -103.8647585399047,19.50236876233495,0 -103.8652155823919,19.50241680798173,0 -103.8656721213324,19.50253713576401,0 -103.8661105527411,19.5027219911407,0 -103.8669474032967,19.50274635811354,0 -103.8685062577118,19.5033585764732,0 -103.8690887486917,19.50370648316345,0 -103.8694797743321,19.50403406581681,0 -103.8701233056371,19.50430584627505,0 -103.8705662832099,19.50441380404866,0 -103.8709384719006,19.50455000777298,0 -103.8714201955874,19.50488771591304,0 -103.8722665478059,19.504998185097,0 -103.8727698349723,19.50513520220585,0 -103.8731111131236,19.5053668378351,0 -103.8738771244916,19.50542898440653,0 -103.8759444812052,19.50543227681421,0 -103.8766600736412,19.50549409846237,0 -103.8782216323979,19.50572373405942,0 -103.8790991048684,19.50571004600466,0 -103.8794424345973,19.5056452324507,0 -103.8797543258693,19.50575235624908,0 -103.8800141497078,19.50609823096874,0 -103.8802530166536,19.50655873081097,0 -103.8805683484822,19.50763173133766,0 -103.8806444186894,19.50830160831726,0 -103.8805463532772,19.50936248890341,0 -103.8805558611694,19.51091174407062,0 -103.8805823780139,19.51292012534771,0 -103.8806659012739,19.51397256558907,0 -103.880822258141,19.514700316547,0 -103.8811382646222,19.5156776921994,0 -103.8815546651954,19.51672262752169,0 -103.8817131984856,19.51713481402213,0 -103.8818938991962,19.51722193342317,0 -103.8820828059798,19.51746706867331,0 -103.8822913308298,19.51763100252456,0 -103.8824945113945,19.5179142420685,0 -103.8828765646895,19.51808873513649,0 -103.8832471536902,19.51846397891103,0 -103.8834360140324,19.51886678874698,0 -103.8835650854281,19.51916403683724,0 -103.8837912676863,19.52000697176609,0 -103.8838074990092,19.52058084907226,0 -103.8839738662891,19.52102079506139,0 -103.8840973147919,19.52108480777796,0 -103.8843536795364,19.52122192721805,0 -103.8847521187446,19.52148642432435,0 -103.8850368252322,19.5216598609816,0 -103.8852399939915,19.522005001247,0 -103.8854800107175,19.52230293211601,0 -103.8856893796164,19.5226580513768,0 -103.8857779197323,19.5229837370342,0 -103.8857350871545,19.52334686536695,0 -103.8859283155701,19.52368034708634,0 -103.8859839449081,19.52390658569545,0 -103.8861814661272,19.52428730766797,0 -103.8863604242162,19.52459562843724,0 -103.8867212367053,19.52515077322118,0 -103.8870694521319,19.52585101218556,0 -103.8874789055691,19.52644643496051,0 -103.8878195283861,19.52678323449102,0 -103.8881608069207,19.52702440759624,0 -103.8883409105006,19.52723589930003,0 -103.8886817983548,19.52753444662619,0 -103.8890035626899,19.52767986928798,0 -103.8894268375152,19.52773028433224,0 -103.8898300733743,19.52776145003671,0 -103.8901416875429,19.52791637102219,0 -103.8903313577685,19.52820442426363,0 -103.8906977431459,19.52920121996284,0 -103.8906923197547,19.52941125635743,0 -103.8908589861812,19.53012611042741,0 -103.8912481467944,19.53175494906485,0 -103.8913040324308,19.53194504449931,0 -103.8914518899107,19.53262363931852,0 -103.8914678057191,19.53308456465751,0 -103.8914751162239,19.53340989963771,0 -103.8915196226984,19.53387100031308,0 -103.8916581987546,19.53451339466056,0 -103.8918368695268,19.53486688802081,0 -103.8919400383368,19.53511148823986,0 -103.8919095366291,19.53539141213309,0 -103.8919757521018,19.53554929382564,0 -103.8919634482038,19.535874358468,0 -103.892321401981,19.53663202576276,0 -103.8931493797827,19.5379854749449,0 -103.8933392617941,19.53824483707811,0 -103.8935847576124,19.53851000534005,0 -103.8940298603018,19.5389283789531,0 -103.8942659700376,19.53924607841267,0 -103.894511734259,19.53954576498877,0 -103.8947200535637,19.53974582796469,0 -103.8949768870873,19.53981968570051,0 -103.8952346710349,19.53986301229393,0 -103.8952996358486,19.5400114120445,0 -103.8954307900227,19.54034654001161,0 -103.8951116689685,19.54102227658296,0 -103.8945359548472,19.54158801244726,0 -103.8941914351728,19.54179372818535,0 -103.8939613445916,19.54199110800547,0 -103.8938272376827,19.54208968107876,0 -103.8933041575169,19.5419238324231,0 -103.8927032925785,19.54198340134155,0 -103.8923114862248,19.54213460851955,0 -103.8918508675054,19.54259261091567,0 -103.891470378693,19.54248184656918,0 -103.8912617517689,19.54232695717532,0 -103.8901094625343,19.5421843440333,0 -103.8896784044501,19.54233457684719,0 -103.8890429268914,19.54212976205657,0 -103.8886357544308,19.54206298400772,0 -103.8881955654543,19.54202770044882,0 -103.8877873775142,19.5420253640725,0 -103.8874845951076,19.54176634478481,0 -103.8872141293758,19.54170066747315,0 -103.8868732381004,19.54179499580472,0 -103.886566311269,19.54185709243382,0 -103.8860595324238,19.54150038959462,0 -103.8856867164152,19.54149824039688,0 -103.8854519382786,19.54111095832542,0 -103.8851460359713,19.54110906180688,0 -103.884705988169,19.54094581098381,0 -103.884845560615,19.54046433176008,0 -103.8849513560956,19.53982187958254,0 -103.8845797591915,19.53956262532512,0 -103.8841395793815,19.5395273304629,0 -103.884176809599,19.53911001634192,0 -103.8836010223177,19.53894555421593,0 -103.8832607753062,19.53887901625125,0 -103.883129961539,19.53826778617616,0 -103.8826226270615,19.53800731763909,0 -103.8821820127864,19.53794030521067,0 -103.8821511278705,19.53729729213048,0 -103.8810994837416,19.53741911682413,0 -103.8803835449358,19.53783245254921,0 -103.8797703368186,19.53827903330588,0 -103.8791912247977,19.53856488398389,0 -103.8790188216119,19.5388852811669,0 -103.8788807594756,19.53926986290174,0 -103.8783338713651,19.53981303139337,0 -103.8782981686589,19.54013463059363,0 -103.8780253831007,19.54045400758254,0 -103.8774445829627,19.54096469920543,0 -103.8771003465608,19.5415093366672,0 -103.8758486078394,19.54258058359445,0 -103.8752720371188,19.54270608187613,0 -103.8742208283319,19.54237756353588,0 -103.8730361088701,19.54220991085301,0 -103.8720859633709,19.542139570362,0 -103.8713388524459,19.54216693874031,0 -103.8708287496055,19.54226042486396,0 -103.8699468437377,19.54228664308166,0 -103.8684201918235,19.54227714367001,0 -103.8668941305535,19.54217138245895,0 -103.8661094438734,19.54245582307975,0 -103.8660062754092,19.54280879113669,0 -103.8655968282302,19.54306304576859,0 -103.8650186993217,19.54328485214946,0 -103.864271580716,19.54331218553699,0 -103.8636235078085,19.54366162583268,0 -103.862775570852,19.54365621189993,0 -103.8624690007476,19.54381521839668,0 -103.8618913695668,19.54400411205738,0 -103.8613149318827,19.54400105667637,0 -103.8606378958163,19.54377150820922,0 -103.8601606433387,19.54396142601524,0 -103.860023559246,19.54428200327428,0 -103.8601220852717,19.54463647405962,0 -103.8601861893927,19.54499019087924,0 -103.8606611574554,19.54512200107864,0 -103.8613731996308,19.54525478959687,0 -103.8622570299663,19.54522805421938,0 -103.863240357804,19.54513783109528,0 -103.864462677881,19.54504909702477,0 -103.8654144569236,19.5449587051895,0 -103.8655895969591,19.54490149108658,0 -103.8659930419317,19.54476969507111,0 -103.8669416575639,19.54493642137708,0 -103.8675174496783,19.54510094849956,0 -103.8677500497652,19.54568085395043,0 -103.8678153597471,19.54626001601822,0 -103.8677562123191,19.54662337645928,0 -103.8677421953978,19.54670948888613,0 -103.8674591460206,19.54713039027503,0 -103.8674577261316,19.54713089457624,0 -103.8670646883694,19.54745371713243,0 -103.8668339905981,19.547732378552,0 -103.8667188622097,19.5478400853466,0 -103.8663268309963,19.54801834025191,0 -103.8656867411235,19.54823117951701,0 -103.8653431839699,19.54829227175542,0 -103.8647814252185,19.54820741978379,0 -103.8642658046086,19.54833971440338,0 -103.8638822888147,19.54866258946178,0 -103.8636815686649,19.5487426484705,0 -103.863490379328,19.54882276722379,0 -103.8631939690512,19.54895643799441,0 -103.8629912227219,19.54932562754662,0 -103.8627130501278,19.54957687706034,0 -103.8625688180477,19.54975668373931,0 -103.8622814296915,19.54996269571774,0 -103.8618520249591,19.55003227597485,0 -103.8617266635689,19.55023930808896,0 -103.8614780949296,19.5503461701452,0 -103.8612682209114,19.55037195411497,0 -103.8609809567143,19.55055989317793,0 -103.8606457826101,19.55078367246603,0 -103.8603575652362,19.55110714062367,0 -103.8600410071531,19.55139428637869,0 -103.859667387999,19.55166299970965,0 -103.85940737958,19.55204085875121,0 -103.8594071890594,19.55206796477244,0 -103.8592818864409,19.55226595956733,0 -103.8588890745478,19.55255262135139,0 -103.858621183998,19.55269550005911,0 -103.8575155000457,19.55269754342137,0 -103.8569532224637,19.55268494923024,0 -103.8564376459644,19.55280818506147,0 -103.8553658802586,19.55340678824216,0 -103.855022181739,19.55348593070959,0 -103.8544105872896,19.55370794467713,0 -103.8539815531191,19.55372329358573,0 -103.8534653330542,19.55393687383284,0 -103.8529582597355,19.55420472498712,0 -103.8518420131239,19.55435123756005,0 -103.8513456187092,19.55445650895439,0 -103.851124287787,19.55475327948463,0 -103.8507792408194,19.55502215512972,0 -103.8504244053093,19.55532711059765,0 -103.8499931895399,19.555649650236,0 -103.8499622898174,19.55597473914393,0 -103.8500265117486,19.55632754108096,0 -103.8500438453629,19.55657161577296,0 -103.8498801459897,19.55680550156404,0 -103.8497262978881,19.55699427138204,0 -103.8491634946454,19.55705393463446,0 -103.8489337785685,19.55718800581574,0 -103.84846616068,19.55726634513258,0 -103.8478643320974,19.55745225525324,0 -103.8473010774973,19.55757515965682,0 -103.8467175387671,19.55786961107326,0 -103.8461519347337,19.55825270605427,0 -103.8421481336606,19.56104803300901,0 -103.841136746354,19.56118611362143,0 -103.8401533064909,19.56141472491686,0 -103.8393784617782,19.56179827872023,0 -103.8387537918094,19.56250807974788,0 -103.8383905509847,19.56265031326151,0 -103.8381610127741,19.56275726400349,0 -103.8380258853668,19.56299132176119,0 -103.8378157336943,19.5630532184479,0 -103.8374156592914,19.56301449918938,0 -103.8369864715462,19.56304787686218,0 -103.8363075781018,19.56334167825083,0 -103.8359533464432,19.56355625013028,0 -103.8355514549458,19.5637705137806,0 -103.8352468921056,19.56370529884535,0 -103.8347607064523,19.56371119626486,0 -103.8345889396507,19.5637371942309,0 -103.8340466026773,19.5635981564539,0 -103.8338381382134,19.56342513195355,0 -103.8333825637189,19.56315111782438,0 -103.8324891820064,19.56278391451708,0 -103.8321644530456,19.56287217034523,0 -103.8315926800671,19.56285039854747,0 -103.8311933247153,19.56271227795801,0 -103.830908936651,19.5624935802715,0 -103.8308152481088,19.56226708189204,0 -103.8307109207556,19.56219412078128,0 -103.8300234669664,19.56235230785881,0 -103.8291562796768,19.56231957764173,0 -103.82824979127,19.56244922991323,0 -103.8277914869052,19.56255468189038,0 -103.8270361312425,19.56287505808854,0 -103.8266922709101,19.56297221524023,0 -103.8256147956045,19.56301942156346,0 -103.8249475107531,19.56302411416393,0 -103.8245190424959,19.56295807465364,0 -103.8240905091327,19.56290106935997,0 -103.8237465817712,19.56300725601902,0 -103.8232603995766,19.56301312253939,0 -103.8228319322667,19.56294707906016,0 -103.8222033655482,19.56287069329217,0 -103.821946206925,19.56284190809453,0 -103.8215832151456,19.56294796613693,0 -103.8212282441535,19.56326189543107,0 -103.8209134351138,19.56329598165832,0 -103.8204634734448,19.56356411058556,0 -103.8198240591829,19.56366835821495,0 -103.8187565720211,19.56365233917552,0 -103.8169716362857,19.56398400189965,0 -103.8167618063034,19.56400069761957,0 -103.8159235416224,19.56392291501863,0 -103.8151906549726,19.56377353540468,0 -103.8147430606144,19.56371638282977,0 -103.8142180238189,19.56382136148784,0 -103.8131016892795,19.56396762908174,0 -103.8117279303776,19.56412123059592,0 -103.8110703740171,19.56409882885764,0 -103.8108798058759,19.56408853776287,0 -103.8101565223275,19.56393016553903,0 -103.8096144752105,19.56375491471482,0 -103.8091377578206,19.5637698410725,0 -103.8083562254279,19.56375564706082,0 -103.8077270010844,19.56376956268614,0 -103.8073553981336,19.56374903628311,0 -103.807020991529,19.56385525337215,0 -103.806564135291,19.56376187701148,0 -103.8055345139243,19.56378217251462,0 -103.8050775923923,19.56369782759871,0 -103.8044486350996,19.56367559118337,0 -103.8036096481271,19.56369713840744,0 -103.8029320992894,19.56380107283975,0 -103.8014723512771,19.56398113226373,0 -103.8006326280842,19.56410205206306,0 -103.7997270514116,19.56410506741012,0 -103.798812478693,19.56403573371578,0 -103.7980018177844,19.56409358555697,0 -103.7973710522368,19.56431527288129,0 -103.7951854108452,19.56468922485319,0 -103.7946522401731,19.56460434462677,0 -103.7939645472807,19.56478949724859,0 -103.7934889034169,19.56465982020091,0 -103.7926217887273,19.56461787903956,0 -103.7917173558707,19.56446725718495,0 -103.7909081068447,19.56433533968458,0 -103.789860635461,19.56419278589256,0 -103.789432115876,19.56413569876641,0 -103.7890325963935,19.56402459190832,0 -103.7888033647052,19.56408630254387,0 -103.7885642637344,19.56419312438776,0 -103.7879443691225,19.56423414011275,0 -103.7875447830643,19.56413206509754,0 -103.786801518076,19.56409996367887,0 -103.7864194413209,19.56420582145759,0 -103.7857691250225,19.56449058478248,0 -103.7846243787388,19.56460937693186,0 -103.783937083181,19.56474028023039,0 -103.7834972033518,19.56492706198747,0 -103.7829240146526,19.56509487257926,0 -103.7819609079868,19.56514258812738,0 -103.7813226250848,19.56509310142283,0 -103.7809802999079,19.56498236309713,0 -103.7805325834228,19.56494319626932,0 -103.7799507442188,19.56499347695468,0 -103.7794169031299,19.56499890274766,0 -103.7789584309342,19.56512229873103,0 -103.7787581978847,19.5651299793933,0 -103.7784445377154,19.56501039478255,0 -103.7776722010504,19.5650413075112,0 -103.7759728384954,19.56539121044231,0 -103.7755233489331,19.56558694255973,0 -103.7736620066592,19.56592668856883,0 -103.7727071276317,19.5661460848854,0 -103.7722960329697,19.56630592774851,0 -103.7705122331058,19.56647449351256,0 -103.7684758707229,19.56726476722079,0 -103.7676162959945,19.56748478623852,0 -103.7649097506434,19.57240869103901,0 -103.7650036254549,19.57259907876875,0 -103.765059165689,19.57281631049639,0 -103.7650190410237,19.57307806476698,0 -103.7648180410137,19.5731851144741,0 -103.7644182442472,19.57311009294819,0 -103.7640554049983,19.57318892686759,0 -103.763871194538,19.57359426124409,0 -103.7636125869526,19.57375512765402,0 -103.7632686723088,19.5738521605457,0 -103.762925653786,19.57383173774293,0 -103.7628589289348,19.57383128017867,0 -103.762782051242,19.57391207222417,0 -103.7625977677622,19.57432644004952,0 -103.76233839885,19.57458668947173,0 -103.7620614140128,19.5746570726978,0 -103.7617362848922,19.57479037331351,0 -103.7612951117483,19.57513972776554,0 -103.7607586836948,19.57547939121069,0 -103.7605283213177,19.57568562424101,0 -103.7604706442506,19.57574847618552,0 -103.7604698840913,19.57584786108484,0 -103.7605341911228,19.57616454425804,0 -103.760523967833,19.57625482866562,0 -103.7604662905483,19.57631768059369,0 -103.7598728706209,19.57662984305791,0 -103.759661708342,19.57681813590022,0 -103.7595939449687,19.57695320186315,0 -103.7596117647125,19.57711596272333,0 -103.7596275788868,19.57754073818491,0 -103.7595882738304,19.57769407074013,0 -103.7592895891675,19.57810764764293,0 -103.7589458706365,19.57817756664911,0 -103.7588214654765,19.57823995883202,0 -103.7584273847199,19.5786619131074,0 -103.7577367580557,19.57921735598267,0 -103.7564815625802,19.580049003245,0 -103.7562515350261,19.58021005519622,0 -103.7558877747742,19.58040632615379,0 -103.7554865083121,19.58052101849081,0 -103.7552863260683,19.58051963701844,0 -103.7550666623196,19.58057233352761,0 -103.7546952424784,19.58052459205633,0 -103.7545827972902,19.58027082312078,0 -103.7544967272376,19.58030637052908,0 -103.7541707474079,19.58054807603638,0 -103.7540754225597,19.58054741752388,0 -103.7536572443294,19.58038189014122,0 -103.7531321934984,19.58047765080692,0 -103.7525836946224,19.58114248043992,0 -103.7523337618682,19.58141181469322,0 -103.7516752516583,19.58150664754504,0 -103.751217481222,19.58153058460669,0 -103.7505704536747,19.58137250073113,0 -103.750119846197,19.58170368934677,0 -103.7494013488961,19.58215951521502,0 -103.7490756371912,19.58236507105782,0 -103.7488848461792,19.58238181836827,0 -103.7486753389334,19.5823532584672,0 -103.748143679344,19.58206947035779,0 -103.7463449179019,19.58291533995646,0 -103.7457815854473,19.58302888327973,0 -103.7451321089189,19.58318700245759,0 -103.7446833062648,19.58328326837594,0 -103.7438775927687,19.58391917217183,0 -103.7425073407164,19.58482219824294,0 -103.7418851893301,19.58514313307066,0 -103.741465048096,19.5852305551711,0 -103.7410167998991,19.58525453219157,0 -103.7405782951045,19.58525146993492,0 -103.7400879803722,19.58578113330654,0 -103.7393601870238,19.58620071014865,0 -103.7388250859869,19.58635960526488,0 -103.7382621598871,19.5864189146704,0 -103.7373687559574,19.58606931561884,0 -103.7359760584745,19.58617701770717,0 -103.7340332144784,19.58592846706348,0 -103.7338136792273,19.58596306708037,0 -103.7333833640144,19.5861317170144,0 -103.7331732197989,19.58618445296461,0 -103.7329733149899,19.58614690679896,0 -103.7322049823557,19.58565359551,0 -103.7313961886378,19.58545816397058,0 -103.7312722636672,19.58545729203861,0 -103.7311285655359,19.58554663465053,0 -103.7304774389429,19.58591250180066,0 -103.7300742314081,19.58627107738116,0 -103.7297393811547,19.58642231998973,0 -103.7289947639582,19.58655260310511,0 -103.7286599831442,19.58669480874535,0 -103.7282281714642,19.58705317817466,0 -103.7278437379693,19.58744802223121,0 -103.7274120644821,19.58778831973426,0 -103.7271252279845,19.58789471926159,0 -103.7193594130118,19.58981846484774,0 -103.7191914652843,19.58935646933402,0 -103.7190129135724,19.58902992845722,0 -103.7188150824467,19.58873035644318,0 -103.7186734481441,19.58855767841017,0 -103.718635531306,19.58853030290478,0 -103.7177819409309,19.5879730784881,0 -103.7173068759016,19.58777092181953,0 -103.7166881047962,19.58765809448749,0 -103.7161540551521,19.58768139839234,0 -103.7156195755376,19.58775890963977,0 -103.7150739856942,19.58803511737705,0 -103.7125402582361,19.58896575076331,0 -103.7110282715275,19.58880150999061,0 -103.7088741250336,19.58858116039585,0 -103.7085110614188,19.5886033853688,0 -103.7069229131021,19.58853068255595,0 -103.7060185513151,19.58884901585063,0 -103.7028053490514,19.58957398111743,0 -103.7021931449885,19.58955368099144,0 -103.7017154670078,19.58958624273401,0 -103.7014762306828,19.58957080683675,0 -103.7008456986494,19.5896141474974,0 -103.7005383687452,19.59027012076592,0 -103.6995659245771,19.59049855355266,0 -103.6977387540412,19.59196004673055,0 -103.6968518274617,19.59291252563637,0 -103.6975871356005,19.59424925323686,0 -103.698556561448,19.59560875546663,0 -103.6996129608345,19.59695712038002,0 -103.700009331638,19.5985947412774,0 -103.702613927006,19.59993571531693,0 -103.7031420799197,19.60065330472517,0 -103.7035968643144,19.60100895344666,0 -103.7042416701506,19.60144728527456,0 -103.7046780430258,19.60172148146189,0 -103.7051023534647,19.60231182511609,0 -103.7056143485557,19.60266788027839,0 -103.7065745710324,19.60300908175307,0 -103.7074885007606,19.6031782755957,0 -103.7090205346819,19.6035506714044,0 -103.7099833637206,19.60356660309169,0 -103.7107553036998,19.60360826971259,0 -103.711745512051,19.60377798813347,0 -103.7128304130529,19.60402969552857,0 -103.7131355637929,19.60402284004573,0 -103.7138989792697,19.60393793807111,0 -103.7150371505864,19.60348525800787,0 -103.7162022682465,19.60324057476768,0 -103.7166791672938,19.603216866237,0 -103.7171838794311,19.60329274300891,0 -103.7174498917344,19.60341209599035,0 -103.7176111053176,19.60352166738892,0 -103.7178481592537,19.60368599031444,0 -103.7179240710233,19.60373170713085,0 -103.7182937389635,19.60400539702141,0 -103.7184353853277,19.60417807580451,0 -103.7188434048354,19.60442493147145,0 -103.7193197353398,19.60447349467552,0 -103.7198143474115,19.60462157514762,0 -103.7202592906133,19.60502229071547,0 -103.7205806535187,19.60537695104163,0 -103.7209873224569,19.60579546381458,0 -103.7221753432344,19.60627373163016,0 -103.7226603585877,19.60643077191736,0 -103.7229079545336,19.60646866865138,0 -103.7238741564229,19.6060598900019,0 -103.7254101785546,19.6059352338686,0 -103.7261725329074,19.60598580265094,0 -103.7271143257592,19.60625448447863,0 -103.7279423543521,19.60644104011711,0 -103.7283908033755,19.60639902935852,0 -103.7292796572459,19.60612520530975,0 -103.7297281052484,19.60608319115147,0 -103.7299853077544,19.60611211058985,0 -103.7302422267383,19.60617716908802,0 -103.7304218111699,19.60637721258172,0 -103.7308930497768,19.60707625539044,0 -103.7312063241996,19.60725013389372,0 -103.7315771574215,19.60737924038644,0 -103.7329460176655,19.60790388921259,0 -103.7346689194163,19.60826837872097,0 -103.7354318550739,19.60824663010023,0 -103.7366537657276,19.60805642569304,0 -103.7377496871564,19.60812735592003,0 -103.7391497139184,19.60832690361976,0 -103.7402733267741,19.60851547239006,0 -103.740692052684,19.60861778935857,0 -103.7412054170705,19.60881112057578,0 -103.7416325540216,19.60905806033306,0 -103.7426279479692,19.60979687752975,0 -103.7433421681505,19.60991028642422,0 -103.7437904848878,19.60988630744344,0 -103.7442303195187,19.60972673735882,0 -103.7447933963078,19.60965837892132,0 -103.7454220906668,19.60973504202611,0 -103.7460890625454,19.60979389864095,0 -103.7463171125333,19.60989487538011,0 -103.7469463687824,19.60989925397347,0 -103.7476220369858,19.61006659024744,0 -103.7482098710903,19.6104953402482,0 -103.7483610903461,19.61066806372708,0 -103.7484154992737,19.61102985780646,0 -103.7489553880159,19.61149441402696,0 -103.7491931163884,19.61157738372828,0 -103.7497923103726,19.61177128737741,0 -103.7504508059099,19.61169453839056,0 -103.7514491880677,19.61205384296543,0 -103.7518954888317,19.61229185689013,0 -103.7523302352716,19.61279181657788,0 -103.7525852243975,19.61310982217481,0 -103.7526881516393,19.61336352650275,0 -103.7526292726751,19.61357996852353,0 -103.7525806248844,19.61370612729464,0 -103.7527126435735,19.61389678525057,0 -103.7530545599228,19.61407082574154,0 -103.7532902744887,19.61441580323203,0 -103.7534313415344,19.61466977122275,0 -103.7538315813467,19.61469964747517,0 -103.7543636340451,19.61494728451439,0 -103.7549167053409,19.61494207379863,0 -103.7553719976506,19.61525242513817,0 -103.7558864454225,19.61531019245437,0 -103.7562185559246,19.61552030113529,0 -103.7563981837514,19.61572032086611,0 -103.7565682079651,19.61592930953938,0 -103.7568440161115,19.61602156794888,0 -103.7574538824171,19.61607095419616,0 -103.757701504087,19.61610880431481,0 -103.7577365188818,19.61651563975734,0 -103.7578215669297,19.61661561607032,0 -103.7584792478489,19.61664725794694,0 -103.7586492064106,19.61686527977745,0 -103.7587638995248,19.61682992870996,0 -103.7590011559873,19.61697613072966,0 -103.7593198571159,19.61769212527313,0 -103.7595560062677,19.61798288577173,0 -103.7598590379515,19.61825603580185,0 -103.7600950502991,19.61856486556665,0 -103.7601506651738,19.61877306328039,0 -103.760121021561,19.61890839051051,0 -103.7601670324949,19.61912555750785,0 -103.7600314667192,19.61939568665506,0 -103.7605041887716,19.6199229961355,0 -103.7608142672116,19.62052146852942,0 -103.7609824323446,19.62097439709235,0 -103.7610949814652,19.62121912806246,0 -103.7612740676486,19.62149142306148,0 -103.7613498624132,19.62155519251841,0 -103.7616440608544,19.62173792487862,0 -103.7623272559757,19.62217632339313,0 -103.763222022167,19.62238125193815,0 -103.7640764402355,19.62287503291829,0 -103.7643805937717,19.62300361679734,0 -103.7647240617619,19.62297886761202,0 -103.7648569997578,19.62305206320407,0 -103.7654629631071,19.62361641658047,0 -103.7657767923033,19.62372699369314,0 -103.7662506493046,19.62410973014842,0 -103.76637405386,19.624182859349,0 -103.7665454098556,19.62422017529553,0 -103.7668215142284,19.62427627955756,0 -103.7670298391759,19.62446745072634,0 -103.7675061817709,19.62452492535565,0 -103.7677159545043,19.6245263614864,0 -103.7679159166291,19.62456387198058,0 -103.7681531930315,19.62471006288051,0 -103.7683616578796,19.624883162677,0 -103.7685990728502,19.62501128309267,0 -103.7693329360192,19.62506147900303,0 -103.769905320875,19.62502924955036,0 -103.7704178825999,19.6253399565508,0 -103.7706848677212,19.62534178006596,0 -103.7714032346779,19.62492201852918,0 -103.7717194742896,19.62471636132046,0 -103.7721202938388,19.62467391855794,0 -103.7722252491172,19.62466559898896,0 -103.7729410027587,19.6245891603143,0 -103.7733431246967,19.62437505006141,0 -103.7741721334657,19.6244529808539,0 -103.7744214174327,19.62427396909217,0 -103.7745273314766,19.62413915829592,0 -103.7747762036355,19.62401435593715,0 -103.7753573668106,19.62408155870317,0 -103.7756069227374,19.62386640521378,0 -103.7757040532456,19.62363214385579,0 -103.7759341272938,19.62347107012048,0 -103.7765244823794,19.62358350886452,0 -103.7769251617441,19.62355912517424,0 -103.7774699609522,19.62339115192754,0 -103.7777387199244,19.62315805475678,0 -103.7779024557672,19.62294231515963,0 -103.7781060388527,19.62250095915721,0 -103.7785184353226,19.62218751629835,0 -103.7786627577539,19.62201682152366,0 -103.7793048106476,19.62159650889703,0 -103.7794976252343,19.6213177164915,0 -103.7798234512316,19.62110307365649,0 -103.7804548720736,19.62082725212667,0 -103.7805420497523,19.62064713310438,0 -103.7806209189901,19.62030431918358,0 -103.7806228271569,19.62005133876428,0 -103.7812736529259,19.61973046809883,0 -103.7817418157783,19.61960713968161,0 -103.7825149580535,19.61950394346009,0 -103.7838614836136,19.61923294338304,0 -103.7844822691959,19.61910160297156,0 -103.7852486564181,19.61862789411535,0 -103.7857665912715,19.61822479045294,0 -103.7860641379043,19.61796476740189,0 -103.786264979206,19.61788480186068,0 -103.7865894336283,19.61785084659553,0 -103.7873428861107,19.61782881585637,0 -103.7878664873286,19.61794076728799,0 -103.7881137828569,19.61802375131579,0 -103.7882660013167,19.61806995322427,0 -103.7886459724854,19.61826225532495,0 -103.7888460008754,19.61829070739241,0 -103.7888844786048,19.61824578870303,0 -103.789199330995,19.61822079965772,0 -103.7900854617781,19.61830807566253,0 -103.7908105825588,19.61824969808643,0 -103.792476547863,19.61861326287707,0 -103.7936582645716,19.61870250350771,0 -103.7955447567641,19.61890487844833,0 -103.796268534165,19.61902718029622,0 -103.7966599359119,19.61896654787875,0 -103.7970811521402,19.61874347441112,0 -103.7976860158806,19.618187311924,0 -103.798175047213,19.61782012012702,0 -103.7983754802509,19.61779435120659,0 -103.7986141197158,19.61775980144877,0 -103.7990443953295,19.61760003221822,0 -103.7991794262626,19.61739311562691,0 -103.8017191020872,19.61822753566506,0 -103.802205073895,19.6182806786104,0 -103.8023791110351,19.61795655698507,0 -103.8026389610257,19.61763300578351,0 -103.8029846233763,19.6173100246072,0 -103.8036346628052,19.61708845610517,0 -103.8047432393903,19.61675246729853,0 -103.8054778193875,19.61670312837451,0 -103.8066509331196,19.61666572865969,0 -103.8075683395145,19.61639170390182,0 -103.8086710973721,19.61554966076679,0 -103.809246708022,19.61507458333195,0 -103.8100776244595,19.61489032880546,0 -103.8106705704659,19.61465028557601,0 -103.8109000010647,19.61457048056452,0 -103.8114820820646,19.61451107404093,0 -103.8120727682443,19.61457822026166,0 -103.8125120277047,19.61449076155312,0 -103.8129992254609,19.61436747545815,0 -103.813285929066,19.6142790092447,0 -103.8134781473909,19.61407245770949,0 -103.8139078702341,19.61398493266202,0 -103.8143659316953,19.6139337354098,0 -103.8145375556665,19.61393486518752,0 -103.8147941970459,19.61404498116603,0 -103.8150772581687,19.61445344446754,0 -103.8151910125821,19.61454454859472,0 -103.8158475178543,19.61473861352819,0 -103.8159136654635,19.61482036861361,0 -103.8159880247943,19.61508288912033,0 -103.8161975906143,19.61511137354105,0 -103.8162449997581,19.61514782747176,0 -103.8163401487844,19.61517555960501,0 -103.8165876554355,19.61523139967261,0 -103.8168346334161,19.61535952053027,0 -103.8174861227065,19.61624025050383,0 -103.8177390043961,19.6168653656349,0 -103.8181003380533,19.61700327122635,0 -103.8188815365876,19.61709875267904,0 -103.8203531364497,19.61666565559167,0 -103.820896622758,19.61666921507036,0 -103.8216417237714,19.61648434503123,0 -103.8220997910491,19.61643312835719,0 -103.8225946816549,19.61656286303113,0 -103.8229577293779,19.61646584492846,0 -103.8234808310203,19.61664997513702,0 -103.8239840099126,19.61695143645119,0 -103.8243556730169,19.61698097008756,0 -103.8247856619692,19.61685727854225,0 -103.8253572293186,19.61693329260304,0 -103.8255580524282,19.61685328213038,0 -103.8257883985372,19.61664696559456,0 -103.8258469855015,19.61645760009089,0 -103.8261357859501,19.61607998783731,0 -103.8263750092592,19.61596408429778,0 -103.8268232772156,19.61594893399667,0 -103.8271197088082,19.61583340211935,0 -103.8273503135954,19.61559094268803,0 -103.8276763311271,19.61534006846582,0 -103.8277810828652,19.61535882155319,0 -103.8280873749394,19.61519817416334,0 -103.8283072642331,19.61511828452163,0 -103.828813654757,19.61497700882639,0 -103.829033478011,19.61490615344215,0 -103.829378953607,19.61460118881317,0 -103.8296674810192,19.61425971095441,0 -103.8299921850324,19.61418953586256,0 -103.8327121877904,19.6204507945156,0 -103.8366394948164,19.62726196116656,0 -103.8426708112178,19.63461066252136,0 -103.8427939375356,19.63472891747847,0 -103.8429932872872,19.63485669811785,0 -103.8433361303203,19.63492215165476,0 -103.843762792846,19.63526824749634,0 -103.8439032465277,19.63563057491084,0 -103.8440167738162,19.63575780303895,0 -103.8443598778379,19.63578711390198,0 -103.8445044052767,19.63558022274387,0 -103.8448096233415,19.63557314693226,0 -103.8449042084561,19.63568218166615,0 -103.8450744361397,19.6358820581593,0 -103.8453600013905,19.63595617592643,0 -103.846073980316,19.63613243320256,0 -103.8463787477898,19.63618860128167,0 -103.846722498525,19.63612755554697,0 -103.8467873158598,19.63639903988008,0 -103.8469480105673,19.6365988536194,0 -103.8473003309244,19.63667339618737,0 -103.847633321543,19.63678395680122,0 -103.8477543261633,19.63720037080758,0 -103.8480299723678,19.63732863474665,0 -103.8481439552312,19.63739261393742,0 -103.8483249490722,19.63742087949045,0 -103.8485264324592,19.6372504920779,0 -103.8487759181625,19.63703523340046,0 -103.849217027116,19.63669470117932,0 -103.8496766273177,19.63643560673206,0 -103.8506204454586,19.63647778097677,0 -103.8513066605242,19.63653637713498,0 -103.8515625940568,19.63675486629725,0 -103.8517530598884,19.63679222449688,0 -103.8521915939775,19.63681309393169,0 -103.852649842358,19.636743731585,0 -103.8528682752187,19.63687162339505,0 -103.8530680852391,19.63693614672967,0 -103.8533356748531,19.63685653151181,0 -103.8537852845471,19.63666061215151,0 -103.8543959179794,19.63661932296184,0 -103.8548433478497,19.63673059905488,0 -103.8551376875631,19.63691318519278,0 -103.8675810589086,19.64088483623483,0 -103.8752845045315,19.65220953119417,0 -103.8748556627545,19.65335195556603,0 -103.8759012998555,19.65437456494207,0 -103.8770457712168,19.65438171692172,0 -103.8774079986762,19.65441108608005,0 -103.8780741625044,19.65462306517975,0 -103.8793190283668,19.65528139896543,0 -103.8801534217016,19.6559913822631,0 -103.8806093348783,19.65626529240218,0 -103.8807525837123,19.65623907722584,0 -103.8807721598962,19.6561669135581,0 -103.8809732595536,19.65605070141667,0 -103.881344966626,19.65608915752545,0 -103.8815439989146,19.65627110979468,0 -103.8817721448279,19.65638095739236,0 -103.881981591914,19.65643647424943,0 -103.8825265379861,19.6562501128329,0 -103.8829476220158,19.65604490872471,0 -103.8833776170878,19.65593011592391,0 -103.8836730256965,19.65596809331105,0 -103.883815773856,19.65601415815516,0 -103.8838982352051,19.65650259794699,0 -103.884012059178,19.6565936615822,0 -103.8841259457711,19.65667568983793,0 -103.8846022547471,19.65675996706249,0 -103.8851554881027,19.65675436307783,0 -103.8857292315902,19.65654106331211,0 -103.8863305880143,19.65647250400391,0 -103.8869604939501,19.65641315513059,0 -103.8875053727122,19.65623581365652,0 -103.8880993694556,19.65585095292284,0 -103.8883292005189,19.65571683857565,0 -103.8885296722107,19.6556909709539,0 -103.8886147617858,19.65579992554153,0 -103.8886992913872,19.65599019804182,0 -103.8889949506959,19.65599202543491,0 -103.8894538030426,19.65584125337836,0 -103.889979540586,19.65567282166559,0 -103.890265662059,19.65567458805345,0 -103.8904079150462,19.65579293040691,0 -103.8905675034681,19.6561643797024,0 -103.8906897504346,19.6564181341411,0 -103.8910231878244,19.65647440564458,0 -103.8915380850896,19.65649565262135,0 -103.8920913804998,19.65648099189409,0 -103.8929979950608,19.65640525540929,0 -103.8933791826301,19.65645278087891,0 -103.8941502290137,19.65667438290504,0 -103.8943794375156,19.65663061408926,0 -103.8947142387387,19.65648810123079,0 -103.8950956747075,19.65649948170746,0 -103.8955140853737,19.65668276737456,0 -103.8962097636832,19.65676836171962,0 -103.8965442547907,19.65667102214421,0 -103.8968894567106,19.65640206875791,0 -103.8972144710183,19.65629563399878,0 -103.8976616196682,19.65646101956761,0 -103.8980130243656,19.65668003158579,0 -103.8983550776398,19.65687187844288,0 -103.8987457443066,19.65692848646167,0 -103.8992992883116,19.65687766215056,0 -103.8999867264265,19.65677344103456,0 -103.900387300586,19.65677589168709,0 -103.9009326604232,19.6565262259444,0 -103.9015048470294,19.65653875891676,0 -103.9019524317583,19.65664088648033,0 -103.9024385973077,19.65667999829499,0 -103.9028184990516,19.65691724667468,0 -103.9032947597562,19.6570105102385,0 -103.9036197717071,19.6569040637591,0 -103.9039275497204,19.65652643916743,0 -103.9044545650693,19.65616822162511,0 -103.9048745812077,19.65611656618857,0 -103.9051124044854,19.65620837226425,0 -103.9052730700273,19.65642620872126,0 -103.9055296625134,19.6565633073218,0 -103.9058822431078,19.65661063227249,0 -103.9061683677793,19.65661237343359,0 -103.9065850169194,19.65705765999685,0 -103.9071061528952,19.6575668312112,0 -103.9075917726008,19.657687247727,0 -103.908135291142,19.65770862131844,0 -103.908624029402,19.65736823038775,0 -103.9089294751812,19.65733394147288,0 -103.9090708887012,19.65757876519734,0 -103.9092518579237,19.65761600637801,0 -103.9094822861795,19.65739151038702,0 -103.9096838569479,19.65720298208941,0 -103.9099520678316,19.65703292915501,0 -103.9102549495907,19.6573781244034,0 -103.9104449683234,19.65748770534042,0 -103.9107397784985,19.65761599260957,0 -103.9111119264465,19.65759113990873,0 -103.9116159544322,19.65781105058968,0 -103.9119114365439,19.65783994664672,0 -103.9122173092685,19.65774240437455,0 -103.9123315774343,19.6577702030923,0 -103.9124539214227,19.6580149089908,0 -103.9127588199409,19.65806193217768,0 -103.9129976251275,19.65800916176278,0 -103.9133997863405,19.6577766631527,0 -103.913886203036,19.65777960268497,0 -103.9141624280866,19.65783548601599,0 -103.9143988613906,19.65813509444241,0 -103.9144551750667,19.65827097108084,0 
					</coordinates>
				</LinearRing>
			</outerBoundaryIs>
		</Polygon>
	</Placemark>
</Document>
</kml>
