<?xml version="1.0" encoding="UTF-8"?>
<kml xmlns="http://www.opengis.net/kml/2.2" xmlns:gx="http://www.google.com/kml/ext/2.2" xmlns:kml="http://www.opengis.net/kml/2.2" xmlns:atom="http://www.w3.org/2005/Atom">
<Document>
	<name>Elemento_53.kml</name>
	<Style id="highlight00">
		<LineStyle>
			<color>7f7f00ff</color>
		</LineStyle>
		<PolyStyle>
			<color>7f7f55ff</color>
		</PolyStyle>
	</Style>
	<Style id="normal00">
		<LineStyle>
			<color>7f7f00ff</color>
		</LineStyle>
		<PolyStyle>
			<color>7f7f55ff</color>
		</PolyStyle>
	</Style>
	<StyleMap id="styleMapID00">
		<Pair>
			<key>normal</key>
			<styleUrl>#normal00</styleUrl>
		</Pair>
		<Pair>
			<key>highlight</key>
			<styleUrl>#highlight00</styleUrl>
		</Pair>
	</StyleMap>
	<Placemark>
		<name>Elemento_53</name>
		<styleUrl>#styleMapID00</styleUrl>
		<ExtendedData>
			<SchemaData schemaUrl="#schemaID">
				<SimpleData name="MUNICIPIO">LA BARCA</SimpleData>
				<SimpleData name="REGION">CIÉNEGA</SimpleData>
				<SimpleData name="CLAVE">18</SimpleData>
				<SimpleData name="AREA_KMS2">428.763875934</SimpleData>
				<SimpleData name="GID">52</SimpleData>
			</SchemaData>
		</ExtendedData>
		<Polygon>
			<outerBoundaryIs>
				<LinearRing>
					<coordinates>
						-102.5088249671237,20.4467001436932,0 -102.5095190918499,20.44706060116188,0 -102.510260747087,20.44726671409559,0 -102.5122941496578,20.44811241496583,0 -102.514585192307,20.44838583876145,0 -102.5169665996963,20.44712617376953,0 -102.5177735338356,20.44678785864379,0 -102.5181451221553,20.44641440271914,0 -102.5182431860198,20.44631464521129,0 -102.5195499113093,20.44583857526176,0 -102.5205677364574,20.44529999581553,0 -102.5213169916365,20.44497999879891,0 -102.5215373417685,20.44473436731784,0 -102.5227951260208,20.44404983905169,0 -102.5232436475143,20.44309600166181,0 -102.5233240072334,20.44303029107616,0 -102.523588927962,20.44281366007064,0 -102.5236857741135,20.44297657774057,0 -102.5238303401914,20.44303956640959,0 -102.52395555944,20.44307541314761,0 -102.5245046805537,20.44325491077391,0 -102.5254452139318,20.44264401017662,0 -102.5286696032893,20.44295027233934,0 -102.5308821958048,20.44286094240995,0 -102.5322992837711,20.44355434139739,0 -102.533175868371,20.44381428762782,0 -102.5338108111026,20.44379392163162,0 -102.5345718706881,20.44403612629405,0 -102.5380537833126,20.44376083770737,0 -102.5386215549836,20.44378603691335,0 -102.5394680946201,20.44374675966788,0 -102.5405169738185,20.44377931544437,0 -102.5430050912471,20.44521250479051,0 -102.5446903182094,20.4455692605534,0 -102.5458329747981,20.44499378726012,0 -102.5469662562387,20.44448182633104,0 -102.547062214779,20.44441799448995,0 -102.5482057748223,20.44343050147534,0 -102.5496897769976,20.44214899592906,0 -102.5514683631093,20.44192611971328,0 -102.5525626853101,20.4436634892697,0 -102.5541617710111,20.44412928659742,0 -102.5572128885085,20.44439022855998,0 -102.5585868821686,20.44393171577649,0 -102.559307587896,20.44371140002406,0 -102.560882224869,20.4429165580672,0 -102.5624971019158,20.44254781705846,0 -102.5634978707089,20.44258039195348,0 -102.5646492861168,20.44182335610199,0 -102.5655904248964,20.44140266483987,0 -102.5656863710509,20.44133882166388,0 -102.5660632747068,20.44095385778868,0 -102.5686760575764,20.44072909159142,0 -102.5692718457178,20.44055454339772,0 -102.5688719196634,20.43925910637337,0 -102.568523463297,20.43876158859892,0 -102.5680847998914,20.43740280962394,0 -102.5676308249062,20.43697824023492,0 -102.5679350368292,20.43610643901835,0 -102.5686444636434,20.43550520646125,0 -102.5692574853729,20.43532229708637,0 -102.5694516190432,20.43526638248878,0 -102.5696325913837,20.43511275835026,0 -102.570170616605,20.43465603782586,0 -102.5709668032875,20.43409981704533,0 -102.5722265852263,20.43299533962024,0 -102.5726052815455,20.43267830637654,0 -102.5742006649486,20.43212865206675,0 -102.5757588123618,20.43203206993056,0 -102.5768571825743,20.43240882427025,0 -102.5769542013883,20.43233695569577,0 -102.5776262253781,20.43183914055914,0 -102.5782477853596,20.43137870187186,0 -102.5789876724613,20.43116729200393,0 -102.5798419917269,20.43071963708898,0 -102.5808700968438,20.43041642544187,0 -102.5821943219804,20.4296223266411,0 -102.5831502980028,20.42821291004719,0 -102.5847478660986,20.42612082252694,0 -102.5854049408558,20.42456743490562,0 -102.5862455667906,20.42319472554454,0 -102.5865591298445,20.42229565280304,0 -102.587779433818,20.41975153035171,0 -102.5877848750733,20.41657725170681,0 -102.5887692194553,20.41729898905628,0 -102.589992797383,20.41772957467604,0 -102.5912744190156,20.41823248063492,0 -102.594861645293,20.41801897001568,0 -102.595975836477,20.41763369865249,0 -102.5970028045818,20.41710365183413,0 -102.5970979178046,20.41703979347977,0 -102.5981528245494,20.41633794204033,0 -102.5983943409986,20.41635450175036,0 -102.5999419049668,20.41608539643498,0 -102.6007864807541,20.41564673715291,0 -102.6013913735664,20.41539040727616,0 -102.6032676779147,20.4155008791132,0 -102.6035490287945,20.41603485103117,0 -102.6035318135078,20.41648838369972,0 -102.6042735253613,20.41671217201968,0 -102.6055743875943,20.41720581112008,0 -102.6069154072784,20.41807112038217,0 -102.6098162956404,20.41925666822752,0 -102.6097910768268,20.42006393964191,0 -102.6104699029109,20.42126743838734,0 -102.6116564192598,20.42198821937611,0 -102.6122277273244,20.42281123160911,0 -102.6132334617301,20.42396805750423,0 -102.6146022622573,20.42457018093734,0 -102.6163928278469,20.42483501773782,0 -102.6178668909704,20.4253097141539,0 -102.6197062387485,20.42571942410695,0 -102.6209012555871,20.42617708935675,0 -102.6254340621817,20.42653036652691,0 -102.6293188349217,20.42613343179942,0 -102.6332331677677,20.42589045418513,0 -102.6338176385803,20.42559694477686,0 -102.6324051688806,20.42241789998763,0 -102.6318118019208,20.42050441921607,0 -102.6319160037266,20.41995498350073,0 -102.6319636133605,20.41997369183829,0 -102.633858506305,20.41821143813671,0 -102.6339601619081,20.41720141574824,0 -102.6339575729717,20.41611773348718,0 -102.6335949774623,20.41539940520121,0 -102.6334297211182,20.41430448197461,0 -102.6334010262488,20.41304886749653,0 -102.6335540120662,20.411813782479,0 -102.6339561248254,20.4105730511702,0 -102.6339098428649,20.40984096020991,0 -102.6332020370147,20.40852193597747,0 -102.6332065918505,20.40822399481088,0 -102.6332329219114,20.40775477198311,0 -102.6329609498274,20.40674870239495,0 -102.6331925237834,20.40601135645126,0 -102.6331204136712,20.40508927610922,0 -102.6334198451437,20.40429866900155,0 -102.6329074205703,20.40398467356407,0 -102.6329486236007,20.4037955950418,0 -102.6329594418591,20.40371446844485,0 -102.6339427782509,20.40267126908179,0 -102.6359388950093,20.40116319608447,0 -102.6369551269515,20.40047260909238,0 -102.6372828427903,20.39970946741621,0 -102.6386713996022,20.39784093066875,0 -102.6388871368497,20.39625449768254,0 -102.643136148996,20.39018936497975,0 -102.644979384578,20.38801084317878,0 -102.6454092284827,20.38682462700769,0 -102.6455843505663,20.38601424934576,0 -102.6467567322012,20.3825984945431,0 -102.6472812120475,20.38085365755047,0 -102.6473604289418,20.38005101276271,0 -102.6478674587005,20.37978357033748,0 -102.6488602762497,20.37760777015361,0 -102.6489995149144,20.37749401619292,0 -102.6513433556625,20.37852765401146,0 -102.6518087915818,20.37778827492546,0 -102.6534029953649,20.37531317272218,0 -102.6534859929139,20.3753297207348,0 -102.6550083173009,20.37557873150523,0 -102.6550987444277,20.37559428416018,0 -102.6554193861308,20.3750190150847,0 -102.6555366439755,20.3748033680941,0 -102.6594479260258,20.37630687786425,0 -102.6601003130693,20.37507967176288,0 -102.660126406451,20.37478328854988,0 -102.6602757914378,20.37447377887705,0 -102.6604269434065,20.37411152176327,0 -102.6605251340472,20.37369318684907,0 -102.6608568194054,20.37319588908021,0 -102.6611611865016,20.3729208357081,0 -102.6611771998574,20.37287436779278,0 -102.6615554408836,20.37273882486999,0 -102.6615253722482,20.3727253319882,0 -102.6605196326768,20.37208784416409,0 -102.6595223223743,20.37114466069525,0 -102.6585239782983,20.36971388184028,0 -102.658411510052,20.36958326965673,0 -102.6577166510213,20.3686938486242,0 -102.6578632098295,20.36844603296254,0 -102.6582448624985,20.36780068809065,0 -102.6585066636829,20.36735534981905,0 -102.6586654867397,20.36707948367569,0 -102.6588640025636,20.36664344394037,0 -102.6589055816276,20.36654938595313,0 -102.6590732575622,20.36623730180225,0 -102.6593578932122,20.36576972967498,0 -102.6595060480083,20.36544352745856,0 -102.6597005865847,20.36513081303956,0 -102.6598889780228,20.36478815815476,0 -102.6599688141711,20.3646250323812,0 -102.6600660327476,20.36448353395569,0 -102.6605226717242,20.36364052338857,0 -102.660648208088,20.36340123555784,0 -102.660696453415,20.36330014214869,0 -102.661092951424,20.36279081102833,0 -102.6613414904851,20.3623785162318,0 -102.6613134108058,20.36229060927823,0 -102.6615716865091,20.36190357298482,0 -102.6620308566504,20.36123480510856,0 -102.6620714129642,20.36117585318101,0 -102.6629034460885,20.35995071177019,0 -102.6631995522241,20.35951083611123,0 -102.6634888441139,20.35907932123529,0 -102.6638601289895,20.35855375780228,0 -102.664269570952,20.35795759619294,0 -102.6653138804499,20.35645832373264,0 -102.6654080884016,20.35627786103333,0 -102.6653419523812,20.35545328285395,0 -102.6652838152727,20.35507493137421,0 -102.6651502391497,20.35434623567899,0 -102.6651360502571,20.35415254814862,0 -102.6648912842813,20.35263139836248,0 -102.6648703824319,20.35258129966286,0 -102.6646020193129,20.35200754221522,0 -102.6643479814482,20.35149922581516,0 -102.6643133596979,20.35141990563295,0 -102.6633099665553,20.34939773149106,0 -102.6626394342083,20.34804799873792,0 -102.6616811374858,20.34611603692122,0 -102.6605118450742,20.34373772221844,0 -102.6590170910582,20.34349631711174,0 -102.6589626920183,20.34340538866684,0 -102.6588915001543,20.34311450761226,0 -102.6586681708141,20.34305290975408,0 -102.6583404243482,20.34271726408836,0 -102.6585001386402,20.34230544564321,0 -102.6581993101767,20.34220646288795,0 -102.6581100919958,20.34212077017642,0 -102.6580966043326,20.34149858404965,0 -102.657465741717,20.34155286366941,0 -102.6568018350796,20.34150127208544,0 -102.6567256241597,20.34158095036147,0 -102.6562962195198,20.3411870458168,0 -102.6563067978106,20.34126464566288,0 -102.6560463623187,20.34121786809187,0 -102.655750495568,20.3411713632291,0 -102.6550246469646,20.34105678078695,0 -102.6552155403743,20.33968344256965,0 -102.6552757746951,20.33898843990403,0 -102.6513729020653,20.33639320419064,0 -102.6513439594221,20.33638294558722,0 -102.651379600422,20.33617638321283,0 -102.651874274102,20.33431410008686,0 -102.6522194004762,20.33431599948922,0 -102.6529563893601,20.33450440184357,0 -102.6535724619969,20.33279578810123,0 -102.6536111110644,20.33272100040009,0 -102.6542422223967,20.33082678806832,0 -102.654328724293,20.33052591118675,0 -102.6547500685608,20.32932663162999,0 -102.6565023542556,20.32976156148517,0 -102.6579108914248,20.33004537589293,0 -102.6579779574281,20.32999886334164,0 -102.6584461363622,20.32869286604232,0 -102.6589368725714,20.32770427173329,0 -102.6597251486201,20.32788734793123,0 -102.6603209421818,20.32620342406093,0 -102.6616051486273,20.32649323157408,0 -102.6621326164699,20.32481445980731,0 -102.6618501981248,20.32464656578702,0 -102.6618711299049,20.32433942943098,0 -102.6615717831071,20.32382669788545,0 -102.6617509784909,20.3229220193356,0 -102.6616910796191,20.32126965571986,0 -102.6619991765228,20.32122008991315,0 -102.6621832280642,20.31954204548701,0 -102.6614683939717,20.31943635601873,0 -102.6615302136831,20.31889146672035,0 -102.6618815636141,20.31826439450979,0 -102.6617821404432,20.31782563078436,0 -102.6618633539505,20.31762334935423,0 -102.6619587407651,20.31760740638239,0 -102.662042264479,20.31732481933532,0 -102.661490513274,20.31699554364554,0 -102.6624749979897,20.31533517035538,0 -102.6604784718196,20.3145152400766,0 -102.6599330770844,20.31439198492748,0 -102.659349890546,20.3142738455914,0 -102.6592327941775,20.3148793197832,0 -102.6578484326643,20.31452036866716,0 -102.6577142043443,20.31538485312984,0 -102.6560746235648,20.31518472390936,0 -102.6553467853315,20.3144222782705,0 -102.6545578521304,20.31426444523601,0 -102.65446564432,20.31442511220598,0 -102.6536784783617,20.31429027275426,0 -102.6535274202969,20.31421065305459,0 -102.6534155556471,20.31420780895862,0 -102.653107931771,20.31415635266737,0 -102.6529952529054,20.31401113216592,0 -102.6526659986533,20.31403489754322,0 -102.6517051230597,20.31393236766459,0 -102.6519011553027,20.31261025822556,0 -102.6516133240199,20.31254781872091,0 -102.6510483043611,20.31273088460888,0 -102.6505736566006,20.31315733092983,0 -102.6498494931733,20.31354298600375,0 -102.6484003030968,20.31366447670295,0 -102.6480599410341,20.31373615542578,0 -102.6479200645077,20.31369126407016,0 -102.647796035744,20.31479248387795,0 -102.6468383135742,20.31483465324051,0 -102.6467207180135,20.3151163613449,0 -102.6459102989821,20.31536891748327,0 -102.6454479312017,20.31536631533918,0 -102.6448686401794,20.31528265654278,0 -102.6442355160403,20.3150391941506,0 -102.644246326171,20.31498351668865,0 -102.6440844130633,20.31498354027698,0 -102.6429067908349,20.31503835471707,0 -102.6426278025387,20.31500782413835,0 -102.6423388294043,20.314900321404,0 -102.6420781465216,20.31467491531529,0 -102.6417625816774,20.31456183704355,0 -102.6395376255519,20.31428687977364,0 -102.6384879108019,20.31495722352539,0 -102.6372790588106,20.31475833849485,0 -102.6369419735615,20.31457758897572,0 -102.6366050634222,20.31449716554149,0 -102.6363762259231,20.31431399691464,0 -102.6362124789863,20.31412032596323,0 -102.6356472162327,20.31395902305589,0 -102.6355150396248,20.31374271099589,0 -102.6350785589664,20.31326376032961,0 -102.6346691487118,20.3128364247587,0 -102.6344008617422,20.31267182878085,0 -102.6341394655399,20.31248879327675,0 -102.6340194325168,20.31235631388,0 -102.6336167611821,20.31223332600776,0 -102.6331492082923,20.31207160693062,0 -102.6327787338924,20.31177650051403,0 -102.6323656540942,20.31165546951859,0 -102.6321469709762,20.31131236661251,0 -102.6320142070494,20.31109283600165,0 -102.6317963363724,20.31093007418586,0 -102.6315459931816,20.31078790427982,0 -102.631221095193,20.31095292144303,0 -102.6308092562966,20.31109784030345,0 -102.6304942113154,20.31104800116015,0 -102.6303312826466,20.31056422936464,0 -102.6301012744961,20.3101994513204,0 -102.6304048440714,20.30930055367324,0 -102.6305836505657,20.30849016744448,0 -102.6307774960958,20.30820529779726,0 -102.6315363839004,20.307818255942,0 -102.6328442207268,20.30738997596731,0 -102.6331821113067,20.30720160726002,0 -102.6336292603514,20.30724186263948,0 -102.6335088882741,20.30698965515741,0 -102.6335079680329,20.30679310776197,0 -102.6336115990873,20.30665228341441,0 -102.6344088578416,20.30669107661511,0 -102.6343123741987,20.30647230750024,0 -102.6344461597213,20.30640857284163,0 -102.6362725240238,20.30635175493838,0 -102.6382317698638,20.30661443979068,0 -102.6398758384707,20.30708191586596,0 -102.642106870704,20.30770095557115,0 -102.6447773959024,20.30836451919711,0 -102.6453524465,20.30856911203425,0 -102.6454397823642,20.30813423462864,0 -102.6462807392032,20.30803794922218,0 -102.6469725343253,20.30796053336941,0 -102.648035388472,20.30785657855683,0 -102.6484600372717,20.30783152254839,0 -102.6487830126613,20.30778528473427,0 -102.6487476300019,20.30733246651657,0 -102.6489640766024,20.30727648978312,0 -102.6498220547988,20.30679178519849,0 -102.6508195672082,20.30568293916288,0 -102.6508112380185,20.3058219459487,0 -102.6508904061333,20.30583247418575,0 -102.6523299487181,20.30607655806559,0 -102.6531412091871,20.3061596701731,0 -102.6542856114707,20.30623766990979,0 -102.654614459291,20.30612147820979,0 -102.655013002844,20.30598529732205,0 -102.6556184599942,20.30576952183663,0 -102.6562188419814,20.30561861961979,0 -102.6564380422571,20.30556408964795,0 -102.6569754621836,20.30549473989926,0 -102.6571793267037,20.30551874587781,0 -102.6576975512812,20.30561804069659,0 -102.6578656212402,20.30561808784517,0 -102.6581926775616,20.30551907380638,0 -102.6581083467708,20.30611886027455,0 -102.6613609269178,20.30572742331884,0 -102.6637084639313,20.30544255827948,0 -102.663549611863,20.30435338102027,0 -102.6635308830615,20.30430323478825,0 -102.6633217799239,20.30271407336043,0 -102.6633016388701,20.30260554414379,0 -102.6632695922376,20.30243226702836,0 -102.6631485967171,20.30232782970159,0 -102.6629861728412,20.30061895843053,0 -102.6629579095705,20.30031474424508,0 -102.6629926377164,20.30020171656853,0 -102.6643748713314,20.29998407745693,0 -102.6649720851395,20.29989292092727,0 -102.6655899000104,20.29959942556934,0 -102.665781876149,20.29924803432432,0 -102.6656146973342,20.29821086781077,0 -102.66560552176,20.29795377552779,0 -102.6657047641293,20.2971482352849,0 -102.665559210446,20.29673368923307,0 -102.6655039570001,20.29628057423785,0 -102.6654392348511,20.29582047317009,0 -102.6653400589416,20.29501034766995,0 -102.66524242316,20.29483641593072,0 -102.6650790301187,20.29400059742408,0 -102.6623963045915,20.29392076577362,0 -102.6559142279285,20.29372767980611,0 -102.6551865016427,20.29370868913585,0 -102.6436346873102,20.29344800927379,0 -102.6320909361759,20.29325732833314,0 -102.6314209868546,20.29324424404769,0 -102.6313088160047,20.29323771655634,0 -102.6230894421609,20.29308306216939,0 -102.6227751015733,20.29307697173954,0 -102.6130160439913,20.29285593890473,0 -102.6037262190306,20.29267603339162,0 -102.6050277484226,20.28936013271235,0 -102.6054152448979,20.28837697534573,0 -102.6060871844933,20.28671789319203,0 -102.6061042535339,20.28666503442352,0 -102.6067474573302,20.2850608201564,0 -102.6074570365644,20.28328666007016,0 -102.6074808378444,20.28321763387102,0 -102.6078391988045,20.28231732886812,0 -102.6079466656935,20.2821945374659,0 -102.6081995359079,20.28159043208159,0 -102.6088498864814,20.27998793505054,0 -102.6087392183661,20.27995658995259,0 -102.6094603136437,20.27844511099669,0 -102.6102437351158,20.27654413765956,0 -102.6107339069821,20.27545710448596,0 -102.6111784915589,20.27427019967254,0 -102.6115477204369,20.27343447276394,0 -102.6118406289642,20.27249795505897,0 -102.6114934193058,20.27137788230239,0 -102.6111813399133,20.26959755441837,0 -102.6107287883719,20.26790434547663,0 -102.6103803707095,20.26785349417783,0 -102.6099629257467,20.26780596944849,0 -102.6096147665025,20.26775561129627,0 -102.6093383332237,20.26776702080431,0 -102.6090618802773,20.26777843191799,0 -102.608716287163,20.26779269553917,0 -102.608439791469,20.26780410690656,0 -102.6080898524356,20.26768916362809,0 -102.6078827182949,20.26769757629624,0 -102.6074664807169,20.26764986307226,0 -102.6072594275442,20.2676582742039,0 -102.6069796332878,20.2675405029727,0 -102.6066330303986,20.26749005112208,0 -102.6063555947835,20.26743681544733,0 -102.6059423333339,20.26745348041541,0 -102.6056659545685,20.26739993550654,0 -102.6053898172753,20.26734643693445,0 -102.6049100508933,20.26730037023236,0 -102.6048404308586,20.26730348732696,0 -102.604423041501,20.26732194888284,0 -102.6039368280283,20.26721374307637,0 -102.6037301459855,20.2672222112725,0 -102.6034535097348,20.267169298985,0 -102.6028335439655,20.26719470810011,0 -102.6026256236957,20.26707472856442,0 -102.6023497998186,20.26702180202953,0 -102.6020735652155,20.26690481562714,0 -102.6017293963797,20.26685478265894,0 -102.6014541171098,20.26680197211343,0 -102.601110198176,20.2666879985251,0 -102.6008351114057,20.26669928560492,0 -102.6004225433004,20.26658831439255,0 -102.6000791571165,20.26660235990506,0 -102.5998044799378,20.26642206584796,0 -102.5996673717829,20.26623644243918,0 -102.5993936740901,20.26592957374886,0 -102.5992571676177,20.26574471398382,0 -102.5991210948162,20.2654968133025,0 -102.5990539156847,20.26524662602811,0 -102.5989875254496,20.26487094468255,0 -102.5988525143476,20.26462486363706,0 -102.5987177861548,20.26437930017122,0 -102.5987185790349,20.26412866236732,0 -102.5986511166849,20.26388126969475,0 -102.598585286532,20.26350982389824,0 -102.5985863249116,20.26332315009957,0 -102.5985880500833,20.26301267001715,0 -102.5985219303576,20.26270569793706,0 -102.5984558457971,20.26239947591447,0 -102.5982546725124,20.26216107714413,0 -102.5981890729538,20.26185622175365,0 -102.598123246765,20.26161343113115,0 -102.598125577331,20.26124606586122,0 -102.5980595748108,20.26106551804805,0 -102.5976609732302,20.2607775413269,0 -102.5975282531885,20.26072236529232,0 -102.5972630541547,20.26061211762421,0 -102.5969949625366,20.26062295642122,0 -102.5961114254978,20.26085959947264,0 -102.5957729049555,20.26100376776513,0 -102.5955105448511,20.26127476397227,0 -102.5953098957505,20.26141345177694,0 -102.5949739548957,20.26162335632613,0 -102.594769152592,20.26169715637492,0 -102.5944910430582,20.26170843585879,0 -102.5941434200876,20.26172253306929,0 -102.5938653328795,20.2617338100873,0 -102.5936464827908,20.26154632321379,0 -102.5934973955969,20.26135632606113,0 -102.5932065481148,20.26110722585363,0 -102.5929823456344,20.26079098766975,0 -102.5926927633993,20.26054310325285,0 -102.592469804572,20.26022843066989,0 -102.5923225252964,20.26004069287389,0 -102.5921005295207,20.25972748620537,0 -102.5919479304922,20.25941216436296,0 -102.5918673959807,20.25915880064753,0 -102.5917870516506,20.25890577955075,0 -102.5916382448995,20.25865634750182,0 -102.5914953195185,20.25853476031102,0 -102.5912787143131,20.25828859878831,0 -102.590928301269,20.25811218679423,0 -102.5906545880672,20.25812334253764,0 -102.5903175357734,20.25826413152319,0 -102.5899775773088,20.25834161047148,0 -102.5897767583437,20.2584771179587,0 -102.5893656051267,20.25849390041928,0 -102.5890940794151,20.25856854283557,0 -102.5887557096025,20.25870977921504,0 -102.5884855169211,20.25884838827252,0 -102.588146891953,20.25898975200166,0 -102.5877406665978,20.25919812156228,0 -102.587333807993,20.2594068166301,0 -102.5870622176049,20.25954612530083,0 -102.586652838278,20.25969114623956,0 -102.5862453186842,20.25996510525987,0 -102.5859721030264,20.26010521048457,0 -102.5856998199504,20.26030997166137,0 -102.5852887803972,20.26052080972065,0 -102.5849472676408,20.2607939128361,0 -102.5848790777628,20.26086157031672,0 -102.584534019429,20.26107130885987,0 -102.5842592305316,20.26127783391539,0 -102.5839161675564,20.26155233673876,0 -102.583572474834,20.26182736584154,0 -102.5832268227708,20.26203785305182,0 -102.5826039697635,20.26245672440422,0 -102.582256628542,20.26260232301473,0 -102.5819108476528,20.26287900697933,0 -102.5814249291447,20.26309580739742,0 -102.5811473905207,20.26330456004076,0 -102.5807295699295,20.26351939996742,0 -102.580311058973,20.26373459733715,0 -102.5801016025115,20.26380919375349,0 -102.5797522451243,20.26395569396341,0 -102.5793329148483,20.26403878983383,0 -102.5789824238414,20.26418577118988,0 -102.5785619893514,20.26426929599157,0 -102.5780686232969,20.26442326588326,0 -102.5779284128718,20.26442901327857,0 -102.577646271013,20.26450756336948,0 -102.5773657473312,20.26451906298725,0 -102.5770131546566,20.26460054583359,0 -102.5766623658284,20.26461492497235,0 -102.5763122669403,20.26462898573515,0 -102.5758925791896,20.26464567670294,0 -102.5754729379622,20.26466236474008,0 -102.5750533532996,20.26467905020403,0 -102.5747736556724,20.2646901711746,0 -102.5742831830825,20.26471006264966,0 -102.5740032266442,20.26472129342642,0 -102.5736526055372,20.26473563309989,0 -102.5733716215653,20.26474728598215,0 -102.5730905994112,20.26475894347877,0 -102.5728095583931,20.26477060200165,0 -102.5723199359455,20.26472429641839,0 -102.5719686610201,20.26473886373101,0 -102.5716900283941,20.26468383313842,0 -102.5713412996058,20.26463173906753,0 -102.5709927279575,20.26457966714566,0 -102.5707820699257,20.26458839696354,0 -102.56880482479,20.26432533296192,0 -102.5687366972302,20.26432810110613,0 -102.5684641783814,20.26433917569256,0 -102.5681912866268,20.26435029820577,0 -102.5677860181969,20.2644298181762,0 -102.5674488420351,20.2645065847912,0 -102.567187554475,20.26470648467886,0 -102.5669259218692,20.26490664792182,0 -102.5668006742223,20.26510151482588,0 -102.5664741163206,20.26536826637674,0 -102.5662803374537,20.26556662316885,0 -102.566089997506,20.26582880761585,0 -102.5660401831908,20.2661496520959,0 -102.5659178348141,20.26641031729013,0 -102.5658714208378,20.26679677960521,0 -102.5658937638819,20.26718169352932,0 -102.5657707324386,20.26744462953838,0 -102.5657201812872,20.26776988178423,0 -102.565731265484,20.26796376681983,0 -102.5656113187878,20.26829326807798,0 -102.5655567086432,20.26855582246167,0 -102.5655823716222,20.26901171384217,0 -102.5656007625428,20.26933842128764,0 -102.5656925267096,20.26972876917428,0 -102.5657730938829,20.26992250545585,0 -102.5658610940558,20.2702478941669,0 -102.5660889302093,20.27056815377958,0 -102.5662474054809,20.27089211684729,0 -102.5664062540558,20.27121684019907,0 -102.56656161629,20.27147597857935,0 -102.566925012515,20.27166260487104,0 -102.5672937690337,20.27191711231383,0 -102.5674384741989,20.27197813878792,0 -102.5677320633171,20.27216668752456,0 -102.5680260805898,20.27235551016866,0 -102.5682545498793,20.27261465018716,0 -102.5684140292222,20.27287873928461,0 -102.5684367439038,20.27321611403767,0 -102.5684543756432,20.27348579530418,0 -102.5684720424703,20.2737560263617,0 -102.5684189777774,20.27402984591699,0 -102.5683036422733,20.27444301557212,0 -102.5681747477977,20.2746528527577,0 -102.5678452110829,20.27507634847266,0 -102.5677826006427,20.27521589596585,0 -102.5675108369192,20.27543351317433,0 -102.5672344386297,20.27558282069214,0 -102.566890449209,20.27580385316505,0 -102.5666125849937,20.27595143603817,0 -102.5663382925203,20.27616754321051,0 -102.5660599423689,20.27631541000081,0 -102.5656498463077,20.27667706219665,0 -102.5655857848457,20.27681827095936,0 -102.5653105466697,20.27703770866402,0 -102.5650993234971,20.27711583094228,0 -102.5648234089014,20.27733573509025,0 -102.5643967130682,20.27742284877918,0 -102.5641098855148,20.27743462133936,0 -102.5637513433222,20.27744933651987,0 -102.5635330140456,20.27738869473414,0 -102.5633116535827,20.2772586822478,0 -102.5629442415847,20.27706538225927,0 -102.5626489372552,20.27686959883269,0 -102.5624313812292,20.27680939645611,0 -102.5622082355243,20.2766110913164,0 -102.561982642531,20.27634418812347,0 -102.5617602887495,20.27614607220869,0 -102.561390499491,20.27581655418803,0 -102.5611716544271,20.27568788755828,0 -102.5609503586018,20.27549178647237,0 -102.5606534281969,20.2751621456456,0 -102.5605065446539,20.27503128208404,0 -102.560213245599,20.27476997117836,0 -102.5600623134351,20.27450354228573,0 -102.5597677063313,20.27417616826684,0 -102.5595466978258,20.27391428618997,0 -102.5593261286611,20.27365292660594,0 -102.5589648463698,20.27339780618675,0 -102.5588197481725,20.27326900865971,0 -102.558461392841,20.27308176281434,0 -102.5582462801282,20.27295612301286,0 -102.5580298950186,20.27276319062663,0 -102.557741926918,20.27250643011459,0 -102.557667163986,20.27230814491524,0 -102.55738148714,20.27211928973881,0 -102.557236766332,20.27192479215833,0 -102.5569517953551,20.27173662648692,0 -102.5565955204771,20.27141789757482,0 -102.5564545133102,20.27135700212314,0 -102.5561693348176,20.27103662402002,0 -102.5560253982782,20.27077767980426,0 -102.5559503162138,20.27045068979373,0 -102.5559460127711,20.27018754176184,0 -102.5559406461336,20.26985940073411,0 -102.5560031775709,20.26946427454066,0 -102.5560677725446,20.2692006544992,0 -102.5561310421284,20.26887256407483,0 -102.5563335506385,20.26860463332895,0 -102.5563963424651,20.26827802894501,0 -102.5565291940993,20.26801403123405,0 -102.556594212313,20.26781775402023,0 -102.5567266355169,20.26755466858347,0 -102.5568574545497,20.26722791208073,0 -102.5569206197124,20.26696876562181,0 -102.5570508984141,20.26664346938303,0 -102.5571137319165,20.26638548223562,0 -102.5572450128695,20.26612521921146,0 -102.5574430603771,20.26579922204574,0 -102.5576408369647,20.26547402209553,0 -102.5577701563922,20.26515243647088,0 -102.5579006587228,20.26489469146988,0 -102.5578945237654,20.26464304052614,0 -102.5578853330125,20.26426657530066,0 -102.5578774448518,20.26395372558726,0 -102.5578665695889,20.26351712864603,0 -102.5577900106507,20.26314708542139,0 -102.5577856128807,20.2629611321413,0 -102.557779759672,20.26271366995325,0 -102.5577050538613,20.26240787252653,0 -102.5576319718291,20.26216439508158,0 -102.5574904152896,20.26186288281147,0 -102.5574204644123,20.26174306598848,0 -102.5572791607922,20.26144252038663,0 -102.5570704468847,20.26114504039964,0 -102.5568651579338,20.26097027312459,0 -102.5566601764321,20.26079576616856,0 -102.5564555028837,20.26062151999821,0 -102.5561843835751,20.26045035420808,0 -102.555980377707,20.26027663091454,0 -102.5557100345325,20.26010598905859,0 -102.5553768782979,20.26012009320613,0 -102.5551098325847,20.2601310176209,0 -102.5548423192667,20.26014165490169,0 -102.5545747831863,20.26015229184922,0 -102.5542404047578,20.26016563203606,0 -102.5539737981365,20.26023700018197,0 -102.553707489128,20.26036893617348,0 -102.5534412702305,20.26056164257305,0 -102.5531077120807,20.26075737224539,0 -102.552907599647,20.26094794428132,0 -102.5527743960623,20.26119703479356,0 -102.5525067709504,20.2615132174753,0 -102.552439824539,20.26163827751923,0 -102.5522384511957,20.26189152292722,0 -102.5521040392053,20.26226554599904,0 -102.55203666983,20.26239139525067,0 -102.551901721316,20.26264348762735,0 -102.5516984281548,20.26296064483391,0 -102.5516302831546,20.26321116863167,0 -102.5514264821366,20.26352990294963,0 -102.5512904703568,20.26378442999607,0 -102.5511544274985,20.26403950283766,0 -102.5509497460412,20.26448575315983,0 -102.5508132563934,20.26461669395224,0 -102.5508116464272,20.26493081439351,0 -102.5507439371633,20.26518545678687,0 -102.550742398259,20.26543785906782,0 -102.5505365056881,20.26569908859205,0 -102.5505347390642,20.26595257569049,0 -102.5503959738889,20.26627572098229,0 -102.5502568425221,20.26659971488912,0 -102.5501863317922,20.26685787297216,0 -102.5499774770719,20.26725026976351,0 -102.5498372391489,20.26757683653283,0 -102.5496979761066,20.26777538932123,0 -102.5496952813201,20.26803328316218,0 -102.5495549344971,20.26829723115423,0 -102.5494824499779,20.26862383116454,0 -102.5494105237069,20.26888629245347,0 -102.5493384432972,20.2691493167357,0 -102.5491962630679,20.26948094874768,0 -102.5491242319757,20.26974509171038,0 -102.5489840386967,20.27001207032838,0 -102.5487734809421,20.27041339601807,0 -102.5486322553697,20.27074733603907,0 -102.5485608197702,20.27094771088318,0 -102.5484177534772,20.27121769478634,0 -102.5483452311745,20.27141912500857,0 -102.5483408506465,20.27175076731743,0 -102.5481961793488,20.27208903829218,0 -102.5481213561285,20.27242532593433,0 -102.5480482504826,20.2726286806356,0 -102.5479730716636,20.27296639874038,0 -102.5478292519919,20.27317351263815,0 -102.5477557212615,20.27337805171628,0 -102.5476101877845,20.27372018290142,0 -102.5474642790904,20.27406319208399,0 -102.5474598240999,20.27433396826492,0 -102.5473849466652,20.27460798298664,0 -102.5473792613979,20.27494798185273,0 -102.5473735583104,20.27528888662548,0 -102.5472980462135,20.27556509686965,0 -102.5472212389229,20.27584266902141,0 -102.5472225850484,20.27618083396622,0 -102.5471568157106,20.27645154694911,0 -102.547081561518,20.27693372348829,0 -102.5470031216837,20.27735138022685,0 -102.5469276573123,20.27756248014784,0 -102.5469158890933,20.27784568079843,0 -102.5467685155913,20.27812924530121,0 -102.5464853366559,20.27841276482622,0 -102.5462700873736,20.27855902850958,0 -102.5459780758852,20.27871220998667,0 -102.5456179416156,20.27879650941875,0 -102.5451824371815,20.27895513102156,0 -102.5447532186586,20.27897126229352,0 -102.5441929664011,20.27965842769235,0 -102.543912321716,20.27966936915864,0 -102.5434212816433,20.27968851325069,0 -102.5432108697793,20.27969671515108,0 -102.5427150476385,20.27964884769837,0 -102.5426400424715,20.27958462579484,0 -102.5423598007,20.27959555872761,0 -102.5419303461324,20.27947838746009,0 -102.5415030006954,20.27936346986173,0 -102.5414331685996,20.27936638220998,0 -102.5410839814397,20.27938094379738,0 -102.5407347484491,20.27939550878341,0 -102.5403816809103,20.27934389824193,0 -102.5399630582236,20.2793624120648,0 -102.5396767361269,20.27924265289621,0 -102.5392503120877,20.27912693032626,0 -102.5389633754026,20.27900360535108,0 -102.5386071770287,20.27888284842364,0 -102.538251734012,20.27876234682605,0 -102.5381059018272,20.27863506122168,0 -102.5377547530014,20.27858089477119,0 -102.5374705886814,20.27845866473921,0 -102.5371147040219,20.27827339111655,0 -102.5365569418757,20.27823187296549,0 -102.5362039568542,20.27811932446772,0 -102.5358486027204,20.27793990302665,0 -102.535493428711,20.27776057082524,0 -102.5352759810881,20.27750768685479,0 -102.5350613483743,20.27732049844995,0 -102.5349813114109,20.27699729672065,0 -102.5349055425488,20.27680543341874,0 -102.5348945149243,20.27648163661916,0 -102.5348795647111,20.27609650605018,0 -102.5348696171981,20.27584022220807,0 -102.5348572020929,20.27552039552631,0 -102.5348423848591,20.27513733749888,0 -102.534832586187,20.27488239888059,0 -102.5348179160513,20.27450072416751,0 -102.5348057183399,20.27418333317619,0 -102.5347937453408,20.27386649925406,0 -102.535055316237,20.27353921886035,0 -102.5351870915434,20.27340741555621,0 -102.535379701918,20.27308398955104,0 -102.5354382277522,20.27282971962467,0 -102.5354261254961,20.27251605654038,0 -102.5354092341094,20.27207828621472,0 -102.5353947130151,20.27170423451223,0 -102.5352471740116,20.27139880240122,0 -102.5351675705029,20.2710913242648,0 -102.5350905210937,20.27084642492421,0 -102.534941516336,20.2704813476737,0 -102.5346651019786,20.27030758655081,0 -102.5344564205688,20.27013130312776,0 -102.5340462744447,20.26996360812978,0 -102.5337731214036,20.26985187220923,0 -102.5335674997775,20.26973754771855,0 -102.5330952802701,20.26969557424188,0 -102.5327559906561,20.26958699907705,0 -102.5322859916745,20.26960621145147,0 -102.5318825606147,20.26962226768548,0 -102.5316134078097,20.26963286389243,0 -102.5312769076143,20.26964611208591,0 -102.5309403437614,20.26965936429343,0 -102.5303359221675,20.26968402120425,0 -102.5301347680717,20.26969239122094,0 -102.5297322325712,20.26970898764779,0 -102.5294638140948,20.26972000595086,0 -102.5290619627116,20.26979770889022,0 -102.5287270977155,20.26987269953787,0 -102.5284601684437,20.27006746532949,0 -102.5282598753216,20.2702597145129,0 -102.5281276283086,20.27057264296878,0 -102.5278600070239,20.27089183787511,0 -102.5277265040361,20.27114452460205,0 -102.5275253943101,20.27146249540733,0 -102.5273234770425,20.27171911478586,0 -102.5271211329629,20.2719762752718,0 -102.5267825766974,20.27223946265132,0 -102.5265791480882,20.27243516192445,0 -102.5262388131957,20.27257400513516,0 -102.5258979049446,20.27265032869574,0 -102.5255573858381,20.27285219726751,0 -102.5253538756298,20.27298606152521,0 -102.5250825922836,20.27312280028757,0 -102.5248105089175,20.27332260623321,0 -102.5245373285569,20.27352269642557,0 -102.5241953678314,20.27366270550711,0 -102.5239901025588,20.27373414336276,0 -102.5237148107575,20.2739981571849,0 -102.5234392641396,20.27419931063353,0 -102.5230955920409,20.27434005332521,0 -102.5227480394178,20.27467185195611,0 -102.5224020627208,20.27487689934385,0 -102.5221240597747,20.27507951836101,0 -102.5218456674698,20.27528246383216,0 -102.5215653715851,20.27561383274158,0 -102.5212830836877,20.27601038794812,0 -102.5211429189476,20.27614469343682,0 -102.520860769736,20.27647828892504,0 -102.5206497535763,20.27668052323903,0 -102.5203678927617,20.27695065628355,0 -102.5202236409093,20.27721579714375,0 -102.5201466822828,20.27754383529895,0 -102.5199970067539,20.27800620650434,0 -102.5199889101201,20.2783335408129,0 -102.5199825378404,20.2785959968215,0 -102.5199747698415,20.27892476958316,0 -102.5199685436555,20.27918840588903,0 -102.5199574968101,20.27965114307206,0 -102.5200124188228,20.28011434147449,0 -102.5200062671617,20.28031454694984,0 -102.5200643208114,20.28071308527292,0 -102.5201966730013,20.28104211829433,0 -102.5202631256101,20.28124008828621,0 -102.5203941685509,20.28177119968014,0 -102.5203902787976,20.28197318924898,0 -102.5205189399394,20.28250889484855,0 -102.5205856764985,20.28264225065471,0 -102.5206477967612,20.2830471471062,0 -102.5207132402463,20.28338403471456,0 -102.5208512180785,20.28365050623601,0 -102.5208446135675,20.28406031384024,0 -102.5208401989044,20.2843342043043,0 -102.5209777120726,20.28467122323036,0 -102.5210424646825,20.28494511412664,0 -102.5212494246536,20.28535102113618,0 -102.5213178286525,20.28555556483544,0 -102.5215263903935,20.28589422765071,0 -102.5216653138677,20.28616669013013,0 -102.5220211160262,20.28636099192785,0 -102.5224460810139,20.28662464278792,0 -102.5228731014824,20.28681862889049,0 -102.5232280336259,20.28708626134167,0 -102.5236580818761,20.28720992795582,0 -102.5242316085907,20.28746898869278,0 -102.5246634663053,20.28752243104789,0 -102.5248769506788,20.2877276881683,0 -102.5251635291242,20.28785946111441,0 -102.5255234747407,20.28791702017537,0 -102.5258124913477,20.28804687721249,0 -102.5264638009586,20.28823302164401,0 -102.5267535532323,20.28829216737753,0 -102.5271164272023,20.28849059436146,0 -102.5274794514318,20.28861822469649,0 -102.5277702715742,20.28874904781429,0 -102.5281345214712,20.28894850187146,0 -102.5285724180392,20.28914463677067,0 -102.5287936077042,20.28934855979695,0 -102.5290151144312,20.28955277250683,0 -102.529237892233,20.28982893944322,0 -102.5296055025935,20.29010279601576,0 -102.5298257709796,20.29031374584034,0 -102.5299728722665,20.2904546228434,0 -102.5301939071583,20.29066630639408,0 -102.5303438531585,20.29095278036181,0 -102.5304929664604,20.2911672302898,0 -102.5305708666801,20.29145630346261,0 -102.530650615572,20.29181798233448,0 -102.5307285654713,20.29203259964568,0 -102.5307340765385,20.29232465111488,0 -102.5309856364712,20.29342416852585,0 -102.5311213179899,20.29397813948135,0 -102.531196187024,20.29453125233909,0 -102.5311666812981,20.29495383525559,0 -102.5308981228928,20.29558813699794,0 -102.5304416821738,20.2960835656056,0 -102.5298325941446,20.29647942962007,0 -102.5289678565034,20.29683286817657,0 -102.5275917634511,20.29730813358773,0 -102.5262576056384,20.29783736083777,0 -102.5255667730239,20.29825059907341,0 -102.5248448346422,20.29870640732529,0 -102.523853884114,20.29934480969127,0 -102.5232311079696,20.29978050189328,0 -102.522661299325,20.30023129017147,0 -102.5220718784874,20.30048104436041,0 -102.5208508494406,20.30076485849262,0 -102.5197101809067,20.30077737341605,0 -102.5187838401726,20.30066321641967,0 -102.5178532671488,20.30047393621648,0 -102.5172729508845,20.30043635568079,0 -102.516256919854,20.30040236949149,0 -102.5148664294673,20.30043153000873,0 -102.5140854535558,20.30038029121456,0 -102.5134843019078,20.30028988163395,0 -102.5128632521438,20.30016547592015,0 -102.5122420726934,20.3000507002282,0 -102.5117366971966,20.30003870591301,0 -102.5111838148716,20.3001223305881,0 -102.5106545607128,20.30032668485057,0 -102.5100758007173,20.30060787211656,0 -102.5095339264023,20.30096132103386,0 -102.5090639315908,20.3012917152964,0 -102.5084939810127,20.30180368424666,0 -102.5080009240621,20.30229746685938,0 -102.5074236175178,20.30311078453869,0 -102.5072879504806,20.30360966699493,0 -102.5072551241832,20.30438449413979,0 -102.5072228652697,20.30543626003356,0 -102.5072139478389,20.30631256378958,0 -102.5072625885104,20.3071048164131,0 -102.5073201603813,20.3076546060625,0 -102.5074745560896,20.30853956286998,0 -102.5075576820249,20.30908971675238,0 -102.5075746857707,20.30994481574101,0 -102.5076280949263,20.31075458366517,0 -102.5076352442351,20.31126513598014,0 -102.5074742641418,20.3121617245133,0 -102.5072558656605,20.31299269951618,0 -102.5070622764964,20.31374232042009,0 -102.5068538825738,20.31445212130116,0 -102.5065198459827,20.31522545879948,0 -102.5059692176236,20.31566272529762,0 -102.5053072045265,20.31590956775493,0 -102.5048252453024,20.31601274682864,0 -102.5042380630079,20.31605157664421,0 -102.5037101747668,20.31596310632153,0 -102.5031997131406,20.31567930670703,0 -102.502669964726,20.31526033123707,0 -102.5021112987726,20.3148611851387,0 -102.5011545419053,20.31412493995619,0 -102.5004763686294,20.31359593757102,0 -102.4999114367837,20.31314273018007,0 -102.4992551579017,20.31258705940378,0 -102.4988189943047,20.31206417208447,0 -102.4983203602226,20.31149052041645,0 -102.4980210988843,20.31097367530403,0 -102.4977855687902,20.31049819795416,0 -102.4975866453023,20.30996929943909,0 -102.4974081782071,20.3094453014512,0 -102.4972576784259,20.30901826095654,0 -102.4970932185572,20.3085707884438,0 -102.4968063231917,20.30817550721692,0 -102.4964783719843,20.30791002255803,0 -102.4961984555698,20.30779976981815,0 -102.4956822327932,20.30771269210087,0 -102.4946855089983,20.30772497427196,0 -102.4941359175449,20.30774366917873,0 -102.4934458674604,20.30781684932956,0 -102.4928530403403,20.30789467665574,0 -102.4919690762207,20.30812105974854,0 -102.4911641480271,20.30836880585749,0 -102.4905541531277,20.30863894908039,0 -102.4900239205768,20.30898329266491,0 -102.489672559018,20.30937334918401,0 -102.488962691359,20.31027896514123,0 -102.4887134020259,20.31067049576428,0 -102.4884869963598,20.31117191782711,0 -102.488346923508,20.31177750502513,0 -102.4881782123241,20.31244809284812,0 -102.4880846349139,20.31299222387012,0 -102.4880006967845,20.31366243721607,0 -102.4879044759299,20.31459219340017,0 -102.4878481221966,20.31498334165669,0 -102.4877424311377,20.31556976396751,0 -102.4876088329957,20.31643682809679,0 -102.4874928327839,20.31694688279784,0 -102.4872785056022,20.31779500372224,0 -102.486938314261,20.31881868820807,0 -102.4866972561855,20.31944308508118,0 -102.4862680022787,20.32010260226397,0 -102.4857577853117,20.32073244661854,0 -102.4846282755488,20.32196494339853,0 -102.4831628804699,20.32326902352682,0 -102.482153380186,20.32416211769193,0 -102.4811039922643,20.3249146752176,0 -102.4805168249892,20.32525806698689,0 -102.4792799440992,20.32571329477032,0 -102.4785738632765,20.32591787907375,0 -102.4778640982821,20.32604928764045,0 -102.4768525214718,20.3262631630203,0 -102.4756861578279,20.32666266376843,0 -102.4748339188635,20.32720823021401,0 -102.4742324922038,20.32753730724714,0 -102.4734734398622,20.3279976485956,0 -102.4721617940264,20.32876905664607,0 -102.471360737476,20.32921120737433,0 -102.4704263331555,20.32965260541285,0 -102.4694253497622,20.33004057786601,0 -102.4686565310511,20.33033495427262,0 -102.4682347201571,20.3304699590452,0 -102.4678221030361,20.3305331073673,0 -102.4670224803805,20.33054159196855,0 -102.4660801877403,20.33052128880561,0 -102.4653458064804,20.3304437387815,0 -102.4644721430604,20.33025695796288,0 -102.4631703415218,20.32987456326786,0 -102.4622075295961,20.32962311844311,0 -102.4610095713223,20.32925560047566,0 -102.4601392143174,20.32900387656133,0 -102.4595382728229,20.32886802629099,0 -102.4587008422603,20.32872873367498,0 -102.4575152080894,20.32868238302329,0 -102.4565835213805,20.32866659217605,0 -102.4561732102684,20.32869511548845,0 -102.4557923880241,20.32874120983244,0 -102.4554628620543,20.32879743382816,0 -102.4550553062325,20.32891375274145,0 -102.4546823696893,20.32908669626233,0 -102.4543914366699,20.32932028505798,0 -102.4542443779146,20.32955975122935,0 -102.4541181720705,20.32986927608369,0 -102.45403501957,20.33016916612383,0 -102.4541761846945,20.33087321735137,0 -102.4543272902993,20.33117270860516,0 -102.4547148742327,20.33184422104212,0 -102.4549351751914,20.33223377656705,0 -102.4550437231162,20.33260351394582,0 -102.45505794326,20.3330319055468,0 -102.4549434568225,20.3335424519178,0 -102.4545998698535,20.33401884943283,0 -102.4541141101764,20.33439192857216,0 -102.4535054293698,20.33475521232115,0 -102.4530380489655,20.33498172318548,0 -102.4522185348642,20.33525789805281,0 -102.4516281943609,20.33553740153434,0 -102.4509301912128,20.33600925864721,0 -102.4499848668,20.33662024059098,0 -102.4492980955404,20.33710902107048,0 -102.4485850065875,20.33776565074598,0 -102.4479422806855,20.33817445209292,0 -102.4472811647083,20.3384016019988,0 -102.4465537332768,20.33843631383781,0 -102.4458387226251,20.33836540213887,0 -102.4448501331812,20.33817964673213,0 -102.4439796876723,20.33813667708624,0 -102.4431458024481,20.33814463088497,0 -102.4423047521414,20.33826331432253,0 -102.4415801759484,20.33844920398951,0 -102.4409047490668,20.33877828562615,0 -102.4402145713325,20.33914605336259,0 -102.4395401039637,20.33953420754013,0 -102.4386228938023,20.33996069726816,0 -102.4376067726566,20.34032367292863,0 -102.4363329926771,20.34065335909872,0 -102.4349877494842,20.34088048961549,0 -102.4337005028856,20.34098770583026,0 -102.4327600081289,20.34097891933288,0 -102.4317996860846,20.34087411088912,0 -102.4306670569424,20.34052491608438,0 -102.4298136199803,20.3402290119503,0 -102.4290230374598,20.339879803224,0 -102.4282182094239,20.33942457140739,0 -102.427568827222,20.33894139194445,0 -102.4271804250926,20.33851243721061,0 -102.4268605932975,20.33803748234009,0 -102.4265527751022,20.33758451725577,0 -102.4263054020519,20.33703167994478,0 -102.4261136127696,20.33667112323478,0 -102.4258288938791,20.33627050325518,0 -102.4255654740927,20.33587421764477,0 -102.4253817063898,20.33564878678164,0 -102.4252721779435,20.33547041233381,0 -102.4250721255306,20.33513944330968,0 -102.4248305498485,20.33478953594468,0 -102.4245567704999,20.33452495155718,0 -102.4241502110717,20.33415763574497,0 -102.4237823326997,20.33390740186334,0 -102.423295941154,20.3335777486324,0 -102.4226863292381,20.33330040651641,0 -102.4222645600655,20.33307183799565,0 -102.4218046483761,20.33280141439217,0 -102.4213113486168,20.33258698366377,0 -102.4208448357872,20.33241297157649,0 -102.4202011567554,20.33228202166608,0 -102.4196473935148,20.33225030192777,0 -102.4192400025431,20.33227489452729,0 -102.4186258711411,20.33242117458963,0 -102.4180640971196,20.33261937289213,0 -102.4173358867886,20.33294712126925,0 -102.4165932684168,20.33325467130623,0 -102.4160244227005,20.33349283462406,0 -102.4152063715637,20.33364475711941,0 -102.4145233182476,20.33367885193463,0 -102.4137462955253,20.33367874300174,0 -102.4131300774397,20.33366143011257,0 -102.412641875749,20.33362628124373,0 -102.4120308092246,20.33361231749734,0 -102.4113387500182,20.3336119703616,0 -102.410770498321,20.33352987765869,0 -102.4097319135222,20.33335369144515,0 -102.4090277018725,20.33299125015903,0 -102.4086716952066,20.33274468257079,0 -102.408201258381,20.33242171922479,0 -102.4078990178109,20.33215601941128,0 -102.4074521207184,20.33177610014354,0 -102.4069206038577,20.33133021741868,0 -102.4064517198724,20.33101874025246,0 -102.406083539683,20.33081189595302,0 -102.4051978053829,20.33035088469246,0 -102.4041349361737,20.32975992858961,0 -102.4030082924625,20.32911051680542,0 -102.4017076264846,20.32840296646048,0 -102.400896911251,20.32802565450824,0 -102.4001103857713,20.32770361407555,0 -102.3996436468186,20.32765619409093,0 -102.3988152284694,20.3278417644851,0 -102.3979778909907,20.32819387948485,0 -102.397288198229,20.32864237611818,0 -102.3966939437888,20.32908778792204,0 -102.3962795270339,20.3295419622788,0 -102.3958372497398,20.33031347205106,0 -102.3954649793159,20.33089261621771,0 -102.3950173302031,20.33163453280124,0 -102.3945825839444,20.33223973927778,0 -102.3940631271123,20.33277620986492,0 -102.3931928506158,20.33337248564742,0 -102.3922799944464,20.33375465963714,0 -102.3915383041799,20.33388751321553,0 -102.3908459412581,20.33385472117392,0 -102.3900012682587,20.33358573881162,0 -102.3888886490255,20.33321769303161,0 -102.3875861722713,20.33265400330359,0 -102.3868201823686,20.3322467493661,0 -102.3862471839647,20.33198604398409,0 -102.3855978855243,20.33158071983335,0 -102.3850103179895,20.33113316177605,0 -102.3844616091434,20.33064302983223,0 -102.3837956126887,20.3303237695499,0 -102.3828930191736,20.33000814655241,0 -102.3818392639678,20.32981751987794,0 -102.3810943324282,20.32965530834417,0 -102.3802335180535,20.32957766570397,0 -102.3792890731117,20.32948438553298,0 -102.3783742704535,20.32944188435903,0 -102.377092864957,20.32942265187691,0 -102.3758439057237,20.32948297072691,0 -102.3749720813531,20.32960654215133,0 -102.3743063206544,20.32972600177566,0 -102.373649147599,20.3297880552973,0 -102.3731802922545,20.32985578649514,0 -102.3728171568552,20.32989914569546,0 -102.3722451324961,20.32978168827075,0 -102.3714604288998,20.32932102914008,0 -102.3705830638289,20.3287446830999,0 -102.3697879323817,20.32827090729935,0 -102.3691272470672,20.32799611663191,0 -102.3683347992464,20.32781969102097,0 -102.3679249514087,20.32774939846656,0 -102.3671279725093,20.32771291847356,0 -102.3665965431418,20.3277599391871,0 -102.3660739467413,20.32791215539956,0 -102.365442376573,20.32823281976057,0 -102.3646829554994,20.32858156580889,0 -102.3637948172014,20.32890962183976,0 -102.3631561406307,20.32933522276693,0 -102.3627133320671,20.3297887954239,0 -102.3622833402091,20.33035962439977,0 -102.361852955456,20.33101849271528,0 -102.361581791083,20.33167476944096,0 -102.361300142482,20.33256870098875,0 -102.3610206190738,20.33340495385166,0 -102.3608403953238,20.33401757286818,0 -102.3605729015311,20.33474108918156,0 -102.3602433791568,20.33539648064991,0 -102.3594247812584,20.33634379268356,0 -102.3588216663429,20.33685087870694,0 -102.3581068718799,20.33717927999392,0 -102.3572893092201,20.33741763612916,0 -102.3563227282822,20.33752591538608,0 -102.3556900232569,20.33744765279247,0 -102.3547146638952,20.33715266011615,0 -102.3537559524962,20.33679892639233,0 -102.3526840722135,20.33635497588425,0 -102.3508119987076,20.33555929772973,0 -102.3496891654165,20.33504572800225,0 -102.3487974889647,20.33473722912864,0 -102.3481568543628,20.33460290211379,0 -102.3476148611181,20.33459127985237,0 -102.3473158136861,20.33464733464943,0 -102.3472081875332,20.33483315741786,0 -102.3470803894052,20.33502985337652,0 -102.3470399525874,20.33515564451065,0 -102.3470186554469,20.33528172633275,0 -102.3469877883746,20.3354076627919,0 -102.3469666452381,20.33552471798768,0 -102.3469359321602,20.33564162781665,0 -102.3469147889316,20.33575868299548,0 -102.3469030614609,20.33588491013738,0 -102.3469010579932,20.33600225603186,0 -102.3469183484807,20.33611086604605,0 -102.3469546247398,20.33622879339342,0 -102.3470101950391,20.33633798485203,0 -102.3470753353586,20.33644732165812,0 -102.3471406298675,20.33654763184046,0 -102.3472338638464,20.33669351110414,0 -102.3473369761552,20.33682148246228,0 -102.3474217191166,20.33690403004348,0 -102.3475064621678,20.33698657759282,0 -102.3474655627056,20.33713944861291,0 -102.3472914536013,20.33724515169969,0 -102.3472886797691,20.3374076306561,0 -102.3474007461583,20.33757185381455,0 -102.3476003298466,20.33765614548888,0 -102.3477438802749,20.33765832548446,0 -102.347887430722,20.33766050536235,0 -102.348059075043,20.33769922751637,0 -102.348230565419,20.337746976126,0 -102.3483636217062,20.33780317001438,0 -102.3484866459421,20.33788629837282,0 -102.3485804980534,20.33799607065701,0 -102.3486260378831,20.33813219634459,0 -102.3485366725281,20.33832044772228,0 -102.3483630247402,20.33839907195302,0 -102.3482387677681,20.33838815639077,0 -102.348114664887,20.33836821412828,0 -102.3479907161179,20.3383392451682,0 -102.3478294115954,20.33825553514363,0 -102.347685398346,20.33828043498902,0 -102.347578432588,20.33837812896272,0 -102.347529041259,20.33846766833393,0 -102.3475271920851,20.33857598764437,0 -102.3474961703244,20.33871095073307,0 -102.3474081902186,20.33881796186006,0 -102.347291962021,20.33889745702161,0 -102.3471853038148,20.33897709746083,0 -102.3470787996305,20.33904771121667,0 -102.3469722953533,20.33911832489622,0 -102.3468752069587,20.33919811049059,0 -102.3467687024927,20.33926872402302,0 -102.3466526278096,20.33933919207906,0 -102.3465459689922,20.33941883205367,0 -102.3464394642374,20.33948944535004,0 -102.3463329593898,20.33956005857012,0 -102.3462168843106,20.33963052628797,0 -102.3461103792739,20.33970113934914,0 -102.3460037199476,20.33978077893073,0 -102.3458972147184,20.33985139183845,0 -102.3457809850323,20.33993088581302,0 -102.3456744796071,20.34000149856097,0 -102.3455678198647,20.34008113782583,0 -102.3454611600159,20.34016077701267,0 -102.3453543458223,20.34024944271296,0 -102.3452572559279,20.34032922722667,0 -102.345150595757,20.34040886618496,0 -102.345053505662,20.34048865056126,0 -102.3449562612047,20.34057746145999,0 -102.344859170907,20.34065724570394,0 -102.3447619262344,20.34074605646871,0 -102.3446648357339,20.3408258405803,0 -102.3445675908459,20.34091465121112,0 -102.3444705001427,20.34099443519034,0 -102.3443445443983,20.34108280907358,0 -102.344120880207,20.34128707291968,0 -102.3439078659903,20.34142829591785,0 -102.3438297607733,20.34151739717181,0 -102.3437420852236,20.34160635280504,0 -102.3436545639214,20.34168628180473,0 -102.3435480563861,20.34175689300033,0 -102.3434415487579,20.34182750411962,0 -102.3432181910805,20.34201371339306,0 -102.3429284585548,20.34216279667644,0 -102.3428503524079,20.34225189738157,0 -102.342781662043,20.34235017024445,0 -102.3427223874623,20.34245761527658,0 -102.3426631127927,20.34256506027826,0 -102.3426135627495,20.34266362432526,0 -102.3425638582163,20.34277121491856,0 -102.3425237239163,20.34287895113978,0 -102.3424834351249,20.34299571391194,0 -102.342452871017,20.34310359575587,0 -102.3424221524249,20.3432205041554,0 -102.3423914337762,20.34333741254298,0 -102.3423607150709,20.34345432091861,0 -102.34233956666,20.34357137494803,0 -102.3423184182065,20.34368842896995,0 -102.3422972697103,20.34380548298436,0 -102.3422759667241,20.34393156355633,0 -102.3422450933105,20.3440574984465,0 -102.3422333606105,20.34418372467604,0 -102.342212057483,20.34430980522379,0 -102.3421905998518,20.34444491232738,0 -102.3421788670392,20.34457113854008,0 -102.3421671341948,20.34469736474825,0 -102.3421555557803,20.34481456438863,0 -102.3421537022336,20.344922883147,0 -102.342151694211,20.34504022846688,0 -102.3421496861743,20.34515757378499,0 -102.3421572485779,20.34527506478871,0 -102.3421553949867,20.34538338354155,0 -102.3421533869159,20.34550072885541,0 -102.342151378831,20.34561807416751,0 -102.3421396457788,20.34574430034908,0 -102.3421374831859,20.34587067221865,0 -102.3421257500778,20.34599689839264,0 -102.3421044464315,20.34612297886655,0 -102.342083142738,20.34624905933239,0 -102.3420522684759,20.34637499409002,0 -102.3419831120362,20.34650034601903,0 -102.3418949688958,20.34661637992668,0 -102.3417878390341,20.34672309578155,0 -102.3416905885814,20.34681190416112,0 -102.3415933380178,20.34690071247328,0 -102.3414865167883,20.34698937498268,0 -102.3413894205229,20.34706915659877,0 -102.3412827535962,20.34714879240146,0 -102.3411760865629,20.34722842812608,0 -102.3410603124896,20.34728083835381,0 -102.3409352768802,20.3473150496244,0 -102.3408102412259,20.34734926079908,0 -102.3407134535455,20.34741098887204,0 -102.3406256180789,20.34750896886562,0 -102.3405569236703,20.34760724038416,0 -102.3404974905975,20.34772371075606,0 -102.3404476280263,20.34784032689498,0 -102.3403979199607,20.34794791646283,0 -102.3403671984498,20.34806482416385,0 -102.3403270608585,20.34817255949957,0 -102.3402867686044,20.34828932136461,0 -102.340246630882,20.34839705666667,0 -102.3402063384902,20.34851381849723,0 -102.3401901414781,20.34854887565205,0 -102.3404267924279,20.34862600791982,0 -102.3405942595544,20.34872091037062,0 -102.3407441432528,20.34884078239319,0 -102.3408938974898,20.34899120527591,0 -102.341059929059,20.34915483605377,0 -102.34124216341,20.34932910035087,0 -102.3414293969845,20.34950908727749,0 -102.3416075387684,20.34967864718501,0 -102.3417767219965,20.34984884066336,0 -102.34195095184,20.35001645185392,0 -102.3421203461383,20.35017530889276,0 -102.3422791281071,20.35032604158725,0 -102.3424274643771,20.35046696777466,0 -102.3425633680778,20.35060263395766,0 -102.342708275989,20.35074270328512,0 -102.3428673779389,20.3508966782251,0 -102.3430371325861,20.35105937097066,0 -102.3432156441938,20.35122911937566,0 -102.3434002060124,20.35140527810038,0 -102.343592779112,20.35159006022009,0 -102.3437876328423,20.35177513422754,0 -102.3439801922998,20.35195673670729,0 -102.344184510565,20.35214833871675,0 -102.3443970067257,20.35235103505674,0 -102.3446160795826,20.35255887029425,0 -102.344825974964,20.35276133252632,0 -102.3450275056124,20.3529526547421,0 -102.3452375270614,20.35311029714416,0 -102.3454784043174,20.35321804519218,0 -102.3455811115013,20.35322872458739,0 -102.3455760196466,20.3532363244461,0 -102.3455413665593,20.35328784017462,0 -102.3455538627201,20.35334859625846,0 -102.345660860368,20.35348713901404,0 -102.3458315559645,20.35363992558661,0 -102.3459255647492,20.35370891678268,0 -102.3460203524918,20.35377893917864,0 -102.3461188276519,20.35384954395078,0 -102.3462090609677,20.35391360197967,0 -102.3463476124928,20.35401050058022,0 -102.346408927677,20.35404669892813,0 -102.3463932455982,20.354150071085,0 -102.3463777818403,20.35423826351949,0 -102.3463620017179,20.35433807225767,0 -102.3463391317317,20.35445802329504,0 -102.3463100460002,20.35458859447314,0 -102.3462863406263,20.35473226352467,0 -102.3462619150284,20.3548683860503,0 -102.3462380825811,20.3550052002042,0 -102.3462147704766,20.35515027199432,0 -102.3461896722764,20.35529800813578,0 -102.3461648650897,20.35544613241752,0 -102.3461389581623,20.3555954706015,0 -102.3461121213917,20.35574873938372,0 -102.3460855603043,20.35591505191128,0 -102.3460556851951,20.35609270675533,0 -102.3460234704163,20.35627740375734,0 -102.3459898715386,20.35646415186572,0 -102.3459615650292,20.35663353201735,0 -102.3459453704505,20.35673665426842,0 -102.3460094749663,20.35680753561797,0 -102.3460111892368,20.35694770598886,0 -102.3459843132181,20.35706830021415,0 -102.3459466759383,20.35721439189901,0 -102.3459153178482,20.35739150674285,0 -102.3458877102757,20.35756842125694,0 -102.3458592121022,20.35775654337527,0 -102.3458247463881,20.3579623057395,0 -102.3457811935276,20.35818629828827,0 -102.3457305773561,20.35844307217555,0 -102.3456783320819,20.35871039137268,0 -102.3456359375718,20.35896296174014,0 -102.3455957163427,20.35921512544281,0 -102.3455513450722,20.3594565194707,0 -102.345508151463,20.35968021035558,0 -102.3454760934915,20.35986609403274,0 -102.3454513570154,20.36001411256154,0 -102.3454246635312,20.36016549256096,0 -102.3453937373579,20.36033439289268,0 -102.3453582569546,20.36051374710089,0 -102.3453260702623,20.36068423628036,0 -102.3452702483012,20.36098636050668,0 -102.3452444803005,20.36114635004048,0 -102.3452144782028,20.36132080447251,0 -102.3451825514618,20.36151065730269,0 -102.3451513417917,20.36171080410239,0 -102.3451157568566,20.36191127613061,0 -102.3450845979338,20.36210659681467,0 -102.3450588361287,20.36229423018703,0 -102.3450277521598,20.36248739494491,0 -102.3449851933269,20.36269473292187,0 -102.3449413501696,20.36290141479618,0 -102.3449032074038,20.36309197650614,0 -102.3448759349548,20.36324381784922,0 -102.34488626759,20.3633610756153,0 -102.3449628146942,20.36346238380883,0 -102.3451150863825,20.36351438800692,0 -102.3453050229996,20.36354057906778,0 -102.3454949448327,20.3635648384031,0 -102.3457097852585,20.36359945451875,0 -102.3459357113442,20.36363419926923,0 -102.3461387082302,20.36366313969904,0 -102.346310992352,20.36368396887552,0 -102.3464881837007,20.36371468063882,0 -102.3466843944984,20.36374358044309,0 -102.3468907571173,20.36377151030652,0 -102.3470999083357,20.36380305145133,0 -102.3473170540843,20.36383268513101,0 -102.3475395225297,20.36386566070431,0 -102.3477647282173,20.36389433198591,0 -102.3479791451384,20.36392444615012,0 -102.3481875562807,20.36395579512499,0 -102.3484092975376,20.36398703495359,0 -102.3486573133376,20.36402314493865,0 -102.3489024897122,20.36406042581393,0 -102.3491330772904,20.36409091523489,0 -102.349360321075,20.36411365186617,0 -102.3495657059635,20.36416369913525,0 -102.3497344862276,20.36424619361481,0 -102.3498328001133,20.36436420735771,0 -102.3498534876165,20.36452286124626,0 -102.3498235120119,20.36470754435467,0 -102.3497837082936,20.36490955184957,0 -102.3497424156341,20.36511974580424,0 -102.3497047301788,20.36532221520844,0 -102.3496698442296,20.36550847954896,0 -102.3496400543229,20.36565216314921,0 -102.3495943828885,20.36595762797176,0 -102.3495554298361,20.36617127482646,0 -102.3495256146394,20.36633788247922,0 -102.3494939163881,20.3665157404817,0 -102.3494590303072,20.36671194644502,0 -102.3494164078636,20.36693483818942,0 -102.3493687292379,20.36717128042183,0 -102.3493228383854,20.36740685682731,0 -102.3492780354112,20.36766106833106,0 -102.3492329534468,20.36792223773322,0 -102.3491871782312,20.36817768397865,0 -102.34914217672,20.36844112534276,0 -102.349093100504,20.36871311565362,0 -102.3490403875573,20.36897783020444,0 -102.348991789544,20.36923341037997,0 -102.3489379429241,20.36948426357573,0 -102.3488876821756,20.36973436221111,0 -102.3488406502576,20.36999093130422,0 -102.3487919696759,20.37026002999027,0 -102.3487451569562,20.37054172532229,0 -102.3486917415125,20.37083142463783,0 -102.3486415138747,20.37112976518588,0 -102.3485859168169,20.37142433391925,0 -102.3485350286695,20.37170482498928,0 -102.3484870526174,20.37195962331468,0 -102.3484293894986,20.37220278506468,0 -102.3483379503524,20.37242921545989,0 -102.3482105079052,20.37265823680651,0 -102.3480694074224,20.37290060185554,0 -102.3479277887538,20.3731427837221,0 -102.347799003955,20.3733749199839,0 -102.3477037882262,20.37360204634887,0 -102.3476562294119,20.37382923379272,0 -102.3476383095752,20.37398003498173,0 -102.3476419329232,20.37419638962694,0 -102.3476543532513,20.37434670421617,0 -102.3476568106268,20.37449334690004,0 -102.3476606008403,20.37464810338254,0 -102.3476644533407,20.37482698516555,0 -102.3476728290447,20.37500742820775,0 -102.3476887339749,20.37515654890013,0 -102.3477053711714,20.37528838310477,0 -102.3477079094712,20.37532040304149,0 -102.3477361154605,20.37549979519266,0 -102.3477359947138,20.37561601542934,0 -102.3479303857858,20.37562595844407,0 -102.3479443720477,20.37562857465686,0 -102.3480305412301,20.37563281589278,0 -102.3482058632789,20.3756416857968,0 -102.348425885189,20.3756516974961,0 -102.3486725268059,20.37567086086495,0 -102.3489027716406,20.37569315684781,0 -102.3491027699092,20.37571134234044,0 -102.3493171321959,20.37573296205991,0 -102.3495476650222,20.37574811611431,0 -102.3497825762007,20.37576244792539,0 -102.3500363910605,20.37578300232651,0 -102.3502970704803,20.37580584385028,0 -102.3505364559247,20.37582221186707,0 -102.3507751450935,20.37583865295245,0 -102.3509839758071,20.37585292014714,0 -102.3511991478047,20.37587426367097,0 -102.3514560099162,20.37591455533487,0 -102.3517232685695,20.37595630920877,0 -102.3520231896763,20.37598469923576,0 -102.3523494106117,20.37600774564431,0 -102.3526921043131,20.37603303964915,0 -102.3530362883366,20.37605837365879,0 -102.3533650705181,20.37608936284246,0 -102.3537000195169,20.37611578514088,0 -102.3540544092706,20.37614520144194,0 -102.354424452234,20.37617434531044,0 -102.3547988686288,20.37620290822056,0 -102.3551578455201,20.37622670635914,0 -102.3555173321275,20.37625167624762,0 -102.3558858396555,20.37627489513649,0 -102.3562397403556,20.37629224325691,0 -102.3565607672809,20.37631752451275,0 -102.3568454989075,20.37633874184841,0 -102.3570979823712,20.37636225271322,0 -102.357257637609,20.37638902532034,0 -102.3573850905901,20.37639932398571,0 -102.3575313409366,20.37640031050421,0 -102.3577210558278,20.37641343852298,0 -102.3579333552251,20.37643606214668,0 -102.3581590918173,20.37646304058597,0 -102.3583735123446,20.3764825699613,0 -102.3585389317434,20.37649565323257,0 -102.3589121779377,20.37654241292377,0 -102.3591098865386,20.37656340830263,0 -102.3593330091986,20.37657692046794,0 -102.3595917789655,20.37659468935886,0 -102.3598374573103,20.37661367360964,0 -102.3600841810908,20.37663289543329,0 -102.360327088396,20.37665116259268,0 -102.3605797329269,20.37667334819311,0 -102.3608480447342,20.37669043710774,0 -102.36113189087,20.37670388549276,0 -102.3613911034581,20.37671232965976,0 -102.3615590260478,20.37672240522806,0 -102.3617239551591,20.37674876423877,0 -102.3619018330263,20.37676953052258,0 -102.3620929350975,20.37679687657158,0 -102.3623061465076,20.37681614272554,0 -102.3625353485975,20.37683544733879,0 -102.362788163854,20.3768557561614,0 -102.363047114756,20.37687787741708,0 -102.3633031000864,20.37690204183052,0 -102.3635635203592,20.37692200224504,0 -102.3637114638638,20.3769330594209,0 -102.3638243472624,20.37694688742535,0 -102.363967897065,20.37695860839568,0 -102.3641488366969,20.37696890624761,0 -102.3643789037264,20.37698930319387,0 -102.3646532752676,20.37700701336694,0 -102.3649481350655,20.37702616134471,0 -102.3652436158181,20.37705548756589,0 -102.3655224266654,20.37708373891442,0 -102.3657803821137,20.3771086148595,0 -102.3660428006964,20.37712756617895,0 -102.3663248605639,20.37714697987905,0 -102.3666157514122,20.37716719286058,0 -102.3668770195083,20.37719042425828,0 -102.3671539727388,20.37721088815029,0 -102.3674621583314,20.37722541524356,0 -102.367785259245,20.37720975806563,0 -102.368136194538,20.37717398566438,0 -102.3685211176059,20.3771391597384,0 -102.3689144595711,20.37710159413946,0 -102.3692743793476,20.37707256602263,0 -102.3696504738247,20.37704548127608,0 -102.3700436498476,20.37701773869265,0 -102.3704195864493,20.37698894973113,0 -102.3707752899245,20.37695818087141,0 -102.3711206625982,20.37693296009372,0 -102.3714338450882,20.37691071150995,0 -102.3716834715026,20.37689312587379,0 -102.3718734704153,20.37688269425232,0 -102.3720405822962,20.37686377150251,0 -102.3722097814651,20.37684428861982,0 -102.3723764168854,20.37682686621005,0 -102.3725427244915,20.37680968789361,0 -102.3727160575736,20.37679503775238,0 -102.3728911577015,20.37678318779611,0 -102.3730607252949,20.3767726962432,0 -102.3732371526315,20.3767588596492,0 -102.3734348226359,20.3767424580543,0 -102.3736300895691,20.37673248305203,0 -102.3736763459881,20.37672919430877,0 -102.3746999471749,20.37664340362257,0 -102.3794878934142,20.42338715214445,0 -102.4601724544836,20.43958861437018,0 -102.4610374655105,20.43932479575566,0 -102.464035176581,20.43812758700243,0 -102.4642757329779,20.43813592269776,0 -102.4649964994842,20.4378979157541,0 -102.4657173258672,20.43767804500163,0 -102.4664380866878,20.43744003247516,0 -102.4666786425566,20.43744836385012,0 -102.4691395055835,20.43683314475695,0 -102.4724480618678,20.43652361566619,0 -102.4741308946419,20.43628257548107,0 -102.4743714494548,20.43629089511852,0 -102.4747273590444,20.43627164668313,0 -102.4765314838703,20.4349600112795,0 -102.477365483478,20.43410487303214,0 -102.4775101630577,20.43402558170865,0 -102.4783641152286,20.43355757219477,0 -102.4794151838575,20.43423446863876,0 -102.4801375131953,20.43444985650376,0 -102.4808607159259,20.43491011150295,0 -102.481640808457,20.43513437984699,0 -102.4824519336507,20.43596619556821,0 -102.4837566902482,20.43762175660375,0 -102.4842385199507,20.4378378898484,0 -102.4847116399671,20.43830799369732,0 -102.4854451177579,20.43894051510726,0 -102.4856890337942,20.43988295919075,0 -102.4859303446969,20.44009985478416,0 -102.4861749831297,20.44124182374476,0 -102.4866568296598,20.44145795086953,0 -102.4868982104572,20.44169298424749,0 -102.487139526736,20.44190987864196,0 -102.4873809089729,20.44214491148882,0 -102.4881325831839,20.4424780720938,0 -102.4881066002215,20.44327626876596,0 -102.4883479215744,20.44349316096594,0 -102.4886406283576,20.44461683668565,0 -102.4922784753052,20.44485905572358,0 -102.4935990054861,20.44550778027541,0 -102.4946101302811,20.44574030328736,0 -102.4954679787633,20.44615470822819,0 -102.5016076322819,20.44642481541965,0 -102.5025792805704,20.44638533071326,0 -102.5027422746603,20.44623061064275,0 -102.5031266662658,20.44610236773358,0 -102.5032275217896,20.44607030741556,0 -102.5052051322661,20.44614989744342,0 -102.5088249671237,20.4467001436932,0 
					</coordinates>
				</LinearRing>
			</outerBoundaryIs>
		</Polygon>
	</Placemark>
</Document>
</kml>
