<?xml version="1.0" encoding="UTF-8"?>
<kml xmlns="http://www.opengis.net/kml/2.2" xmlns:gx="http://www.google.com/kml/ext/2.2" xmlns:kml="http://www.opengis.net/kml/2.2" xmlns:atom="http://www.w3.org/2005/Atom">
<Document>
	<name>Elemento_91.kml</name>
	<Style id="highlight00">
		<LineStyle>
			<color>7fff00aa</color>
		</LineStyle>
		<PolyStyle>
			<color>7fff55aa</color>
		</PolyStyle>
	</Style>
	<StyleMap id="styleMapID00">
		<Pair>
			<key>normal</key>
			<styleUrl>#normal00</styleUrl>
		</Pair>
		<Pair>
			<key>highlight</key>
			<styleUrl>#highlight00</styleUrl>
		</Pair>
	</StyleMap>
	<Style id="normal00">
		<LineStyle>
			<color>7fff00aa</color>
		</LineStyle>
		<PolyStyle>
			<color>7fff55aa</color>
		</PolyStyle>
	</Style>
	<Placemark>
		<name>Elemento_91</name>
		<styleUrl>#styleMapID00</styleUrl>
		<ExtendedData>
			<SchemaData schemaUrl="#schemaID">
				<SimpleData name="MUNICIPIO">TECOLOTLÁN</SimpleData>
				<SimpleData name="REGION">SIERRA DE AMULA</SimpleData>
				<SimpleData name="CLAVE">88</SimpleData>
				<SimpleData name="AREA_KMS2">638.680696812</SimpleData>
				<SimpleData name="GID">90</SimpleData>
			</SchemaData>
		</ExtendedData>
		<Polygon>
			<outerBoundaryIs>
				<LinearRing>
					<coordinates>
						-104.0584325943897,20.4127152604368,0 -104.0583376915919,20.41256114686425,0 -104.0582031905326,20.4126146319023,0 -104.0571574152187,20.4127987179848,0 -104.0565560103033,20.41240694328269,0 -104.0564655684709,20.41152099104097,0 -104.0565192108717,20.41058160691359,0 -104.0565145809291,20.40976840182693,0 -104.0564006799338,20.40958707840832,0 -104.0562190342608,20.40951381203159,0 -104.0561231444516,20.40952232799573,0 -104.0556802664017,20.40985423584145,0 -104.0554981800105,20.40985324898279,0 -104.0554313710633,20.40980771019012,0 -104.0554252589715,20.40923845114086,0 -104.0555829464183,20.40852551451378,0 -104.055348320303,20.40771106280952,0 -104.0544946843305,20.40782389277936,0 -104.0536621460097,20.40762059653155,0 -104.0525704731484,20.40747913507637,0 -104.0510026806351,20.4068381318728,0 -104.0496943145048,20.40609010585081,0 -104.0489204015033,20.40570640063413,0 -104.0481828823045,20.40563912711274,0 -104.0478383309174,20.4055649625031,0 -104.0466626546454,20.40506159296386,0 -104.0456873417336,20.40470387798886,0 -104.0450867220753,20.40419461057947,0 -104.0439837162536,20.40434216433304,0 -104.0435525316194,20.40433076338605,0 -104.0424304133909,20.40446916702586,0 -104.0416293662882,20.40465494027508,0 -104.041326732915,20.40472512379786,0 -104.0412017047989,20.40479671850914,0 -104.0411019028068,20.40543767631028,0 -104.0409280631164,20.4056535671449,0 -104.0402463130412,20.40586666150874,0 -104.0398030775567,20.40625273817381,0 -104.0396967098986,20.40640575226986,0 -104.0396559684162,20.40679404582144,0 -104.0395281928214,20.40730835392434,0 -104.0393904407595,20.40788585399392,0 -104.0387305930029,20.40765633297612,0 -104.0383955136647,20.40760027255553,0 -104.038136820497,20.40758980961721,0 -104.0378485917749,20.40770567741408,0 -104.0373486312328,20.40796494000579,0 -104.0368657570624,20.40855860148502,0 -104.0305448889777,20.40775163880453,0 -104.0311491856045,20.40763472987848,0 -104.0319970060092,20.40707920287883,0 -104.0332478884852,20.40581988842466,0 -104.0335283826297,20.40400213009221,0 -104.0351788026046,20.40372609463966,0 -104.0356562731606,20.403492954599,0 -104.0361337413411,20.40325981228465,0 -104.0365981767815,20.4028000924007,0 -104.0370598214541,20.40279391072546,0 -104.037294683025,20.40050511910068,0 -104.0377809869008,20.39958253361887,0 -104.038406261739,20.39766945380935,0 -104.0386657950293,20.39574313818165,0 -104.0391016464711,20.39517862819596,0 -104.0393734006135,20.39482665419064,0 -104.0396360174953,20.39374380606646,0 -104.0408517595197,20.39335562904144,0 -104.0419763172827,20.39202539038086,0 -104.0398512598151,20.39015828886288,0 -104.0392616772608,20.38933176066065,0 -104.0378190101793,20.38806316896256,0 -104.0373199306153,20.38621959344629,0 -104.0384119244504,20.38464493808926,0 -104.0396644635442,20.38542629503377,0 -104.0401891792368,20.38641694661681,0 -104.0404619966438,20.38664910419949,0 -104.0409195166716,20.38573597429837,0 -104.0417781782617,20.38463606041501,0 -104.0413729589241,20.38391590832477,0 -104.04119562771,20.38283764317983,0 -104.0410976162654,20.38224167525198,0 -104.0411075776418,20.3809898983755,0 -104.0405970073515,20.38029837045768,0 -104.0403463464072,20.37962149419072,0 -104.0391705116235,20.3788209787781,0 -104.0388636694672,20.37824462184025,0 -104.038870780423,20.37680242157745,0 -104.0388367844191,20.37582333555399,0 -104.0374864593245,20.37429049445341,0 -104.0354409980261,20.37385532598957,0 -104.0347178523803,20.37309406946775,0 -104.0351853901225,20.37220804210256,0 -104.035418952096,20.37175142628254,0 -104.0357739630582,20.37105736939927,0 -104.0351512764818,20.36994105092114,0 -104.0347851434513,20.36925664761045,0 -104.0344096713072,20.36859050833973,0 -104.0344994089598,20.3668841916525,0 -104.0314574573353,20.36456282225826,0 -104.0307816321981,20.36385431582446,0 -104.0306421540929,20.3631758917746,0 -104.0301962140185,20.36247769486895,0 -104.0298850270486,20.36207788117727,0 -104.0294335093674,20.36149776492631,0 -104.0294263496765,20.36148856599183,0 -104.0287731546737,20.36022902313389,0 -104.0281437351305,20.35976471918777,0 -104.0277172024966,20.35903048312917,0 -104.0281696804977,20.35868062425983,0 -104.0285722208149,20.35865575818307,0 -104.0287979004509,20.35869065208457,0 -104.0291177870874,20.35874011044101,0 -104.0293781481911,20.35847049797294,0 -104.0295813092741,20.35815539054417,0 -104.0295060224445,20.35793812416862,0 -104.0292957659726,20.35785563750209,0 -104.0288355770348,20.35790729070918,0 -104.028674239116,20.35766243941952,0 -104.0289555105383,20.35711284855058,0 -104.0292556578184,20.35660853871833,0 -104.0296891343329,20.35623146381831,0 -104.0308301822941,20.35607516408346,0 -104.0309960313704,20.3555972115687,0 -104.0308974456361,20.35539382932642,0 -104.0308974372313,20.35539379405443,0 -104.0308049981326,20.35541249470106,0 -104.0305923620339,20.35545551265455,0 -104.0305114780161,20.35547187568814,0 -104.0303173711656,20.35550630960055,0 -104.0303018088301,20.3555742818672,0 -104.0302692225245,20.35561640435759,0 -104.0302100200219,20.35572664730745,0 -104.0299376027755,20.35563646786865,0 -104.0297371390749,20.35554175266451,0 -104.0295085128974,20.35543373072306,0 -104.0294495936641,20.35539414295703,0 -104.0287970717787,20.35495570709082,0 -104.0281208586405,20.3545060859509,0 -104.0278243332733,20.35428591693668,0 -104.0276964162297,20.35424071485757,0 -104.0275647958091,20.35432064949013,0 -104.0274117456766,20.35444255935845,0 -104.0272573148028,20.35447589075558,0 -104.0271244963714,20.35447246473426,0 -104.0270011944225,20.35436987554119,0 -104.0270108162799,20.35427071219363,0 -104.026987484529,20.35421730538305,0 -104.0268756004969,20.35413539567009,0 -104.0268405144331,20.35401077553165,0 -104.0268047010967,20.35383403646457,0 -104.0268144262248,20.35374531128866,0 -104.0268185475125,20.35365144000943,0 -104.0268009537519,20.35358393389916,0 -104.0267978297001,20.35337548764678,0 -104.0267901947549,20.353234865302,0 -104.0267845577854,20.35319050746939,0 -104.0267650695013,20.35303715153301,0 -104.0267721137723,20.3527660260327,0 -104.0267473096471,20.35260729152606,0 -104.026656830427,20.35247821366089,0 -104.0265673659444,20.35241686120697,0 -104.0265068356649,20.35243852395308,0 -104.0264287110747,20.35239265795228,0 -104.0261542973669,20.35217219030413,0 -104.0260137993324,20.352063519632,0 -104.0258058344635,20.35184738578132,0 -104.0253912869672,20.35150369579302,0 -104.0253027600032,20.35150487514108,0 -104.0252041696285,20.35156873237298,0 -104.0251231201139,20.35170011901921,0 -104.0250191055017,20.35177446572182,0 -104.0248311298226,20.3517821878093,0 -104.0245696448904,20.35174286696821,0 -104.0243902253529,20.3515836752665,0 -104.0243220634231,20.35146471577641,0 -104.0242703236942,20.35133509597378,0 -104.0243119360939,20.35115734965869,0 -104.0245015377401,20.3508890149142,0 -104.0245274269891,20.35076877821276,0 -104.0244981833543,20.3506649354059,0 -104.0243068548588,20.35044857837731,0 -104.0241370478292,20.35023857937298,0 -104.0239400530148,20.34964703443492,0 -104.0237546349783,20.34908660752019,0 -104.0237226151093,20.34899141753964,0 -104.0234185205127,20.34808736668879,0 -104.0230952002757,20.34720758692634,0 -104.0228121530844,20.34640872371899,0 -104.0226304060315,20.34609320345906,0 -104.0222957432681,20.34565116578565,0 -104.0221315104562,20.34539797841381,0 -104.0220733923311,20.3452111214528,0 -104.0220653728594,20.34504445334796,0 -104.0220480532546,20.34478022480224,0 -104.02210580496,20.34472429228602,0 -104.0221510832463,20.3445769409515,0 -104.022272911649,20.34430718535881,0 -104.0224718057599,20.34406217136001,0 -104.0225850756067,20.34395237613012,0 -104.0225943261575,20.34383881581376,0 -104.0226595452547,20.34380700854611,0 -104.0227027914772,20.34377032123983,0 -104.0227610578168,20.3435903868461,0 -104.0228098558868,20.34355879756391,0 -104.022841693491,20.343491346154,0 -104.0228409218103,20.34343977449938,0 -104.0228469616164,20.34341557279965,0 -104.0228564163145,20.34337768992063,0 -104.0231374346075,20.34313675477913,0 -104.0233146102602,20.34290752312343,0 -104.0233559289573,20.34274195477962,0 -104.0234366406852,20.3426480616493,0 -104.0235430470197,20.34244553838203,0 -104.024037824015,20.34177171142785,0 -104.0242035864687,20.34151166773413,0 -104.02446390569,20.34125285566694,0 -104.0245240344539,20.34124688287269,0 -104.0246716597488,20.34123461923048,0 -104.0249425704969,20.34105052270352,0 -104.0252547438865,20.34070088179512,0 -104.0253532626105,20.34069956913893,0 -104.0255180797386,20.34073863466954,0 -104.0257521420838,20.34065299543617,0 -104.0262312814984,20.34012063923046,0 -104.0263070370994,20.33995615280231,0 -104.0263690857814,20.33971298246632,0 -104.0264661618814,20.33961886996231,0 -104.0265140310657,20.3395254138985,0 -104.0265731542541,20.33945242596408,0 -104.0266368245681,20.33931749799521,0 -104.0266798386276,20.3392653669147,0 -104.0267338750045,20.33921823686383,0 -104.0267655034867,20.33914046596313,0 -104.0268140675748,20.33909341018793,0 -104.0269555203779,20.33903481759386,0 -104.02707048376,20.33903843391997,0 -104.0271462577384,20.33898069345478,0 -104.0271551957559,20.33884651863486,0 -104.027215465363,20.33848473911677,0 -104.0273012099809,20.33833485288801,0 -104.0273967878122,20.33816777823003,0 -104.027511313498,20.33809042786359,0 -104.0275112604039,20.33809033995273,0 -104.0260338197518,20.33565572421911,0 -104.025787486971,20.33513721596571,0 -104.0257158620153,20.33498645048946,0 -104.0248803863949,20.33322782004647,0 -104.0248292594958,20.33221557589062,0 -104.0251477890154,20.33182883258987,0 -104.0250454829086,20.33134035316187,0 -104.0247317698501,20.33095911855135,0 -104.0247623183031,20.33067015779983,0 -104.0249019118086,20.32979450753363,0 -104.0249131328058,20.329532544948,0 -104.0247901423795,20.32928790443496,0 -104.0246280454958,20.32916954057603,0 -104.024446565366,20.32908720981411,0 -104.0234532457613,20.32862989661797,0 -104.0230180873211,20.32776007192231,0 -104.0226842078852,20.32754135749613,0 -104.0219709460785,20.32672418768331,0 -104.0210740569185,20.32616801220577,0 -104.0207307192247,20.32593117057963,0 -104.0199944999479,20.32534454329564,0 -104.0197717259035,20.32449008060204,0 -104.019463137337,20.32492114339111,0 -104.0186524708623,20.32436543954814,0 -104.0176156442733,20.32322116444595,0 -104.0171117178064,20.32263103548081,0 -104.0168553951342,20.32226818091878,0 -104.0168013524596,20.3217257565697,0 -104.0169769516967,20.32122076455969,0 -104.0167994018249,20.32073816550356,0 -104.0164872939189,20.31988981606794,0 -104.0164917926254,20.31917794394645,0 -104.0163879612251,20.31878340545991,0 -104.0154348506314,20.31597041528169,0 -104.0105858186436,20.31859158218401,0 -104.0090273799515,20.31965796307587,0 -104.0074873656397,20.31979518951281,0 -104.0054047808721,20.3199807411085,0 -104.0045448011655,20.31965961209014,0 -104.0040450218452,20.31992782620312,0 -104.0036308627144,20.32028687979968,0 -104.0029133049451,20.32165615791585,0 -104.0017974001031,20.32240875788547,0 -104.0008426279309,20.32342429495659,0 -104.0008154667883,20.32342829057868,0 -104.0004878935543,20.32347647949979,0 -104.0000568474355,20.32339418998907,0 -103.9987434177738,20.32366527604371,0 -103.9984340134269,20.3241152691947,0 -103.9987338823548,20.32514701092006,0 -103.9984252891351,20.32547051432015,0 -103.996967725511,20.32572418255675,0 -103.9962811672837,20.32821398379506,0 -103.9962401140239,20.3286384068401,0 -103.9962659922509,20.32908128472716,0 -103.9961862169987,20.32956873241882,0 -103.9963893042268,20.3307535215502,0 -103.9963881965397,20.33092518570659,0 -103.9963860410741,20.33105986241539,0 -103.9963721465723,20.3319280107149,0 -103.9964072540045,20.3324251531761,0 -103.9958474398355,20.33308151412184,0 -103.9955113723945,20.33320607717336,0 -103.9946411225218,20.33298422709482,0 -103.9934996935294,20.33322161087575,0 -103.993021173777,20.33315560782284,0 -103.9928672728663,20.33325410922298,0 -103.9927816323566,20.33464504880635,0 -103.9927125332733,20.33496088534651,0 -103.9926826266457,20.33514141855265,0 -103.9923634322186,20.33580899417895,0 -103.9920708522018,20.33642090082746,0 -103.9920029221734,20.33655603818124,0 -103.9896803948259,20.33722930789822,0 -103.9888745400358,20.33741438799138,0 -103.9881647070851,20.33756387920181,0 -103.9877433558967,20.3375433686291,0 -103.9875135226943,20.33753300197441,0 -103.9866801642576,20.33752817191865,0 -103.9859460319598,20.33769858245823,0 -103.9857687609346,20.33773973123736,0 -103.9847995282635,20.33800516132714,0 -103.9835393725325,20.33734729790189,0 -103.9812615700243,20.33703587157218,0 -103.9806873760749,20.33695120629657,0 -103.97997362693,20.33769696760041,0 -103.9791386085163,20.33794507875905,0 -103.9788112072121,20.33820518804948,0 -103.9777952553234,20.33828960084191,0 -103.9776312265957,20.33846934616683,0 -103.976761155779,20.33822030232815,0 -103.9765594053104,20.33830947332664,0 -103.97625234672,20.33838899196223,0 -103.9760802248839,20.3383428073623,0 -103.9756786870612,20.3382229961327,0 -103.9754866339487,20.3382941522325,0 -103.9753621685114,20.33828438726873,0 -103.9754147068752,20.33757994670238,0 -103.9752451467848,20.33714526107138,0 -103.975059571028,20.33705065722345,0 -103.9745100245022,20.33677050430053,0 -103.9741193226389,20.33646101326421,0 -103.9734642955952,20.3355626787,0 -103.973166922338,20.33543017934895,0 -103.972786179665,20.33526053173997,0 -103.9721490086607,20.33456107270683,0 -103.9705211846084,20.33447017524242,0 -103.9697926129657,20.33455623471377,0 -103.9688942018967,20.33425277445133,0 -103.9684139814175,20.33400136727247,0 -103.9682887633708,20.33394597141884,0 -103.9677967353607,20.33386898933563,0 -103.9677186761754,20.3338482858013,0 -103.967240228848,20.3337731776764,0 -103.9658889939224,20.33386457593822,0 -103.9655442865922,20.33384446573223,0 -103.9653598898517,20.33420478313465,0 -103.9648981944223,20.33449117653645,0 -103.9642460086504,20.33461380598493,0 -103.9634463488757,20.33530477699011,0 -103.9633513456554,20.33518675573143,0 -103.9626902403583,20.33520993895352,0 -103.9622703489387,20.33497253085076,0 -103.9621413741023,20.33420377192102,0 -103.9617628766923,20.33350581262455,0 -103.9613808225182,20.33334090901045,0 -103.9609879230708,20.3333656795707,0 -103.9607499700731,20.33313838465615,0 -103.9608204002832,20.33263283152772,0 -103.9606319710813,20.33216188017342,0 -103.9604405234254,20.33214267128486,0 -103.9595567702547,20.3325168920402,0 -103.959419951719,20.33292266200611,0 -103.9595143460676,20.33313103373208,0 -103.9594944032625,20.33324837273048,0 -103.9593008383177,20.33354538222884,0 -103.9586644826558,20.33416502142744,0 -103.9584146539293,20.33428099048645,0 -103.9582997113795,20.33428030547559,0 -103.9582036232826,20.33432490879537,0 -103.9576189685356,20.33437563421358,0 -103.9575411893602,20.33454683919337,0 -103.9576152135875,20.3349357944125,0 -103.9576906310483,20.33511694824391,0 -103.9576895409467,20.33527957539214,0 -103.9576312819699,20.335396685578,0 -103.9572754798528,20.33560237284095,0 -103.9571598092465,20.33571010511327,0 -103.957043168864,20.33596239472454,0 -103.9569647821226,20.33622394773978,0 -103.9567527785787,20.33641242155811,0 -103.9565221022239,20.33652850201741,0 -103.9562721468686,20.33666253741894,0 -103.9561371354202,20.33679725903165,0 -103.9558951805607,20.33716625676794,0 -103.9555099076315,20.33748018642994,0 -103.9553558587318,20.33759672320237,0 -103.954942393951,20.3378291662467,0 -103.9547786440525,20.33796371485116,0 -103.9547109245437,20.33806269693728,0 -103.9545562061967,20.33827861606943,0 -103.954381479125,20.33862090801442,0 -103.954205961167,20.33908065249604,0 -103.9541571553344,20.33921588827559,0 -103.9540995607474,20.33923361395418,0 -103.9540800991512,20.33927867342613,0 -103.9540412974966,20.3393507227079,0 -103.9537525336775,20.33955680343356,0 -103.9536565626826,20.33958333437585,0 -103.9531602264171,20.33931834125068,0 -103.9529589490808,20.33933520574786,0 -103.952768772061,20.33912625683651,0 -103.9521468182186,20.33902314146169,0 -103.9508111554888,20.33963855500287,0 -103.9496259418376,20.33925195727335,0 -103.948785876626,20.33882225238735,0 -103.9484103636216,20.33769059568753,0 -103.9482871847327,20.33749108048161,0 -103.9482018931161,20.33735503948107,0 -103.9481134408448,20.33627028550695,0 -103.9481523665796,20.33618016797777,0 -103.9483642574935,20.33600977466034,0 -103.9482144219144,20.33550290285124,0 -103.9480473741834,20.33488667391795,0 -103.9480181613769,20.33477890713766,0 -103.9480263026346,20.33437223111534,0 -103.9480326295096,20.33405617963852,0 -103.9481196304865,20.33393924586561,0 -103.9478953090243,20.33311569409504,0 -103.947562814973,20.33270710921532,0 -103.9477185760342,20.33233760445881,0 -103.9482952959113,20.33204291425409,0 -103.9483254362194,20.33183528633084,0 -103.9482055000027,20.33115692578832,0 -103.9478742924897,20.33055861038334,0 -103.9480021711377,20.33006244475076,0 -103.9481944693804,20.32995517961737,0 -103.9479195113046,20.32953790647547,0 -103.9479969314527,20.32942091495332,0 -103.9482389526468,20.32904289330432,0 -103.9482733683085,20.328202827816,0 -103.9481113341534,20.32808439552025,0 -103.9477641546008,20.32701615405053,0 -103.9465434239794,20.32623177683564,0 -103.944904358589,20.32640259707252,0 -103.9437075971845,20.32632308949448,0 -103.9432568621113,20.32621230596174,0 -103.9430477893547,20.32612649369324,0 -103.9414974838611,20.32537828505698,0 -103.9416731840786,20.32376600918709,0 -103.9420807636466,20.32279587819836,0 -103.9423703956129,20.32210648217192,0 -103.9416535151547,20.32172565891161,0 -103.9406110055225,20.32143061373872,0 -103.9399394625555,20.32085874839342,0 -103.9400862588069,20.32059351876019,0 -103.9403236654563,20.32016457661816,0 -103.9399720811956,20.31843497652556,0 -103.9399099388125,20.3181292622805,0 -103.9399162994342,20.31790244822637,0 -103.9398557919859,20.31675236101562,0 -103.9398521422831,20.31668298030137,0 -103.9398237963617,20.3161441860615,0 -103.9400039450844,20.31596957069851,0 -103.9398965273051,20.3158530407539,0 -103.9389454429353,20.31566342790181,0 -103.9389131648257,20.31565699328488,0 -103.9386885925906,20.31541498694421,0 -103.9367311077186,20.31432441809716,0 -103.9360227286619,20.31386183950059,0 -103.9343152935995,20.31344825135719,0 -103.9340517690718,20.31317045771452,0 -103.9326500700806,20.31329711679435,0 -103.9319667884513,20.31257119278991,0 -103.9312512829087,20.31228099913028,0 -103.9280877729036,20.31019895636775,0 -103.9271799907248,20.30923099131408,0 -103.9248859164063,20.30946865154441,0 -103.9242708688269,20.31015663038904,0 -103.9234757962335,20.30967695540399,0 -103.9234411617466,20.30926927862662,0 -103.9234723876076,20.30876100760824,0 -103.9222280064898,20.30777913519638,0 -103.9218874037627,20.30613284804694,0 -103.9207338885278,20.30477798100703,0 -103.9202626643586,20.3040856081344,0 -103.9171048327399,20.30373549442783,0 -103.915906047987,20.30325180465174,0 -103.9146630556725,20.30236055133199,0 -103.9142143095854,20.30257479362566,0 -103.9138074668152,20.30303337452818,0 -103.9134937715417,20.30260200437044,0 -103.9131671345548,20.30193499833855,0 -103.9121666129111,20.30187503489595,0 -103.9111777520994,20.30196002477684,0 -103.9095356409573,20.30139116878316,0 -103.9084383984022,20.30060686521769,0 -103.9080832346017,20.30059006167144,0 -103.9072370605708,20.30055002515138,0 -103.906620489481,20.3005208498874,0 -103.9054128590359,20.3014519763461,0 -103.9046427585815,20.30120668139671,0 -103.9030569254642,20.30070154540291,0 -103.9021884911874,20.30114773394987,0 -103.9011475722872,20.3016323528242,0 -103.9005772143018,20.3016150347546,0 -103.9005128951329,20.30161308205989,0 -103.8960530915495,20.30183805617303,0 -103.8947784516299,20.30190233363698,0 -103.8940322553135,20.30215650041547,0 -103.892968906008,20.30241461389425,0 -103.8917573371482,20.30238435177132,0 -103.890954114692,20.30252768554126,0 -103.8894081861137,20.30280354407988,0 -103.8883105568423,20.30336133240642,0 -103.8861916768251,20.30348216040209,0 -103.8841641475324,20.30359775538201,0 -103.8834313648609,20.30363952709606,0 -103.8824442620228,20.30316202232806,0 -103.8816060190678,20.30232897163043,0 -103.8810451998793,20.30209104620387,0 -103.8805710050951,20.3018611162509,0 -103.8788765232976,20.30166441303812,0 -103.8779155139591,20.30098703550044,0 -103.8778064483095,20.30095601547773,0 -103.8771820960876,20.30077843596426,0 -103.8748583007581,20.29886632920502,0 -103.8785212507277,20.29655321509728,0 -103.8786498994807,20.29597579531293,0 -103.8786722370588,20.29553322035299,0 -103.8788574944503,20.29507361870858,0 -103.8788920069131,20.29426971905735,0 -103.8790012404259,20.29372831466514,0 -103.8787259917389,20.29205506492706,0 -103.8791564183899,20.29079291151568,0 -103.8788955790891,20.28977931391925,0 -103.8790534405105,20.28780164426437,0 -103.8791997352235,20.28743214275252,0 -103.8796814925475,20.28701961217078,0 -103.8798014765672,20.28680801035175,0 -103.8800694407063,20.28633542799446,0 -103.8804951027172,20.285732799548,0 -103.8807664543733,20.2852827801049,0 -103.8810189780974,20.28478746446534,0 -103.8809839839821,20.28432645185671,0 -103.8807193797692,20.28383686674939,0 -103.8809625852394,20.28330535115375,0 -103.8806309567153,20.28281533769112,0 -103.8807139130514,20.28193042997997,0 -103.8813383839397,20.28030810449809,0 -103.8815896011972,20.2799934807162,0 -103.883318011781,20.27931784100452,0 -103.8836541043345,20.27918445684137,0 -103.8847135480472,20.27832383632655,0 -103.8836069371006,20.27774757678361,0 -103.8820586637655,20.27734015935374,0 -103.879575718777,20.27350709574642,0 -103.8788360408903,20.26643006494488,0 -103.8783015320476,20.2658596549863,0 -103.8781046974717,20.26527111425188,0 -103.8780523187168,20.26456604185303,0 -103.8780082153929,20.26404172421806,0 -103.8779914053815,20.26371635329607,0 -103.8771323493051,20.26334944865068,0 -103.8767417036239,20.26308492816154,0 -103.876223203574,20.26196125372339,0 -103.875690256906,20.26151511697077,0 -103.8756775509056,20.26062056161875,0 -103.8753944383036,20.26004953500213,0 -103.8746632530066,20.25921361479518,0 -103.8743040741802,20.25855302591575,0 -103.8742097102668,20.25837947482794,0 -103.8737814446254,20.25669619782246,0 -103.8734473495088,20.25655852518025,0 -103.873184722324,20.2562392451982,0 -103.8730961944073,20.25613161945751,0 -103.8738661770158,20.25556735580394,0 -103.8739462173301,20.25508901002022,0 -103.8735533816326,20.25513166226291,0 -103.8726611629621,20.25538794575937,0 -103.8707286684793,20.25386665137214,0 -103.8701564912234,20.25355577278518,0 -103.8696204043807,20.25310390401685,0 -103.8693192384059,20.252785012635,0 -103.8637608624789,20.25033908533239,0 -103.8642293443978,20.24947180202239,0 -103.8645609517602,20.24843390181973,0 -103.8649681592355,20.24730438720269,0 -103.8648917805714,20.24594502261666,0 -103.8648967652023,20.24560941977082,0 -103.8648587012078,20.24493880578104,0 -103.8636582463727,20.2435841672023,0 -103.8633126594123,20.24290825661958,0 -103.8640474665928,20.2411489953036,0 -103.8636046981754,20.24039266181235,0 -103.8636247787071,20.23975761210297,0 -103.8647968328624,20.23835573230679,0 -103.8650242419538,20.23742794291604,0 -103.8498717640046,20.18333741434298,0 -103.8498701013601,20.18333147552612,0 -103.8494900401422,20.18197430031853,0 -103.8498914674195,20.18183340147886,0 -103.8511507033348,20.18191780863597,0 -103.8524718726279,20.18091327180387,0 -103.8531735632,20.18095912108578,0 -103.854228123888,20.18081000122373,0 -103.8553493691098,20.18065144444081,0 -103.8559090316807,20.18059098263963,0 -103.8575261590407,20.18041627001858,0 -103.8597929837576,20.17974469144269,0 -103.8603429314017,20.17853189359148,0 -103.862017782638,20.17815365085187,0 -103.8622959695992,20.17809082476294,0 -103.8625128206576,20.17709973962406,0 -103.863051121358,20.17636411704203,0 -103.8634837075904,20.1757729537718,0 -103.8648599723955,20.17509497982606,0 -103.8652960290134,20.17488016698349,0 -103.864265846875,20.17083742215555,0 -103.8650064971916,20.16898095966427,0 -103.8652380270612,20.1687204334066,0 -103.8655835239863,20.16857809859958,0 -103.8678566243562,20.16916195333539,0 -103.868421926541,20.1690571676412,0 -103.8688817832349,20.16897880780286,0 -103.8704793294418,20.16770607586276,0 -103.8713784021312,20.16775702033428,0 -103.8725498611326,20.16718627858112,0 -103.8730988727465,20.16668382527268,0 -103.8749876569014,20.16615379923174,0 -103.8755554047793,20.16570566859967,0 -103.8764088287878,20.16544909898099,0 -103.8773420900331,20.1647322397965,0 -103.8774479185859,20.16465159813939,0 -103.8777450402362,20.16458121150988,0 -103.8791923088382,20.16423806170059,0 -103.8799614144281,20.1637279517712,0 -103.880698589813,20.16366939508079,0 -103.8812365146403,20.16337465367456,0 -103.8816759266534,20.16347683343315,0 -103.8821448794297,20.16346174212728,0 -103.8840150413999,20.16285018098029,0 -103.8843049658161,20.16244543469565,0 -103.8845415915873,20.16146209674162,0 -103.8852130649275,20.16122240002301,0 -103.8858759305861,20.16084711798113,0 -103.8863589304463,20.16019963902264,0 -103.8868774417699,20.15994089737724,0 -103.8873646228972,20.16005240000191,0 -103.8882551821137,20.15994960414227,0 -103.8886989126082,20.16079268147924,0 -103.889156179904,20.16107565961584,0 -103.8897500173985,20.16098905402209,0 -103.8898598640787,20.16098234068504,0 -103.890152052986,20.16096448371864,0 -103.8905258962611,20.16086745300839,0 -103.890862808992,20.16058044907092,0 -103.8913265251892,20.15995090453069,0 -103.8915181972833,20.15990693548792,0 -103.8917381894946,20.15991735589779,0 -103.8922705351171,20.16040860900789,0 -103.892883504266,20.16032211305203,0 -103.8928961193795,20.16030616932374,0 -103.8934241351265,20.15963883493975,0 -103.8939829415588,20.1590911976214,0 -103.894386690222,20.15882267684422,0 -103.8954676379682,20.15885656818636,0 -103.8961413090432,20.15830060898,0 -103.8968224477544,20.15804285672158,0 -103.8973636437218,20.15808596353664,0 -103.8978073986727,20.15812130811952,0 -103.8978129698684,20.15869056330798,0 -103.8987961509922,20.15902198512293,0 -103.8990151924115,20.15916791913262,0 -103.8994823594964,20.15940575673141,0 -103.8997954322412,20.15978719405463,0 -103.900044824813,20.15969840012994,0 -103.9001292456378,20.15974364396976,0 -103.9003689229498,20.15987209470393,0 -103.9003867924729,20.16005291127949,0 -103.9005084511564,20.16044218685142,0 -103.9006981602628,20.16067828814381,0 -103.9012148808987,20.16067247914331,0 -103.901588970759,20.16053928515665,0 -103.9018490691461,20.16028792098584,0 -103.902148448521,20.1598922373563,0 -103.9023599484485,20.15974899226161,0 -103.9025519336622,20.15965983675092,0 -103.9029253254902,20.15962602320398,0 -103.9035376565391,20.15962983833416,0 -103.9037102532674,20.15957670178076,0 -103.9039030577132,20.15937009152718,0 -103.9039323915458,20.15927992161256,0 -103.9039915637522,20.15902730284978,0 -103.9039384475805,20.15841257467003,0 -103.9039592228752,20.158177787328,0 -103.9039607367865,20.15796095057147,0 -103.9039547647046,20.1574459036872,0 -103.9039542396269,20.15742120797265,0 -103.903940360443,20.15676816962113,0 -103.9039807749469,20.15646122241838,0 -103.9041195125605,20.15577540631464,0 -103.9042556005827,20.15546905447471,0 -103.9044016337179,20.15510855281472,0 -103.9045939272383,20.15497422036367,0 -103.904881390169,20.15491276176066,0 -103.9051298273283,20.15495948316236,0 -103.9054911839843,20.15527796413801,0 -103.905671075709,20.15555014027747,0 -103.9057159532477,20.15597507661724,0 -103.9054810434303,20.15673257846503,0 -103.9055653244522,20.15699512503067,0 -103.9058028752274,20.15723151845393,0 -103.906234421462,20.15708963588573,0 -103.906479055206,20.1569269098358,0 -103.9066247347013,20.15677907792221,0 -103.9071277389443,20.15650771422369,0 -103.9074790712325,20.15638979440158,0 -103.9074995626118,20.15639078354095,0 -103.9077279435289,20.15640180780387,0 -103.9079947993717,20.15654977490459,0 -103.9080941305759,20.1567679593803,0 -103.90814595425,20.15703211332367,0 -103.9082698118258,20.15728024541468,0 -103.9085303438569,20.15754937796859,0 -103.9087509044587,20.1576931384137,0 -103.908905458527,20.15781613937361,0 -103.9091006812111,20.15792900978302,0 -103.9092747991143,20.15799409181765,0 -103.9093965138767,20.1579541275114,0 -103.9094663659957,20.15784752300324,0 -103.9095084136088,20.1578561889946,0 -103.9099058303942,20.15793810377623,0 -103.9111375191375,20.15784574011172,0 -103.9114947973679,20.15786167773691,0 -103.9117831547553,20.1578745403958,0 -103.9123065140464,20.15813705648939,0 -103.9126350849421,20.15833330227895,0 -103.9130156211138,20.15856058738587,0 -103.9134378659903,20.15884808910205,0 -103.9135011659239,20.15900105039038,0 -103.9135988072483,20.15942270514601,0 -103.9136761237572,20.15984459491022,0 -103.9137568301063,20.15997578914641,0 -103.9138638562426,20.16014976876825,0 -103.9139360734901,20.16023983164643,0 -103.9139753324252,20.16021744864934,0 -103.9142614982407,20.16005261695414,0 -103.9153603343225,20.15941967862587,0 -103.9173179783369,20.15829202948299,0 -103.9176044427043,20.15800019023369,0 -103.9178541350133,20.15786619592492,0 -103.9181032042607,20.15782255031807,0 -103.9191083011626,20.15775644197409,0 -103.9192423098945,20.15774822941902,0 -103.9201027733589,20.15784386269644,0 -103.9207141071223,20.15799217641105,0 -103.9220232595225,20.15823511540666,0 -103.9223198566152,20.15823693133193,0 -103.9226745416738,20.15813971394173,0 -103.9227229998937,20.15804965747597,0 -103.9227907793093,20.15793261331731,0 -103.9228499208694,20.15767998675677,0 -103.9220502735784,20.15708779778,0 -103.9216614160505,20.15658847493119,0 -103.9215711398175,20.15580185087331,0 -103.921486770104,20.15554834565441,0 -103.9214681937116,20.15546691415604,0 -103.9213573563993,20.15488797592355,0 -103.9214935967869,20.15455450437884,0 -103.9216767428626,20.15435684949628,0 -103.921936303601,20.15417773289769,0 -103.9222335131707,20.15408919938152,0 -103.9225029502364,20.15386496583138,0 -103.9226961575107,20.15359508892011,0 -103.9227550493005,20.15337860190632,0 -103.9227935046573,20.15335173125542,0 -103.9229137044552,20.15256639493354,0 -103.9230413014745,20.15209733941683,0 -103.9232575427348,20.15125837816284,0 -103.9234422309956,20.15083484782774,0 -103.9235795777313,20.15033874538609,0 -103.9235510619962,20.1503114651493,0 -103.9236098892363,20.15010401259237,0 -103.923600755538,20.15004070959003,0 -103.923630323888,20.14991439596945,0 -103.9237085946918,20.14966188564444,0 -103.9236845369627,20.14898409024739,0 -103.9236384351792,20.14873081975293,0 -103.9232902753473,20.14787937222958,0 -103.923330277486,20.147626628038,0 -103.9233507119982,20.14743701139589,0 -103.9233425074302,20.14723818436096,0 -103.923079277617,20.14655892657002,0 -103.9230985973158,20.14653193875937,0 -103.9230231148578,20.14637787690068,0 -103.9229664566476,20.14626910668872,0 -103.9229764571899,20.14620592065121,0 -103.9229202946563,20.14602487095314,0 -103.9229217194584,20.14581706746399,0 -103.9230968345873,20.14539347848142,0 -103.9233021353929,20.14475322622736,0 -103.9235152677693,20.14436601033663,0 -103.9237496988944,20.14366268816789,0 -103.9237881516279,20.14363581715424,0 -103.9238679656521,20.14315743293188,0 -103.9238706266431,20.14276893050474,0 -103.9239197596738,20.14257948896042,0 -103.9237430672277,20.14183751338483,0 -103.9236571792817,20.14040940814355,0 -103.9233681058824,20.13931436804219,0 -103.923687513244,20.13877420034446,0 -103.9242161429781,20.13841601603443,0 -103.9245343089472,20.13805654547372,0 -103.9246878663374,20.1379852001282,0 -103.9248417326468,20.13786867990062,0 -103.925720737541,20.1366362016721,0 -103.925866764332,20.13626664343314,0 -103.9259104012332,20.13548083574161,0 -103.9260272337503,20.1351833819537,0 -103.926471724489,20.13453554658288,0 -103.9266364478678,20.13422934870611,0 -103.9266863147064,20.13393148644344,0 -103.9266304599714,20.13370526289669,0 -103.9261877007777,20.13269964349246,0 -103.9262070181341,20.13267265519708,0 -103.9259920592833,20.1319304479255,0 -103.925583867923,20.13146715784399,0 -103.9257602544686,20.13085383036037,0 -103.926097532797,20.13049447242594,0 -103.9263198330698,20.13016151938018,0 -103.9267145658702,20.12979347478429,0 -103.9267623955241,20.1297937660411,0 -103.9268878626137,20.1296318939193,0 -103.9269452581427,20.1296322433668,0 -103.9272908641853,20.12945364037791,0 -103.9282035060399,20.12888996604713,0 -103.9285513870622,20.12837706658925,0 -103.9285714422298,20.1282416583492,0 -103.9286098902845,20.12821478602743,0 -103.9287378778884,20.12768247864425,0 -103.9286459747969,20.12713076406072,0 -103.928674856785,20.12710383356784,0 -103.9286465288017,20.12704944932519,0 -103.9287082935744,20.1264083152048,0 -103.9286908239869,20.12616425470123,0 -103.9287506801437,20.12580320462209,0 -103.9290249185827,20.12486519484416,0 -103.9290844657196,20.12454931941462,0 -103.9290945850347,20.12446806275267,0 -103.9289347384567,20.12406050098205,0 -103.9281083820306,20.12319712050401,0 -103.9279654532658,20.12311493331022,0 -103.9277946287729,20.12291511684279,0 -103.9276335550116,20.12268825349234,0 -103.9275974490495,20.12237179672971,0 -103.9276658857384,20.12215536466309,0 -103.928032637024,20.12167872149883,0 -103.9282457854038,20.12128246195747,0 -103.9283061941396,20.12084009701152,0 -103.9282182350104,20.11971014353136,0 -103.9282975889341,20.11929499970252,0 -103.9284229840278,20.1191421608232,0 -103.9290274424789,20.11887477261611,0 -103.9293157534933,20.11867774570815,0 -103.9299230970632,20.11798571005168,0 -103.9301344535734,20.11785146217111,0 -103.9306141882649,20.1176375235649,0 -103.9309685919543,20.11756738959031,0 -103.9311987091767,20.11748746626369,0 -103.931668937598,20.11726443169803,0 -103.9321785291762,20.11687899765479,0 -103.9322075925694,20.1168249614644,0 -103.9324201104467,20.11651904581068,0 -103.9330911407941,20.11630625812164,0 -103.9341239914672,20.11633960999754,0 -103.9346597614728,20.11632477674628,0 -103.934927891107,20.11628121950749,0 -103.9350906818526,20.11625509651736,0 -103.9350519178299,20.11642295193526,0 -103.935159881534,20.11702895198089,0 -103.9351820395259,20.11757206899138,0 -103.93590914382,20.11928167724135,0 -103.9364548090745,20.11964647634225,0 -103.9373638166037,20.12082569504267,0 -103.9376439904883,20.12104325830868,0 -103.9379874329059,20.12145290394025,0 -103.9382959428489,20.12177803856273,0 -103.9383779486623,20.12198092561259,0 -103.9383456934343,20.12208750417673,0 -103.9383035834499,20.12228973778536,0 -103.938261321167,20.12248135569632,0 -103.9382623845922,20.12255565905594,0 -103.9383972745764,20.12254332035099,0 -103.9387200288104,20.12229503702694,0 -103.9389449108065,20.1222815491067,0 -103.9393602913454,20.12221254344887,0 -103.9397293094679,20.12204860162836,0 -103.9399962971349,20.12183285656804,0 -103.9403303772998,20.12158442496429,0 -103.9404514853,20.12129338966507,0 -103.9405375770975,20.12101627696321,0 -103.9408156319971,20.12078979523774,0 -103.9410040532684,20.12058566852749,0 -103.9410692655962,20.12042560814366,0 -103.9410540993108,20.12015799122013,0 -103.9409937753633,20.11987213347524,0 -103.9409886047821,20.1195112546594,0 -103.9410402586134,20.11919211540096,0 -103.9410025657739,20.11890408597448,0 -103.9408079654229,20.11867300733259,0 -103.940600568569,20.11833596966195,0 -103.9404734619211,20.11810402670641,0 -103.9404795705358,20.11772833253278,0 -103.9404811147672,20.11704889021724,0 -103.9404792372122,20.1169735780367,0 -103.9402916112518,20.11673895290058,0 -103.9400357437786,20.11641565528372,0 -103.9399128012408,20.11619948477014,0 -103.939784665698,20.11567259509085,0 -103.9397148633658,20.11525199042966,0 -103.9398058813778,20.11517054876911,0 -103.939961199579,20.1151217327099,0 -103.9401183380511,20.11520000288716,0 -103.9402897198184,20.11528478445394,0 -103.9403676449821,20.115277117209,0 -103.9404590460163,20.11522242226039,0 -103.9405281211239,20.11509442819218,0 -103.9405169191696,20.11479152103109,0 -103.9404004125741,20.11457892688096,0 -103.9403902734045,20.11436497221788,0 -103.9403739650649,20.1142179887221,0 -103.9403517888057,20.11412179217553,0 -103.9404073859242,20.11404080324016,0 -103.9403399246186,20.11378744239025,0 -103.9403068828586,20.11346003465478,0 -103.9404389129928,20.11327103783588,0 -103.940585461081,20.11310023048548,0 -103.9405824905377,20.11289285687817,0 -103.9406026138899,20.11281232067262,0 -103.9407573540524,20.11272337054038,0 -103.940828438944,20.11273584884902,0 -103.9409505803601,20.11284801210578,0 -103.9410353863484,20.11282686890782,0 -103.941203463001,20.11267752824781,0 -103.9412952464574,20.11264960235594,0 -103.9414378945781,20.11270797605623,0 -103.941524076434,20.1127197513617,0 -103.9415728325942,20.11265890870463,0 -103.9415711075263,20.11253851265511,0 -103.9416274703347,20.11251103996297,0 -103.9418259485237,20.112508501051,0 -103.9418339531373,20.11239890823025,0 -103.9419463185249,20.11232253397729,0 -103.9420609848766,20.11240670968091,0 -103.9420951751119,20.11241695490288,0 -103.9421963132234,20.11235145226567,0 -103.9422392752437,20.11217961825184,0 -103.9422840219563,20.11208023800849,0 -103.9423304267256,20.11197409835395,0 -103.9422569023353,20.11186193575736,0 -103.9422715601776,20.11177127489685,0 -103.9423974486772,20.11162537543569,0 -103.9425648071925,20.11159306991516,0 -103.9426769206939,20.11160672856561,0 -103.9427644541215,20.11158297967947,0 -103.9434630154694,20.11165765240293,0 -103.9439445176647,20.1108231383056,0 -103.9439601040118,20.11079137460214,0 -103.9439749903065,20.11076272396268,0 -103.9440606670607,20.10969168138412,0 -103.9441059609544,20.10912546472356,0 -103.9448669633455,20.10907650975512,0 -103.9453336977999,20.10936843369634,0 -103.946327403454,20.10952797399794,0 -103.9469356189651,20.11011890719594,0 -103.9474013333118,20.11056442166537,0 -103.9477912563021,20.11090105803359,0 -103.9485453703574,20.1111314401032,0 -103.949584262301,20.1116887898478,0 -103.9503017504942,20.11167499047784,0 -103.9506835634956,20.11179472266855,0 -103.9508754037814,20.11171454516492,0 -103.9535265062245,20.11148633791265,0 -103.9536796647766,20.11146917569767,0 -103.9545217250322,20.11127419698934,0 -103.954789613451,20.11141250858999,0 -103.9560112239249,20.11182633731467,0 -103.956163543683,20.11193566387905,0 -103.957073829357,20.11169709227628,0 -103.9582573085969,20.11209260941457,0 -103.958897144374,20.11224998956606,0 -103.9594318862935,20.11238867659484,0 -103.9596719662631,20.1122455259714,0 -103.9610255390987,20.11295826819913,0 -103.9625177411163,20.11295801670899,0 -103.9639589065791,20.11344536640719,0 -103.9676168112031,20.11430711236389,0 -103.9773841359526,20.11825638105383,0 -103.9778278292656,20.11812408578584,0 -103.9791331856213,20.11773486432142,0 -103.9809455589971,20.11694953742891,0 -103.9813086667932,20.11683598586441,0 -103.9813053523538,20.11660933629424,0 -103.98154528593,20.11660620440874,0 -103.9827664030025,20.11674441325735,0 -103.9835882836726,20.1171507918491,0 -103.9848536418373,20.11768738616891,0 -103.9857379385775,20.11762631054493,0 -103.9877688589345,20.11748602504244,0 -103.9891308761716,20.11859475340586,0 -103.9896689305634,20.11903274131915,0 -103.9905863376395,20.11977952087041,0 -103.9912625637854,20.12006988901003,0 -103.991432522052,20.11987723704912,0 -103.9926611468426,20.12052306255971,0 -103.9930125343608,20.12157031172188,0 -103.9932385588429,20.12186139150873,0 -103.993521352773,20.12222557962593,0 -103.9939631364272,20.12354367510145,0 -103.9952432826793,20.12309556859052,0 -103.995707901772,20.12202504919935,0 -103.9960491183048,20.12123884680916,0 -103.9963428316861,20.12018336554638,0 -103.9964509347549,20.11973220582761,0 -103.996988563157,20.1194280578397,0 -103.997479628729,20.11892486231595,0 -103.9984111047912,20.1183609188438,0 -103.9997982107344,20.11835072119358,0 -103.9999998319172,20.11823440308172,0 -104.0001256993348,20.11817183303442,0 -104.0006894626515,20.11809374444983,0 -104.0014434697608,20.11836004571468,0 -104.0017489912714,20.11845213070443,0 -104.0025887477702,20.1187731257006,0 -104.0028361906318,20.11897330650808,0 -104.0029696495944,20.11904634530241,0 -104.003122525974,20.11907431619915,0 -104.0033143015837,20.11918795751683,0 -104.0033226575643,20.11919290923439,0 -104.0036670162424,20.11919485534396,0 -104.004012061382,20.11908837844959,0 -104.0041847553617,20.11900803415657,0 -104.0042715311843,20.1189000979793,0 -104.0044725782827,20.11887412660743,0 -104.0044999700648,20.1188816867568,0 -104.0048067993265,20.11896636842294,0 -104.0049877439651,20.119093886839,0 -104.0052461843305,20.11906823844543,0 -104.0053619416327,20.11891528759843,0 -104.0059826720899,20.11908142727995,0 -104.0062687245269,20.11922760795553,0 -104.0067159654862,20.11960058432937,0 -104.0070291764424,20.1199908759327,0 -104.0070481935376,20.12000905407308,0 -104.0072384217509,20.12018180017014,0 -104.0078495368508,20.12035691489436,0 -104.0083088566698,20.1203323922995,0 -104.0087102703703,20.12038886269395,0 -104.0094275202743,20.12042000026514,0 -104.0100878886231,20.12036949582677,0 -104.0105277361985,20.12039907129351,0 -104.0107762716841,20.12042757243784,0 -104.0111766644733,20.12064667108632,0 -104.0114334034076,20.12089207008043,0 -104.01183464971,20.12097563910569,0 -104.0152402616298,20.12401256254929,0 -104.0155732159211,20.12412328857138,0 -104.0157653089063,20.12418716982676,0 -104.018519487926,20.12432902234797,0 -104.0190718192112,20.12448493545906,0 -104.0205439653627,20.12490048559072,0 -104.0219274833434,20.12547740656107,0 -104.0226424031748,20.12588797142833,0 -104.023385856517,20.12632579824633,0 -104.0234694258083,20.12673286099686,0 -104.0236416144435,20.1267338148066,0 -104.0238426694548,20.12670782165015,0 -104.0240715814191,20.12681751576629,0 -104.0243763494358,20.12703605607829,0 -104.0248397633024,20.12789699783815,0 -104.0250002022597,20.12825027190201,0 -104.0252669337806,20.1284324581712,0 -104.0255628123364,20.12854252076955,0 -104.0265182529002,20.12873754684402,0 -104.0268216859898,20.12917292908391,0 -104.0270388570134,20.12963494134102,0 -104.0273230489131,20.13008828767956,0 -104.0273779222424,20.13012843367901,0 -104.0282563533194,20.13077110259767,0 -104.0287811600021,20.13099084875108,0 -104.0293926787124,20.13111167981141,0 -104.0298889565128,20.13130415895844,0 -104.0310171032606,20.13297290830334,0 -104.0318724625365,20.13389020100701,0 -104.0320526681254,20.13414418662469,0 -104.0320898771099,20.13431606665573,0 -104.0321462748627,20.13447901651023,0 -104.032201504502,20.134831706702,0 -104.0322773137885,20.1349495853239,0 -104.0324002329706,20.13518518488981,0 -104.0328016955547,20.13524160225241,0 -104.0330875257545,20.13543291767689,0 -104.0333692164765,20.13564003845285,0 -104.0334589560576,20.1357060222668,0 -104.0337172545223,20.13570743888644,0 -104.0341195518785,20.13562832443272,0 -104.0344637832261,20.13565731765698,0 -104.0349800473338,20.13571435913391,0 -104.0353534780193,20.13566219044694,0 -104.0356705066224,20.1354470721014,0 -104.0359019338481,20.13515016472087,0 -104.0361059902214,20.13463625363862,0 -104.0362494885014,20.13463703850093,0 -104.0363934852837,20.13455650585,0 -104.0365074531305,20.13469266255776,0 -104.0368224851365,20.13480281159324,0 -104.0369663157349,20.13474938427267,0 -104.0371099801974,20.13472306263456,0 -104.0369387785536,20.1345594868045,0 -104.0367677433647,20.13436880501718,0 -104.0367123374226,20.13404322162837,0 -104.0368279660571,20.13390832009395,0 -104.037058558556,20.13374693999467,0 -104.0374614027576,20.13357746491895,0 -104.0377854468129,20.13277771413031,0 -104.0378887982642,20.13252263669348,0 -104.0382356218332,20.13212696446007,0 -104.038410856672,20.13163096399468,0 -104.0386604664275,20.13148775649507,0 -104.0387313665653,20.13147735204951,0 -104.0389572999897,20.13144419749309,0 -104.0400280710809,20.13155846010712,0 -104.0403343605723,20.13153302144258,0 -104.0406219583287,20.13143519584643,0 -104.0407373060593,20.13134546789782,0 -104.0409107132405,20.13114762884909,0 -104.0410268872668,20.13092237145895,0 -104.0409518446589,20.13067800240674,0 -104.0410011091833,20.13044334532718,0 -104.041242525924,20.13007419983605,0 -104.0416168779167,20.12986841736853,0 -104.0419337212489,20.12968039264614,0 -104.042163807035,20.1296003229035,0 -104.042920311835,20.12947793419591,0 -104.0436185387667,20.12949979540973,0 -104.0440111949501,20.1294296408501,0 -104.0441839368365,20.12934022179278,0 -104.0443470573691,20.12925978598295,0 -104.0444643232118,20.12885382015331,0 -104.0446091341399,20.12863775093844,0 -104.0447249167204,20.12847573781908,0 -104.0451001384945,20.12812538284268,0 -104.0453406095393,20.12790983115314,0 -104.0455125263542,20.12795594013926,0 -104.0457027531174,20.12813768200892,0 -104.0458060073031,20.12846352239682,0 -104.0458802890884,20.12883438386968,0 -104.0459826668975,20.12930478891696,0 -104.0457218555135,20.12971901432707,0 -104.0453757688683,20.12999724355174,0 -104.0450876276338,20.13018543008832,0 -104.0447991563637,20.13042782787912,0 -104.0447693595064,20.13060837819312,0 -104.0451221065224,20.13080907266365,0 -104.0455222474218,20.13108230785941,0 -104.046515888911,20.13129550492261,0 -104.0473770820172,20.13126401955291,0 -104.0477210885597,20.13132912779991,0 -104.047890677374,20.13140416847576,0 -104.0482172277369,20.13154866216823,0 -104.0490570487427,20.13188751270754,0 -104.0494748574239,20.13240479570482,0 -104.0497991338501,20.13256918516917,0 -104.0508238367657,20.13239399509034,0 -104.0515722553389,20.13202756469083,0 -104.0517638565588,20.13198341768131,0 -104.0519741001777,20.13202069117147,0 -104.0522613656465,20.13197705819189,0 -104.0524044809543,20.13204107698104,0 -104.0525952108024,20.13214149404508,0 -104.0528341542199,20.13217892080341,0 -104.0529783585221,20.13206223289042,0 -104.0657904607186,20.12999178946373,0 -104.0680090312072,20.12861846188731,0 -104.0683424146415,20.12812086973596,0 -104.0684433676073,20.12797019185583,0 -104.0686651570055,20.12767318771385,0 -104.0689264942952,20.12715953675295,0 -104.0691585965246,20.12673608736838,0 -104.0693698541674,20.12660166815803,0 -104.0697444307924,20.12635064724891,0 -104.0700346208579,20.12581003969324,0 -104.0704101024614,20.12540541603278,0 -104.0704052895108,20.12460121808826,0 -104.0703506885677,20.12451854403209,0 -104.0702915118855,20.1244289408032,0 -104.0697129011254,20.12359460899183,0 -104.0696948914687,20.12340476537358,0 -104.0698777668043,20.12321598168126,0 -104.069896148386,20.1217251966839,0 -104.0700564648653,20.12194411140177,0 -104.0700954290181,20.1219973173172,0 -104.0710767659226,20.12267112854483,0 -104.0718018031754,20.12300926625321,0 -104.0721740755095,20.12314676057281,0 -104.0724562585684,20.12396145409372,0 -104.0731130114711,20.12452511870112,0 -104.0733608235052,20.12468002754024,0 -104.0735018297819,20.12473600814217,0 -104.0736358590774,20.1246361330002,0 -104.0741644375865,20.12384264354579,0 -104.0742319223903,20.12374133505456,0 -104.0747623440627,20.12285170298914,0 -104.0753438217466,20.12201695011057,0 -104.0754695181834,20.12167310757846,0 -104.0755256010091,20.12138724682006,0 -104.0754894072985,20.12099810615741,0 -104.0752803598752,20.12050337190815,0 -104.0750518150132,20.1200503151225,0 -104.074598473936,20.11940575129146,0 -104.0743486382512,20.1188769950234,0 -104.0742540376332,20.11862169548606,0 -104.0741857542562,20.11744807897953,0 -104.074176152376,20.11682099428208,0 -104.0741164857741,20.1162135802822,0 -104.0741029133305,20.1153374345962,0 -104.074416295874,20.11475345017233,0 -104.0747058484839,20.11447080778952,0 -104.0753109674596,20.11386382639178,0 -104.0760076761434,20.11312057850724,0 -104.0769340142409,20.11244267641986,0 -104.0786863930822,20.11160651315424,0 -104.0797367534429,20.11113595252572,0 -104.0803340139857,20.11088826868794,0 -104.0822488505288,20.1100941670947,0 -104.0834349775001,20.10963733475987,0 -104.0846361642577,20.10915517751917,0 -104.0853242751011,20.10870858499824,0 -104.0859181101343,20.10802568039654,0 -104.0878653591107,20.10546351535539,0 -104.090177182975,20.10239987934401,0 -104.0948482990077,20.0961956133059,0 -104.095211634606,20.09637809765493,0 -104.0963581482392,20.09703875153306,0 -104.0973976235487,20.09763938037763,0 -104.0985846151669,20.09542831827561,0 -104.0996220821189,20.09336306434243,0 -104.1004598394781,20.09205557510272,0 -104.1006775511475,20.09192258586799,0 -104.1007287218872,20.09203951509322,0 -104.1008954444056,20.09244218814266,0 -104.1013593631364,20.09352234323025,0 -104.1016837207608,20.09439870157292,0 -104.1017240802032,20.0947504631169,0 -104.1017791774212,20.09470358869549,0 -104.1018336108058,20.09461393661479,0 -104.1019311550611,20.0946027135763,0 -104.1019912918937,20.09454523419332,0 -104.1022181097971,20.09435881327464,0 -104.1032379756129,20.09392525273443,0 -104.1049268011977,20.09324317189599,0 -104.1061573790031,20.09275199309631,0 -104.1064403037769,20.09256749236494,0 -104.1065451190757,20.09243909723567,0 -104.1069372858352,20.0914274810235,0 -104.1071294051144,20.09080886049497,0 -104.1072939541181,20.09054685799005,0 -104.1074329343082,20.09041181750598,0 -104.1075826647206,20.09024466215905,0 -104.1078344739259,20.09010805558658,0 -104.107968511351,20.0900406005777,0 -104.108174373819,20.08972455520988,0 -104.1081988248302,20.08955287380984,0 -104.1081184765067,20.08928736518154,0 -104.1080138687047,20.08919571925491,0 -104.1074655321329,20.08888829673448,0 -104.1072352266727,20.08849790637688,0 -104.1071581768902,20.08816037379179,0 -104.1070928990896,20.08771462796458,0 -104.1070661171076,20.08743567983269,0 -104.1070802308546,20.08689670697134,0 -104.1072211249357,20.08623601203785,0 -104.1073646736259,20.08549950584829,0 -104.1074121844376,20.08528291403117,0 -104.1074942623287,20.08504486167701,0 -104.1075612385455,20.08482942447483,0 -104.1077869170567,20.08462535558117,0 -104.1080958973503,20.08440401694586,0 -104.1083101105167,20.08428409277954,0 -104.1087025717017,20.08419543909745,0 -104.1091505108663,20.08414218008623,0 -104.1093624964356,20.08407506461134,0 -104.1094978290647,20.08403039572263,0 -104.1097246903284,20.08404435323308,0 -104.1098080372199,20.08403673972021,0 -104.1104595019905,20.0838187990491,0 -104.1112773753397,20.08362462170786,0 -104.111737088887,20.08353120437295,0 -104.1122418029288,20.08336750679759,0 -104.1127403949243,20.08351918864488,0 -104.1128895507879,20.08365653531414,0 -104.1131439606217,20.08387996028808,0 -104.1135463159037,20.08420000258863,0 -104.1137433123171,20.08430091799107,0 -104.1140546856466,20.08435826005653,0 -104.1142745840402,20.08431663389766,0 -104.1153611348464,20.08389950809611,0 -104.1160314365659,20.08366661536969,0 -104.1177526517031,20.08310165153176,0 -104.1194841049693,20.08267120293764,0 -104.1200256243822,20.08255955423909,0 -104.1205028502713,20.08251434822681,0 -104.1209205010328,20.0825817482994,0 -104.1213655663091,20.08280885667715,0 -104.1218301993915,20.08300666697936,0 -104.1221343418848,20.08312574830642,0 -104.1224872780702,20.08312852528223,0 -104.1226583812957,20.08308747194571,0 -104.1229489526944,20.08285396398632,0 -104.1233991131416,20.08270160394759,0 -104.1235204412196,20.08293613373254,0 -104.1245245211187,20.08232062730896,0 -104.1247035719094,20.08226004525448,0 -104.1247764259399,20.08232854886767,0 -104.1249272052342,20.08256543746942,0 -104.1252092875454,20.08284287307543,0 -104.1255510553727,20.08298137756513,0 -104.1260639374724,20.08312837893501,0 -104.1264889650452,20.08326697293543,0 -104.1267716006485,20.08345545146959,0 -104.126908309734,20.08362948187085,0 -104.1270004851923,20.08392305429913,0 -104.1270025566732,20.08405499527764,0 -104.1269599144513,20.08430852316101,0 -104.1266993320405,20.08515343316065,0 -104.1267082684685,20.08528741584273,0 -104.1267399694577,20.08545192918191,0 -104.1269358763623,20.08568011651125,0 -104.1271988954213,20.08610530667012,0 -104.1273580277883,20.08619738544085,0 -104.127550775046,20.08622767080952,0 -104.1276612409996,20.08620962996657,0 -104.1280996945588,20.0859340586874,0 -104.1290906154556,20.08521635708041,0 -104.1292321686292,20.08516315842879,0 -104.1295184855442,20.08521412784884,0 -104.1296890755506,20.08531620128565,0 -104.1298731805174,20.08553906758309,0 -104.1299981635487,20.086066717212,0 -104.1301418035482,20.08630664496881,0 -104.1302539436086,20.08639854931172,0 -104.1304991379265,20.08642809587564,0 -104.1306155565953,20.08642095527339,0 -104.131352358214,20.08618588093267,0 -104.1309460454068,20.08659056130685,0 -104.1304447766275,20.08706004589417,0 -104.128342878877,20.08705326283481,0 -104.1273240317651,20.08756626483221,0 -104.1264643898486,20.08843973432802,0 -104.1256851213938,20.08893123438199,0 -104.1249834591332,20.08825191932372,0 -104.1238643805213,20.08727014421164,0 -104.122310477693,20.08671155292558,0 -104.1217594411587,20.08645629625702,0 -104.1193613834195,20.08653513665925,0 -104.1179675872292,20.08700797210589,0 -104.1175046525045,20.08747687911157,0 -104.1170650500508,20.08882501801163,0 -104.116595909391,20.0895116316265,0 -104.1163843476718,20.09132810798873,0 -104.1161515412502,20.09178473613663,0 -104.1159328919373,20.09314793088151,0 -104.1157000813516,20.09360455908689,0 -104.1154518767553,20.09676356729603,0 -104.1138493022392,20.09862663314859,0 -104.1134072432456,20.10043726184603,0 -104.1129664261013,20.10171287907646,0 -104.1134911864665,20.10397250600322,0 -104.1134795298908,20.10568647314678,0 -104.1124450003774,20.10766857663592,0 -104.1120390182788,20.10933362919966,0 -104.1121841302484,20.1132339567083,0 -104.1121877210971,20.1133304602075,0 -104.1141204622416,20.11538915743951,0 -104.1141186700855,20.11650452648528,0 -104.114255011458,20.11662957741509,0 -104.114090750104,20.11717593588426,0 -104.1138599199547,20.11769013576698,0 -104.1134599188833,20.11858116954793,0 -104.1125999285647,20.11998454696367,0 -104.1123880010379,20.12024551650717,0 -104.1123664730805,20.12067008753828,0 -104.1121326074574,20.12142791146475,0 -104.1118795564238,20.12219467403255,0 -104.1117824167969,20.12245622083128,0 -104.1114963765497,20.12398181753411,0 -104.110939721422,20.12484760286827,0 -104.1108593946353,20.1249725358937,0 -104.1107418929091,20.12545083660336,0 -104.1102693666376,20.12611709585182,0 -104.1101628599234,20.12634245131144,0 -104.1101040308128,20.12659515454965,0 -104.1100835177434,20.12683901547252,0 -104.110120964783,20.12698377605713,0 -104.1101967793225,20.12711065886747,0 -104.1102462480201,20.12715395112588,0 -104.1103110125523,20.12721062839398,0 -104.1105667006122,20.12955387359821,0 -104.1085904751118,20.13201797261279,0 -104.1084448754129,20.13238770034462,0 -104.1081661143292,20.13266987665063,0 -104.1080984782202,20.13273834039492,0 -104.1078656486713,20.13330641170678,0 -104.1076050405443,20.13371169917904,0 -104.1076040659723,20.13388337272797,0 -104.1077083252109,20.13405557914353,0 -104.1078311540193,20.13432727232105,0 -104.1081736595348,20.13466332727603,0 -104.1083160844229,20.13485379792284,0 -104.1082285995358,20.13509731938089,0 -104.108140652962,20.13542215982541,0 -104.107937596543,20.13580063175468,0 -104.1077170981062,20.13588083672735,0 -104.1075537439029,20.13600650937788,0 -104.107674521959,20.13663962054716,0 -104.1075448681867,20.13756964166462,0 -104.1073292124679,20.13848115542758,0 -104.1069427337744,20.1391478389816,0 -104.106950092908,20.13953641150846,0 -104.1070819779234,20.13989850807234,0 -104.1071855729344,20.14018817556189,0 -104.1071749791339,20.14036883592418,0 -104.107057144737,20.1409013451404,0 -104.107098921858,20.14196776961254,0 -104.1069544896319,20.14212968010456,0 -104.1067420593043,20.14247195967842,0 -104.1063374095605,20.14296687080083,0 -104.1058645521996,20.1436782914064,0 -104.1058052971666,20.14400327569178,0 -104.1054975484735,20.14428181976869,0 -104.1052457619028,20.14481364697614,0 -104.1051946314698,20.14539167165192,0 -104.1049791554854,20.14626703909155,0 -104.1047274152175,20.14678982982261,0 -104.1046886818303,20.14687095415857,0 -104.1044565428012,20.14725583202889,0 -104.1043409553033,20.14744747042457,0 -104.1037628316214,20.14815834893566,0 -104.1037619069136,20.14832041374878,0 -104.1038967233462,20.14872900505933,0 -104.10349881646,20.14894862541651,0 -104.1033385555651,20.14930641425004,0 -104.1030809746303,20.15008207848796,0 -104.1032978823042,20.15058410970944,0 -104.1032035001218,20.15060417261436,0 -104.1028579788183,20.15079216210003,0 -104.1026657468573,20.15094478930247,0 -104.1022415646358,20.15150283964832,0 -104.1020076542799,20.15258387763094,0 -104.1019369035886,20.15291085237175,0 -104.1016034293828,20.15433678851361,0 -104.1014586695389,20.15455290610706,0 -104.101064469991,20.15488521403464,0 -104.1006010156482,20.15561473695304,0 -104.1005891702985,20.15601224611697,0 -104.100412907755,20.1567161281443,0 -104.1003986801694,20.15752926599212,0 -104.1003979553356,20.15765576169985,0 -104.1003016526892,20.15776369764755,0 -104.1002345203905,20.15779046157769,0 -104.1000141942665,20.15783451375834,0 -104.0998977188827,20.15812305976224,0 -104.0997907076027,20.15842972540051,0 -104.0991639025716,20.15927587201097,0 -104.0988928284763,20.15982566038238,0 -104.0988884197029,20.16059366948913,0 -104.0986915541717,20.16155044216688,0 -104.0986902570846,20.16177632714856,0 -104.0987746085692,20.16208397164474,0 -104.0991072205097,20.16248324355964,0 -104.0989609798072,20.16323917860689,0 -104.0989395776119,20.16334980921359,0 -104.0987912253684,20.16418936635127,0 -104.09863800493,20.16500671304759,0 -104.098613542859,20.16513720095692,0 -104.0980324171819,20.16635403778911,0 -104.0978876407539,20.16657015154373,0 -104.0975701600458,20.16686670056991,0 -104.0972809164179,20.16724471472922,0 -104.0971938623316,20.16740690997498,0 -104.0971637525164,20.16765071822284,0 -104.0973054121729,20.16797672854325,0 -104.0970942237653,20.16809310863394,0 -104.0971135438536,20.16821613515962,0 -104.0971311470114,20.16832822511601,0 -104.0969570370514,20.16865261530919,0 -104.0965534310056,20.16894872023973,0 -104.0962553407463,20.16920018785987,0 -104.0958629149356,20.16921624331013,0 -104.095575069029,20.16935029888634,0 -104.0953432290088,20.16972860447642,0 -104.0949411808943,20.16975364400281,0 -104.0943105755566,20.16958775775896,0 -104.0938790384736,20.16974817780035,0 -104.0936919639971,20.16971104107704,0 -104.0934584790081,20.16966469084217,0 -104.0935963218044,20.17065028641536,0 -104.0940131792661,20.17137528497313,0 -104.0941259196922,20.17173729128941,0 -104.0953373234244,20.17241216190468,0 -104.0961315518007,20.17241624378367,0 -104.0967070976603,20.17217523695567,0 -104.0972810820039,20.1722052897229,0 -104.0977116873896,20.1722074984563,0 -104.097988513272,20.17232638133036,0 -104.0982259207938,20.17264384612516,0 -104.0982540046316,20.17275241789808,0 -104.098397228704,20.17280736580785,0 -104.0987417144363,20.17280913074411,0 -104.0992601551932,20.17251360903393,0 -104.0992607777637,20.17240518435855,0 -104.0994344207258,20.17216211051273,0 -104.0999825499683,20.17169506100175,0 -104.100389835824,20.17075743535593,0 -104.1009090434398,20.17032637740652,0 -104.1014847300606,20.17005824812737,0 -104.1020298464383,20.17011524475861,0 -104.1024587408643,20.17041560984765,0 -104.1026395165897,20.17059724512456,0 -104.1032019655389,20.17097057483942,0 -104.1034693281216,20.17107132960792,0 -104.1035449504149,20.17123435686446,0 -104.1038978667136,20.17143493917519,0 -104.10411594087,20.1717884405977,0 -104.1041995853118,20.17222257838808,0 -104.1042942437749,20.17240377359235,0 -104.1044367476993,20.17258521228888,0 -104.1046082170022,20.17272161996065,0 -104.1048279444332,20.17278598768538,0 -104.1056312306941,20.17288042949113,0 -104.106376125621,20.17314624878978,0 -104.1068642520998,20.17313065601182,0 -104.1075833217819,20.17289034166117,0 -104.1077185223324,20.17267417126787,0 -104.1078148810261,20.17255719618461,0 -104.1082461049861,20.17245095423448,0 -104.1088225579756,20.17204726962585,0 -104.1092841799698,20.17164300174789,0 -104.1098379005744,20.17187169584346,0 -104.1099811795768,20.17191759903449,0 -104.1102576051059,20.17210874627694,0 -104.1106295681266,20.17232748307588,0 -104.1111145178275,20.17287207435002,0 -104.1113699655731,20.17338839832399,0 -104.1116842114045,20.1736610555489,0 -104.1119798315511,20.17384326145136,0 -104.1126867742812,20.17392634675669,0 -104.1127831288881,20.17393767095492,0 -104.1130320801836,20.17391181915852,0 -104.113367460218,20.17383218850297,0 -104.1137308326566,20.17387919774368,0 -104.1139685303535,20.17415146541091,0 -104.1139663356749,20.17453998864442,0 -104.1142039837206,20.17482129145029,0 -104.114595658374,20.17494072693296,0 -104.1158636791131,20.17577838686445,0 -104.116226598784,20.17590670998751,0 -104.1171529884276,20.17623664608559,0 -104.1174112071577,20.17626504881352,0 -104.1183567403021,20.17659507474972,0 -104.1186987991163,20.17703050170713,0 -104.1191297585182,20.17777218608156,0 -104.1192674804962,20.17800920406893,0 -104.1193916669602,20.17816162444838,0 -104.1194670685315,20.17825416681742,0 -104.1189773014949,20.17855892783571,0 -104.118727175552,20.17879260271173,0 -104.1185631741804,20.1790267087946,0 -104.1184934958617,20.17950525090515,0 -104.1182713649405,20.17986556490374,0 -104.1183741913337,20.18029979313746,0 -104.1184581838679,20.1806797128164,0 -104.1187874318411,20.18169335920417,0 -104.1189005411973,20.18200113909248,0 -104.1187547617418,20.18239797873362,0 -104.1184951610184,20.18261353413392,0 -104.1183497863983,20.18293808994502,0 -104.1183768188573,20.18323640291571,0 -104.1185751417991,20.18370725237291,0 -104.1192037513189,20.18424350697471,0 -104.1193456233482,20.18454239495025,0 -104.1195036413541,20.18537446881688,0 -104.1192797778256,20.18604198808659,0 -104.119037991116,20.18649256088975,0 -104.1188456781429,20.18665423952815,0 -104.1187489627343,20.1868344684144,0 -104.1184799876864,20.18701383376092,0 -104.1180357020137,20.18773445998697,0 -104.1178321382773,20.18819425823997,0 -104.1172272412811,20.1885436136475,0 -104.1167373353255,20.18886643754457,0 -104.1163925069866,20.18891891901366,0 -104.1161622136922,20.18902618959406,0 -104.1162749149325,20.18940625423704,0 -104.1163886864595,20.1895965751135,0 -104.1161284588047,20.1899205512401,0 -104.116242230497,20.19011087220767,0 -104.116671665046,20.1903298863199,0 -104.116524139534,20.19103392729516,0 -104.1161765545925,20.19157432040126,0 -104.1162884931344,20.19208991616979,0 -104.1162857415771,20.19257782837748,0 -104.1161405052443,20.19287527525151,0 -104.1155630732471,20.19344161808865,0 -104.1152732077917,20.19392808538677,0 -104.1151557099259,20.19439734850375,0 -104.1152107853242,20.19481326622318,0 -104.1153819308468,20.19501291216084,0 -104.1156105505645,20.19520381144845,0 -104.1156375789287,20.19550212431377,0 -104.115406969206,20.19566360587891,0 -104.1152624934834,20.19582552067801,0 -104.1149164243069,20.19609484832122,0 -104.1148677039447,20.19624820922931,0 -104.1148849052101,20.19659165095245,0 -104.1148552236472,20.19676317903367,0 -104.1143622219008,20.19762811896092,0 -104.1143019886334,20.19812477664753,0 -104.1139061683508,20.19872817059709,0 -104.1135104983604,20.19930445730812,0 -104.1129825746984,20.19957286332533,0 -104.1127799519175,20.19986098148225,0 -104.1126536554039,20.20016278975619,0 -104.1126441189111,20.20018557921991,0 -104.1130530009599,20.20065749717741,0 -104.1131936979838,20.20116420376189,0 -104.1130283845462,20.20162418775536,0 -104.112739058231,20.20201126024533,0 -104.1127381880652,20.20216486191857,0 -104.1127090659271,20.20223700008724,0 -104.1126604436487,20.20237228934088,0 -104.1126403803972,20.20253482973991,0 -104.1126382302615,20.20291431618901,0 -104.1125122722081,20.2031847495881,0 -104.1125201534744,20.20348296581914,0 -104.1123449570809,20.20399711288317,0 -104.1123797585554,20.20461171275033,0 -104.112641859294,20.2056521360386,0 -104.1125425638236,20.20628412981992,0 -104.112712898557,20.20662834464754,0 -104.1131888974365,20.20708253014314,0 -104.1132816414113,20.20760706574188,0 -104.1135621275751,20.20878311514945,0 -104.1135308557481,20.20923473963759,0 -104.1133651755718,20.20975797095276,0 -104.1132861995426,20.21018224762187,0 -104.1130936972162,20.21037102438104,0 -104.1088163547814,20.21443139677237,0 -104.1023649584248,20.2368556395758,0 -104.1005376425015,20.23833563410976,0 -104.0997704970428,20.238557589848,0 -104.0991952277263,20.23870824258004,0 -104.0988200024163,20.23903159706065,0 -104.0985310899261,20.23932828737613,0 -104.0981571129342,20.23943479267415,0 -104.0979262630261,20.23962335331046,0 -104.0977812679031,20.23989336363816,0 -104.0977811014411,20.23989367451099,0 -104.0975504069054,20.24005512865208,0 -104.0972332402907,20.24027035108017,0 -104.0970023880425,20.24045891039371,0 -104.0969442180987,20.24058510916726,0 -104.0968570674219,20.24075633665445,0 -104.0968640300704,20.24120815159379,0 -104.0966499200801,20.24181243326806,0 -104.0964170274364,20.24235336879282,0 -104.0962724875527,20.24251526474403,0 -104.0962144729529,20.24261435726498,0 -104.0960993842103,20.24264990666605,0 -104.0959650442575,20.24270342794814,0 -104.0958408433683,20.2427520327123,0 -104.095600421737,20.24284611794499,0 -104.095781478383,20.24299162045073,0 -104.0959620126751,20.24322747586733,0 -104.0962763132957,20.24350919812325,0 -104.0964950379557,20.24376332090708,0 -104.0965136623235,20.24385377260868,0 -104.0964630265243,20.24433239746542,0 -104.096326333865,20.24479250783412,0 -104.0964297608335,20.24511832136499,0 -104.0965431273842,20.24538093698977,0 -104.0966571733674,20.24552609354414,0 -104.0967139875066,20.24563481302807,0 -104.0969426547824,20.24582573747163,0 -104.0973718967774,20.24609901402228,0 -104.0975705924881,20.24650663733002,0 -104.0979143013473,20.24667104563495,0 -104.0985175921903,20.24664704036401,0 -104.0988627094389,20.24656749342644,0 -104.0992928945385,20.24667812981986,0 -104.0994355606163,20.2468415027798,0 -104.0994636564177,20.24695007399335,0 -104.0996435759352,20.24729434966507,0 -104.0993722337014,20.24786219823019,0 -104.099210983238,20.24821202388697,0 -104.0991104630976,20.24843009543677,0 -104.0991084310971,20.2487824725659,0 -104.099509745082,20.24892006705033,0 -104.0998248963894,20.24905721845083,0 -104.0999382192606,20.24932886740245,0 -104.0999369698925,20.24954571489553,0 -104.0997540274124,20.24972548756948,0 -104.0995609378638,20.25000459930045,0 -104.0997118270196,20.25040293933089,0 -104.0999013245648,20.25074726392051,0 -104.1003390662289,20.25121032444091,0 -104.1007581308663,20.2515919679564,0 -104.1011859395769,20.25211822460104,0 -104.1011363542037,20.25241614456287,0 -104.1010484728559,20.25271386819254,0 -104.1004245000044,20.25466235299775,0 -104.1006043778086,20.25501566311017,0 -104.1008803095402,20.25531525214647,0 -104.1017000961051,20.25594290848824,0 -104.1024613536783,20.25676000869509,0 -104.1025651120192,20.2570316070893,0 -104.1024579261399,20.25735633919732,0 -104.1020428570596,20.25794152636558,0 -104.1019431093728,20.25810784833896,0 -104.10185917908,20.25824779509816,0 -104.1017875852575,20.25904255881762,0 -104.1015456274408,20.25949309769448,0 -104.1015786772085,20.25960274837046,0 -104.1016301850438,20.25977363374073,0 -104.101331975293,20.26001606583529,0 -104.1011188418462,20.26044868059305,0 -104.1011257112405,20.26091856547013,0 -104.100822138386,20.26209163265579,0 -104.1009044062238,20.26276972222152,0 -104.1009134604011,20.26286012433742,0 -104.1009671611995,20.2635109606161,0 -104.100849819904,20.26393503039931,0 -104.1005482166382,20.26476475509284,0 -104.1005649095957,20.26494787508758,0 -104.1006742971156,20.26614784341034,0 -104.1004884190972,20.26683359238553,0 -104.1000674287028,20.26843976119866,0 -104.0995815936461,20.2696661018251,0 -104.0999601630869,20.27043606897342,0 -104.1003112091276,20.27099807621331,0 -104.1002990813191,20.27144075629792,0 -104.1001815750309,20.27189193082991,0 -104.100130937673,20.27237055531764,0 -104.1004328622431,20.27314916344362,0 -104.1003928422636,20.2734471313402,0 -104.1002677913769,20.27354588038525,0 -104.1000373607777,20.27365312367308,0 -104.0999312514597,20.27378811196904,0 -104.0999207379567,20.27395069794893,0 -104.0999489945514,20.27403216309049,0 -104.0995149795034,20.27457206633651,0 -104.0994377295144,20.27634263754974,0 -104.0991276124208,20.27698256730666,0 -104.0985680607467,20.27770253305944,0 -104.0985289233956,20.27784690044877,0 -104.0985762786183,20.27793749959839,0 -104.0987191799323,20.27806473250344,0 -104.0988720223707,20.27812876759356,0 -104.0992163227226,20.27820282264856,0 -104.0993595378422,20.27827584337035,0 -104.0994737657495,20.27839389272308,0 -104.0996349326152,20.2786748231449,0 -104.0996722959536,20.2788376550599,0 -104.0996810891789,20.2789732334901,0 -104.0996420046358,20.27910856585348,0 -104.0995254808793,20.27938806893964,0 -104.0994837578251,20.27956571200852,0 -104.099338953481,20.28018223823445,0 -104.0992289250002,20.28099487168983,0 -104.099855704196,20.2819016483767,0 -104.1001121111911,20.28227342327117,0 -104.1004986481068,20.28283318749621,0 -104.1006819146034,20.28309858454922,0 -104.101541029965,20.28357284205885,0 -104.1033588100398,20.28425949015899,0 -104.1036306070165,20.28436517155127,0 -104.1041114278887,20.28454377703806,0 -104.1041496413996,20.28553518788774,0 -104.1024994064456,20.28676730413688,0 -104.1025456742842,20.28704764319282,0 -104.1026879629693,20.28728329652801,0 -104.1036506262133,20.28807431913334,0 -104.1041257974692,20.28870923904838,0 -104.1043145210847,20.28880544999461,0 -104.104555478977,20.28892828992487,0 -104.1049073589885,20.28935475972875,0 -104.1049638823858,20.28951768852304,0 -104.1049523347793,20.28986098033742,0 -104.1048334765987,20.29054707437541,0 -104.1045431260216,20.29107868701402,0 -104.104334451392,20.29163896924598,0 -104.1040762444955,20.29233223943513,0 -104.1041240686294,20.29245199729786,0 -104.1042461787264,20.29275777948456,0 -104.1044929329664,20.29314757013935,0 -104.1047881415805,20.29343821724601,0 -104.105121864687,20.29369291856692,0 -104.1054170755091,20.29398356467803,0 -104.1055118031815,20.29416475958247,0 -104.1056613975441,20.29479801196783,0 -104.1057561259614,20.29497920675269,0 -104.1059277780816,20.29510658108922,0 -104.1061285229572,20.29517085499612,0 -104.1063193805522,20.29528929147748,0 -104.1064618374941,20.29549783618155,0 -104.1067556558138,20.29603243278996,0 -104.1066783177504,20.29615853579018,0 -104.1064662850406,20.2963923778313,0 -104.1063888947428,20.29652751596278,0 -104.1063771936515,20.2968979135363,0 -104.1062511422745,20.29716833632531,0 -104.1060392630193,20.2973750719128,0 -104.1058947830714,20.29751890269427,0 -104.1057973049242,20.29781657766241,0 -104.1058156287395,20.29796123993355,0 -104.1059105664951,20.29810629354176,0 -104.10612058091,20.29822482815982,0 -104.1063020208614,20.29831611002205,0 -104.1066264389391,20.29852558353374,0 -104.1068455133195,20.29873451898071,0 -104.107235417397,20.29921539183678,0 -104.1074544417963,20.29943336185158,0 -104.1076264106369,20.29950652301673,0 -104.1076741395401,20.29953387297342,0 -104.1085924815794,20.29971926313167,0 -104.1089651517762,20.29986572938028,0 -104.1088394122901,20.30008194232861,0 -104.1091324719136,20.30075206453195,0 -104.1090444195024,20.30107689594667,0 -104.1094156987421,20.3014673139678,0 -104.1096162983867,20.30155869003649,0 -104.109759591372,20.30162266776634,0 -104.109816846644,20.30165910116599,0 -104.1098454742902,20.30167731785911,0 -104.109902936104,20.30167761009972,0 -104.110017550023,20.30173240622432,0 -104.1100652800391,20.30175975556324,0 -104.1101219160805,20.30190461226812,0 -104.1103028467167,20.30208624302918,0 -104.1105028286034,20.30228604153157,0 -104.1106458647199,20.30239519498978,0 -104.1107514181993,20.30235958914841,0 -104.1109247326583,20.30219782982008,0 -104.1111842397064,20.30203650804814,0 -104.1112700718288,20.30210019275239,0 -104.1114507979228,20.30231796352577,0 -104.1119956575617,20.30250143987636,0 -104.1124835711016,20.30259427030168,0 -104.1126847402488,20.30258625478512,0 -104.1134620225739,20.30231912729622,0 -104.114096726349,20.30186152800185,0 -104.1143650362163,20.30183577924721,0 -104.1146233068555,20.3018912992813,0 -104.1155491462116,20.30244714929765,0 -104.115873380687,20.30269274754133,0 -104.1159493817345,20.30280155813302,0 -104.1159869720921,20.30292824579151,0 -104.1159671000894,20.30305464319262,0 -104.115811456501,20.30347852801038,0 -104.1158010587939,20.30362304435407,0 -104.1158385979132,20.30375876733107,0 -104.1159144455771,20.30389468382986,0 -104.1161431685572,20.30409462134281,0 -104.1167171305614,20.30421498141966,0 -104.1174644549425,20.30416453840583,0 -104.1181225153595,20.304655775882,0 -104.1183543241251,20.30600324197888,0 -104.1185157056375,20.306257050586,0 -104.1187349604084,20.30643886606542,0 -104.1190215634287,20.30656680701858,0 -104.1192313952268,20.30672146778752,0 -104.1196129550983,20.30699445466309,0 -104.1197461694231,20.30714872934286,0 -104.1196012835904,20.30736485382435,0 -104.1193791142996,20.30769805148386,0 -104.1193680041438,20.30796906228067,0 -104.1195098257704,20.30829505604378,0 -104.1197098786244,20.30848580931765,0 -104.1198909813778,20.30864032482731,0 -104.1201203800737,20.30872279857181,0 -104.1204360269679,20.3087966700487,0 -104.1205602784804,20.30884247239848,0 -104.1219981677726,20.310322489944,0 -104.1222651163083,20.31054068280402,0 -104.1227519931539,20.31082322707437,0 -104.1244814683783,20.31155473532963,0 -104.1267358061868,20.31263219914714,0 -104.1271568191713,20.31270658473853,0 -104.1274829670646,20.3126178560115,0 -104.127809620769,20.31243877350602,0 -104.1281355147891,20.31239522010744,0 -104.1294735099564,20.31291691061071,0 -104.1311577756166,20.31317827962574,0 -104.131634444764,20.31357821161962,0 -104.132102848225,20.31374317643087,0 -104.1329164553928,20.31383756678967,0 -104.1338265955996,20.31379689773156,0 -104.1345088278931,20.31340270891743,0 -104.135264767894,20.31353294535308,0 -104.1357892878883,20.31394213848201,0 -104.136441980984,20.31369236538814,0 -104.1369750194682,20.31256554787197,0 -104.1382278233035,20.31118024315774,0 -104.1388907782702,20.31080401265287,0 -104.1402118892682,20.31091893705837,0 -104.1409033719838,20.31057898129401,0 -104.1413829493362,20.31045483717243,0 -104.1421498036983,20.3103411360927,0 -104.1425517637381,20.31039732006662,0 -104.1430874126211,20.31052644273591,0 -104.1436306523233,20.31101702487974,0 -104.144204565241,20.3111553671026,0 -104.1447314843541,20.31113083694762,0 -104.1452421248936,20.31058216079795,0 -104.146010513929,20.31018834652466,0 -104.1464039378855,20.31005473232779,0 -104.1469679755443,20.31024723091484,0 -104.1475987611162,20.31049426656443,0 -104.1481266170624,20.31029805412675,0 -104.1488089478828,20.30987670142579,0 -104.1492788906897,20.30976152412,0 -104.150591411862,20.30969561609793,0 -104.151626872108,20.30950185640414,0 -104.1522612043897,20.30909832829371,0 -104.1522788878024,20.30909183152081,0 -104.1526738741336,20.30894672173995,0 -104.1531047153675,20.30897591448557,0 -104.1533322179852,20.30941072513489,0 -104.1535026984047,20.30976393908183,0 -104.1536169417744,20.30989099040686,0 -104.1539334439448,20.30981120063037,0 -104.154154759,20.30962252270674,0 -104.1543949342473,20.3094881493478,0 -104.1547595682603,20.30936341254798,0 -104.1550183583912,20.30932852004821,0 -104.1551707169001,20.30949189694233,0 -104.155560751165,20.30998170331569,0 -104.1555893369602,20.31000894814098,0 -104.155823491628,20.31003770901729,0 -104.1560487678469,20.31006537858006,0 -104.1576840454925,20.31053407569369,0 -104.1589733662136,20.31121795010904,0 -104.1596933549462,20.31172898961709,0 -104.1598320909482,20.31182746296682,0 -104.1597727717542,20.31217053187447,0 -104.1597041670991,20.3124593423891,0 -104.1597123794395,20.31271237934226,0 -104.1598161746477,20.31300201786459,0 -104.1600555707115,20.31301220305957,0 -104.1603716866322,20.31300468490715,0 -104.1606779812008,20.31304229719542,0 -104.1607727363671,20.31323249993735,0 -104.1605954154542,20.31414424739976,0 -104.1603583342232,20.31548038200531,0 -104.1602102780273,20.3162928773244,0 -104.159949039039,20.31677954648604,0 -104.1594785936919,20.31698510575652,0 -104.1590183598123,20.31707324976287,0 -104.1588166838493,20.3171716717996,0 -104.1588446855758,20.31730734074821,0 -104.1591414100376,20.31734490993295,0 -104.1594856834307,20.31744595645584,0 -104.1598492109784,20.31752902355757,0 -104.1602510512493,20.3176122738602,0 -104.1609499586866,20.31766984168993,0 -104.1618327479559,20.31737589866905,0 -104.1624765203432,20.31699948614618,0 -104.1631296733884,20.31665925853281,0 -104.1637045491243,20.3166258655153,0 -104.1640778494917,20.31667282805314,0 -104.1641722227814,20.31693531227437,0 -104.164276174435,20.31719784221188,0 -104.1645043019377,20.31752421468723,0 -104.1648856315461,20.31786035405677,0 -104.1653148534314,20.31819672119051,0 -104.1655726877868,20.31834252151839,0 -104.1657434475879,20.31865054750785,0 -104.1657694699826,20.31915666688486,0 -104.1658140193331,20.31978033777709,0 -104.1659560947795,20.32007919112396,0 -104.1661851012477,20.3202429244076,0 -104.1664528084105,20.32033455682542,0 -104.1667870316406,20.32052589767947,0 -104.1669580379471,20.32078874557821,0 -104.1669285775669,20.32092413969109,0 -104.1667073575075,20.32109476271968,0 -104.1661602321409,20.32130900998634,0 -104.1659010848292,20.32140716608581,0 -104.1654019943914,20.32159453312385,0 -104.1648556899383,20.32165517447945,0 -104.1642245873431,20.32145337577362,0 -104.1635160829225,20.32139577460254,0 -104.1629700702611,20.32140219772922,0 -104.1624342681258,20.32129120497482,0 -104.1621087515962,20.32126253881832,0 -104.1616680035266,20.3212875334368,0 -104.16095847819,20.32141966504942,0 -104.1606324256917,20.32149038537086,0 -104.1603354003927,20.32150703074242,0 -104.1601524858853,20.32167782913627,0 -104.1600654031145,20.32184005200713,0 -104.1600833405908,20.32206602857089,0 -104.1601397866261,20.32225604760917,0 -104.1602902612614,20.32277180034117,0 -104.1604215799788,20.3232874609742,0 -104.1605413224353,20.32417352615737,0 -104.1607396925858,20.3246895084177,0 -104.1608524418617,20.3250966522062,0 -104.1609529818535,20.32599166050059,0 -104.1613629132474,20.32635505172517,0 -104.1617933669041,20.32646554320201,0 -104.1621665440473,20.32653961672325,0 -104.1626740656364,20.32656915479625,0 -104.1629516515803,20.32660662638547,0 -104.1632272451569,20.32701454830375,0 -104.1637149798676,20.32716145173718,0 -104.1640966703478,20.32743434552876,0 -104.164181179505,20.32775099617417,0 -104.1641313440184,20.32811218262915,0 -104.1639657862595,20.32861738557866,0 -104.1636476467786,20.32899535982825,0 -104.1634751314601,20.329012605688,0 -104.1632170388826,20.32891197880394,0 -104.16287264045,20.32882900954494,0 -104.1626336088559,20.32874654431374,0 -104.1624032805731,20.32882676150623,0 -104.1623165364041,20.32892573764746,0 -104.1622679126225,20.32906103886101,0 -104.1623049140101,20.32930517771197,0 -104.1623998749306,20.32945923812131,0 -104.1625329080911,20.32965865893035,0 -104.1626850019848,20.32987624216288,0 -104.1628366586332,20.33017514369445,0 -104.1631409945019,20.33058320340673,0 -104.163169147813,20.33069176553347,0 -104.1631676894566,20.33096282694106,0 -104.163117947537,20.33130594209811,0 -104.1631832985832,20.33162250137405,0 -104.1632686341524,20.33178555087562,0 -104.1636682295443,20.33229345740854,0 -104.1637152499752,20.33245632338737,0 -104.1637046992727,20.33263698515437,0 -104.1636367715899,20.33279930117375,0 -104.1633384609745,20.33305087072173,0 -104.1632806950991,20.33310480788705,0 -104.1629833072774,20.33318470460916,0 -104.1625616834887,20.33320979200268,0 -104.1621499307107,20.33318071203651,0 -104.1620059043166,20.33324327088613,0 -104.1618713107761,20.33333298166684,0 -104.1614654343404,20.3339906343983,0 -104.1612725368603,20.33423367027548,0 -104.1610898027918,20.33436832742689,0 -104.1608790623696,20.33436731584713,0 -104.1607644543786,20.33430351637189,0 -104.1606886505365,20.33414954710573,0 -104.1606834114341,20.33334535304798,0 -104.1606467532443,20.33303796641633,0 -104.1604084482337,20.33281996741877,0 -104.1601699487292,20.33263810960021,0 -104.1595205298074,20.33227356410089,0 -104.1591868287021,20.33198281996955,0 -104.1588519560853,20.33190892409701,0 -104.15836347839,20.33189753733258,0 -104.1581813805076,20.33191473170872,0 -104.1580372560132,20.33199535801643,0 -104.1581945231065,20.33302617410856,0 -104.1582123606912,20.33327022126068,0 -104.1580279131491,20.33372111296593,0 -104.1580270815384,20.33387471417511,0 -104.1580149586392,20.33434450700762,0 -104.1576580358812,20.33480360287911,0 -104.1575604824522,20.33512841427791,0 -104.1575589160741,20.33541754588214,0 -104.1576143842477,20.33578827275731,0 -104.1577646659765,20.33634016848867,0 -104.1578309375584,20.33648505740053,0 -104.1579836670779,20.33658518485162,0 -104.1581079525861,20.33663096157182,0 -104.158423920892,20.33665959010899,0 -104.1585964450909,20.33664234956792,0 -104.1587692625533,20.33657089667067,0 -104.1588840179361,20.33660759137502,0 -104.1589310833046,20.336761423067,0 -104.1586305085,20.33742861063856,0 -104.1586001081963,20.33773567461751,0 -104.1585692676666,20.33812405683502,0 -104.158928296847,20.3390474160338,0 -104.1591708500985,20.33928679680721,0 -104.1591951028002,20.33931073224163,0 -104.1589642193937,20.33949033317161,0 -104.1587623182058,20.33962489531436,0 -104.1585505927189,20.3398045878852,0 -104.1582615951757,20.34010137072888,0 -104.1577527091895,20.34031577302892,0 -104.1573006130338,20.34065694596968,0 -104.1571194355681,20.34050246708892,0 -104.1568613777002,20.34039279506735,0 -104.1562491743012,20.34022719953865,0 -104.1555117032519,20.34019653043407,0 -104.1548794592364,20.34019347392135,0 -104.1542470187176,20.34022655652096,0 -104.1537958499482,20.3403960485107,0 -104.1536795191069,20.34064848156548,0 -104.1536877704908,20.34089248235367,0 -104.1538023801436,20.34095628649162,0 -104.1539840955823,20.34101137987482,0 -104.1541754398238,20.34105748409338,0 -104.1545767471746,20.3412491734528,0 -104.154691210077,20.34134008307633,0 -104.1547192116926,20.34147575234174,0 -104.1546607518127,20.34165618128141,0 -104.1545259993541,20.34177299195947,0 -104.1542569362605,20.34192529484561,0 -104.1539209140335,20.34205920192131,0 -104.1535369933794,20.34219287630444,0 -104.153363773672,20.34233660643989,0 -104.1531708530071,20.34257963233118,0 -104.1528818894165,20.34286737029361,0 -104.1527087176042,20.34300206437714,0 -104.1523819265294,20.3431992621973,0 -104.152064615704,20.3434145765448,0 -104.1514581385412,20.343953767048,0 -104.1506308794963,20.34457320231518,0 -104.1505224408814,20.34513288085566,0 -104.1504514809042,20.34584634629872,0 -104.1501705049054,20.34642325654852,0 -104.149727212908,20.34689998502289,0 -104.149587508573,20.34700529049489,0 -104.1494770982551,20.34708851455314,0 -104.1491796277651,20.34717742178849,0 -104.1484713115537,20.34706554386814,0 -104.1481459429713,20.34700070865441,0 -104.1478041895802,20.34642980101664,0 -104.1477983096533,20.34641856552436,0 -104.1476904209838,20.34621239234932,0 -104.1472872759114,20.34635499423433,0 -104.1468270480174,20.34642503186219,0 -104.1466067122134,20.3464239557097,0 -104.1464241001781,20.3465314904038,0 -104.1462506706313,20.34671135430672,0 -104.1458833594756,20.34730590626637,0 -104.1455510364249,20.34850601125523,0 -104.1451859548358,20.34869397199794,0 -104.1448877829705,20.34890936617576,0 -104.1447106686716,20.34975784186661,0 -104.1441628658576,20.35007140339952,0 -104.1438035569863,20.35023864730017,0 -104.1433397674522,20.35045452159423,0 -104.1432696309326,20.35048266038116,0 -104.1428086416433,20.35068821656931,0 -104.1424142130373,20.35098445385829,0 -104.1419438406882,20.35115381938377,0 -104.1414737669175,20.35126897175298,0 -104.1412530749779,20.35133113575709,0 -104.141118104382,20.35148407653381,0 -104.1409150734415,20.35181739350421,0 -104.1403704868774,20.3532784733009,0 -104.1402352636483,20.35347658978501,0 -104.1400429086944,20.35361117601275,0 -104.1398599335543,20.3537819504036,0 -104.1383458027337,20.35385580685266,0 -104.1382592797197,20.3539095932364,0 -104.1379223160761,20.35420610327782,0 -104.1374416969329,20.35449286764039,0 -104.1370066183616,20.35520452612106,0 -104.13665936611,20.35562748024648,0 -104.1363902118362,20.35578878917635,0 -104.1361022480175,20.35588675584981,0 -104.1357494331507,20.35558683740576,0 -104.1356254416001,20.35548683282976,0 -104.1355687137282,20.35535101896664,0 -104.1354156797434,20.35530508372551,0 -104.1353592538732,20.35511505806243,0 -104.1352968187561,20.35428347935221,0 -104.1352599562398,20.35402126619308,0 -104.1351574908541,20.35349669752764,0 -104.1349777305389,20.35308920801557,0 -104.1344069459838,20.35236353701425,0 -104.1340348309051,20.35209062630943,0 -104.1336141615528,20.35193493601432,0 -104.1331734254564,20.35194178482834,0 -104.1327415129434,20.35208420939628,0 -104.1321643329992,20.35250601275516,0 -104.1317901010277,20.35261257933203,0 -104.1308700518343,20.35267125221686,0 -104.1297291016306,20.35282821053265,0 -104.129402970824,20.35289886945983,0 -104.1289791636285,20.3533033552571,0 -104.1289497644513,20.35342067051269,0 -104.1286129369113,20.3536900561758,0 -104.1284305072082,20.35376143011151,0 -104.1279701493183,20.35384948743866,0 -104.1277492967663,20.35393873984921,0 -104.1275863820709,20.35394696166167,0 -104.1261090950741,20.35428292595491,0 -104.1258594493155,20.35438106736357,0 -104.1254170789216,20.35467702486357,0 -104.1252046338205,20.354974133035,0 -104.1247870305561,20.35597498335681,0 -104.1245555744384,20.35624488876939,0 -104.1243337488302,20.35650580661526,0 -104.1239491576311,20.35674783666343,0 -104.1235162043228,20.35707094272755,0 -104.1234674864128,20.35721526643761,0 -104.123523031448,20.35755889479453,0 -104.1236270398377,20.35780337569717,0 -104.1235775569869,20.3580832282965,0 -104.1234328299344,20.35826321212953,0 -104.1231738506968,20.35831612497955,0 -104.1226762776648,20.35820519963697,0 -104.1221406899163,20.35803986872397,0 -104.1216979955392,20.35839002755868,0 -104.1214859470103,20.35861484861238,0 -104.1213888129728,20.35884928314301,0 -104.1215502508325,20.35910308963814,0 -104.1217794172893,20.3592397750256,0 -104.1219803533187,20.35928596307184,0 -104.1222680250915,20.35924223180465,0 -104.1224695739342,20.35917999624145,0 -104.1225123803081,20.3591857203063,0 -104.1226801927532,20.35920816112495,0 -104.1230146954889,20.35935440965524,0 -104.1231385284919,20.35948152872658,0 -104.1232714321888,20.35969904837938,0 -104.1233369150833,20.35997947803125,0 -104.123469717466,20.3602150680582,0 -104.1237159581914,20.36072229269402,0 -104.1237821559956,20.36087622861073,0 -104.1238480480565,20.36108437603951,0 -104.1237800657282,20.36124667409334,0 -104.1235782596584,20.3613540873503,0 -104.1230981542375,20.36154142243841,0 -104.1224078340078,20.36162830907045,0 -104.1219750679816,20.36191526951559,0 -104.121676583876,20.36217579789359,0 -104.121521861001,20.36242801363066,0 -104.1212896734611,20.36282440742665,0 -104.1212487936629,20.36327597691401,0 -104.1213333334711,20.36357457406728,0 -104.1213321063093,20.36379141999574,0 -104.1210801917892,20.36428710462057,0 -104.1211831774826,20.36471229173054,0 -104.1212962048412,20.3650562097965,0 -104.1214080566292,20.36560793843668,0 -104.1214068294383,20.36582478431904,0 -104.1212900681272,20.36614043918961,0 -104.1212126531925,20.3662755820106,0 -104.1207412919244,20.36660752196565,0 -104.1199608263485,20.36738064191111,0 -104.1194894590895,20.36771257822204,0 -104.1192575655963,20.36805475717143,0 -104.1191796352106,20.36828025133214,0 -104.119187883301,20.3685152158406,0 -104.1193104384739,20.3688682185698,0 -104.1195666690892,20.36930321501697,0 -104.1195754815057,20.36943879189938,0 -104.1195172769516,20.3695649952247,0 -104.1194211063817,20.3696277585217,0 -104.1188173382554,20.36965181785885,0 -104.1184146208432,20.36970399718744,0 -104.1181747833235,20.36975699857437,0 -104.1180018085911,20.36984647948586,0 -104.1177323027033,20.37006196916972,0 -104.1169917745179,20.37054614073342,0 -104.1168466165407,20.37079839997381,0 -104.116721134802,20.37096040376769,0 -104.1165943670935,20.37134828815023,0 -104.1163805953665,20.37187126422878,0 -104.1160622507748,20.37224914256844,0 -104.1159177587328,20.37238394295058,0 -104.1156664814863,20.37276216021821,0 -104.1150656875371,20.37394276305027,0 -104.1148904903439,20.37442075507616,0 -104.1146579061647,20.37488038475993,0 -104.1143790940096,20.37528128287213,0 -104.1143197691401,20.37536658479767,0 -104.1140313433497,20.37553679473757,0 -104.1132776134571,20.37589058320693,0 -104.1129649011645,20.37603736358073,0 -104.1130595805044,20.37623662533581,0 -104.1136193702812,20.37720626585561,0 -104.1134345312974,20.37769324247946,0 -104.1131747418882,20.37788166724255,0 -104.1127893565931,20.37825016247721,0 -104.1124053181442,20.37842429164131,0 -104.1120208042688,20.37859863617162,0 -104.1115767340082,20.3791746456939,0 -104.1106519137639,20.38003733897147,0 -104.1103981755244,20.38084020192143,0 -104.1101848352766,20.38128185177412,0 -104.1096462277485,20.381631486911,0 -104.1082090996324,20.38159704002512,0 -104.1079666426605,20.38210178627412,0 -104.1078788464021,20.38237240113642,0 -104.1078105775229,20.38257986758704,0 -104.1076944506215,20.38277805375014,0 -104.1073572620669,20.38309256974602,0 -104.1072605061902,20.38325471286662,0 -104.1072115560846,20.38343517151524,0 -104.1071434938473,20.38360649686254,0 -104.1070757435554,20.38372361102643,0 -104.1069026429161,20.38383115035861,0 -104.1065842501971,20.38420900912263,0 -104.1042765033594,20.38725115642663,0 -104.1042840501821,20.38760357768062,0 -104.1042919101508,20.38790178784085,0 -104.1040284902692,20.38871362506746,0 -104.1040369762158,20.38890341304452,0 -104.1043503226161,20.38940197210503,0 -104.1045438292808,20.39074021184783,0 -104.104820781158,20.39090427174657,0 -104.105645393628,20.39081814824113,0 -104.105788817744,20.3908730964176,0 -104.1059031819541,20.39098210817934,0 -104.105969529771,20.39110894460824,0 -104.1058881281994,20.39193075299338,0 -104.1056748629979,20.39235432536973,0 -104.1054243691029,20.39247533346449,0 -104.1051751624738,20.39259571889694,0 -104.1047901904553,20.39288287718664,0 -104.104538590478,20.39330625117787,0 -104.1044891116215,20.39357706036843,0 -104.104514675627,20.39412835365252,0 -104.104281611587,20.39466024761574,0 -104.1040104761475,20.39514676834692,0 -104.1037886109606,20.39539862040933,0 -104.1033755082696,20.39557720531584,0 -104.1027997071051,20.3957188103173,0 -104.1023675939647,20.3958701886287,0 -104.1022890480326,20.39619505993376,0 -104.1021148308141,20.39649233220239,0 -104.1021700770034,20.39688114042451,0 -104.1033468820466,20.39721247234845,0 -104.1039476758163,20.39772154570877,0 -104.1046935742601,20.39799644093401,0 -104.1051979724722,20.39860440494131,0 -104.1055103501237,20.39927463049787,0 -104.1051553105309,20.39935412737117,0 -104.1050116180356,20.39934435429217,0 -104.1047450693336,20.39903578078025,0 -104.1046012205613,20.39905311288282,0 -104.104485441899,20.39918804974309,0 -104.1044071072581,20.3994767813099,0 -104.1045979316619,20.39962232853377,0 -104.1049152142092,20.39944324915494,0 -104.1050872383263,20.39952545126157,0 -104.1051903034973,20.39993257502053,0 -104.1052275399848,20.40012251034188,0 -104.1050736375936,20.40022111013313,0 -104.10493801389,20.40047340605902,0 -104.1047555184058,20.40054475242433,0 -104.1045253163354,20.40057971179036,0 -104.1042945919115,20.40070502251772,0 -104.1041783415935,20.40092127559079,0 -104.1040711516208,20.40122792948126,0 -104.1041745284563,20.40158084271121,0 -104.1042314525808,20.40168052501942,0 -104.1041803505605,20.40223142386656,0 -104.1043517505593,20.40242204875733,0 -104.1046950739013,20.40271294641052,0 -104.1047696511957,20.40307474680997,0 -104.1048210148673,20.40331824812098,0 -104.1048536032289,20.40347273705363,0 -104.1047750057308,20.40380664441505,0 -104.1046025593989,20.40379672318473,0 -104.1045980164126,20.40458278245625,0 -104.1049331187478,20.40463871626328,0 -104.1049986359848,20.40491011568364,0 -104.1056769655883,20.40527501499534,0 -104.1057668932287,20.40546518077523,0 -104.1058568589357,20.40565542618897,0 -104.1057973769041,20.40599846746581,0 -104.1055353386767,20.40656635502857,0 -104.1055343474355,20.40673802314086,0 -104.1055993447897,20.40709977397856,0 -104.1055981449165,20.40730758273656,0 -104.1056033461627,20.40806658560448,0 -104.1057623538271,20.40874505887192,0 -104.1057590674927,20.40931427407169,0 -104.1056764828577,20.40943516536103,0 -104.1054207714516,20.40980948628715,0 -104.1049966380038,20.41023197347334,0 -104.1045539095118,20.41055497429323,0 -104.1042146464301,20.41073454715734,0 -104.1038239299546,20.41083131967596,0 -104.102184930552,20.41087808527667,0 -104.1012900630863,20.41146881955186,0 -104.1010354956475,20.41153618008402,0 -104.0997158651204,20.41188535764608,0 -104.0979152278271,20.41168630101939,0 -104.0974649508741,20.4116568630431,0 -104.0970143580519,20.411681634734,0 -104.0957752097062,20.41216312066197,0 -104.0954585766807,20.41222472503868,0 -104.0951327820189,20.41221399800233,0 -104.0948649123724,20.412131288029,0 -104.0939097629992,20.4115751639608,0 -104.0927478589013,20.41195764032038,0 -104.0917313482784,20.41206076929823,0 -104.0914125407513,20.4124928063048,0 -104.0907961567933,20.41300460863714,0 -104.0905178025243,20.41307543904894,0 -104.0902016436806,20.41305571764449,0 -104.0899042277079,20.41310837673599,0 -104.0888816478758,20.41424149184713,0 -104.0886704839867,20.4142945997759,0 -104.0883253586835,20.41431086493976,0 -104.0881230334851,20.41449051391594,0 -104.0879865177721,20.41488735651223,0 -104.0881849064046,20.415376305999,0 -104.0881733005632,20.41571959006431,0 -104.0880856082642,20.4159630865751,0 -104.0875454986986,20.41653852335458,0 -104.0875311814547,20.41656734534248,0 -104.087312713202,20.41700714404831,0 -104.0868819650551,20.41691453290189,0 -104.0858975633962,20.41633157733104,0 -104.0855734909155,20.41613966186283,0 -104.0845718222153,20.41534832298216,0 -104.0836819620732,20.4150996896065,0 -104.0831411962533,20.41492257556486,0 -104.0828470907311,20.41484467677721,0 -104.0821924152914,20.41490960342598,0 -104.0813931271228,20.41479850415347,0 -104.0795736423004,20.41454494600811,0 -104.0792370792906,20.41473291044195,0 -104.0787943403394,20.41504680802046,0 -104.0784584206216,20.41512634981637,0 -104.0775816014894,20.41429949091189,0 -104.0764356915797,20.41359769679366,0 -104.0764279399791,20.41329045314989,0 -104.0762384745139,20.41291899858141,0 -104.0755414505223,20.41248160398665,0 -104.0752194890739,20.41182934892752,0 -104.0743555007457,20.41206871608798,0 -104.0740986319918,20.41175111346774,0 -104.0739455095061,20.41171415825918,0 -104.0729306152912,20.41154612482185,0 -104.0727861573628,20.41166281589764,0 -104.0723245183633,20.41193141960333,0 -104.071950105566,20.41203785012743,0 -104.0714798554878,20.41214376913665,0 -104.0707039028391,20.41208542019179,0 -104.0702250988984,20.41201961834568,0 -104.0690963986464,20.41165217747066,0 -104.0680150240213,20.41138437148801,0 -104.0675556085327,20.41128252469505,0 -104.067034827526,20.41182185820494,0 -104.0663226416627,20.41231498768153,0 -104.0654853179194,20.41289779641132,0 -104.0652920076435,20.41316781990605,0 -104.0649393510336,20.41381689547873,0 -104.0648074193451,20.41405971882918,0 -104.0646036492997,20.41447425081353,0 -104.0643395360622,20.41535829632107,0 -104.0635526761164,20.41551670471723,0 -104.0631284165126,20.41593908472628,0 -104.0629743634098,20.41605571562054,0 -104.0629157663427,20.41623610723821,0 -104.0631998395374,20.41680686149261,0 -104.0632087127878,20.41692436862849,0 -104.0631100301392,20.4173936755855,0 -104.0624817094252,20.4182757583036,0 -104.0624400901749,20.41881765451056,0 -104.0620758956139,20.41881569390714,0 -104.0619893105388,20.41886943968693,0 -104.0617311977914,20.41875962555017,0 -104.0616355214673,20.4187320041672,0 -104.061444333259,20.41864965612865,0 -104.061387048052,20.41861320612628,0 -104.0613202883906,20.41855863438171,0 -104.0610436661839,20.4183402955024,0 -104.0606632651642,20.41785033660323,0 -104.0603571802957,20.41774929715222,0 -104.0601276580585,20.41766674094261,0 -104.0598596904065,20.41760204762153,0 -104.0596681753333,20.4175739079313,0 -104.0596023497166,20.41736573995018,0 -104.0595837305937,20.41727528611317,0 -104.0595573935357,20.41687758929921,0 -104.0596779979401,20.4159566363226,0 -104.0597004579209,20.41541463749489,0 -104.0596357297689,20.41520610680385,0 -104.0594560526226,20.41462724408732,0 -104.0592174457331,20.41446331976708,0 -104.0588268169019,20.41408172594346,0 -104.0587609387887,20.41388259270224,0 -104.0587916670747,20.41355748666566,0 -104.0586497236126,20.41325855376935,0 -104.0585342159101,20.41306939383894,0 -104.0585168699908,20.41304098789578,0 -104.0584325943897,20.4127152604368,0 
					</coordinates>
				</LinearRing>
			</outerBoundaryIs>
		</Polygon>
	</Placemark>
</Document>
</kml>
