<?xml version="1.0" encoding="UTF-8"?>
<kml xmlns="http://www.opengis.net/kml/2.2" xmlns:gx="http://www.google.com/kml/ext/2.2" xmlns:kml="http://www.opengis.net/kml/2.2" xmlns:atom="http://www.w3.org/2005/Atom">
<Document>
	<name>Elemento_52.kml</name>
	<StyleMap id="styleMapID00">
		<Pair>
			<key>normal</key>
			<styleUrl>#normal00</styleUrl>
		</Pair>
		<Pair>
			<key>highlight</key>
			<styleUrl>#highlight00</styleUrl>
		</Pair>
	</StyleMap>
	<Style id="highlight00">
		<LineStyle>
			<color>7f00ffff</color>
		</LineStyle>
		<PolyStyle>
			<color>7f7fffff</color>
		</PolyStyle>
	</Style>
	<Style id="normal00">
		<LineStyle>
			<color>7f00ffff</color>
		</LineStyle>
		<PolyStyle>
			<color>7f7fffff</color>
		</PolyStyle>
	</Style>
	<Placemark>
		<name>Elemento_52</name>
		<styleUrl>#styleMapID00</styleUrl>
		<ExtendedData>
			<SchemaData schemaUrl="#schemaID">
				<SimpleData name="MUNICIPIO">JUCHITLÁN</SimpleData>
				<SimpleData name="REGION">SIERRA DE AMULA</SimpleData>
				<SimpleData name="CLAVE">52</SimpleData>
				<SimpleData name="AREA_KMS2">236.786096932</SimpleData>
				<SimpleData name="GID">51</SimpleData>
			</SchemaData>
		</ExtendedData>
		<Polygon>
			<outerBoundaryIs>
				<LinearRing>
					<coordinates>
						-104.0333692164765,20.13564003845285,0 -104.0330875257545,20.13543291767689,0 -104.0328016955547,20.13524160225241,0 -104.0324002329706,20.13518518488981,0 -104.0322773137885,20.1349495853239,0 -104.032201504502,20.134831706702,0 -104.0321462748627,20.13447901651023,0 -104.0320898771099,20.13431606665573,0 -104.0320526681254,20.13414418662469,0 -104.0318724625365,20.13389020100701,0 -104.0310171032606,20.13297290830334,0 -104.0298889565128,20.13130415895844,0 -104.0293926787124,20.13111167981141,0 -104.0287811600021,20.13099084875108,0 -104.0282563533194,20.13077110259767,0 -104.0273779222424,20.13012843367901,0 -104.0273230489131,20.13008828767956,0 -104.0270388570134,20.12963494134102,0 -104.0268216859898,20.12917292908391,0 -104.0265182529002,20.12873754684402,0 -104.0255628123364,20.12854252076955,0 -104.0252669337806,20.1284324581712,0 -104.0250002022597,20.12825027190201,0 -104.0248397633024,20.12789699783815,0 -104.0243763494358,20.12703605607829,0 -104.0240715814191,20.12681751576629,0 -104.0238426694548,20.12670782165015,0 -104.0236416144435,20.1267338148066,0 -104.0234694258083,20.12673286099686,0 -104.023385856517,20.12632579824633,0 -104.0226424031748,20.12588797142833,0 -104.0219274833434,20.12547740656107,0 -104.0205439653627,20.12490048559072,0 -104.0190718192112,20.12448493545906,0 -104.018519487926,20.12432902234797,0 -104.0157653089063,20.12418716982676,0 -104.0155732159211,20.12412328857138,0 -104.0152402616298,20.12401256254929,0 -104.01183464971,20.12097563910569,0 -104.0114334034076,20.12089207008043,0 -104.0111766644733,20.12064667108632,0 -104.0107762716841,20.12042757243784,0 -104.0105277361985,20.12039907129351,0 -104.0100878886231,20.12036949582677,0 -104.0094275202743,20.12042000026514,0 -104.0087102703703,20.12038886269395,0 -104.0083088566698,20.1203323922995,0 -104.0078495368508,20.12035691489436,0 -104.0072384217509,20.12018180017014,0 -104.0070481935376,20.12000905407308,0 -104.0070291764424,20.1199908759327,0 -104.0067159654862,20.11960058432937,0 -104.0062687245269,20.11922760795553,0 -104.0059826720899,20.11908142727995,0 -104.0053619416327,20.11891528759843,0 -104.0052461843305,20.11906823844543,0 -104.0049877439651,20.119093886839,0 -104.0048067993265,20.11896636842294,0 -104.0044999700648,20.1188816867568,0 -104.0044725782827,20.11887412660743,0 -104.0042715311843,20.1189000979793,0 -104.0041847553617,20.11900803415657,0 -104.004012061382,20.11908837844959,0 -104.0036670162424,20.11919485534396,0 -104.0033226575643,20.11919290923439,0 -104.0033143015837,20.11918795751683,0 -104.003122525974,20.11907431619915,0 -104.0029696495944,20.11904634530241,0 -104.0028361906318,20.11897330650808,0 -104.0025887477702,20.1187731257006,0 -104.0017489912714,20.11845213070443,0 -104.0014434697608,20.11836004571468,0 -104.0006894626515,20.11809374444983,0 -104.0001256993348,20.11817183303442,0 -103.9999998319172,20.11823440308172,0 -103.9997982107344,20.11835072119358,0 -103.9984111047912,20.1183609188438,0 -103.997479628729,20.11892486231595,0 -103.996988563157,20.1194280578397,0 -103.9964509347549,20.11973220582761,0 -103.9963428316861,20.12018336554638,0 -103.9960491183048,20.12123884680916,0 -103.995707901772,20.12202504919935,0 -103.9952432826793,20.12309556859052,0 -103.9939631364272,20.12354367510145,0 -103.993521352773,20.12222557962593,0 -103.9932385588429,20.12186139150873,0 -103.9930125343608,20.12157031172188,0 -103.9926611468426,20.12052306255971,0 -103.991432522052,20.11987723704912,0 -103.9912625637854,20.12006988901003,0 -103.9905863376395,20.11977952087041,0 -103.9896689305634,20.11903274131915,0 -103.9891308761716,20.11859475340586,0 -103.9877688589345,20.11748602504244,0 -103.9857379385775,20.11762631054493,0 -103.9848536418373,20.11768738616891,0 -103.9835882836726,20.1171507918491,0 -103.9827664030025,20.11674441325735,0 -103.98154528593,20.11660620440874,0 -103.9813053523538,20.11660933629424,0 -103.9813086667932,20.11683598586441,0 -103.9809455589971,20.11694953742891,0 -103.9791331856213,20.11773486432142,0 -103.9778278292656,20.11812408578584,0 -103.9773841359526,20.11825638105383,0 -103.9676168112031,20.11430711236389,0 -103.9639589065791,20.11344536640719,0 -103.9625177411163,20.11295801670899,0 -103.9610255390987,20.11295826819913,0 -103.9596719662631,20.1122455259714,0 -103.9594318862935,20.11238867659484,0 -103.958897144374,20.11224998956606,0 -103.9582573085969,20.11209260941457,0 -103.957073829357,20.11169709227628,0 -103.956163543683,20.11193566387905,0 -103.9560112239249,20.11182633731467,0 -103.954789613451,20.11141250858999,0 -103.9545217250322,20.11127419698934,0 -103.9536796647766,20.11146917569767,0 -103.9535265062245,20.11148633791265,0 -103.9508754037814,20.11171454516492,0 -103.9506835634956,20.11179472266855,0 -103.9503017504942,20.11167499047784,0 -103.949584262301,20.1116887898478,0 -103.9485453703574,20.1111314401032,0 -103.9477912563021,20.11090105803359,0 -103.9474013333118,20.11056442166537,0 -103.9469356189651,20.11011890719594,0 -103.946327403454,20.10952797399794,0 -103.9453336977999,20.10936843369634,0 -103.9448669633455,20.10907650975512,0 -103.9441059609544,20.10912546472356,0 -103.9439674547645,20.10913437485226,0 -103.9437611088337,20.10914972029798,0 -103.9435176699906,20.10916782318553,0 -103.9433961790349,20.1087424319102,0 -103.9433596790823,20.10848018679363,0 -103.943343218317,20.1080825307524,0 -103.9433733071961,20.1078748968522,0 -103.943528645833,20.10753248210617,0 -103.9436736309931,20.10730746536648,0 -103.943654623018,20.10728928075323,0 -103.9437124350902,20.10722637912936,0 -103.9439554294792,20.10664956836334,0 -103.9440522267285,20.10647847517515,0 -103.9441975736812,20.10619924767507,0 -103.94462912932,20.10603015719125,0 -103.9449164894595,20.10596862815123,0 -103.9451559661776,20.10591584774544,0 -103.9455203868687,20.10577345980246,0 -103.9457703956877,20.10557617502003,0 -103.9459055693142,20.10538723919389,0 -103.9459554485187,20.10508033341992,0 -103.9460910448431,20.1048281520999,0 -103.9462558178597,20.10450386165877,0 -103.9464201064898,20.1042518513918,0 -103.9466799783847,20.10400944700533,0 -103.9470062565343,20.10384875720722,0 -103.9474376821299,20.10369772948306,0 -103.9478016731055,20.10361858182514,0 -103.9481182039065,20.10348493799435,0 -103.9483200218521,20.1033415744528,0 -103.9484646945024,20.10316172845658,0 -103.9485707473445,20.10303586467476,0 -103.9486286765444,20.10295489114388,0 -103.9486485292168,20.10284658447484,0 -103.9487068202488,20.10271140058514,0 -103.9487651111759,20.10257621666968,0 -103.9488137170268,20.10245904585959,0 -103.9488528187853,20.10233278299948,0 -103.9489494270312,20.10218879185148,0 -103.9490179451958,20.10195427918033,0 -103.9490862219434,20.1017559066936,0 -103.94913506846,20.101602595535,0 -103.94918427663,20.10139507401293,0 -103.949194865862,20.10124153499463,0 -103.9491302674937,20.10088876905678,0 -103.9489896380078,20.10046326693412,0 -103.9487529451317,20.10010044038052,0 -103.9484586873044,20.09976437677645,0 -103.9480598285574,20.09933733506533,0 -103.9476893020966,20.09896467395535,0 -103.9471292470448,20.09832885445828,0 -103.9468156865669,20.09801977939501,0 -103.9465211949692,20.09771985305455,0 -103.946303398016,20.09739327793393,0 -103.9461903828194,20.09713057614919,0 -103.9460395352277,20.09680440047866,0 -103.9460607187107,20.09649732290552,0 -103.946052907959,20.09623524924938,0 -103.9461019972119,20.09604579867718,0 -103.9461414619583,20.09586532603015,0 -103.9463147610277,20.09569468782031,0 -103.9465738932167,20.09556070339988,0 -103.9467855679175,20.09537222289493,0 -103.946929388854,20.09531886854487,0 -103.9472940246393,20.09514033536706,0 -103.9475242823867,20.0950332835144,0 -103.9478314129449,20.09487247709985,0 -103.9480429042419,20.0947111001454,0 -103.9481980978512,20.09438674987152,0 -103.948267276677,20.09405285150473,0 -103.9482982602707,20.09370969009292,0 -103.9483303896775,20.09319486245918,0 -103.948496833316,20.09261758696175,0 -103.9486612256946,20.09234750342895,0 -103.9490075087616,20.09205139647668,0 -103.9494383575716,20.09198167773719,0 -103.9498400331567,20.09198406779567,0 -103.9501559966788,20.09193173463975,0 -103.95052916167,20.09190684727623,0 -103.9510075874652,20.09187354922681,0 -103.9513524219906,20.09179427917398,0 -103.9514962983673,20.09173188579187,0 -103.9518797477821,20.09159863144774,0 -103.9520814265559,20.09147333273233,0 -103.9521593781462,20.09125694506923,0 -103.9522663809664,20.09098651718257,0 -103.9523736236982,20.0906799488969,0 -103.952405077924,20.09026450558292,0 -103.9524358111067,20.08995748317749,0 -103.952581727416,20.08958789612011,0 -103.9527547123342,20.08946242624543,0 -103.9531568021055,20.08940156290603,0 -103.9536352800644,20.08935922227821,0 -103.9541336045733,20.08920857264619,0 -103.9544985181841,20.08898484804018,0 -103.9547873420918,20.08869742409096,0 -103.9549236881681,20.08832777813034,0 -103.9549467098798,20.0877406106573,0 -103.9550944153165,20.08709996841479,0 -103.9552311784005,20.08666707642936,0 -103.9553569998472,20.08644193478455,0 -103.9554734970801,20.08618059609021,0 -103.9556180253659,20.08601881300215,0 -103.9557911835439,20.08586623454339,0 -103.9560505910224,20.08568705951653,0 -103.9562135268709,20.08563381009182,0 -103.9564250570332,20.08546338689743,0 -103.9566263056588,20.08540132805877,0 -103.9569136240469,20.08533977745213,0 -103.9571239573885,20.08535005529617,0 -103.9573917304968,20.08535163661307,0 -103.9576491634873,20.08547061734474,0 -103.9580582365037,20.08579830798415,0 -103.9584009647459,20.08603525184578,0 -103.9587164365919,20.08605518347753,0 -103.9591948439313,20.08602186234808,0 -103.9595121054222,20.08577073947683,0 -103.9600601381188,20.08533123071278,0 -103.9606555672518,20.08495524729932,0 -103.9610969685161,20.08473195840226,0 -103.961441842672,20.08464363254696,0 -103.9620455203394,20.08446647285671,0 -103.96239983779,20.084396271517,0 -103.9628881597825,20.08430878562541,0 -103.9633485639893,20.08410367342785,0 -103.9635887150888,20.08394244472867,0 -103.963924973328,20.08370949586544,0 -103.9641657763864,20.08344888001632,0 -103.9642237494913,20.08335886539541,0 -103.964350445985,20.08299818977704,0 -103.964553113169,20.08271927871663,0 -103.9646788588522,20.08250316472136,0 -103.9647288702911,20.08216914554809,0 -103.964597834724,20.08173467478691,0 -103.9644751165563,20.08148999757105,0 -103.9641331005832,20.08114464396205,0 -103.9639431451371,20.08094474936411,0 -103.9634666546551,20.08068896028199,0 -103.9626277213545,20.0802864739439,0 -103.9624974064755,20.07974358044437,0 -103.9627872686124,20.07929350957397,0 -103.962816314172,20.07923946733627,0 -103.9629905870971,20.07891521378442,0 -103.9636323726634,20.07730163145506,0 -103.9635479698938,20.07704814299786,0 -103.9635012247571,20.07688523020418,0 -103.9634494308164,20.07603559186072,0 -103.9634406995376,20.07590904400399,0 -103.9634892854613,20.07579186795502,0 -103.9634830484881,20.07528584484646,0 -103.9635931077928,20.07454558172083,0 -103.9635888298029,20.07374139934511,0 -103.9638131040717,20.0730831252008,0 -103.9636545770459,20.07246778291292,0 -103.963743311484,20.07206170693907,0 -103.9640334516813,20.07156645720541,0 -103.9644094150447,20.07110785188834,0 -103.9645823108008,20.07099140398474,0 -103.9650442146571,20.07055137175853,0 -103.9651541665367,20.07039096466167,0 -103.9652662847847,20.07022739508294,0 -103.9652962759748,20.07002879010097,0 -103.9652509531932,20.06964903439336,0 -103.9652608711999,20.06959487957753,0 -103.9651094733615,20.0693500348427,0 -103.9647679553124,20.06893240201401,0 -103.9646061069645,20.06882302789388,0 -103.9637587381071,20.06825786062401,0 -103.9634179384001,20.06773180380392,0 -103.9634990074845,20.06703654728269,0 -103.9634800611026,20.06700932970349,0 -103.9635594080791,20.06657609196811,0 -103.9637441165762,20.06611636558553,0 -103.9640668466706,20.06502496416116,0 -103.9640680331008,20.06484426141245,0 -103.9640395247614,20.06481698784172,0 -103.9640495021168,20.06475379793219,0 -103.9639022634941,20.06387649267579,0 -103.9637900109797,20.0634963441456,0 -103.9636207430318,20.06306164830338,0 -103.9634514166159,20.06263598745727,0 -103.9634727364148,20.06230179950011,0 -103.963675258023,20.06204095797708,0 -103.9639366927325,20.06154553884978,0 -103.964389659664,20.06100606411734,0 -103.9646206265011,20.06078152997433,0 -103.9653777311466,20.06052393402931,0 -103.9660013821916,20.06020230564744,0 -103.9666144632461,20.06003421658717,0 -103.9666718341601,20.06003455198638,0 -103.9672856234051,20.0597580387144,0 -103.9678126454004,20.05958944255644,0 -103.9679468059529,20.05954504843166,0 -103.9681482533946,20.05944683400545,0 -103.9686665383188,20.05915168720469,0 -103.9692158668899,20.05849529972273,0 -103.9692259006673,20.05842307420873,0 -103.9692836840567,20.05836016262151,0 -103.9693511471172,20.05827923644333,0 -103.9693515011029,20.05822502548713,0 -103.9697409877049,20.05715207085221,0 -103.9700019822689,20.05671988742639,0 -103.9703487940552,20.05632434541451,0 -103.9707840735471,20.05555886182914,0 -103.9714023714698,20.05458662507484,0 -103.9713834250718,20.05455940831109,0 -103.9717213143739,20.05406442065009,0 -103.9717792128177,20.05398343776156,0 -103.9730224573511,20.05248173242413,0 -103.9731092149479,20.05237381010435,0 -103.9731957373903,20.05230202844112,0 -103.9736007215928,20.05178031972158,0 -103.9736871260276,20.05172660814575,0 -103.9744099189538,20.05085435641454,0 -103.9757228499876,20.04967952081546,0 -103.9758044516496,20.04960650118841,0 -103.976082840009,20.04943643833711,0 -103.9761018452538,20.04945461943373,0 -103.9764479813014,20.04915845084407,0 -103.9764670451197,20.04916759671352,0 -103.9767745253659,20.04893445238666,0 -103.9767934720941,20.04896166860079,0 -103.9774471425841,20.04842331774903,0 -103.9775817006075,20.04831566937242,0 -103.9779847888744,20.0480830755155,0 -103.9781577076653,20.04795757729247,0 -103.9782152497726,20.0479308031693,0 -103.9786870168081,20.04742753839597,0 -103.9793024303331,20.04688895917543,0 -103.9795521271053,20.04671872489438,0 -103.9796289657551,20.04666495500846,0 -103.9802142316291,20.04635208687044,0 -103.9807049346704,20.04587603200995,0 -103.9808404794449,20.0456147824513,0 -103.9811031723062,20.04491152373851,0 -103.9811713227867,20.04472216993329,0 -103.9813083224584,20.04423503972057,0 -103.981389645564,20.04348555794618,0 -103.981390053397,20.04342231148598,0 -103.9814377344584,20.04195882777698,0 -103.9813998409214,20.04190439630321,0 -103.9813358867928,20.04144321518897,0 -103.9813089523732,20.04117199370099,0 -103.9812429595324,20.04102704491973,0 -103.9811679887673,20.04079168894668,0 -103.9811872849576,20.04076469344066,0 -103.9808380853732,20.04005790938211,0 -103.9807903986832,20.04003956355714,0 -103.9807527389535,20.03994899112137,0 -103.9805821630548,20.03971308406753,0 -103.9803275829515,20.03916044859094,0 -103.9802899819878,20.0390608408585,0 -103.9802526143195,20.03892509227904,0 -103.9802273147456,20.03840088476023,0 -103.9803255440277,20.03799485132327,0 -103.9804810191761,20.03760721877882,0 -103.9808394779876,20.03687740456042,0 -103.9812259738774,20.03624714193036,0 -103.9817305678165,20.03509349591933,0 -103.9817978395716,20.03503966972479,0 -103.9818174841714,20.0349584627869,0 -103.9819913746248,20.03467936114922,0 -103.9824827326182,20.03409487627593,0 -103.9826558066742,20.03394226697224,0 -103.9826848364839,20.03388822053386,0 -103.9830021282025,20.03360994213603,0 -103.9832334927833,20.03331309829247,0 -103.9834566908999,20.03279935377517,0 -103.9835354968722,20.03243838408308,0 -103.9835070486984,20.03240207843608,0 -103.9835099539572,20.03195031713261,0 -103.9833980793203,20.03150693204422,0 -103.9832796670715,20.03059366017324,0 -103.9833306054298,20.03010603249965,0 -103.9834182147442,20.02986257559022,0 -103.9838989464698,20.02944066481645,0 -103.9839757750427,20.02938689250923,0 -103.984263214125,20.02928915119563,0 -103.984496346611,20.0292635287129,0 -103.9847320028618,20.02923762762682,0 -103.9857261860358,20.02925236351218,0 -103.9860709260252,20.02916398315135,0 -103.9863493249576,20.02898486647012,0 -103.9864938834296,20.02880498294766,0 -103.9866305032169,20.0283720578724,0 -103.9865199539221,20.02772086381467,0 -103.9864706541094,20.02744159744661,0 -103.9864369266209,20.02725053869969,0 -103.9864908074761,20.02630211221673,0 -103.9866450388316,20.02610421265925,0 -103.9869719832152,20.02580791016568,0 -103.9873072709519,20.02570140180956,0 -103.9875272621438,20.02568458911157,0 -103.9880908279812,20.02576009632867,0 -103.9881247281056,20.0257535532153,0 -103.9882726956098,20.02572499360712,0 -103.987554018205,20.02449204617883,0 -103.9871810955953,20.02433504675286,0 -103.9867054603034,20.02413480349408,0 -103.9858317040621,20.02323527810762,0 -103.9848803210611,20.02251601504608,0 -103.984704329677,20.02230267170006,0 -103.9844534460818,20.02199853922729,0 -103.9838700801067,20.02203133416847,0 -103.9834122080635,20.02187510087288,0 -103.9827784586976,20.02082333463456,0 -103.9809700721698,20.01958409828828,0 -103.9795676947773,20.01913327880796,0 -103.9791003347222,20.0189679445398,0 -103.978222390148,20.01872795566578,0 -103.9779557790657,20.01856377681725,0 -103.975870731372,20.0187234047661,0 -103.9746956346842,20.01860817741687,0 -103.9742552021301,20.01871405311772,0 -103.9726614331539,20.01829821324563,0 -103.97177253474,20.01827498247417,0 -103.9715826409174,20.01807509759277,0 -103.9713539228977,20.01796534245802,0 -103.9707782493128,20.01828727688127,0 -103.9702906071326,20.0183025127829,0 -103.9697247250143,20.01858835840691,0 -103.9694667999605,20.01855975079665,0 -103.9682441504392,20.01840806190226,0 -103.966621016854,20.01810042367927,0 -103.9640802608096,20.017778369178,0 -103.9634414485742,20.01752163585868,0 -103.9628610008578,20.01711163816301,0 -103.9616488791445,20.01681539758225,0 -103.9602027715806,20.01575879096868,0 -103.9595116705713,20.01473371736572,0 -103.9590150985346,20.01418336921819,0 -103.9587904148759,20.0139343521099,0 -103.9556682644229,20.01104518269308,0 -103.9561239104798,20.01005102572462,0 -103.9566130300583,20.00938284117182,0 -103.9567218847157,20.00912335774365,0 -103.9572899165507,20.00776928726555,0 -103.9577951907901,20.00689235660504,0 -103.9582801302739,20.00527221083143,0 -103.960203986922,20.00366974806444,0 -103.961235882992,20.00140785784657,0 -103.9616337760708,20.00106724421497,0 -103.9618775355437,19.99940850243271,0 -103.9619568278024,19.99886891869187,0 -103.9622094337756,19.99843044934857,0 -103.9624034757415,19.99659646488372,0 -103.9628558746996,19.99538474224984,0 -103.9638591565818,19.99380322084521,0 -103.9642006960864,19.99268926807473,0 -103.9644452484251,19.99189163201594,0 -103.9648848737929,19.99112433941286,0 -103.9656902993445,19.99045203866891,0 -103.9659876642744,19.98979538719877,0 -103.9668757012842,19.98953000923437,0 -103.9671637202118,19.98822974542339,0 -103.9660427987813,19.98698401714042,0 -103.9660955687314,19.98623966769141,0 -103.9661064910757,19.98608559634557,0 -103.965369643461,19.98487115377505,0 -103.9658314332922,19.98365024658449,0 -103.9658405269414,19.98361808238273,0 -103.9659317741848,19.98329534895168,0 -103.9660548395394,19.98318495526646,0 -103.9662846781343,19.98250198178599,0 -103.9665832067371,19.98192691707503,0 -103.9707298549635,19.98153763580224,0 -103.9714737178402,19.98323248755513,0 -103.9732523611674,19.98354482332755,0 -103.9736499143154,19.98372633488277,0 -103.9737350567505,19.98376520813878,0 -103.9761353437028,19.98396062170215,0 -103.9775204554052,19.98416471463153,0 -103.9780574305322,19.98424383304094,0 -103.9803571415151,19.98346129885671,0 -103.9814217474949,19.98412739050066,0 -103.9816615364543,19.98412017134183,0 -103.982485746008,19.98409535555295,0 -103.9833201629539,19.98410258053887,0 -103.9847099198153,19.98339534065742,0 -103.9861927249893,19.98314926692277,0 -103.9871768226989,19.98290064637574,0 -103.9875744922731,19.98290316035485,0 -103.9885770504786,19.98290949504854,0 -103.9886996986924,19.98277188816654,0 -103.9896247879838,19.98307708817852,0 -103.9914173272771,19.98291973620224,0 -103.9926608142577,19.98281056925031,0 -103.9957803351852,19.98300528816291,0 -103.9960141805598,19.98325607627584,0 -103.9966500513358,19.98345624020298,0 -103.9970124970135,19.98267174025719,0 -103.9974054902719,19.98234266646389,0 -103.9976945409152,19.98210062915286,0 -103.9983353906499,19.98068686519011,0 -103.9994306956045,19.98076091143795,0 -103.9997944591419,19.98078550101885,0 -103.9996582964618,19.98043087545943,0 -103.9998029643689,19.98022387157075,0 -104.0000054303911,19.97994490828345,0 -104.0009369089553,19.97924537745998,0 -104.0014930953939,19.97895033322169,0 -104.0019963177027,19.97795924388006,0 -104.0021720396228,19.97737291508522,0 -104.002261748096,19.97678610221277,0 -104.0030379020787,19.97646518286512,0 -104.0041175456434,19.97651642622246,0 -104.004548286208,19.976410416227,0 -104.005401852631,19.97593631445185,0 -104.0065765531157,19.97606939669631,0 -104.0071728695442,19.97546734583167,0 -104.0078253348699,19.975055355854,0 -104.008665034626,19.97526787102405,0 -104.0091524890319,19.97526155891374,0 -104.0102525954737,19.97509602283944,0 -104.0107323530154,19.97479148616515,0 -104.0115487928247,19.97413643312128,0 -104.0118936245379,19.97401185475856,0 -104.0123067167481,19.97398523751715,0 -104.0129262042507,19.97394531798067,0 -104.0137135112076,19.97336237776846,0 -104.0141351304744,19.97318400771568,0 -104.0147942629783,19.97323284795127,0 -104.0152832266193,19.97298256361477,0 -104.0153339836991,19.97250395398708,0 -104.0156521021553,19.97206297072556,0 -104.0165164592841,19.97138105213788,0 -104.0171094731615,19.97130301730946,0 -104.0177472475411,19.9717131556914,0 -104.017967385832,19.97166016022889,0 -104.0182742607844,19.97149018046502,0 -104.018561965954,19.97132912979146,0 -104.0192372988865,19.97030279506622,0 -104.0195665784249,19.96959983057298,0 -104.0205651984726,19.96883731150624,0 -104.0207487238232,19.9685220749408,0 -104.0208943977107,19.96803332089151,0 -104.0209839819249,19.96773275193113,0 -104.0209977293079,19.96764278248517,0 -104.0209831782643,19.96754229295797,0 -104.0210907614314,19.96731816040807,0 -104.0213400846255,19.96707090296615,0 -104.0218922154962,19.96664425882601,0 -104.0414846668967,19.96960409033728,0 -104.0417773554576,19.96930095532917,0 -104.0423101230301,19.96902178643374,0 -104.0427957749516,19.96879764873136,0 -104.0430317577572,19.96854967415484,0 -104.0436936565187,19.96856795664167,0 -104.0444666335414,19.96832180907552,0 -104.0446897460013,19.96785640878079,0 -104.0452941211165,19.96787545973518,0 -104.045897675836,19.96784011983894,0 -104.0465308118708,19.96785877731439,0 -104.0473324035258,19.96760316298712,0 -104.0486409925778,19.96663350858249,0 -104.0504346562035,19.96667273614352,0 -104.0511532448557,19.96663581968274,0 -104.0514693433694,19.96724806810582,0 -104.0533634570358,19.96885441216735,0 -104.0547555241735,19.97023180734022,0 -104.0561449375409,19.97016764547204,0 -104.0570811933786,19.97057201125507,0 -104.0589017036197,19.97174409562599,0 -104.0606003685224,19.97309914745505,0 -104.0627438153207,19.9721724205986,0 -104.0637019663833,19.97212312068959,0 -104.0644022340652,19.9721407907337,0 -104.0650017029709,19.97193386639093,0 -104.0656327471024,19.97171604101855,0 -104.0670584807851,19.97277554078045,0 -104.0680300926433,19.97297989418902,0 -104.068375873582,19.97364610687256,0 -104.0717160735484,19.97385438440116,0 -104.0723388226715,19.97381867786536,0 -104.0732758443291,19.97426826883427,0 -104.0733237382732,19.97406290209998,0 -104.0734984911276,19.97412522401704,0 -104.0741404042289,19.9742090212474,0 -104.0747826502086,19.97396121742934,0 -104.0755416212421,19.97371357402232,0 -104.0763001359691,19.97392187545937,0 -104.077000209008,19.97421299186335,0 -104.077525233733,19.97446241586121,0 -104.0782254333149,19.97462917827627,0 -104.0785018777669,19.97469092501142,0 -104.0791590482235,19.9748377079767,0 -104.0796257555031,19.97504559548744,0 -104.0801504266758,19.97566806000226,0 -104.0806750613034,19.97633197289555,0 -104.0811414964554,19.97683000604924,0 -104.0818415112055,19.97720400457381,0 -104.0825416879483,19.97741220038023,0 -104.0834153475725,19.97932007531249,0 -104.0833565093933,19.97981739536416,0 -104.0841147525219,19.98035726321744,0 -104.0847565416341,19.98060682242635,0 -104.0851649853124,19.98073171849624,0 -104.0859822625537,19.98056700877544,0 -104.0870333097226,19.98007100581699,0 -104.0877335833164,19.98019628211789,0 -104.0873825068648,19.98114916664195,0 -104.0868564419459,19.98197746872752,0 -104.0858053823067,19.98247347091625,0 -104.0844043892315,19.98267884751685,0 -104.0837035183306,19.9831753063907,0 -104.0828281746439,19.9830083271137,0 -104.0822447855319,19.98271738896051,0 -104.0813106404897,19.98300627263675,0 -104.0802017544137,19.98292186312244,0 -104.0792679695006,19.98283768636956,0 -104.0785674892432,19.98291962604378,0 -104.0775751747127,19.98300115920157,0 -104.0764658796713,19.98333122440782,0 -104.0754731893111,19.98378579473836,0 -104.0750640796681,19.98432407322207,0 -104.0746551353194,19.98469655098784,0 -104.0743040116211,19.98560795597114,0 -104.0737777385684,19.98656056546824,0 -104.0732515017072,19.98747172247379,0 -104.0726086904353,19.98821691478651,0 -104.071557121143,19.98912732507454,0 -104.0709728347731,19.98970679384048,0 -104.0699800031034,19.99024423011195,0 -104.0691042926086,19.99040877990002,0 -104.0682871231997,19.99040761059266,0 -104.0672951091589,19.99015748741333,0 -104.066419001302,19.99069507090668,0 -104.06600966733,19.99139912439835,0 -104.065775263097,19.99226922928873,0 -104.0657161862917,19.99293233855336,0 -104.0659489174542,19.99363732046054,0 -104.0660069784825,19.99392755262271,0 -104.0661817378189,19.99425940300051,0 -104.0662394475177,19.9948812314579,0 -104.0662971139249,19.9955445103079,0 -104.0663547370723,19.99624923775086,0 -104.0665876505617,19.9967884207252,0 -104.0672297813407,19.99674789676013,0 -104.0674434530064,19.99663699846103,0 -104.0681058337415,19.99629321088684,0 -104.0691561723116,19.99662631344299,0 -104.0694476840471,19.99695832768203,0 -104.0696806956761,19.99741460695014,0 -104.0701467228225,19.99832716558888,0 -104.0707297152329,19.9990326411216,0 -104.0712547250633,19.99936498413196,0 -104.0723049629137,19.99982241865856,0 -104.0734138341057,20.00003123075389,0 -104.0739391894847,20.00003196841303,0 -104.0748148658246,19.99995029600684,0 -104.0759240329464,19.99986894518436,0 -104.0761574833229,19.99991071955355,0 -104.076565678613,20.00032578517787,0 -104.0774406151813,20.0009901942375,0 -104.0781409712369,20.00111551238301,0 -104.0787243366536,20.00148936421223,0 -104.0792487204394,20.0024848806804,0 -104.0797731919199,20.00339749638837,0 -104.0802980327838,20.00393706293077,0 -104.080939627025,20.00447678736323,0 -104.0831553184139,20.00713258681136,0 -104.0852566837686,20.00730121855829,0 -104.0858405973911,20.00713620131822,0 -104.0871248999471,20.00709646596073,0 -104.0875915198706,20.00751158444157,0 -104.0884081281639,20.00821731531569,0 -104.0890498825004,20.00863266265456,0 -104.0895165497237,20.00900632664354,0 -104.0898075183321,20.01000150693376,0 -104.0900985664645,20.01091378644636,0 -104.0910315814171,20.01203415764078,0 -104.0914395080137,20.01282223966628,0 -104.0916724559219,20.01344429154301,0 -104.0918469517062,20.01414916731517,0 -104.092196471452,20.0149786204459,0 -104.0926628280642,20.01572532627016,0 -104.0930128404517,20.01601593050405,0 -104.0937129810996,20.01647278786559,0 -104.0939462012274,20.01680468890152,0 -104.0944127193542,20.01738559063383,0 -104.095054379159,20.01796671682897,0 -104.0956380312769,20.01813326752589,0 -104.0964552026848,20.01830011620918,0 -104.097330757219,20.01846703476694,0 -104.0982642620452,20.01913142224849,0 -104.099022597977,20.01983703325149,0 -104.0996640719442,20.02066684322354,0 -104.1001303380827,20.02157932911083,0 -104.1005384403132,20.02224304182559,0 -104.1007717190434,20.02253348473142,0 -104.10065077786,20.0237714057414,0 -104.1005479803654,20.02414902290357,0 -104.1003892295637,20.02442480492527,0 -104.1002116135826,20.02464954253755,0 -104.1002153224936,20.02488888191229,0 -104.1003819700185,20.02512596455879,0 -104.1005846479759,20.02534543865092,0 -104.1008234665458,20.02556443651356,0 -104.1009172037287,20.02576830948799,0 -104.1009209136668,20.02600764796403,0 -104.1007624255872,20.02630053724499,0 -104.1009504289514,20.02674251897925,0 -104.1011922195581,20.02714953673625,0 -104.1015626155687,20.02767449175292,0 -104.1017343939795,20.02814047622956,0 -104.1018659165063,20.02844643453504,0 -104.10188960598,20.02880519305286,0 -104.1018946433759,20.02913001325296,0 -104.1018624281165,20.02938695905547,0 -104.101648827128,20.02962930852596,0 -104.1015241446352,20.02976781612015,0 -104.101381805874,20.0299368255888,0 -104.1013446790894,20.02999903830505,0 -104.1014143997269,20.03010070624433,0 -104.1015027682936,20.03018173075207,0 -104.1016334595647,20.03017992108932,0 -104.1018621334018,20.03031659615325,0 -104.1022414889596,20.03061570481348,0 -104.1022530797766,20.03074981066038,0 -104.1022552476635,20.03088962266002,0 -104.1023526452011,20.03098699136888,0 -104.1024756384482,20.03105109076136,0 -104.1025899117376,20.03111531123552,0 -104.1027396502931,20.03122019001643,0 -104.1029246524463,20.03134923389136,0 -104.1030834188158,20.03147043072872,0 -104.1032143142735,20.03148506161217,0 -104.1032603382343,20.03164071154895,0 -104.1033484537321,20.03170531765876,0 -104.1034890156328,20.03177738372709,0 -104.1037879102306,20.03194599766401,0 -104.1038856398997,20.03206803947469,0 -104.1041238039177,20.03225393896552,0 -104.1043960827162,20.0323900057623,0 -104.104598784058,20.03247105709214,0 -104.1047963987576,20.03242761878095,0 -104.1048756289615,20.03253233340348,0 -104.1048862650041,20.03266239437608,0 -104.1048354084137,20.03272007652605,0 -104.1047498904993,20.0327619604047,0 -104.104751533468,20.03286772648824,0 -104.1048047392991,20.03296466249878,0 -104.1049096870125,20.03306085724431,0 -104.105212631089,20.03313804971056,0 -104.105593667408,20.03324671596189,0 -104.1057945930458,20.03335194769414,0 -104.105993979265,20.03342243684081,0 -104.106195641836,20.03363938059642,0 -104.106213324847,20.03385085720588,0 -104.1063979039275,20.03401993674831,0 -104.1066441754695,20.03423346024167,0 -104.1070201680321,20.03445334603444,0 -104.1073429092711,20.03474919571556,0 -104.1076648007858,20.03476394740454,0 -104.1079159399964,20.034823985305,0 -104.1080600847256,20.03499765916217,0 -104.1081813575918,20.03513650564896,0 -104.1082948429733,20.03525438679227,0 -104.1084002666701,20.03533023601783,0 -104.1085295946539,20.03544308076891,0 -104.1086733034222,20.03558866233938,0 -104.10876380845,20.03566469465454,0 -104.1088996204169,20.03578226681375,0 -104.1090052113254,20.03587216088275,0 -104.1091326330438,20.03592660712498,0 -104.109215023058,20.03596058362253,0 -104.1092830941407,20.03602990298457,0 -104.1093209945865,20.03607154463604,0 -104.1093668485714,20.03614819764904,0 -104.1093769000842,20.03620045263995,0 -104.110710629008,20.03725440982863,0 -104.1121152075057,20.03831371974139,0 -104.1176764350173,20.03833588040884,0 -104.1193582249972,20.03838814660691,0 -104.1224499143226,20.03848418785038,0 -104.1232689263513,20.03844828825789,0 -104.1240552238592,20.03829641963979,0 -104.1304924971573,20.03749172499016,0 -104.130993665519,20.03763106589774,0 -104.1316726297748,20.03781983765357,0 -104.1317932310764,20.03778795015999,0 -104.1324044207157,20.03819716040241,0 -104.132462536146,20.03861172470069,0 -104.1333381937566,20.03886137136698,0 -104.1339221281276,20.03877909961383,0 -104.1351481440325,20.03898766290654,0 -104.1359069787199,20.03932007265557,0 -104.1364322639149,20.03965223121995,0 -104.1368989022731,20.0403988290551,0 -104.1370737296542,20.04093786573504,0 -104.137657256349,20.04151878379529,0 -104.1386495388726,20.04205867927143,0 -104.1391747368168,20.0425566313399,0 -104.1388238880267,20.04338526749143,0 -104.1378889544742,20.04450344001249,0 -104.1377134724583,20.04500065717978,0 -104.1371874391694,20.0458291048735,0 -104.1365444073993,20.04698902716885,0 -104.1359598635391,20.04798320958863,0 -104.1356674831436,20.04864609998877,0 -104.1348492255322,20.04984727821613,0 -104.1343232406234,20.05055136577159,0 -104.1337387497103,20.05142118863246,0 -104.1328620144841,20.05270519323282,0 -104.1325113007472,20.05324366416972,0 -104.1315760965385,20.05461049882952,0 -104.1310501353794,20.05523167438632,0 -104.1302904539358,20.05605984256735,0 -104.1295308199979,20.05680510729381,0 -104.1290631817526,20.05750924038618,0 -104.1281280934252,20.05862735387363,0 -104.1283031367602,20.05883479862474,0 -104.1296458926146,20.05933368485638,0 -104.1304632627875,20.05958328493145,0 -104.1313971217244,20.06028895885344,0 -104.1313383654407,20.06082774483607,0 -104.1310459957044,20.06140772524321,0 -104.1306948634565,20.06252649060627,0 -104.1308694405632,20.06343858215772,0 -104.1313945426977,20.06414380736429,0 -104.1318029927316,20.0646416542425,0 -104.1325614461624,20.06572018087907,0 -104.1333197744166,20.0670059549369,0 -104.1338449267528,20.0676697234947,0 -104.1342521480799,20.07007426429669,0 -104.1343684873639,20.07077904022691,0 -104.1343682979536,20.07106919041589,0 -104.1341341559082,20.07189793720896,0 -104.1337246725121,20.07293374443226,0 -104.1335489520976,20.07372110335577,0 -104.1332562899103,20.07471558554438,0 -104.1329051956842,20.07575145342112,0 -104.1323788895041,20.07678712844986,0 -104.1321449486818,20.07728427264423,0 -104.1316184928692,20.0785271949232,0 -104.1316182419734,20.07890024432041,0 -104.1313840998187,20.07968753595717,0 -104.1307995348161,20.08047444201607,0 -104.1314999011772,20.0811798603281,0 -104.1322584838838,20.08217549040855,0 -104.132292356722,20.08226784827711,0 -104.1320692153252,20.08234022098148,0 -104.1321362670588,20.08416186445767,0 -104.1330839221441,20.08583512272575,0 -104.131352358214,20.08618588093267,0 -104.1306155565953,20.08642095527339,0 -104.1304991379265,20.08642809587564,0 -104.1302539436086,20.08639854931172,0 -104.1301418035482,20.08630664496881,0 -104.1299981635487,20.086066717212,0 -104.1298731805174,20.08553906758309,0 -104.1296890755506,20.08531620128565,0 -104.1295184855442,20.08521412784884,0 -104.1292321686292,20.08516315842879,0 -104.1290906154556,20.08521635708041,0 -104.1280996945588,20.0859340586874,0 -104.1276612409996,20.08620962996657,0 -104.127550775046,20.08622767080952,0 -104.1273580277883,20.08619738544085,0 -104.1271988954213,20.08610530667012,0 -104.1269358763623,20.08568011651125,0 -104.1267399694577,20.08545192918191,0 -104.1267082684685,20.08528741584273,0 -104.1266993320405,20.08515343316065,0 -104.1269599144513,20.08430852316101,0 -104.1270025566732,20.08405499527764,0 -104.1270004851923,20.08392305429913,0 -104.126908309734,20.08362948187085,0 -104.1267716006485,20.08345545146959,0 -104.1264889650452,20.08326697293543,0 -104.1260639374724,20.08312837893501,0 -104.1255510553727,20.08298137756513,0 -104.1252092875454,20.08284287307543,0 -104.1249272052342,20.08256543746942,0 -104.1247764259399,20.08232854886767,0 -104.1247035719094,20.08226004525448,0 -104.1245245211187,20.08232062730896,0 -104.1235204412196,20.08293613373254,0 -104.1233991131416,20.08270160394759,0 -104.1229489526944,20.08285396398632,0 -104.1226583812957,20.08308747194571,0 -104.1224872780702,20.08312852528223,0 -104.1221343418848,20.08312574830642,0 -104.1218301993915,20.08300666697936,0 -104.1213655663091,20.08280885667715,0 -104.1209205010328,20.0825817482994,0 -104.1205028502713,20.08251434822681,0 -104.1200256243822,20.08255955423909,0 -104.1194841049693,20.08267120293764,0 -104.1177526517031,20.08310165153176,0 -104.1160314365659,20.08366661536969,0 -104.1153611348464,20.08389950809611,0 -104.1142745840402,20.08431663389766,0 -104.1140546856466,20.08435826005653,0 -104.1137433123171,20.08430091799107,0 -104.1135463159037,20.08420000258863,0 -104.1131439606217,20.08387996028808,0 -104.1128895507879,20.08365653531414,0 -104.1127403949243,20.08351918864488,0 -104.1122418029288,20.08336750679759,0 -104.111737088887,20.08353120437295,0 -104.1112773753397,20.08362462170786,0 -104.1104595019905,20.0838187990491,0 -104.1098080372199,20.08403673972021,0 -104.1097246903284,20.08404435323308,0 -104.1094978290647,20.08403039572263,0 -104.1093624964356,20.08407506461134,0 -104.1091505108663,20.08414218008623,0 -104.1087025717017,20.08419543909745,0 -104.1083101105167,20.08428409277954,0 -104.1080958973503,20.08440401694586,0 -104.1077869170567,20.08462535558117,0 -104.1075612385455,20.08482942447483,0 -104.1074942623287,20.08504486167701,0 -104.1074121844376,20.08528291403117,0 -104.1073646736259,20.08549950584829,0 -104.1072211249357,20.08623601203785,0 -104.1070802308546,20.08689670697134,0 -104.1070661171076,20.08743567983269,0 -104.1070928990896,20.08771462796458,0 -104.1071581768902,20.08816037379179,0 -104.1072352266727,20.08849790637688,0 -104.1074655321329,20.08888829673448,0 -104.1080138687047,20.08919571925491,0 -104.1081184765067,20.08928736518154,0 -104.1081988248302,20.08955287380984,0 -104.108174373819,20.08972455520988,0 -104.107968511351,20.0900406005777,0 -104.1078344739259,20.09010805558658,0 -104.1075826647206,20.09024466215905,0 -104.1074329343082,20.09041181750598,0 -104.1072939541181,20.09054685799005,0 -104.1071294051144,20.09080886049497,0 -104.1069372858352,20.0914274810235,0 -104.1065451190757,20.09243909723567,0 -104.1064403037769,20.09256749236494,0 -104.1061573790031,20.09275199309631,0 -104.1049268011977,20.09324317189599,0 -104.1032379756129,20.09392525273443,0 -104.1022181097971,20.09435881327464,0 -104.1019912918937,20.09454523419332,0 -104.1019311550611,20.0946027135763,0 -104.1018336108058,20.09461393661479,0 -104.1017791774212,20.09470358869549,0 -104.1017240802032,20.0947504631169,0 -104.1016837207608,20.09439870157292,0 -104.1013593631364,20.09352234323025,0 -104.1008954444056,20.09244218814266,0 -104.1007287218872,20.09203951509322,0 -104.1006775511475,20.09192258586799,0 -104.1004598394781,20.09205557510272,0 -104.0996220821189,20.09336306434243,0 -104.0985846151669,20.09542831827561,0 -104.0973976235487,20.09763938037763,0 -104.0963581482392,20.09703875153306,0 -104.095211634606,20.09637809765493,0 -104.0948482990077,20.0961956133059,0 -104.090177182975,20.10239987934401,0 -104.0878653591107,20.10546351535539,0 -104.0859181101343,20.10802568039654,0 -104.0853242751011,20.10870858499824,0 -104.0846361642577,20.10915517751917,0 -104.0834349775001,20.10963733475987,0 -104.0822488505288,20.1100941670947,0 -104.0803340139857,20.11088826868794,0 -104.0797367534429,20.11113595252572,0 -104.0786863930822,20.11160651315424,0 -104.0769340142409,20.11244267641986,0 -104.0760076761434,20.11312057850724,0 -104.0753109674596,20.11386382639178,0 -104.0747058484839,20.11447080778952,0 -104.074416295874,20.11475345017233,0 -104.0741029133305,20.1153374345962,0 -104.0741164857741,20.1162135802822,0 -104.074176152376,20.11682099428208,0 -104.0741857542562,20.11744807897953,0 -104.0742540376332,20.11862169548606,0 -104.0743486382512,20.1188769950234,0 -104.074598473936,20.11940575129146,0 -104.0750518150132,20.1200503151225,0 -104.0752803598752,20.12050337190815,0 -104.0754894072985,20.12099810615741,0 -104.0755256010091,20.12138724682006,0 -104.0754695181834,20.12167310757846,0 -104.0753438217466,20.12201695011057,0 -104.0747623440627,20.12285170298914,0 -104.0742319223903,20.12374133505456,0 -104.0741644375865,20.12384264354579,0 -104.0736358590774,20.1246361330002,0 -104.0735018297819,20.12473600814217,0 -104.0733608235052,20.12468002754024,0 -104.0731130114711,20.12452511870112,0 -104.0724562585684,20.12396145409372,0 -104.0721740755095,20.12314676057281,0 -104.0718018031754,20.12300926625321,0 -104.0710767659226,20.12267112854483,0 -104.0700954290181,20.1219973173172,0 -104.0700564648653,20.12194411140177,0 -104.069896148386,20.1217251966839,0 -104.0698777668043,20.12321598168126,0 -104.0696948914687,20.12340476537358,0 -104.0697129011254,20.12359460899183,0 -104.0702915118855,20.1244289408032,0 -104.0703506885677,20.12451854403209,0 -104.0704052895108,20.12460121808826,0 -104.0704101024614,20.12540541603278,0 -104.0700346208579,20.12581003969324,0 -104.0697444307924,20.12635064724891,0 -104.0693698541674,20.12660166815803,0 -104.0691585965246,20.12673608736838,0 -104.0689264942952,20.12715953675295,0 -104.0686651570055,20.12767318771385,0 -104.0684433676073,20.12797019185583,0 -104.0683424146415,20.12812086973596,0 -104.0680090312072,20.12861846188731,0 -104.0657904607186,20.12999178946373,0 -104.0529783585221,20.13206223289042,0 -104.0528341542199,20.13217892080341,0 -104.0525952108024,20.13214149404508,0 -104.0524044809543,20.13204107698104,0 -104.0522613656465,20.13197705819189,0 -104.0519741001777,20.13202069117147,0 -104.0517638565588,20.13198341768131,0 -104.0515722553389,20.13202756469083,0 -104.0508238367657,20.13239399509034,0 -104.0497991338501,20.13256918516917,0 -104.0494748574239,20.13240479570482,0 -104.0490570487427,20.13188751270754,0 -104.0482172277369,20.13154866216823,0 -104.047890677374,20.13140416847576,0 -104.0477210885597,20.13132912779991,0 -104.0473770820172,20.13126401955291,0 -104.046515888911,20.13129550492261,0 -104.0455222474218,20.13108230785941,0 -104.0451221065224,20.13080907266365,0 -104.0447693595064,20.13060837819312,0 -104.0447991563637,20.13042782787912,0 -104.0450876276338,20.13018543008832,0 -104.0453757688683,20.12999724355174,0 -104.0457218555135,20.12971901432707,0 -104.0459826668975,20.12930478891696,0 -104.0458802890884,20.12883438386968,0 -104.0458060073031,20.12846352239682,0 -104.0457027531174,20.12813768200892,0 -104.0455125263542,20.12795594013926,0 -104.0453406095393,20.12790983115314,0 -104.0451001384945,20.12812538284268,0 -104.0447249167204,20.12847573781908,0 -104.0446091341399,20.12863775093844,0 -104.0444643232118,20.12885382015331,0 -104.0443470573691,20.12925978598295,0 -104.0441839368365,20.12934022179278,0 -104.0440111949501,20.1294296408501,0 -104.0436185387667,20.12949979540973,0 -104.042920311835,20.12947793419591,0 -104.042163807035,20.1296003229035,0 -104.0419337212489,20.12968039264614,0 -104.0416168779167,20.12986841736853,0 -104.041242525924,20.13007419983605,0 -104.0410011091833,20.13044334532718,0 -104.0409518446589,20.13067800240674,0 -104.0410268872668,20.13092237145895,0 -104.0409107132405,20.13114762884909,0 -104.0407373060593,20.13134546789782,0 -104.0406219583287,20.13143519584643,0 -104.0403343605723,20.13153302144258,0 -104.0400280710809,20.13155846010712,0 -104.0389572999897,20.13144419749309,0 -104.0387313665653,20.13147735204951,0 -104.0386604664275,20.13148775649507,0 -104.038410856672,20.13163096399468,0 -104.0382356218332,20.13212696446007,0 -104.0378887982642,20.13252263669348,0 -104.0377854468129,20.13277771413031,0 -104.0374614027576,20.13357746491895,0 -104.037058558556,20.13374693999467,0 -104.0368279660571,20.13390832009395,0 -104.0367123374226,20.13404322162837,0 -104.0367677433647,20.13436880501718,0 -104.0369387785536,20.1345594868045,0 -104.0371099801974,20.13472306263456,0 -104.0369663157349,20.13474938427267,0 -104.0368224851365,20.13480281159324,0 -104.0365074531305,20.13469266255776,0 -104.0363934852837,20.13455650585,0 -104.0362494885014,20.13463703850093,0 -104.0361059902214,20.13463625363862,0 -104.0359019338481,20.13515016472087,0 -104.0356705066224,20.1354470721014,0 -104.0353534780193,20.13566219044694,0 -104.0349800473338,20.13571435913391,0 -104.0344637832261,20.13565731765698,0 -104.0341195518785,20.13562832443272,0 -104.0337172545223,20.13570743888644,0 -104.0334589560576,20.1357060222668,0 -104.0333692164765,20.13564003845285,0 
					</coordinates>
				</LinearRing>
			</outerBoundaryIs>
		</Polygon>
	</Placemark>
</Document>
</kml>
