<?xml version="1.0" encoding="UTF-8"?>
<kml xmlns="http://www.opengis.net/kml/2.2" xmlns:gx="http://www.google.com/kml/ext/2.2" xmlns:kml="http://www.opengis.net/kml/2.2" xmlns:atom="http://www.w3.org/2005/Atom">
<Document>
	<name>Elemento_82.kml</name>
	<Style id="highlight00">
		<LineStyle>
			<color>7fff00aa</color>
		</LineStyle>
		<PolyStyle>
			<color>7fff55aa</color>
		</PolyStyle>
	</Style>
	<Style id="normal00">
		<LineStyle>
			<color>7fff00aa</color>
		</LineStyle>
		<PolyStyle>
			<color>7fff55aa</color>
		</PolyStyle>
	</Style>
	<StyleMap id="styleMapID00">
		<Pair>
			<key>normal</key>
			<styleUrl>#normal00</styleUrl>
		</Pair>
		<Pair>
			<key>highlight</key>
			<styleUrl>#highlight00</styleUrl>
		</Pair>
	</StyleMap>
	<Placemark>
		<name>Elemento_82</name>
		<styleUrl>#styleMapID00</styleUrl>
		<ExtendedData>
			<SchemaData schemaUrl="#schemaID">
				<SimpleData name="MUNICIPIO">SANTA MARÍA DE LOS ÁNGELES</SimpleData>
				<SimpleData name="REGION">NORTE</SimpleData>
				<SimpleData name="CLAVE">81</SimpleData>
				<SimpleData name="AREA_KMS2">263.818936532</SimpleData>
				<SimpleData name="GID">81</SimpleData>
			</SchemaData>
		</ExtendedData>
		<Polygon>
			<outerBoundaryIs>
				<LinearRing>
					<coordinates>
						-103.242951408555,22.27976075476912,0 -103.2425921201413,22.27783897043059,0 -103.2413735402027,22.27791234363926,0 -103.2386369525081,22.27732609399568,0 -103.2379128612825,22.27813083790297,0 -103.2350611748525,22.27775425937128,0 -103.2329676931141,22.27603699723598,0 -103.2304610727574,22.27499483020538,0 -103.2287553792711,22.27618866910068,0 -103.2264976227876,22.2756891735013,0 -103.2260271317526,22.27437651046119,0 -103.2269945999121,22.27351541420506,0 -103.2259055070223,22.27175374331754,0 -103.2256375986396,22.26700773682804,0 -103.2254901425925,22.26688180900744,0 -103.2243567626488,22.2666638528194,0 -103.2238902359738,22.26577785216867,0 -103.223512955344,22.26522895912678,0 -103.2236382445361,22.26510504838099,0 -103.223994976709,22.2647617819866,0 -103.2243681659681,22.26433277397398,0 -103.2245184948955,22.26393244939282,0 -103.2244772231317,22.26378945755088,0 -103.2244467839277,22.26358268236794,0 -103.2242966205046,22.2633927825302,0 -103.2241182536608,22.26324026396949,0 -103.223957064468,22.26309291645674,0 -103.2236592661031,22.26298911957203,0 -103.2233739552914,22.26300200044997,0 -103.2231176748078,22.26306773353494,0 -103.2227997683568,22.26326135047857,0 -103.221847598532,22.26391925894167,0 -103.221163411172,22.26424718847829,0 -103.2207660105885,22.26435106032215,0 -103.2203884087849,22.26451569196923,0 -103.2197291513027,22.26474263286427,0 -103.2192430644909,22.26498205427555,0 -103.2188053335181,22.26510988828494,0 -103.2182969306273,22.26523421564284,0 -103.2181132460259,22.2652570414927,0 -103.2177919780768,22.26529696340162,0 -103.2172470233187,22.26517510212053,0 -103.2169231331034,22.26506424126062,0 -103.2165256126117,22.2647471382822,0 -103.2162150392734,22.26452275287921,0 -103.216068448887,22.2641836530281,0 -103.2159733728729,22.26394400800319,0 -103.2159485206402,22.26356823948834,0 -103.2160620647644,22.26323415702617,0 -103.2162791846852,22.26297820057886,0 -103.2164759790044,22.2628153212426,0 -103.2166725350927,22.26262610694868,0 -103.216926802455,22.26235112502726,0 -103.2170300092452,22.26213847651061,0 -103.2169971659618,22.26200846043096,0 -103.2169155528283,22.26189829859613,0 -103.2168131951035,22.26184386143243,0 -103.2164713247484,22.26178755304881,0 -103.2161315037782,22.26174212099234,0 -103.2157376431286,22.26172890294525,0 -103.2154619964822,22.26184387470137,0 -103.2152028151166,22.2620132001041,0 -103.2150241977606,22.26233859415731,0 -103.2146878025889,22.2628188363947,0 -103.2144048187491,22.26323538957112,0 -103.2136564093897,22.26364610139613,0 -103.2129918682226,22.26388553591617,0 -103.2125326758104,22.26397235113989,0 -103.2121673781232,22.26394486495576,0 -103.2116692493611,22.26386617109551,0 -103.2113304825235,22.26382979863659,0 -103.2110029498117,22.263741591404,0 -103.2105288248257,22.26362094529249,0 -103.210074395356,22.26352102368461,0 -103.2099064027262,22.2634624379065,0 -103.2093696879737,22.26327526280323,0 -103.2087015132209,22.26301640219262,0 -103.2079520505516,22.26283363320075,0 -103.206883200042,22.26255562167565,0 -103.2058931372859,22.26246895029885,0 -103.2053795758741,22.26228458305206,0 -103.2052748260782,22.26212213209525,0 -103.2049268019917,22.26208963873399,0 -103.2044986282685,22.26200623904431,0 -103.2040431631793,22.26189454914962,0 -103.2036896810334,22.26175993337561,0 -103.2032338675517,22.26182976504419,0 -103.2027906870207,22.26182805271526,0 -103.2023391717946,22.26188842329577,0 -103.2019446482426,22.26199149115915,0 -103.20159191265,22.26212713345337,0 -103.2012034658529,22.26237258302416,0 -103.201116364419,22.26254390977321,0 -103.200717557799,22.26254573110256,0 -103.2005560087043,22.26263841916825,0 -103.2004203111156,22.26290884785582,0 -103.2002722188338,22.26343296926867,0 -103.2001485539389,22.26407129357297,0 -103.200078870826,22.26431235188632,0 -103.1999530543409,22.26473402995575,0 -103.1996782668418,22.26561919934573,0 -103.1994022098867,22.26610802804306,0 -103.199113587726,22.26656881348014,0 -103.1989038269396,22.26688180526012,0 -103.1987254490135,22.26710028519886,0 -103.1983061149668,22.26720614941942,0 -103.197713075428,22.2671510811572,0 -103.1973191937511,22.26706363536195,0 -103.1968989532766,22.26695898712959,0 -103.1964727518948,22.26669063785927,0 -103.1960121876845,22.26637304327022,0 -103.1956146422877,22.26594707326265,0 -103.1953648875392,22.26548358602262,0 -103.1951925970789,22.26456769589658,0 -103.1952065349014,22.26394573095137,0 -103.1951749280511,22.26335680122717,0 -103.195197301602,22.26258770467556,0 -103.1951131763521,22.26184959152623,0 -103.1947978377367,22.26100493790476,0 -103.1946895749064,22.26076410904874,0 -103.1945585363625,22.26054648606238,0 -103.1943495120173,22.26037233593134,0 -103.1942417825634,22.26019763457921,0 -103.1940092742606,22.25996401533891,0 -103.1937711716579,22.25946260070618,0 -103.193438367115,22.25938373344228,0 -103.1933261694693,22.25852991859789,0 -103.1933119295997,22.25800527160951,0 -103.1933325808014,22.25776443343957,0 -103.1933543838125,22.25765185269009,0 -103.1932873894478,22.25755692815448,0 -103.1931966487766,22.25749590213342,0 -103.1930660293065,22.25749815658085,0 -103.1929233020013,22.25750211680572,0 -103.1925546693929,22.25785289568107,0 -103.1920889971912,22.25829050557499,0 -103.1916820260187,22.25864559232546,0 -103.1912476987177,22.2590270022908,0 -103.190803310045,22.25945427684476,0 -103.1904779185917,22.25975858045274,0 -103.1901203393846,22.26008136346941,0 -103.1896202693634,22.26057069390946,0 -103.1893317121579,22.26083558573015,0 -103.1889733358847,22.26091083966101,0 -103.1886369345399,22.26091347182251,0 -103.1878752270913,22.26095568610661,0 -103.1873595834901,22.26098146546855,0 -103.1861809171821,22.26109455737955,0 -103.1860271981309,22.26043575753867,0 -103.1859073845988,22.26026480954659,0 -103.185692017696,22.26015646930119,0 -103.185454045029,22.26000017984099,0 -103.1853195702829,22.2598430937512,0 -103.1851321891971,22.25955579148241,0 -103.1850258912518,22.25929293614531,0 -103.1849344330695,22.2589842722965,0 -103.1846744072063,22.25884190238074,0 -103.1844887969649,22.25875395657973,0 -103.1842589515077,22.25868010033664,0 -103.1840518929658,22.25867481640723,0 -103.1837773894954,22.25856692807349,0 -103.183651346599,22.25852664749061,0 -103.1834735561115,22.2584867644289,0 -103.1832735266423,22.25844017707982,0 -103.1831697876799,22.25841347444326,0 -103.183081133796,22.25842102986133,0 -103.182864056192,22.25842583110325,0 -103.1826824404528,22.25840038113492,0 -103.1825688401336,22.25822154141512,0 -103.1825792267996,22.25791327718489,0 -103.1828453658307,22.25741783777448,0 -103.1827565184904,22.2570062124459,0 -103.1825948158738,22.25639141936955,0 -103.1826227312012,22.25601863033137,0 -103.1825355584796,22.25565812023759,0 -103.1822813168936,22.25548553149651,0 -103.1820073664137,22.25537049420857,0 -103.1819736289288,22.25511695097436,0 -103.1819804396089,22.25436397008198,0 -103.1817761295468,22.25420122963392,0 -103.1815332054572,22.25411181038815,0 -103.181067151119,22.25400767668539,0 -103.1807269946544,22.25387190240987,0 -103.1805016870888,22.25363530632743,0 -103.1802910802805,22.25319102753834,0 -103.1800816974638,22.25288512012209,0 -103.1798488739858,22.25273314724884,0 -103.1793929217072,22.25259056970116,0 -103.1790604478248,22.25253712738014,0 -103.1787502839395,22.25230753708098,0 -103.1785709646973,22.25194049444951,0 -103.1785820833269,22.25153788200667,0 -103.1784918850571,22.251292963161,0 -103.1783715554659,22.25095958184414,0 -103.1782659336099,22.2506297537707,0 -103.1781630822097,22.25017056310032,0 -103.1780520878295,22.24967501526756,0 -103.1781413003412,22.24807659512083,0 -103.1781511403399,22.24671416828727,0 -103.1781505360708,22.24577897363815,0 -103.1779157014941,22.24341911564407,0 -103.177420404748,22.24243692839164,0 -103.1774109272611,22.24236184301704,0 -103.1773574310814,22.24228873763189,0 -103.1771100947339,22.24169826243079,0 -103.1762082377735,22.23802139569922,0 -103.176032666139,22.23752962960455,0 -103.1757959095182,22.23732530238412,0 -103.1753802606765,22.23644897777605,0 -103.1751782444846,22.23607424782653,0 -103.1748863590469,22.23523850594571,0 -103.1747899983354,22.2352209561472,0 -103.1737037706584,22.23492863048304,0 -103.172107212538,22.23421592504473,0 -103.17112103416,22.23359415757403,0 -103.1714447691337,22.23260595331405,0 -103.1708635320897,22.23229621330635,0 -103.1699819766164,22.23183987978213,0 -103.1702549367204,22.23076007761145,0 -103.170069896937,22.23076187052836,0 -103.1686882311915,22.23073227432299,0 -103.1678792634947,22.23067443933732,0 -103.1656268819411,22.23140890197157,0 -103.1649374383237,22.23095719474456,0 -103.1641792674738,22.22953644866795,0 -103.1639309514805,22.22904316169867,0 -103.1638748713895,22.22902783961411,0 -103.1639102740576,22.22892906470819,0 -103.1639622875464,22.22894225109938,0 -103.1638937838224,22.22875437739432,0 -103.1636891765929,22.22819322904289,0 -103.1632643881581,22.22796103260067,0 -103.1632481518302,22.22788201417614,0 -103.1621764908424,22.22802625094491,0 -103.1623346726468,22.22679966125998,0 -103.1627072749462,22.22683303128881,0 -103.162975076232,22.22486008961664,0 -103.1631899570022,22.22425537352908,0 -103.1635990166528,22.222644576052,0 -103.1645220898652,22.22253104579883,0 -103.1645069275664,22.22143441491298,0 -103.1645035711168,22.22101670812972,0 -103.1638193342131,22.22045399257117,0 -103.163729830904,22.22043452651237,0 -103.1618771368785,22.2190267297642,0 -103.1616738102552,22.21978108398192,0 -103.1611744283556,22.21953343201689,0 -103.1603550897647,22.21869204749163,0 -103.1599033930152,22.21884968148668,0 -103.1595048781305,22.21833586769092,0 -103.1592004060109,22.21786657520214,0 -103.1591640553994,22.21782167096347,0 -103.1584723280665,22.21833035233924,0 -103.1577637824865,22.2165721558779,0 -103.1578451043914,22.21615946366971,0 -103.1579893430322,22.21495101595529,0 -103.1577855912145,22.21460189884508,0 -103.1578955643793,22.21412487718253,0 -103.1582070273903,22.21350250429188,0 -103.1586965336052,22.21317473656969,0 -103.1595781368977,22.21286671027352,0 -103.16026713208,22.21272081193017,0 -103.1605102070162,22.21242031233156,0 -103.1610340226786,22.21121806233913,0 -103.1616231806343,22.2097523131395,0 -103.1613809049852,22.20962184606047,0 -103.1610769362627,22.20950910382244,0 -103.1607896838747,22.20933935489162,0 -103.1602103327947,22.20892503965572,0 -103.1605153791841,22.20863573957457,0 -103.1605288497914,22.20813392596606,0 -103.1604054719659,22.20745294212566,0 -103.1601843344522,22.20663164668961,0 -103.1600381015764,22.20627699827158,0 -103.1598082023061,22.20594113738173,0 -103.1593289340927,22.20548255171217,0 -103.1594619014742,22.20514150283966,0 -103.1588164161895,22.20568422149799,0 -103.1588183676121,22.20592580167247,0 -103.1588135451486,22.20601994119491,0 -103.1585958749963,22.20619411016912,0 -103.1583391475927,22.20639993923859,0 -103.1581757376695,22.20656092672561,0 -103.1580262398814,22.20668045222574,0 -103.1578770269521,22.20697434556391,0 -103.1575423162517,22.20719777149608,0 -103.1571964257561,22.20737175460548,0 -103.1571642228678,22.20748522180978,0 -103.1571986101677,22.20762393236805,0 -103.1571996807875,22.20774743952707,0 -103.1570781909665,22.20777409409707,0 -103.1568929020319,22.20778063204236,0 -103.1566275581155,22.20786038380221,0 -103.1565566691006,22.20798186019068,0 -103.156487466676,22.20830219608411,0 -103.1564095412665,22.2083736920456,0 -103.1556644719492,22.20835553677778,0 -103.1552212217384,22.20854696604947,0 -103.1544736942172,22.20890728784225,0 -103.1542640265359,22.20894599081409,0 -103.1539511446376,22.20898872363807,0 -103.1535444738612,22.20903850419812,0 -103.1531456779347,22.20917751498526,0 -103.152577041209,22.20942499204508,0 -103.1519599878135,22.2095945733181,0 -103.1514108024291,22.20974461160947,0 -103.1509401341437,22.20993982081048,0 -103.1503907962269,22.2101090906073,0 -103.1500492231074,22.21021382208887,0 -103.1483409764543,22.20992700448942,0 -103.1472999017794,22.20983036501443,0 -103.1455695795925,22.20962264850006,0 -103.1432733028337,22.20958342695073,0 -103.1422682029363,22.20947468531406,0 -103.1400106517544,22.2094432309753,0 -103.1401038266927,22.20680900811276,0 -103.1398439328219,22.20685429082059,0 -103.1387671936296,22.21035707017149,0 -103.1383182398954,22.21083290597744,0 -103.1379671567844,22.21068441062399,0 -103.1377892560735,22.21090769494364,0 -103.1374462485296,22.21068096044096,0 -103.1364838444881,22.21111122110098,0 -103.1364185834104,22.21114943569866,0 -103.1350105671643,22.21199868730394,0 -103.1349135302764,22.21194299682859,0 -103.1345207894434,22.21224873910971,0 -103.1344584350489,22.21229289237549,0 -103.1343868172114,22.21263613095953,0 -103.1343183944806,22.21296405904089,0 -103.1340566708487,22.21313204679219,0 -103.1339959386718,22.21317618682404,0 -103.1331353032239,22.21382065873461,0 -103.1326332358037,22.21428657738379,0 -103.1323933679038,22.21416646875269,0 -103.1323634095764,22.2142070817301,0 -103.1318879364937,22.21387474495186,0 -103.1309064312949,22.21318870443533,0 -103.1306234550915,22.21528609255842,0 -103.1305037520543,22.21629851106768,0 -103.1253659567121,22.21964940832578,0 -103.1219044818092,22.21962019092137,0 -103.1183727417459,22.21958049088707,0 -103.1164404285398,22.21959435124411,0 -103.1158615723141,22.21939703141744,0 -103.1125510251739,22.21806999059183,0 -103.1118485514047,22.21780332922815,0 -103.1111102586578,22.21761482877626,0 -103.1098499301373,22.21734529044292,0 -103.1068719672224,22.2165642829946,0 -103.1076590638615,22.21784587445248,0 -103.1082212953004,22.21878239233545,0 -103.1087129324578,22.21955742468712,0 -103.1089765323596,22.21994904163615,0 -103.1091442376478,22.22014150558327,0 -103.1092461725965,22.22039200705858,0 -103.1095701198639,22.22070993625205,0 -103.109762239619,22.2209500291329,0 -103.1098748750837,22.22112631677305,0 -103.1086060764833,22.22106083947418,0 -103.1090329781833,22.22764088444897,0 -103.1085213858859,22.22787989648711,0 -103.1061679523944,22.22868393534364,0 -103.105670150983,22.2288550227147,0 -103.1045414336396,22.23025486186744,0 -103.1037927135522,22.2311545679654,0 -103.1031508693339,22.23195227635574,0 -103.1022708467182,22.23302749924092,0 -103.1013335772004,22.23411757536434,0 -103.0998925665308,22.23582649859204,0 -103.0993501012315,22.23645376744952,0 -103.0996256527767,22.23699648587736,0 -103.1000072890176,22.23775087355379,0 -103.1004616639721,22.23845662657875,0 -103.1007664963278,22.23911987298193,0 -103.1011104246324,22.2401429475393,0 -103.1019459191063,22.24156310328513,0 -103.1015202159154,22.24142471508667,0 -103.1006839940434,22.24068226505433,0 -103.1000294069697,22.2404718605423,0 -103.0994965367983,22.24030345532524,0 -103.098975637356,22.2401989679982,0 -103.0985131812433,22.24021352667962,0 -103.0977919535984,22.24025951899306,0 -103.0971385126151,22.24015531247706,0 -103.0967921149498,22.24024915365156,0 -103.0964961314946,22.24033919912989,0 -103.0961681267362,22.24036036734469,0 -103.0959731448559,22.2403315666063,0 -103.095722112794,22.24025142228052,0 -103.0955545601764,22.24017499557327,0 -103.0954293743319,22.24017588584708,0 -103.0953695644026,22.24023237112954,0 -103.0952504737201,22.24041001232803,0 -103.0952750619287,22.24058232656629,0 -103.0954478471593,22.24073202238197,0 -103.0956570230259,22.24079521829016,0 -103.095852311278,22.24086282355451,0 -103.0960609560796,22.2408613392587,0 -103.0962752704231,22.2409089199777,0 -103.096405974559,22.24101578959172,0 -103.0963982191006,22.24120127012742,0 -103.0963781616852,22.2414016490419,0 -103.0963231224388,22.24163147920194,0 -103.0961533032904,22.24175182118769,0 -103.0959218254492,22.24187259480127,0 -103.0957464504587,22.24196327306098,0 -103.0954393508709,22.24211988516004,0 -103.0950369647708,22.24222864321804,0 -103.0947106351344,22.24229768971694,0 -103.0945179531511,22.24250215023756,0 -103.0945132399618,22.2428517776663,0 -103.0954349231432,22.2433605053347,0 -103.0956948547605,22.24398984832083,0 -103.0959731978778,22.24507786622989,0 -103.0962524906141,22.24601839535471,0 -103.096371935649,22.24638913813557,0 -103.0964137292323,22.24646393238293,0 -103.0966992626677,22.24680713599803,0 -103.0966139092039,22.24684992624692,0 -103.0963936678344,22.24780279242978,0 -103.0964989502594,22.24802738321295,0 -103.0958651475543,22.24822581015036,0 -103.0950868477137,22.24831303795129,0 -103.0951343813297,22.24862893119567,0 -103.0947008488493,22.24883635466598,0 -103.0939517728948,22.24945915291329,0 -103.093495829344,22.24977634817348,0 -103.0931112156447,22.24926882240726,0 -103.0927445105987,22.24747047825734,0 -103.0925476627962,22.24676567149739,0 -103.0908362201621,22.24566791193863,0 -103.0905229066954,22.24545996026875,0 -103.0895575742062,22.2451335318041,0 -103.0893812481841,22.24493876391603,0 -103.088890541802,22.24415119589713,0 -103.0877395538941,22.24324421207345,0 -103.0855050137029,22.24286327934149,0 -103.0839910105078,22.24248497107865,0 -103.0838767760081,22.24234310445114,0 -103.0838215538068,22.24245600960612,0 -103.0842391572788,22.24294842071331,0 -103.0845638045428,22.24440324762031,0 -103.0846584715134,22.24506130586417,0 -103.0849816587539,22.24750843489259,0 -103.0850359771597,22.24767111952203,0 -103.0844160257313,22.24862019294004,0 -103.0835306747631,22.24911983539665,0 -103.0833620624112,22.24913917166893,0 -103.0832446267378,22.24937484134411,0 -103.0832867568236,22.25042801544383,0 -103.0827478408549,22.25024291183724,0 -103.0823576358405,22.25082622739419,0 -103.0814791375174,22.25066257973071,0 -103.0803499002451,22.25441183307608,0 -103.0803241311969,22.25449613853384,0 -103.0797339124269,22.25642705626778,0 -103.0788351595845,22.25773234752275,0 -103.0787454210105,22.25798408621783,0 -103.0786906772882,22.25818059287602,0 -103.0782738346973,22.25709766616934,0 -103.0775948334041,22.25688898430587,0 -103.0767911460282,22.25710131264213,0 -103.0763960164556,22.2575942255186,0 -103.0747210615949,22.25755846729272,0 -103.0744073893057,22.25705995717743,0 -103.0738473729952,22.25677056755284,0 -103.0737856971163,22.25615250223679,0 -103.0737972418577,22.25599178755106,0 -103.0745067666796,22.25523989705398,0 -103.0738776435379,22.25485523304757,0 -103.0737853975174,22.25497452836947,0 -103.0731937674467,22.25531327330276,0 -103.0731460865048,22.25572136762111,0 -103.073030781056,22.2558908123053,0 -103.072554189492,22.25573599529846,0 -103.0717386712331,22.25561777867659,0 -103.0706676554885,22.2552481786555,0 -103.0703225899157,22.25543065809933,0 -103.0694432056188,22.25524791367135,0 -103.0682885446892,22.25510980446795,0 -103.0677345191825,22.25475171525564,0 -103.067092242936,22.25406994553,0 -103.0663826039447,22.25323369731506,0 -103.0660703896805,22.25334234711973,0 -103.0623824571596,22.25223867258088,0 -103.0617439084655,22.25013556296464,0 -103.0628857102208,22.24926718992412,0 -103.0621945156648,22.24888750445088,0 -103.0620269825969,22.24889847167864,0 -103.0554551845395,22.24725632917508,0 -103.0556810832537,22.24124236794975,0 -103.0558000410738,22.24104492338157,0 -103.0570895987198,22.23866400604614,0 -103.0575982394134,22.23786497647656,0 -103.0591630212939,22.23486747342951,0 -103.0596982346206,22.23381298832048,0 -103.0596454752402,22.23373362188726,0 -103.0604595014062,22.23210950500669,0 -103.0610326585021,22.23094929748804,0 -103.0620692926956,22.2282679848642,0 -103.0613541497311,22.22840145600229,0 -103.0611760637689,22.22850854163198,0 -103.0602979447291,22.22745217117314,0 -103.0598699712923,22.22760020566009,0 -103.0581876942621,22.22839824606914,0 -103.0578235447993,22.22827288740582,0 -103.0576423706743,22.22776198271077,0 -103.0577555081195,22.22752227335441,0 -103.0586673517234,22.22697342569854,0 -103.0592361211989,22.22615648449962,0 -103.0600162080133,22.22497689415916,0 -103.0597147546935,22.22424137533968,0 -103.0592222483143,22.22364045582862,0 -103.0586334887578,22.2230535087776,0 -103.0583103390005,22.22281575435576,0 -103.0578185710245,22.22274503139085,0 -103.0575106738401,22.2224862664814,0 -103.0566400266172,22.22213320129454,0 -103.0561551571395,22.22223548890668,0 -103.0556850184853,22.22199303070797,0 -103.0553585355189,22.22202276199269,0 -103.0547995156476,22.22158674010716,0 -103.0536771990703,22.22105881777634,0 -103.0528748134389,22.22082749763355,0 -103.0523263046611,22.22065226119656,0 -103.0524244481256,22.22037817278484,0 -103.0547701618286,22.21382686752137,0 -103.0555347400942,22.21394914239751,0 -103.0563820983219,22.21385117390563,0 -103.056532361723,22.21407779368165,0 -103.0564512159529,22.21456971239653,0 -103.0570611122367,22.21560402966333,0 -103.0577648747042,22.2158069999952,0 -103.0587666671854,22.21679471152216,0 -103.0598113162306,22.21722223033289,0 -103.0608924131345,22.21677647491248,0 -103.0612886408868,22.2163574874426,0 -103.0615944378079,22.21609307118815,0 -103.0618260423832,22.21592173846734,0 -103.062198915552,22.21584835448449,0 -103.0626095764051,22.21573219190741,0 -103.0634376355572,22.21509547931846,0 -103.0641903442987,22.21478017476069,0 -103.0653375785732,22.21433020235789,0 -103.066002407781,22.21398357861395,0 -103.066727813257,22.21332473045627,0 -103.0676105499644,22.21223444095229,0 -103.0681735794502,22.21253080539771,0 -103.0690222593052,22.21204257777748,0 -103.0696440378808,22.21121980442274,0 -103.0699764644103,22.21138371494875,0 -103.0705205684324,22.21127249771831,0 -103.0707186406873,22.21140455541405,0 -103.0708109426714,22.21145322058458,0 -103.0719303790032,22.2119688349392,0 -103.0728474535041,22.21036751629667,0 -103.071713222677,22.20607691619924,0 -103.0716270529341,22.20575090339138,0 -103.0710434325018,22.20354314298621,0 -103.0733027803657,22.20234011149569,0 -103.0742217120924,22.2032369399379,0 -103.076000786387,22.20232934554659,0 -103.0776369873461,22.20290736819348,0 -103.0772906130979,22.20336923848135,0 -103.0775254056168,22.20326709074831,0 -103.0787182507348,22.20285567787126,0 -103.0796663165904,22.20255490731012,0 -103.0811179218647,22.20328094988318,0 -103.0829708818083,22.20372818557919,0 -103.0837268270142,22.20401971818531,0 -103.0843953759615,22.20411305492969,0 -103.0855231867757,22.20409784775833,0 -103.0856747644429,22.20415578638501,0 -103.0860683782078,22.20424651446717,0 -103.0864022704909,22.20430589008131,0 -103.0865863645897,22.20416660541857,0 -103.0870171323886,22.20403102740283,0 -103.0874694070013,22.20426204663815,0 -103.0881996106211,22.20438398112257,0 -103.0882084760788,22.20403623074592,0 -103.0884116545212,22.20265040127882,0 -103.0907093882263,22.20000557938957,0 -103.0920912675347,22.19841489105313,0 -103.0941218139537,22.19757710584969,0 -103.0956367821746,22.19592322140612,0 -103.0981433109531,22.19524449222236,0 -103.0994865855625,22.19500523502298,0 -103.1026172164864,22.19305922949756,0 -103.1060587744224,22.19135603265762,0 -103.1014453629114,22.17862095961531,0 -103.1033715967851,22.17345816813249,0 -103.1038784563573,22.17204745763752,0 -103.1039723429758,22.17142973419602,0 -103.1035333642893,22.1713137697063,0 -103.1027775004822,22.17111409096574,0 -103.1028244383251,22.17107707110928,0 -103.1057664358928,22.16851122295732,0 -103.1059138349494,22.16815341807386,0 -103.1051709550141,22.16643433382736,0 -103.1051747859595,22.16616749037242,0 -103.1057672803544,22.16473798828786,0 -103.1059202249567,22.16432758599446,0 -103.1058750186755,22.16230611482441,0 -103.1047715566794,22.16035023120406,0 -103.1046943039505,22.1600346645524,0 -103.104912783519,22.15824490583373,0 -103.1048698860875,22.15751700964677,0 -103.1048909742592,22.15751412649675,0 -103.1059067853311,22.15729875372356,0 -103.1060231445523,22.15714181843877,0 -103.1062933221588,22.15715645054979,0 -103.1064017188576,22.15660128343819,0 -103.1066741345686,22.15615183683174,0 -103.1071977752775,22.15615430018675,0 -103.1071251509373,22.15587828267343,0 -103.1076804613846,22.15510052638621,0 -103.1074443365579,22.15477764848098,0 -103.1071613698497,22.1546061551081,0 -103.1075038815784,22.15420986677924,0 -103.1075796239003,22.15417850127773,0 -103.1078545358309,22.15388592343115,0 -103.1086941611343,22.15342327468107,0 -103.1086451392659,22.15328577214191,0 -103.1084377302961,22.15292539848675,0 -103.1083836254895,22.15278198583421,0 -103.1065271950563,22.15182146449028,0 -103.105968492017,22.15218677023282,0 -103.1055717498747,22.15241531596631,0 -103.104021773022,22.15298737626758,0 -103.1036328777342,22.15309669006996,0 -103.1033621377072,22.15327340180803,0 -103.1028862766351,22.15427080183329,0 -103.1025915144841,22.15382339374565,0 -103.1025433790449,22.15360296177485,0 -103.1026681026483,22.15324413183483,0 -103.1028905266541,22.15281977653384,0 -103.1031132839748,22.15261154517373,0 -103.1030884411242,22.15176450271325,0 -103.1033163498289,22.15139839692261,0 -103.1037750635177,22.15098953708328,0 -103.1043310923248,22.14952812582951,0 -103.1044770605717,22.14938854229319,0 -103.1051340841387,22.14908085169397,0 -103.1053778304197,22.14894303738908,0 -103.1058019607504,22.14857686882913,0 -103.1077278828921,22.14602251605187,0 -103.1078045985647,22.14599138358381,0 -103.1085260907434,22.14519442666618,0 -103.1087498549393,22.14485777453611,0 -103.1088339375527,22.14448864585281,0 -103.1087983782026,22.14434090313893,0 -103.1080774236846,22.14402554156363,0 -103.107537086801,22.14417363389554,0 -103.10585922518,22.14484170225279,0 -103.1050661730739,22.14487751000549,0 -103.1036739052154,22.14475723529185,0 -103.1031954409873,22.14487058430699,0 -103.1030814293125,22.14495299948505,0 -103.1024698185948,22.14540700593349,0 -103.102014703653,22.14574589349926,0 -103.1006071652724,22.14605950027631,0 -103.1001158603347,22.14594191740018,0 -103.1000341780166,22.14584940863932,0 -103.0995566156949,22.1454194201499,0 -103.0989442413011,22.14514565108591,0 -103.0985149367948,22.1450701772758,0 -103.0978786398351,22.14496972857224,0 -103.0972324667825,22.14510278043502,0 -103.0959311737579,22.14546602913675,0 -103.0951785099466,22.1452786100724,0 -103.0945628287552,22.14476991682135,0 -103.0941068712315,22.14468406170201,0 -103.0936687217803,22.14464221197328,0 -103.0929089813921,22.14452719492573,0 -103.0922843019447,22.144367537252,0 -103.0918163954305,22.14412006002786,0 -103.0915821302642,22.14409855856101,0 -103.0906931030362,22.14350593863938,0 -103.0904113293488,22.14282275128625,0 -103.090140416734,22.14218486364082,0 -103.0900711178363,22.14182402336753,0 -103.0900271660881,22.14156817932237,0 -103.0901829608807,22.14067512392334,0 -103.09011184451,22.14004044596409,0 -103.0896896704283,22.13985336054225,0 -103.0893964646023,22.13980042259103,0 -103.0890121865294,22.1396894645924,0 -103.0886438201608,22.13956629920977,0 -103.0868128665609,22.1392406937313,0 -103.0859857349376,22.13883979755552,0 -103.0854886993979,22.13844655469424,0 -103.0848196068962,22.13776324137464,0 -103.0841895158938,22.13725162791917,0 -103.0797830829394,22.13643005109053,0 -103.0794976554644,22.13695831679553,0 -103.0791608282084,22.13726378758072,0 -103.0791253934878,22.1372455328127,0 -103.0787507933428,22.13705255417948,0 -103.0785713757933,22.13679472993267,0 -103.0783281723767,22.13614399914952,0 -103.0778869973792,22.1360598868969,0 -103.0775706126594,22.13573464360406,0 -103.0777525337927,22.13478426929791,0 -103.0758702638501,22.13348851577329,0 -103.0758804525368,22.13324834218152,0 -103.0760911701775,22.13306345151516,0 -103.0763401292813,22.13269808209852,0 -103.0768005849911,22.13220953950954,0 -103.0769834972667,22.13186430566604,0 -103.0776430488992,22.13155122255903,0 -103.0781977013187,22.13119191623784,0 -103.0807863526511,22.13092989278106,0 -103.0813498811751,22.13099855113177,0 -103.0815762050173,22.13082374112602,0 -103.0813954738643,22.13041204911222,0 -103.0815807496892,22.13011616759756,0 -103.0812856967887,22.12987626762732,0 -103.0810977179263,22.12955983068404,0 -103.0808966092113,22.12965591201773,0 -103.0808061292161,22.12968401459829,0 -103.0810448875772,22.12998944262244,0 -103.0806007502765,22.12980557347876,0 -103.0805490117457,22.12981879463022,0 -103.0770431061226,22.12753093518385,0 -103.0765119262213,22.1278375053893,0 -103.0770247348233,22.12550440782278,0 -103.0777010137057,22.12491051471361,0 -103.0784075169817,22.12514749948833,0 -103.0795704417614,22.12484622449745,0 -103.0802313777696,22.12450878052009,0 -103.0802783563246,22.12397975765758,0 -103.080823784533,22.12350275620332,0 -103.0807228889577,22.12321809374409,0 -103.081067173574,22.12281804685693,0 -103.0812351099786,22.12224012405544,0 -103.0812559068368,22.12192230172943,0 -103.0811969306605,22.12176232808986,0 -103.0814609499899,22.12153403212846,0 -103.0818854370363,22.12125348357213,0 -103.0817338482996,22.12027271846938,0 -103.0848228930281,22.11906685886035,0 -103.0877218837075,22.11781959078483,0 -103.0861074407902,22.11573940954715,0 -103.0864603454009,22.11553418846219,0 -103.0845254511103,22.11399673588378,0 -103.0861569808945,22.11224456705897,0 -103.0867078826119,22.11485163400606,0 -103.0870476665932,22.11479362065023,0 -103.0879118006374,22.11467073874023,0 -103.0883040648438,22.11443251599991,0 -103.0883979260076,22.11447583849368,0 -103.0890372038669,22.11473892370062,0 -103.0894899765442,22.11519138235775,0 -103.0902597663133,22.11443694599898,0 -103.0903761814967,22.11387781142422,0 -103.0902738926872,22.11369471717724,0 -103.088935582191,22.11399857097692,0 -103.0884943395202,22.11387804543875,0 -103.0883039528258,22.11342713849444,0 -103.0883300077407,22.1129083793965,0 -103.0905699224498,22.11117059961149,0 -103.0923759277046,22.10989726480218,0 -103.0938382061351,22.11062054690433,0 -103.0935624661138,22.1113587534245,0 -103.0944513556669,22.11127594390349,0 -103.0948233696536,22.11081679385912,0 -103.0952803489055,22.11137039537464,0 -103.095945833407,22.11130127683386,0 -103.0961403801486,22.11135586626702,0 -103.0964002421737,22.11128377902571,0 -103.0969912299726,22.11063712004783,0 -103.0971180583316,22.11035788935901,0 -103.0972498417911,22.10974922741146,0 -103.0975039816334,22.10978777984348,0 -103.0978729820367,22.10958166836746,0 -103.0979674284779,22.10925782742969,0 -103.0981597655825,22.10915728186792,0 -103.0988106720744,22.10943820686384,0 -103.0989533907833,22.10936319540751,0 -103.0991696715077,22.10905044565127,0 -103.0992597196418,22.10872782317558,0 -103.0996812130274,22.10858981945316,0 -103.0999907789432,22.10852266447694,0 -103.1003630750532,22.10802770508758,0 -103.1009737577802,22.10780486327687,0 -103.101144265613,22.10743689087446,0 -103.1009456770523,22.10727428751706,0 -103.1006787636856,22.1070600744842,0 -103.1006244658862,22.106625451121,0 -103.1012391096653,22.10563603324491,0 -103.100820659989,22.10495643021201,0 -103.100674839612,22.10334433438392,0 -103.1017003427101,22.10179799866424,0 -103.104231746845,22.10190771173296,0 -103.1042230532982,22.1017785405165,0 -103.1041861188327,22.10123046895239,0 -103.1167216474669,22.10236420014025,0 -103.1186204891281,22.10278574995384,0 -103.121091148725,22.10344242465861,0 -103.1239864092155,22.1042697091307,0 -103.1255853185355,22.10479146949921,0 -103.1265989005357,22.10403695506932,0 -103.1266166911844,22.10418515049361,0 -103.1266460476429,22.10442967644009,0 -103.1267750297139,22.10470741844004,0 -103.1276841209906,22.10551087129111,0 -103.1278073560955,22.10548906620405,0 -103.1279388712528,22.10543497628332,0 -103.1280485951008,22.10533455957487,0 -103.1282190915697,22.10525030118077,0 -103.1283756585118,22.1052059886191,0 -103.1285500274585,22.10515822323732,0 -103.1287341397997,22.10520450043345,0 -103.1286914527509,22.10548019123334,0 -103.128913250883,22.10550874687944,0 -103.1291690701104,22.1056862126547,0 -103.1292961202378,22.10602866126141,0 -103.1294970815042,22.10621875299624,0 -103.1298443218542,22.10621620451557,0 -103.1298875254371,22.10623370095038,0 -103.1303089298401,22.10640435778423,0 -103.1306440685501,22.10649169444059,0 -103.1309415377486,22.10668706049735,0 -103.1311290992245,22.10696125701815,0 -103.1313895985355,22.10705653430812,0 -103.1316225263549,22.10704480823484,0 -103.1317780604161,22.10711224542235,0 -103.1317763314527,22.10711614149215,0 -103.1313644073745,22.10810183604328,0 -103.1297105022742,22.11205931031855,0 -103.1442754248622,22.116931576321,0 -103.1444639967248,22.11717538700468,0 -103.1446185648248,22.11798889156501,0 -103.1447292556902,22.11857146097327,0 -103.145016433955,22.1191140189224,0 -103.1452865262035,22.12107290704052,0 -103.1455737119623,22.12161546349911,0 -103.1459781059734,22.12332824039835,0 -103.1455562986686,22.12413026554724,0 -103.1458533128958,22.1246818280446,0 -103.1459855444327,22.12760403896522,0 -103.1464742244705,22.12778196477544,0 -103.1480547597712,22.126898671906,0 -103.1500689370532,22.12659313101191,0 -103.1530629610422,22.12467337669782,0 -103.1534960391309,22.12454139577995,0 -103.1539180829588,22.124412776654,0 -103.1549264878799,22.12385144030014,0 -103.1578058459416,22.12333050475531,0 -103.1595329852349,22.12476094362834,0 -103.1605892468711,22.12522505261704,0 -103.161902920295,22.12615927971828,0 -103.1639236962088,22.12661608158081,0 -103.1644622164138,22.12692066863532,0 -103.1650392337031,22.12717049341723,0 -103.1655680151101,22.12747515090785,0 -103.1661451161313,22.12773404916126,0 -103.1666835664055,22.12802955144969,0 -103.1672606719566,22.12828844603308,0 -103.1678774643852,22.12862874169575,0 -103.1683544708678,22.12969635711177,0 -103.1696641408259,22.13127510787827,0 -103.1702966075015,22.13338421914144,0 -103.1704871354463,22.13401957015406,0 -103.1722227518206,22.13638487356311,0 -103.1730825133355,22.13775822442618,0 -103.1736547939277,22.13857090920351,0 -103.1739132222103,22.13914994970785,0 -103.1745545150505,22.1400528872414,0 -103.1756012063322,22.14051696922779,0 -103.1758571700474,22.14081459813401,0 -103.178105515497,22.14163261142126,0 -103.1792904032626,22.14229533311032,0 -103.1807217364211,22.14217542164824,0 -103.1817010926837,22.14163228600216,0 -103.1829652503558,22.14134114879023,0 -103.1833747966351,22.14137431449989,0 -103.1841537888529,22.14131385348478,0 -103.1860337011831,22.14013735699082,0 -103.1864194048941,22.13968046966806,0 -103.1874676490126,22.13921847165298,0 -103.1930842338064,22.13967434809917,0 -103.193934740101,22.13998549516099,0 -103.1953916102826,22.13945672490048,0 -103.1977934839592,22.13891151169483,0 -103.1986550951092,22.13828747926874,0 -103.2008022706774,22.13867926863402,0 -103.2011035580429,22.13891454946023,0 -103.2029316706474,22.14034213098934,0 -103.2036550257913,22.14276038818942,0 -103.2054914793459,22.14434380328273,0 -103.2071514257103,22.14472116307696,0 -103.2075701572014,22.14469064364239,0 -103.2087335949062,22.14511727262374,0 -103.2094994851988,22.14468457516728,0 -103.2105768368078,22.14421311156165,0 -103.2122746741503,22.14554334398433,0 -103.2125814495086,22.14563485922106,0 -103.2131345126061,22.14579984198513,0 -103.2136127170668,22.13568526845612,0 -103.2138567374568,22.13555247116845,0 -103.214168718537,22.13541138608741,0 -103.2143731711654,22.13534137367902,0 -103.214840572066,22.13517489429319,0 -103.2151026097376,22.13515066724514,0 -103.2153559790145,22.13504506362364,0 -103.215601930969,22.1347587532592,0 -103.2162911170991,22.13468500744802,0 -103.2163907706964,22.13446934649047,0 -103.2165974951844,22.13421873069031,0 -103.2168505207329,22.13414021461966,0 -103.2171985375671,22.13421626758263,0 -103.2174982064447,22.13428276039458,0 -103.2176345819777,22.13423006253377,0 -103.2177815588615,22.13410523019538,0 -103.2180246640658,22.13404466643785,0 -103.218171754032,22.13391080367967,0 -103.2182994589692,22.13377672910388,0 -103.2182520194771,22.13369492965794,0 -103.2181658105823,22.13361270684577,0 -103.2181095877088,22.13345856128462,0 -103.2180819875454,22.13334085336324,0 -103.2182965822565,22.13323482141084,0 -103.2185208689941,22.13312889497043,0 -103.2187067268042,22.13299545488106,0 -103.2188832326136,22.13283481865697,0 -103.2191378441368,22.13262987827453,0 -103.2194096826758,22.13259671967767,0 -103.2195746788115,22.13258045746363,0 -103.2197492537259,22.13257333086082,0 -103.2198749131776,22.13260179556779,0 -103.2200392284336,22.13263971312347,0 -103.2202421995663,22.13268708341514,0 -103.2204450574001,22.13274348350539,0 -103.2206599899546,22.13261035812812,0 -103.2207241557651,22.13213239989879,0 -103.2208355345964,22.13175430045929,0 -103.220962894828,22.13164731360659,0 -103.2211359943938,22.13175757604718,0 -103.2213382844107,22.13185912520639,0 -103.2216567685858,22.13197097172587,0 -103.221940564899,22.13175731339833,0 -103.2222359792494,22.13139024920921,0 -103.2221816792015,22.13108259387981,0 -103.2225062812938,22.1307068157458,0 -103.223131791814,22.13029818831788,0 -103.2235123908121,22.13009461216781,0 -103.224097882144,22.12978488930729,0 -103.2249743607914,22.1294602667978,0 -103.2256160764238,22.12930468177578,0 -103.226192320502,22.12895872517404,0 -103.2272514958014,22.12797678993587,0 -103.2278942193176,22.12773992455898,0 -103.2282178953575,22.12743637409486,0 -103.2288081075139,22.12674736906748,0 -103.2293677711077,22.12617543726734,0 -103.2295829113931,22.12602423862867,0 -103.2298469619666,22.12583744485346,0 -103.2301010943802,22.12566860570106,0 -103.2303650308554,22.12549084108976,0 -103.2306659299712,22.12545797786137,0 -103.2308601056623,22.12543298866225,0 -103.2314289940461,22.12645066222402,0 -103.2315916145594,22.12740071336969,0 -103.2308178211087,22.12881927602829,0 -103.2308708991957,22.12922626081792,0 -103.2318035972277,22.12983243621002,0 -103.2324340417419,22.13057983435908,0 -103.2323888500144,22.13109413031697,0 -103.2326532481438,22.13165693608355,0 -103.2327075713377,22.13196458942148,0 -103.232472589164,22.13215170214424,0 -103.2324027144105,22.13231350907287,0 -103.2321069847842,22.132707683548,0 -103.2321721264719,22.13292514098751,0 -103.232258005572,22.13303444721221,0 -103.2328274911906,22.13323027340215,0 -103.2338712321005,22.13348541945717,0 -103.2339941937527,22.13373059611052,0 -103.233699028159,22.13407962297347,0 -103.2416185992559,22.14893140841424,0 -103.2418995490095,22.14950187635407,0 -103.242195436354,22.15010266961536,0 -103.242068344224,22.15096830807455,0 -103.242087665812,22.15175424267929,0 -103.2425191733233,22.15213821004488,0 -103.2432327520425,22.15322965999095,0 -103.2444991187947,22.15430899707176,0 -103.2448486599918,22.15426760327917,0 -103.245158977382,22.15426191196973,0 -103.2453217582236,22.1544262280048,0 -103.2449621867256,22.15449460886797,0 -103.2451264852259,22.15531822953927,0 -103.2455765039414,22.15577463968875,0 -103.2459236975338,22.1559228767776,0 -103.2463857653912,22.15618975624706,0 -103.2471341820079,22.15682096726523,0 -103.24719633468,22.15728223427106,0 -103.2473297031779,22.15747332639286,0 -103.2475914452511,22.15747613997361,0 -103.2478014730061,22.15774030651815,0 -103.2481454309339,22.1581504136417,0 -103.2486265634639,22.15844458622831,0 -103.2489604958787,22.1588816781787,0 -103.2499714664455,22.15945247775728,0 -103.2502779979171,22.15975380280669,0 -103.2510851754071,22.16034047127231,0 -103.2513477047699,22.16028006803082,0 -103.2518013309579,22.16044749780268,0 -103.2545839535536,22.16123594987247,0 -103.2557448374665,22.16144706574126,0 -103.2625834196376,22.1621260782598,0 -103.2647892452297,22.16158874804273,0 -103.2654399965497,22.16149632827883,0 -103.2666638304315,22.16131968638333,0 -103.2671311585795,22.16116208938502,0 -103.2680151280355,22.1610269810112,0 -103.2691041171594,22.16077663628036,0 -103.269432845934,22.16085237771951,0 -103.2698980713452,22.16086634724954,0 -103.2702495028845,22.16067138527133,0 -103.2704562892828,22.16041166795695,0 -103.2726848250668,22.15894510952647,0 -103.2732336630428,22.15846322603358,0 -103.2736003412906,22.15751874952411,0 -103.2736841245334,22.15730294083125,0 -103.2740273910189,22.15618667633032,0 -103.2740917252632,22.15568159655043,0 -103.2741610164412,22.15556492123969,0 -103.2741934024898,22.15449955362583,0 -103.2744313439872,22.15327379520916,0 -103.2750261943741,22.15219631510382,0 -103.276159491396,22.15148578315523,0 -103.277050980941,22.15072753077333,0 -103.2776385464112,22.1502460386452,0 -103.2784398105217,22.14973067433088,0 -103.2787306239535,22.14973374401172,0 -103.2789627256524,22.14978135091769,0 -103.2793162035251,22.14941479070506,0 -103.2793770010118,22.14919867693823,0 -103.2794355696481,22.1483683997629,0 -103.2792574288139,22.14804315762095,0 -103.2791320691426,22.14781427807084,0 -103.2795875901006,22.14786967630701,0 -103.2799452387185,22.14791317084873,0 -103.2802933328647,22.1479890934186,0 -103.2805807421666,22.14827209937397,0 -103.2807422440579,22.14854474615688,0 -103.2809408761821,22.14895325628849,0 -103.2810920276475,22.14927998252103,0 -103.2811422935175,22.14993077839473,0 -103.2813341956826,22.15009536743326,0 -103.2818641764788,22.15036286469761,0 -103.2826331087107,22.15091285270435,0 -103.2831845645698,22.1510089740017,0 -103.2838070545382,22.15084392809699,0 -103.2843241148588,22.15057842426439,0 -103.2847108845433,22.15066377621715,0 -103.2850843496103,22.15104702638531,0 -103.2855918906984,22.15156715770335,0 -103.2864812898172,22.15257900098904,0 -103.2867974750631,22.15288939383588,0 -103.2869490812978,22.15317999425433,0 -103.2869369820419,22.15337855991162,0 -103.286794158038,22.15396410614594,0 -103.2867213786977,22.15436975840616,0 -103.286599690592,22.15481102260356,0 -103.2865807533227,22.15486091765191,0 -103.2864494658794,22.15520682932142,0 -103.2863869257585,22.15556743147172,0 -103.2861510921615,22.15582686577655,0 -103.286202037886,22.15642347922206,0 -103.286059972709,22.15694581188588,0 -103.2858524531263,22.15726876358288,0 -103.2858404609853,22.15745829861238,0 -103.2860424011784,22.15759589389333,0 -103.2862546925106,22.15767940885282,0 -103.2864576178855,22.15773573066049,0 -103.286622422173,22.15773746270286,0 -103.28677665721,22.15781133538912,0 -103.2869491876628,22.1579757150198,0 -103.2871205157516,22.1582394281891,0 -103.2871462093854,22.15851967416575,0 -103.2870864026286,22.15865451807707,0 -103.2868995837384,22.15886931073245,0 -103.2867334656577,22.15897594288987,0 -103.2866648388384,22.15903844205699,0 -103.2867016479453,22.15920139558333,0 -103.2868154661434,22.15941031579379,0 -103.286717208788,22.15951766100277,0 -103.2865225532291,22.15957883556979,0 -103.2861259542466,22.15950241479521,0 -103.2854223066287,22.15916085121186,0 -103.2848868120171,22.15934487949348,0 -103.2848842937062,22.15955257695186,0 -103.2850346976858,22.15994251269765,0 -103.2850880475374,22.16034045886816,0 -103.2851354254332,22.16043127201776,0 -103.2849086184856,22.16074498763333,0 -103.2847033899153,22.1608783004414,0 -103.2846721014487,22.16116316798647,0 -103.2846706922262,22.16117599502586,0 -103.2846268752817,22.1612233655507,0 -103.284513497716,22.16134593886659,0 -103.284248464946,22.16147308989386,0 -103.2842421140761,22.16148140967749,0 -103.2839097371959,22.16177597933861,0 -103.2836809707803,22.16231307563038,0 -103.2832900276039,22.16295989111544,0 -103.2831421113471,22.16316330059402,0 -103.2830053858249,22.16350199087612,0 -103.2829462640262,22.16442656583913,0 -103.2829755630235,22.16485393178855,0 -103.2828614655806,22.1652397569281,0 -103.2827606017487,22.16567197061043,0 -103.2827713434285,22.16588097880128,0 -103.2829088543829,22.16601671274223,0 -103.2831506001001,22.16622761975021,0 -103.2831259164067,22.16650769908676,0 -103.2829323783224,22.16677800037025,0 -103.2828055763005,22.16693288163263,0 -103.2826429777048,22.1670666647084,0 -103.2827509017249,22.16742816349554,0 -103.2828145282427,22.16793773051055,0 -103.2827090160438,22.16850336002757,0 -103.2826306549461,22.16893532814467,0 -103.2823281039327,22.16986852474336,0 -103.2821495359951,22.17019855215486,0 -103.2817429258024,22.17063922894215,0 -103.2813124371698,22.17111437411506,0 -103.2808713295051,22.17170835560367,0 -103.2805723378867,22.17219718380311,0 -103.2798007630621,22.17316845110329,0 -103.2797005534605,22.1735989950621,0 -103.2796620718138,22.1742352965457,0 -103.2794133645124,22.17492316848466,0 -103.2787705516484,22.17558123129526,0 -103.2783174087548,22.1758927083019,0 -103.2780245174594,22.17605617081608,0 -103.2776940739607,22.17616055315003,0 -103.2773766224508,22.17622128683247,0 -103.2768889043295,22.17639539894164,0 -103.2765084202527,22.17675021491032,0 -103.2763044278348,22.17699877745933,0 -103.2761786957986,22.17718331763203,0 -103.2760869964541,22.17763855731242,0 -103.2760424058549,22.17789859340027,0 -103.2759923147835,22.17812517842791,0 -103.2759580998929,22.17827995009125,0 -103.2757552451222,22.17863726577115,0 -103.275625071683,22.17896936161217,0 -103.275301845475,22.17990095878247,0 -103.2752155854845,22.18018843962025,0 -103.2752382271352,22.18039938154413,0 -103.275249669565,22.18068238036876,0 -103.2751862242724,22.1808316374413,0 -103.2751048393436,22.1809502144511,0 -103.2749500991662,22.18110230331747,0 -103.2747268200443,22.18117544318504,0 -103.2746066392094,22.18127557869915,0 -103.274322577555,22.18153032188997,0 -103.2740538926862,22.18188898486577,0 -103.2738884677258,22.18215515078562,0 -103.2747961604545,22.1832901572506,0 -103.2747585073367,22.18451956290465,0 -103.2749681023899,22.18496563542787,0 -103.2748572115254,22.18554746681834,0 -103.2745166930373,22.18591399599162,0 -103.2745232704031,22.18640071530276,0 -103.2745249387339,22.18652414091421,0 -103.2742729199152,22.18690129043239,0 -103.2740435093074,22.18720957883338,0 -103.27371077535,22.18764190455111,0 -103.2733718344279,22.18822967007422,0 -103.2727443824714,22.18921227340967,0 -103.2725454776126,22.18945069251808,0 -103.2724921163884,22.18970143789769,0 -103.2723044219965,22.19027139282465,0 -103.272154648437,22.19073971752016,0 -103.2718741545421,22.19087968648952,0 -103.2723140737684,22.19120379690439,0 -103.2728015607367,22.19134397414485,0 -103.2730303432752,22.19161772113884,0 -103.2732551924456,22.19189001994443,0 -103.2733888760773,22.1924154413797,0 -103.2733974947408,22.19301270721068,0 -103.2736440605184,22.1937799300811,0 -103.2736838115929,22.19390362117789,0 -103.2743094655997,22.19439592255016,0 -103.2746931409805,22.19476222464351,0 -103.2754357067454,22.19514461855085,0 -103.2758545098098,22.1956159326492,0 -103.2763674524168,22.19624714738738,0 -103.276849309004,22.19699118624175,0 -103.2774498889802,22.1971014968464,0 -103.277790305513,22.19803916129492,0 -103.2779704008431,22.19867285888894,0 -103.278160416087,22.19909059819634,0 -103.278265732517,22.19962884543878,0 -103.278644715695,22.1999704059418,0 -103.2792759060239,22.20105702764777,0 -103.2797345154436,22.20126858221548,0 -103.2797713932754,22.20173645521898,0 -103.2797212126625,22.20186848350141,0 -103.2800280206221,22.20218899566343,0 -103.2798901422323,22.20234066278836,0 -103.2797856193168,22.2025499332913,0 -103.2799024467712,22.20276852876641,0 -103.2801227526428,22.20295641254249,0 -103.28012398605,22.20308513772354,0 -103.2799884270671,22.20339762377836,0 -103.2799634992915,22.20379428743874,0 -103.2798967354597,22.20409722256099,0 -103.2796886298713,22.20438225554573,0 -103.2798882012533,22.20455251705576,0 -103.2797796368423,22.20522792187106,0 -103.2796778589263,22.20600131410911,0 -103.2794741654228,22.20633211742486,0 -103.2790378281809,22.20694295675911,0 -103.2788013353354,22.20753404329345,0 -103.2785385760382,22.20826340952342,0 -103.2783977841148,22.20909974732787,0 -103.2783930090522,22.21008260611229,0 -103.2782227799261,22.21083568581133,0 -103.2776826443629,22.21159808141805,0 -103.2772365248288,22.21220608954152,0 -103.2767899367724,22.21286205339479,0 -103.2765311242004,22.2133740484277,0 -103.2757040947924,22.2145194537621,0 -103.2755392307717,22.21500251504207,0 -103.2753562411439,22.21561058339464,0 -103.2749947729974,22.21628905267004,0 -103.2745959491501,22.21692293602771,0 -103.2740734720168,22.21745583967897,0 -103.2735986551727,22.21802028441251,0 -103.2732152675887,22.21835763497402,0 -103.2727280379884,22.2187392222421,0 -103.2723062074862,22.21905002092305,0 -103.2721601168548,22.21956927336972,0 -103.2721812525279,22.21980617038967,0 -103.2725133792527,22.21998781618609,0 -103.272344366621,22.22040095236811,0 -103.2719807694754,22.22081882556314,0 -103.2713694388949,22.2211261748834,0 -103.2724635976777,22.2217599697539,0 -103.2747225255428,22.22306841775941,0 -103.2753429530318,22.22315554098655,0 -103.2754646753085,22.22326434655345,0 -103.2756071609238,22.22330310438353,0 -103.2758862668197,22.2234820792739,0 -103.2760764221318,22.22352613767677,0 -103.2763773044757,22.22375505855452,0 -103.2767325368366,22.22382728764397,0 -103.2771233771333,22.22398745152919,0 -103.2772791660501,22.22418497159401,0 -103.277331833428,22.22432768070981,0 -103.2778223412595,22.2246576184381,0 -103.277866232174,22.22477654245873,0 -103.2781069072966,22.22490973862971,0 -103.2787236364688,22.22488275020043,0 -103.2789292796091,22.22492875843828,0 -103.2790166796751,22.22512684571639,0 -103.2792313285681,22.22522049374357,0 -103.279472693284,22.22542525369243,0 -103.2797907780388,22.2256055206553,0 -103.2799751200407,22.22566758141003,0 -103.2801596225498,22.2257296969583,0 -103.2803574813211,22.22585529155511,0 -103.2808873188253,22.22582702956791,0 -103.2810496837525,22.2258177264682,0 -103.281144335337,22.22588056026934,0 -103.2812912813682,22.22604634102183,0 -103.2815141014844,22.22610015552414,0 -103.2816779932698,22.22624988919798,0 -103.2819870728112,22.2263825102224,0 -103.282767750312,22.22665434906684,0 -103.2831546956045,22.22688175191976,0 -103.2834910134225,22.22726647044467,0 -103.2836143127396,22.22738113846501,0 -103.2839209960189,22.22804310376867,0 -103.283982483693,22.22855616915404,0 -103.2842187432234,22.22899172411238,0 -103.2846483073292,22.22930899431087,0 -103.285125913581,22.22940418298184,0 -103.2856769809055,22.22931207917039,0 -103.2863341035594,22.22916075310938,0 -103.2867103520783,22.22915177632859,0 -103.2874171951462,22.22941922254121,0 -103.288047181761,22.22969568110023,0 -103.2884942748923,22.22987861860757,0 -103.2890178118047,22.23018342452815,0 -103.2895601732267,22.23048806833072,0 -103.2910403089285,22.23099135961855,0 -103.292070212342,22.23159698360121,0 -103.2922936310975,22.23194254603059,0 -103.292564789639,22.23211928374744,0 -103.2928702653483,22.23204941690644,0 -103.2932872567209,22.23199932380849,0 -103.2936336461142,22.23213101944113,0 -103.294167797812,22.23252972968487,0 -103.2945897857445,22.23273165012479,0 -103.2946213304402,22.23276678991328,0 -103.2948267548484,22.23333698907148,0 -103.2948348120708,22.23386617928313,0 -103.2947041107102,22.23496846060849,0 -103.2943086478549,22.23642156990691,0 -103.2941681713032,22.23701918690742,0 -103.2942315367379,22.2378220738585,0 -103.294371454488,22.2388766913177,0 -103.2943085106079,22.23972693859511,0 -103.2942475859481,22.24007386837889,0 -103.2935746850558,22.2407555281223,0 -103.2926015736695,22.24183728721021,0 -103.2913024724579,22.24321512538702,0 -103.290487134918,22.24408207605023,0 -103.2901052436665,22.2437740735149,0 -103.28983714133,22.24352919126507,0 -103.289745436911,22.24339374058222,0 -103.2896576069839,22.24347517742857,0 -103.2894557166925,22.24358901254097,0 -103.289031425626,22.24370921453367,0 -103.2887193928556,22.24388374891689,0 -103.2883762756515,22.24436182409342,0 -103.2880761980065,22.24482003466185,0 -103.2874283550353,22.24565817111905,0 -103.2868938808065,22.24636441919913,0 -103.286792400708,22.24649851338389,0 -103.2864231653638,22.24697143221849,0 -103.2863199632679,22.24710361396414,0 -103.2858748705256,22.24756870050883,0 -103.2852498515596,22.24792504597073,0 -103.2847302019608,22.24822420341004,0 -103.2842186616799,22.2486284101582,0 -103.2833979674248,22.24930328956535,0 -103.2829138677939,22.24965906451847,0 -103.2823628330721,22.25030650493654,0 -103.2819508307433,22.25081024560038,0 -103.2815672635514,22.25132642213627,0 -103.281232953674,22.2518161382669,0 -103.2809134035213,22.25233045312278,0 -103.2806666170343,22.25268569641296,0 -103.2803752429125,22.25311570225001,0 -103.2802555318994,22.25333081055224,0 -103.2802555021138,22.25333086442986,0 -103.2797842707846,22.25339434651963,0 -103.2790103965107,22.25507124543523,0 -103.2777861822898,22.25657030368186,0 -103.2766652463343,22.25969357586011,0 -103.277611408657,22.26174659034567,0 -103.278181988775,22.26225934161112,0 -103.2781655264936,22.26257723136465,0 -103.2785905089758,22.26418063067059,0 -103.2779599760414,22.26555674158669,0 -103.2756099085784,22.26764615586146,0 -103.271720023318,22.26884946104268,0 -103.2696406356564,22.27070050408857,0 -103.2692871177629,22.27147510549391,0 -103.268989869323,22.27201319595979,0 -103.2687319761095,22.27258727697657,0 -103.2675994014426,22.27452128192263,0 -103.2673414112274,22.27508628248451,0 -103.2667639756315,22.27590811389939,0 -103.2661873073077,22.27681164442981,0 -103.2637745550014,22.27850193326911,0 -103.2615425982084,22.27971861078176,0 -103.2592504507159,22.28076325331571,0 -103.2584431327332,22.28204086766892,0 -103.2576827722169,22.2831274416664,0 -103.2571147326253,22.28495689700752,0 -103.2562653624582,22.28591708881628,0 -103.2521558838679,22.28562370339134,0 -103.2517086634364,22.28370265133685,0 -103.2506596498408,22.28313921043603,0 -103.2496505936305,22.28267530457552,0 -103.2491095524093,22.28218944125008,0 -103.2487152439196,22.28174778056696,0 -103.2475812753063,22.28148460482824,0 -103.2470420272947,22.28118937297296,0 -103.2453227663729,22.2809218378759,0 -103.2448002387303,22.28032686650006,0 -103.242951408555,22.27976075476912,0 
					</coordinates>
				</LinearRing>
			</outerBoundaryIs>
		</Polygon>
	</Placemark>
</Document>
</kml>
