<?xml version="1.0" encoding="UTF-8"?>
<kml xmlns="http://www.opengis.net/kml/2.2" xmlns:gx="http://www.google.com/kml/ext/2.2" xmlns:kml="http://www.opengis.net/kml/2.2" xmlns:atom="http://www.w3.org/2005/Atom">
<Document>
	<name>Elemento_113.kml</name>
	<StyleMap id="styleMapID00">
		<Pair>
			<key>normal</key>
			<styleUrl>#normal00</styleUrl>
		</Pair>
		<Pair>
			<key>highlight</key>
			<styleUrl>#highlight00</styleUrl>
		</Pair>
	</StyleMap>
	<Style id="highlight00">
		<LineStyle>
			<color>7f00ffff</color>
		</LineStyle>
		<PolyStyle>
			<color>7f7fffff</color>
		</PolyStyle>
	</Style>
	<Style id="normal00">
		<LineStyle>
			<color>7f00ffff</color>
		</LineStyle>
		<PolyStyle>
			<color>7f7fffff</color>
		</PolyStyle>
	</Style>
	<Placemark>
		<name>Elemento_113</name>
		<styleUrl>#styleMapID00</styleUrl>
		<ExtendedData>
			<SchemaData schemaUrl="#schemaID">
				<SimpleData name="MUNICIPIO">VALLE DE JUÁREZ</SimpleData>
				<SimpleData name="REGION">SURESTE</SimpleData>
				<SimpleData name="CLAVE">112</SimpleData>
				<SimpleData name="AREA_KMS2">195.31182405</SimpleData>
				<SimpleData name="GID">112</SimpleData>
			</SchemaData>
		</ExtendedData>
		<Polygon>
			<outerBoundaryIs>
				<LinearRing>
					<coordinates>
						-102.9088395957539,19.97033391438108,0 -102.9096241123728,19.97058406556414,0 -102.9102633194249,19.9708429070161,0 -102.9112230085911,19.97123150496415,0 -102.912178601937,19.9716212774379,0 -102.912790363612,19.97188543870586,0 -102.9135739996725,19.9724394300477,0 -102.9140421163975,19.97286349471071,0 -102.9144994720062,19.97359304269686,0 -102.9150742353448,19.97447617711178,0 -102.9155121782002,19.9749119928459,0 -102.9164275277055,19.97562605909766,0 -102.9167195135664,19.97591940770548,0 -102.9174540545257,19.97711689880429,0 -102.9181889816282,19.97801465217691,0 -102.9193899560427,19.97905218716809,0 -102.9200067143905,19.97949145327667,0 -102.9206594390876,19.98007586388705,0 -102.9212974508889,19.98035415864523,0 -102.9216047114153,19.98081247368122,0 -102.9222265121701,19.98141497425806,0 -102.9230027201272,19.98249026347176,0 -102.9234711340534,19.98310658176526,0 -102.9239450120731,19.98340421385317,0 -102.9250573719369,19.98383311318843,0 -102.9260163463542,19.98394894342702,0 -102.9264972417026,19.98392639921589,0 -102.9279425410944,19.98385863788852,0 -102.92858615233,19.9838284596988,0 -102.9293917513406,19.98379068298603,0 -102.9300369657355,19.98359889183317,0 -102.9308314277196,19.98340698929195,0 -102.9321274768035,19.98318280686853,0 -102.9324543567602,19.98316566355841,0 -102.9340757648402,19.98260181689575,0 -102.9340706751611,19.98244266919446,0 -102.9352122261881,19.98222264524936,0 -102.9358683367111,19.98218768020187,0 -102.9368534802037,19.98213517557859,0 -102.9373465013487,19.98210889895133,0 -102.9386688627535,19.98219813493797,0 -102.9394927207139,19.9821542942134,0 -102.9403239428338,19.98227000779884,0 -102.9408192603945,19.98224369455796,0 -102.9421528719328,19.98232941453589,0 -102.9426719471556,19.98261508632651,0 -102.9428690024215,19.98324355685078,0 -102.9430663576465,19.98387298441269,0 -102.9434309601569,19.98449378973087,0 -102.9437949486281,19.98511694230289,0 -102.9438215451588,19.98576423057814,0 -102.9438567477717,19.98657286539741,0 -102.9442158310105,19.98703658865592,0 -102.9444140398987,19.98767370372302,0 -102.9447814819926,19.98830111481211,0 -102.944988039864,19.98910301231062,0 -102.9453642781877,19.98989579136574,0 -102.9457335900696,19.99052688164638,0 -102.945933995921,19.9911698380054,0 -102.9464661961183,19.99162841140663,0 -102.9471688000149,19.99207672013317,0 -102.9477024404444,19.99253642181365,0 -102.9480750329057,19.99317194879194,0 -102.9486100186601,19.99363300086788,0 -102.9491541602534,19.99425947565668,0 -102.9496992730695,19.99488685822946,0 -102.9505885877674,19.995487725183,0 -102.9513090127771,19.99609874495501,0 -102.9518302324822,19.9962304604181,0 -102.952502298114,19.99602469770071,0 -102.9533245957648,19.99548174436934,0 -102.9539961499322,19.99527616400353,0 -102.9544695298491,19.99458121922217,0 -102.9551317453097,19.9942062678513,0 -102.9563147690192,19.9939596093516,0 -102.9566456937766,19.9937701726889,0 -102.9571565776499,19.99373495798283,0 -102.9583380687104,19.99348679633927,0 -102.959167880213,19.9930968263863,0 -102.9598267006965,19.99271909421875,0 -102.9610056949229,19.99245888613454,0 -102.9620015284378,19.99205597175646,0 -102.9624988496494,19.99185475622409,0 -102.9636727384406,19.99159229098512,0 -102.9646633072924,19.99117680971361,0 -102.9649889648822,19.99098368780963,0 -102.9658075900396,19.99058347786937,0 -102.9666364053496,19.9903474057094,0 -102.967618976179,19.98993436550256,0 -102.968791441551,19.98983333743906,0 -102.9694477385547,19.98961377085615,0 -102.9699498779017,19.98957454650528,0 -102.9706054696734,19.989358436741,0 -102.9712607572036,19.98914436402174,0 -102.9720839460194,19.98892262468778,0 -102.9730736612931,19.9886897637101,0 -102.9740575035545,19.98844649079453,0 -102.97452632504,19.98807957935917,0 -102.9750227196328,19.98803682794766,0 -102.9774722711764,19.98764662020925,0 -102.9785324118908,19.9871615416753,0 -102.9794176123114,19.98704928388754,0 -102.980115904984,19.98697547149725,0 -102.9808217083077,19.98688527898758,0 -102.981524590019,19.98661691751868,0 -102.9829515589164,19.98620690933637,0 -102.9836542133902,19.9861095176506,0 -102.9843542669158,19.98601447069972,0 -102.9854013827036,19.98587229679022,0 -102.9864337261889,19.98557344711719,0 -102.9869507352506,19.98532614191396,0 -102.9876310795593,19.98507768754256,0 -102.9883224238014,19.98498288674619,0 -102.9889994034765,19.98473636026716,0 -102.9901775008929,19.98426825697346,0 -102.9921924077715,19.98353462951398,0 -102.9930429509026,19.98342148827776,0 -102.9938648513505,19.9830141849196,0 -102.994677266055,19.98264080761369,0 -102.995149467126,19.98231987042187,0 -102.9957617379091,19.9816990359825,0 -102.9963752447126,19.98107693892952,0 -102.9968151824813,19.98029118640335,0 -102.9972767242541,19.97982294132478,0 -102.9977177713576,19.97903540704374,0 -102.9983142300466,19.9780871911554,0 -102.9987797403523,19.97760448746348,0 -102.9993794609315,19.97664209204881,0 -102.9996795160142,19.97616058156447,0 -103.000157020777,19.97583554196083,0 -103.0006241166808,19.97535102888374,0 -103.001247556994,19.97470433044353,0 -103.0017266851138,19.97437760629843,0 -103.0023630075964,19.9738825955073,0 -103.0029665345602,19.9729093105387,0 -103.0032687119664,19.97241578751153,0 -103.0038726848573,19.97143727413498,0 -103.0043650759295,19.97126577736307,0 -103.0051829717108,19.97091501244034,0 -103.006181738229,19.97072043868868,0 -103.0070251208485,19.97069317347988,0 -103.0087150114923,19.97062900083557,0 -103.0113738316881,19.96985334596394,0 -103.0110149120434,19.96741861758535,0 -103.0112510212959,19.96610337350971,0 -103.0140144412478,19.9620595703013,0 -103.0154719229185,19.95983789778702,0 -103.0154827487144,19.95975401710342,0 -103.0153518304853,19.95950207319294,0 -103.0150001476983,19.9591501200666,0 -103.014562636306,19.95915225627591,0 -103.0136842193611,19.95923284761808,0 -103.0128412126907,19.9593726717,0 -103.0121850603742,19.95936684712979,0 -103.011569082879,19.95910707005768,0 -103.0113909666018,19.95878430191052,0 -103.0112123064018,19.95846054745508,0 -103.0109875845614,19.95815963292777,0 -103.0109845302154,19.9581555439723,0 -103.0109475475287,19.95810602231612,0 -103.0109083157816,19.95785323814928,0 -103.0108994437248,19.95779894354251,0 -103.0106867818664,19.95723654308505,0 -103.0102017001375,19.95706851928812,0 -103.0096582917701,19.95698113278477,0 -103.0090865700706,19.95686632946141,0 -103.0086325258958,19.95650896688367,0 -103.0083832554834,19.95581969828226,0 -103.0081089610629,19.95484110803108,0 -103.0075060485451,19.95340720287224,0 -103.0073237578068,19.95270965265824,0 -103.0072234587757,19.9523291609323,0 -103.0073116341509,19.95063203761789,0 -103.0079651204547,19.94879673791276,0 -103.0072264755558,19.94752389507186,0 -103.0072022447798,19.9471713547849,0 -103.0069760879957,19.94692493804271,0 -103.0068065559068,19.9467333518974,0 -103.0068116584804,19.94632694580256,0 -103.006775950257,19.94612782948391,0 -103.0064747261418,19.94501344763617,0 -103.0063728446359,19.94475939315611,0 -103.0061113253841,19.9442867655797,0 -103.0057825000314,19.94384951186453,0 -103.0046313103852,19.94348431083974,0 -103.0049390831545,19.94331615141428,0 -103.0055488198451,19.94268169248218,0 -103.0058205432871,19.94234150855553,0 -103.006063727619,19.94199197113624,0 -103.0062053714362,19.94136128507522,0 -103.0066124969189,19.94088713194132,0 -103.0065328922587,19.94038041702266,0 -103.0065011528943,19.9398652068668,0 -103.0065266019124,19.93935967116468,0 -103.0068227446482,19.93859523036438,0 -103.0067494868228,19.93758276517664,0 -103.0063335587023,19.93647612861204,0 -103.0058300980864,19.93549496403107,0 -103.0054693269481,19.93251595088309,0 -103.0041902304593,19.93145707411732,0 -103.0023932918596,19.9323220638474,0 -103.0021735320651,19.93232862503858,0 -103.0018390606783,19.93234292822056,0 -103.000761634444,19.93219531838737,0 -103.0000019691522,19.93260226258588,0 -102.9988573480949,19.93323971198486,0 -102.9984828550881,19.93339807774509,0 -102.9978408507961,19.93356246018646,0 -102.9975046695978,19.93371222306904,0 -102.9970468442009,19.93366189890409,0 -102.9964991977695,19.93391766509484,0 -102.9957494063905,19.93429760348997,0 -102.9945167835947,19.93433788603054,0 -102.9939732370396,19.93426852108383,0 -102.9934768702417,19.93424484982681,0 -102.9931275973965,19.93467446273273,0 -102.9928210869667,19.93474325920191,0 -102.992181242056,19.93473602779639,0 -102.9917227316996,19.93473987684798,0 -102.9914921633874,19.93484565942621,0 -102.991083871153,19.93541008733208,0 -102.9907387019511,19.93551457262706,0 -102.9904417391896,19.93558347278221,0 -102.990568973333,19.93534103581107,0 -102.9913879558236,19.93402252677265,0 -102.991762917482,19.93156090263772,0 -102.9923907608743,19.93024925802985,0 -102.9925021172509,19.92899500250146,0 -102.9921316596307,19.92807853648919,0 -102.9924543576347,19.92672731159292,0 -102.9930018164086,19.92497216264266,0 -102.9931686024259,19.92462177955377,0 -102.9930638466953,19.92308507466329,0 -102.9933530871228,19.92211283262606,0 -102.9937089393235,19.92115940669711,0 -102.9939408769094,19.92018651610528,0 -102.9939499023942,19.91871432226429,0 -102.9942544860653,19.91728159339763,0 -102.9940674032957,19.9162136482651,0 -102.9941807563933,19.91555555533223,0 -102.9943321893642,19.91490692433516,0 -102.9945691036633,19.91429538735309,0 -102.9946041272489,19.91378996262316,0 -102.9945721960417,19.91329281510199,0 -102.994272448023,19.91282877638058,0 -102.9942575648735,19.91249440610977,0 -102.994360129278,19.91117681851157,0 -102.9942474040968,19.90951356720519,0 -102.994109416377,19.90909651569714,0 -102.9939229092055,19.90633151827165,0 -102.9948859837787,19.90410422128929,0 -102.995056792152,19.90321982661913,0 -102.9954536033693,19.90113739814569,0 -102.9959867313777,19.8995504157181,0 -102.9965800438081,19.89778423660688,0 -102.997826784298,19.89170031272306,0 -102.9958800919037,19.89019244490806,0 -102.9951539538349,19.88961965289786,0 -102.9919843050157,19.8859550132236,0 -102.9914280594244,19.88514389712875,0 -102.9882915118941,19.88201836422288,0 -102.9869667562829,19.88199919678202,0 -102.9870979610746,19.88091327657153,0 -102.9871821484801,19.88038457561001,0 -102.9872661194348,19.88018873307807,0 -102.9872822365721,19.87996658584162,0 -102.9871413787183,19.87972363965516,0 -102.9862463566652,19.8796455840414,0 -102.9870112146349,19.87864281281867,0 -102.9866617442622,19.87814918087509,0 -102.9853920847191,19.87790177818958,0 -102.9808596027582,19.87803477844821,0 -102.9791801433594,19.87841327129976,0 -102.9782964134038,19.87810926288999,0 -102.9779651444186,19.87652123771437,0 -102.9782921430409,19.87529970749077,0 -102.9784974852117,19.87453262018222,0 -102.9790226245376,19.87321487392364,0 -102.9790100553898,19.87280079773231,0 -102.9792849694354,19.87172886579751,0 -102.9798602706369,19.87112399076943,0 -102.9801756663925,19.87035210393096,0 -102.9802908043142,19.86971167852442,0 -102.98019554514,19.86885968858496,0 -102.9856495373447,19.86950890373992,0 -102.9858551917681,19.86958340997441,0 -102.9860648763283,19.86962806396897,0 -102.9865601500443,19.86953430053447,0 -102.9939880414923,19.87023551621548,0 -102.9887134658123,19.86316440821218,0 -102.9873250436341,19.86243549068253,0 -102.9871206363954,19.86199375248986,0 -102.9861474657838,19.86123305626419,0 -102.9853048724345,19.8602459824073,0 -102.9848487514782,19.85917762475867,0 -102.9845637014583,19.85818293734267,0 -102.9844174235105,19.85743208822505,0 -102.9843746405357,19.85721318935544,0 -102.984396137532,19.85647883522136,0 -102.9843977207096,19.85643286865296,0 -102.984939951326,19.85524363685027,0 -102.985177064092,19.85385869393829,0 -102.9854734708653,19.85285624545298,0 -102.9851567280696,19.85211330625308,0 -102.9835442986596,19.84998069980038,0 -102.9828207741373,19.8490200444274,0 -102.9825313389464,19.84845588583016,0 -102.9822474834014,19.84790259831387,0 -102.9821528531971,19.84740186547005,0 -102.9820597554173,19.84691435633821,0 -102.9820774234997,19.84624493535448,0 -102.9826681071248,19.84513526642744,0 -102.9832193537018,19.84519459673627,0 -102.9838684057996,19.84513482131784,0 -102.9846056749359,19.84482302732398,0 -102.9850309309163,19.84468139948512,0 -102.9854389570393,19.84480564684743,0 -102.9859918228605,19.844692192029,0 -102.9860915266614,19.84430740013383,0 -102.986666681219,19.84370260597605,0 -102.9868082611883,19.84301733335546,0 -102.9866015107961,19.84264423543128,0 -102.9859365770308,19.84209845278069,0 -102.9853432929932,19.84086558681197,0 -102.9850772298187,19.83918254976346,0 -102.9843225096642,19.83681997381493,0 -102.9836679057973,19.83597617784411,0 -102.9833085280096,19.83463021319821,0 -102.9826202542913,19.8332348071095,0 -102.982434869944,19.83210471168836,0 -102.9820260165657,19.83119868091609,0 -102.9816454362168,19.83089015589127,0 -102.9815947607189,19.83010806861018,0 -102.9821032336506,19.82929471294211,0 -102.9824786553939,19.82889119191358,0 -102.9823764511747,19.82826869632382,0 -102.982074631316,19.82809640288922,0 -102.982819601,19.82781275484141,0 -102.9830998248671,19.82770657227905,0 -102.9836140890111,19.82751092423666,0 -102.9843898055169,19.82721604148421,0 -102.9845650365887,19.8274407106972,0 -102.9845673556034,19.82745368142642,0 -102.9848410047463,19.82735481033713,0 -102.9849016032618,19.82686205382322,0 -102.9855418457549,19.82626083990254,0 -102.9863655649776,19.82599769803291,0 -102.9865566978552,19.82593871535727,0 -102.9874571624158,19.82546046778063,0 -102.9875808340989,19.82541416171262,0 -102.9882149534219,19.82505775828563,0 -102.9888507749643,19.82490459765651,0 -102.9896701532578,19.82463190370367,0 -102.9902409614122,19.82437909713958,0 -102.9904629043913,19.82398443860468,0 -102.9903976673072,19.82292587115605,0 -102.9905994794937,19.82211612544236,0 -102.9907394431673,19.82187111596469,0 -102.9911765804615,19.82161595411602,0 -102.9912730761846,19.82111477634004,0 -102.9910119774591,19.82062947507665,0 -102.9904780196439,19.8200106641821,0 -102.9907026691926,19.81959680573478,0 -102.9910437582192,19.81935446264419,0 -102.9916776122044,19.81920625104049,0 -102.9920847294945,19.81931163488438,0 -102.9921970783617,19.81904677843341,0 -102.9923075849751,19.81852982103557,0 -102.9927939414909,19.81795161140469,0 -102.9924253809816,19.81640353420192,0 -102.9917203946982,19.81560480629321,0 -102.9911835491936,19.81487866697791,0 -102.9911836882715,19.81450423238951,0 -102.9917511111598,19.81417249372872,0 -102.9926064716099,19.81431871514715,0 -102.9934037520415,19.81394072341812,0 -102.9947996461456,19.81170297103285,0 -102.9960941790112,19.80981175940455,0 -102.9962615012712,19.80984099595932,0 -102.996745243101,19.8096000243766,0 -102.9975361795468,19.80749111469958,0 -102.9975370362564,19.80720890329372,0 -102.9972588251713,19.80660311728848,0 -102.9973372687207,19.80621236226016,0 -102.9975700146333,19.80622269588884,0 -102.9986012792959,19.80656183459259,0 -102.9985178235862,19.8075188444332,0 -102.998539648885,19.80754349515363,0 -102.9990132362946,19.80680356601238,0 -102.9989830970127,19.80678338635759,0 -102.9992234632661,19.80590013020407,0 -102.9993952709502,19.80505315999145,0 -102.9994325829653,19.80493664894033,0 -102.9992488616634,19.80408679245305,0 -102.9990953975387,19.8038532223286,0 -102.9992520399391,19.80316050363548,0 -102.9995803606365,19.80320880947259,0 -103.0010295041075,19.80216571959667,0 -103.0011017735865,19.80196400973246,0 -103.0003056880351,19.80140023962306,0 -103.0002177263734,19.8011008865972,0 -103.0003575780085,19.80037718512511,0 -103.0002189942361,19.80022241514033,0 -102.9999066486588,19.80015015733634,0 -102.999431091513,19.79960571295762,0 -102.9989265556323,19.79903518277806,0 -102.9985918058798,19.79918115733833,0 -102.9982458382489,19.79876210219263,0 -102.9979590583658,19.79865342642312,0 -102.9980461902595,19.7982943204347,0 -102.9979476124405,19.79816472135524,0 -102.9979915734268,19.79722109985474,0 -102.9978272936543,19.79659658653086,0 -102.9976309620882,19.79563740147885,0 -102.9978894919218,19.7955922867688,0 -102.9978515650207,19.79506297502137,0 -102.9981656962635,19.79384760537231,0 -102.9975927828048,19.79369213137845,0 -102.9971505727507,19.79425510977925,0 -102.9961981067997,19.79436386614842,0 -102.9962049564302,19.79394275507676,0 -102.9963080493694,19.79340887261306,0 -102.9965299603581,19.79176397584666,0 -102.9958713480574,19.79025144943866,0 -102.9961543946043,19.78983608471009,0 -102.9962115380044,19.7897344906949,0 -102.9963599731755,19.7895838903691,0 -102.997067788249,19.78859075772582,0 -102.9978074088701,19.78713266677445,0 -102.9981539969784,19.78681432549665,0 -102.9982105621402,19.78649450137753,0 -102.9981396574606,19.78605567640274,0 -102.9985745412862,19.78555473569065,0 -102.9987936461425,19.78521202870494,0 -102.9996414596779,19.78522583363037,0 -102.9999605191513,19.78512853568056,0 -103.0003849162981,19.78484978650957,0 -103.0010465605814,19.78526558328177,0 -103.0017017013587,19.78552185464709,0 -103.0021203038451,19.78562465835418,0 -103.0037310293019,19.78623565109558,0 -103.0037571667189,19.78621033367216,0 -103.0040808640443,19.78635115278253,0 -103.0051949916407,19.78676687878996,0 -103.0056226295134,19.78692644550122,0 -103.0065048706556,19.78740929567541,0 -103.0071463946546,19.78756422340913,0 -103.0075423839766,19.78783333606198,0 -103.0087922114655,19.78787787035423,0 -103.0097149542156,19.78858979111607,0 -103.0090820699873,19.78897737116216,0 -103.0088285320318,19.78918203959536,0 -103.0085176987188,19.789524408948,0 -103.0082721767915,19.7896603494979,0 -103.0078477674453,19.79022957519158,0 -103.0081316276369,19.79075728689759,0 -103.0080848143529,19.79147795371602,0 -103.008304722542,19.79154569837275,0 -103.0084342331053,19.7909668066413,0 -103.0094486710864,19.79126939032297,0 -103.010817509902,19.78925768674695,0 -103.0123110268542,19.78925002241625,0 -103.0133860648889,19.78871147874488,0 -103.0146139791194,19.78809633820258,0 -103.0147176984026,19.78828084680471,0 -103.0149899573594,19.78800242025249,0 -103.0155349915983,19.78780878792754,0 -103.0155582377726,19.78767468737656,0 -103.0157449045472,19.78776766495251,0 -103.015770176128,19.78777798536389,0 -103.0161243958516,19.7878248138835,0 -103.0167743282492,19.78567492967504,0 -103.0170523343921,19.78503554472745,0 -103.0170521919334,19.78479070081206,0 -103.0170535252499,19.78435667325278,0 -103.0178117970216,19.78316199577533,0 -103.0172918324213,19.78318359219633,0 -103.0174156709106,19.78228393747111,0 -103.017528360607,19.78169907715798,0 -103.0180113177004,19.77919248023714,0 -103.0185164974878,19.77591986640151,0 -103.0188633432321,19.7695656437015,0 -103.0222286335904,19.76366602930838,0 -103.0224236149312,19.76353382524069,0 -103.022263107202,19.76348134474782,0 -103.0220144329473,19.76325031737336,0 -103.0219035517037,19.76282358223135,0 -103.0217094558873,19.7623033115421,0 -103.0210666867546,19.76081860622095,0 -103.0207596069057,19.76025803479458,0 -103.0203891325011,19.75990245802341,0 -103.0198356318927,19.75962676055154,0 -103.0185998124078,19.7584370724364,0 -103.018391336806,19.75834012350177,0 -103.0167201150005,19.75688551356033,0 -103.0159212632111,19.75595970769696,0 -103.0152914366571,19.75520323371332,0 -103.0146933398805,19.75497666686666,0 -103.0139367058396,19.75495255428558,0 -103.0133621403894,19.75407988468819,0 -103.0125932362885,19.75248582039032,0 -103.0117809800244,19.75147726680207,0 -103.011257091067,19.75054324549857,0 -103.0111386126253,19.75005914333685,0 -103.0106954221143,19.7496769062036,0 -103.010303086471,19.74932850264002,0 -103.0096308991556,19.74917532276953,0 -103.0088610232614,19.74878477195205,0 -103.0083703686709,19.74843191901028,0 -103.0077524076712,19.74784249809639,0 -103.0072241830591,19.74714632677027,0 -103.0067991360919,19.7470451069908,0 -103.0061404193335,19.74721296219229,0 -103.0054180750286,19.74727721641618,0 -103.0052795888043,19.74762362174425,0 -103.0049307047814,19.74770529451782,0 -103.0045675036451,19.74774736845854,0 -103.0042209267787,19.74774266516914,0 -103.0039503074821,19.74764991474278,0 -103.0037094879461,19.74752856633407,0 -103.003497577427,19.74722851945183,0 -103.0034705538216,19.7469754664753,0 -103.0036636506442,19.74676043700165,0 -103.0037352596722,19.74646780147851,0 -103.0038910893522,19.74615694837432,0 -103.0039771789097,19.74557950736032,0 -103.0041847773321,19.74467698929668,0 -103.0042524188899,19.74402536727673,0 -103.0043756703585,19.74354472507857,0 -103.0044806072899,19.743029934632,0 -103.0046571833627,19.742411860464,0 -103.0048346455753,19.74191372471614,0 -103.0047226655314,19.74146891222035,0 -103.0044742486561,19.74082791669703,0 -103.004476603557,19.74046767759058,0 -103.0044891109228,19.7400637322299,0 -103.0045729573513,19.73964123185355,0 -103.0046733919202,19.73929271336998,0 -103.0048115604751,19.73886024613111,0 -103.0048943405472,19.73852979571194,0 -103.0047923273603,19.73818551530794,0 -103.0048894675405,19.73787128946506,0 -103.0050684982922,19.73743107533785,0 -103.0052151622272,19.73708517213783,0 -103.0060048533223,19.73674355350115,0 -103.0061784569403,19.7365436295521,0 -103.0063170883869,19.73634393577389,0 -103.0062337240099,19.73612363508439,0 -103.0060683882172,19.73587076769153,0 -103.0055593303749,19.73567088893852,0 -103.0052286629137,19.73535242524766,0 -103.0050714834033,19.73506625311469,0 -103.0050026313112,19.73455753600977,0 -103.0052962373396,19.73443174559335,0 -103.0054573852755,19.73417828938563,0 -103.0057967545824,19.73396573725127,0 -103.0060172034438,19.73371188644373,0 -103.0063711474403,19.73347117778938,0 -103.0066653220298,19.73316074818541,0 -103.0066030042581,19.73275456564311,0 -103.0061273959409,19.7325754310078,0 -103.0057263403114,19.73246594348911,0 -103.0053537353024,19.7322066447804,0 -103.0052488664385,19.7320344600222,0 -103.0054411916751,19.73199109734876,0 -103.0056142313619,19.73200305557936,0 -103.0061039107382,19.73195347907529,0 -103.0063366739045,19.73177895623333,0 -103.0063421016352,19.73161310201922,0 -103.0061938238314,19.73132772185313,0 -103.0059724251401,19.73103295753394,0 -103.0057607892267,19.73064924547587,0 -103.0056559244713,19.73036081464224,0 -103.0058767862764,19.7300705031257,0 -103.0060083116751,19.72973655632426,0 -103.0062835517245,19.72940308769026,0 -103.0065809853054,19.72906252638105,0 -103.0066621109464,19.72882689472756,0 -103.0067013112478,19.72852884665572,0 -103.0068585544989,19.72838280448403,0 -103.0070912178605,19.72828410864447,0 -103.0073429977842,19.72824711349211,0 -103.0074809543561,19.72797246517192,0 -103.0075973138936,19.72770622535024,0 -103.0076627088498,19.72754194641854,0 -103.0077895131891,19.7273012207651,0 -103.007980820477,19.72715842401589,0 -103.0082150897828,19.72705579438033,0 -103.0084059461159,19.72685235905618,0 -103.0086825330695,19.72668877926898,0 -103.0089159547182,19.72646487216901,0 -103.0091498247312,19.72630157565211,0 -103.0092122728173,19.72607878085614,0 -103.0094897596809,19.726036503836,0 -103.0097242292417,19.72595408496222,0 -103.0099590004733,19.72591206616561,0 -103.0102146509432,19.72580929173947,0 -103.0104699037805,19.72564585137429,0 -103.0105531322451,19.72534206073468,0 -103.0107010623682,19.72511869578814,0 -103.0107845918295,19.72485533157322,0 -103.0110509834613,19.72461277601756,0 -103.0112187865678,19.72443562759559,0 -103.0113008955479,19.72409902340122,0 -103.0112302174583,19.72369942930189,0 -103.0114670306116,19.72369784787005,0 -103.0116683519092,19.72347246657806,0 -103.0119364833315,19.72313462061979,0 -103.012005424783,19.72281018595654,0 -103.0121635478362,19.72268879384782,0 -103.0123852988874,19.72257700354435,0 -103.01252250005,19.72249588997136,0 -103.0128302206753,19.72254394566478,0 -103.0130417617915,19.72248238892695,0 -103.0129870916279,19.72226213987212,0 -103.0127957250177,19.72218322261719,0 -103.012582389653,19.72200414586006,0 -103.012707885244,19.72177269046606,0 -103.0128763855736,19.72163117295787,0 -103.013190776475,19.72138158251606,0 -103.0136735582775,19.72098355005968,0 -103.0140067055479,19.72053569555033,0 -103.0140983039525,19.72024931451106,0 -103.0141250531107,19.7201656866871,0 -103.0144287246691,19.71989863654979,0 -103.0148815900655,19.71962300589822,0 -103.0152421231603,19.71916151610773,0 -103.0154224044849,19.71865570051381,0 -103.0152098360762,19.71832352027242,0 -103.0150979687447,19.71805628038806,0 -103.0150427747768,19.71771506921208,0 -103.0151778913037,19.71746544019298,0 -103.0157127883718,19.71721813127299,0 -103.015891970198,19.7167700698699,0 -103.0160930454848,19.71638281786798,0 -103.0157474948415,19.7161109353578,0 -103.0155486735157,19.71594603284144,0 -103.0155454147812,19.71578015977182,0 -103.0156535714883,19.71562427815457,0 -103.0157619208719,19.71549426843956,0 -103.0160278682213,19.71535635849155,0 -103.0163912289247,19.71529656915468,0 -103.0166576839205,19.71544535662079,0 -103.0168569168819,19.71573801201954,0 -103.0171005718086,19.71588695135074,0 -103.0172823860873,19.7158714125517,0 -103.0175766469389,19.71569014447431,0 -103.0178479457868,19.71548039367152,0 -103.0180147021538,19.71547927278413,0 -103.0182484941825,19.71530941268091,0 -103.0184440873342,19.71537810742045,0 -103.018304758416,19.71563234839906,0 -103.0181854322125,19.71612441110945,0 -103.0182777620529,19.71657191273132,0 -103.0186141068161,19.71659020770017,0 -103.0190419940781,19.71658714396988,0 -103.0194170559178,19.71637079628784,0 -103.0194107502929,19.71581417382224,0 -103.0191629073405,19.71519471807225,0 -103.0188556805342,19.71475969110136,0 -103.0184631872954,19.71430223322127,0 -103.0182263307599,19.71384486013026,0 -103.0177120175791,19.71323735410604,0 -103.0197252654036,19.71230035924389,0 -103.0233946947716,19.71220105399552,0 -103.0226835115056,19.70951677136358,0 -103.022874411179,19.70927055381142,0 -103.0206655876177,19.70838398959087,0 -103.0202711648266,19.70817975000277,0 -103.0183685042619,19.7076758111543,0 -103.0183079641474,19.70743402473925,0 -103.0183558191193,19.70736156593249,0 -103.0181387847861,19.70706940413658,0 -103.0181972086544,19.70704771532616,0 -103.0182508243611,19.70701999904907,0 -103.0182278817497,19.70678074899931,0 -103.018098438206,19.70643695898632,0 -103.0178691697357,19.70600483519647,0 -103.0180676520813,19.70560411610472,0 -103.0183322893269,19.70548972708947,0 -103.0182459090267,19.70526863918741,0 -103.0180932827086,19.70524902169071,0 -103.0179434533348,19.70528688529711,0 -103.0181871300379,19.70511497799118,0 -103.0179264815255,19.70483841615467,0 -103.017174341037,19.70497936467176,0 -103.016962937463,19.70540277288816,0 -103.0156246799913,19.70188207637816,0 -103.0158152036167,19.70081661107585,0 -103.0154446877467,19.69969209960789,0 -103.0144185953504,19.69864920560677,0 -103.0132502324586,19.69902727643846,0 -103.0129647709017,19.69846599471718,0 -103.0126698850903,19.69690327736364,0 -103.0129806193337,19.69621173515692,0 -103.0126645228463,19.69611319777237,0 -103.012357617457,19.69579335140939,0 -103.0120576419562,19.69519019550503,0 -103.0116352897097,19.69484349726968,0 -103.0109165811067,19.6946109751425,0 -103.010726445892,19.69448693768726,0 -103.0102848719848,19.69363055963076,0 -103.0099012788353,19.6929348951058,0 -103.0095175569102,19.69222135901427,0 -103.0086002657441,19.69002634303141,0 -103.0074599745393,19.68843249075939,0 -103.0068660148955,19.68793882640742,0 -103.006415417466,19.68754829618549,0 -103.0058507758253,19.68753337844046,0 -103.0055192298864,19.68733900788435,0 -103.0052633980824,19.68703202700146,0 -103.0043456911065,19.68704852836263,0 -103.0036038952795,19.68672411526523,0 -103.0029818573607,19.6864512772777,0 -103.0024851928577,19.68618213862705,0 -103.00178150584,19.68642577743271,0 -103.0012492980527,19.68629220131306,0 -103.0004345975482,19.68662854863712,0 -102.9997069855454,19.68645248978721,0 -102.9992051845544,19.6857891958048,0 -102.9996203260933,19.68456316962664,0 -102.9999492655645,19.68403127485448,0 -103.0006112003514,19.6835114969672,0 -103.0015355358115,19.68312007510939,0 -103.0021078966851,19.68277632633984,0 -103.0024510021195,19.68220740670216,0 -103.0032484369907,19.68204815959043,0 -103.0032312610698,19.68177555650759,0 -103.0030781134513,19.68157562602358,0 -103.0026659563054,19.68121952310332,0 -103.0015129703075,19.68119846704258,0 -103.0016117435693,19.68019308876457,0 -103.0017283215904,19.67954642490922,0 -103.001994281693,19.67865023634575,0 -103.002012011738,19.67845980134765,0 -103.0020110995117,19.6774391758647,0 -103.0018812046859,19.67616883763596,0 -103.0025509602336,19.67518545038168,0 -103.0046275145305,19.67544325184377,0 -103.0048696038948,19.6753248865038,0 -103.0052384533578,19.67525685574479,0 -103.0052036371586,19.67495636480335,0 -103.0041623771453,19.67425685846453,0 -103.0036470073533,19.67378113098505,0 -103.0030278936719,19.67350764353034,0 -103.0023310285589,19.67345842585507,0 -103.0021067221954,19.6728063085184,0 -103.0030946848885,19.67218749334568,0 -103.0039025750558,19.67211416854023,0 -103.0044177420462,19.67180954328603,0 -103.0047587959338,19.67100521968979,0 -103.005518064781,19.67037755304762,0 -103.0060243353847,19.66991767246654,0 -103.006420834069,19.67003315491553,0 -103.0067825545069,19.66999611444155,0 -103.0071901245547,19.6698322018626,0 -103.0076319732698,19.66968740517712,0 -103.0079906581613,19.66971899381879,0 -103.0086198787772,19.66933850008054,0 -103.0087349494793,19.66938318547816,0 -103.0088678366361,19.66938161634904,0 -103.0091739576105,19.6691573681203,0 -103.0093747033536,19.66890892343361,0 -103.0096124972488,19.66880985395,0 -103.0097041198035,19.66873742001497,0 -103.0096429480748,19.66848256345886,0 -103.0097622428506,19.66827385141667,0 -103.0099481589261,19.66815825651893,0 -103.0096935878141,19.66790005957573,0 -103.0096684457231,19.66747399747031,0 -103.0099490635651,19.66735167719359,0 -103.0101507746814,19.6672961822162,0 -103.0103084927863,19.66720209406805,0 -103.0104769245057,19.66708206213305,0 -103.0105027432872,19.66688026393916,0 -103.0104472590166,19.66676691219298,0 -103.0103205068719,19.66661784763982,0 -103.0104857998808,19.66644983125694,0 -103.0107244461833,19.66574774513939,0 -103.011003542325,19.66507373222969,0 -103.0115722621662,19.6645765670362,0 -103.0117687372887,19.66444445187484,0 -103.0120539550673,19.66429302985332,0 -103.0121039979572,19.66383704360078,0 -103.0124085247005,19.66358408645519,0 -103.0129241079952,19.6635242907571,0 -103.0133795007834,19.66337096455818,0 -103.0140537140916,19.6632819143563,0 -103.0146850983043,19.66292409774751,0 -103.0141399529782,19.6619189938223,0 -103.0139325914049,19.66097915386294,0 -103.0127841939597,19.66035453470178,0 -103.012269660659,19.65998813254747,0 -103.0117309759614,19.65958962761888,0 -103.0115377295352,19.65907489720448,0 -103.0113338783462,19.65862475122053,0 -103.0107983786285,19.658063108127,0 -103.0103469458725,19.65781862339932,0 -103.0097716414021,19.65699604939504,0 -103.0091484915478,19.6568144226319,0 -103.0086676416285,19.65672981102028,0 -103.0082710862073,19.65658303653585,0 -103.0075330003357,19.65680512977457,0 -103.0068920818213,19.65665195764023,0 -103.0065954734556,19.656339084958,0 -103.0065017270888,19.65577057635038,0 -103.0071292251016,19.6543827106787,0 -103.0075474570081,19.65337953274335,0 -103.0077958892507,19.65241008060977,0 -103.0083154494617,19.6512236998736,0 -103.0086357004043,19.65001417032531,0 -103.0085107929164,19.64897249192081,0 -103.0083842893619,19.64810494348896,0 -103.0086476763242,19.64669550888824,0 -103.0086222044705,19.64545476040631,0 -103.0082564689487,19.64460547758958,0 -103.0081535825792,19.64410978251753,0 -103.0080427866264,19.64357597446217,0 -103.0072285677862,19.64266805862798,0 -103.0070361154126,19.64185327459437,0 -103.0071954779474,19.64134493811263,0 -103.0067967196437,19.64087629046695,0 -103.006682263598,19.64065374562375,0 -103.0065053399571,19.64031513250039,0 -103.0058271355992,19.64014488982966,0 -103.0055422079607,19.6397916511051,0 -103.0055240670523,19.63921170133119,0 -103.0052304409656,19.63952269373717,0 -103.0047373893266,19.63946089971845,0 -103.0044815360643,19.63913861859698,0 -103.0043654988733,19.63896829072516,0 -103.004043320509,19.63937823451558,0 -103.0036801439359,19.63980603013278,0 -103.003493823092,19.64048014656388,0 -103.0031545155156,19.64051411388941,0 -103.0030698369461,19.64096380708246,0 -103.0025699874071,19.64127750499411,0 -103.0023426643619,19.64197001649734,0 -103.0021196956026,19.64247499962685,0 -103.0017565036394,19.64290279195506,0 -103.0013820481748,19.64271097216301,0 -103.0011883756185,19.64238945078421,0 -103.0010932326589,19.64206890886515,0 -103.0008577635972,19.64191640528778,0 -103.0006007060455,19.64181959681035,0 -103.0003026646165,19.64187249742136,0 -103.0000031114631,19.64185009896337,0 -102.9999440175099,19.64180126734675,0 -102.9996114308182,19.64152643989668,0 -102.9991954533522,19.64154051375569,0 -102.9986787599712,19.64151619308455,0 -102.9983208686907,19.64162503711211,0 -102.9980222867041,19.64173466714151,0 -102.9975247217014,19.64171012520453,0 -102.997015934153,19.64145973030489,0 -102.996790562528,19.64098770504257,0 -102.9965402336402,19.64076451566888,0 -102.9961788222382,19.64039307226447,0 -102.9959460019292,19.64033968600944,0 -102.9960488866206,19.64002182569535,0 -102.99611213983,19.63977781355304,0 -102.9958571359826,19.63956879156854,0 -102.9952024215934,19.63937372561164,0 -102.9947344947201,19.63882345365061,0 -102.994520748493,19.6383700186994,0 -102.9945681481886,19.63792003386125,0 -102.9945786717119,19.63786167051766,0 -102.9946527117398,19.63745104563064,0 -102.9945828475907,19.63666135878892,0 -102.9938158122843,19.63614594773212,0 -102.993419119766,19.63617909189549,0 -102.9929040795167,19.63598536545828,0 -102.9924920704366,19.63562385282334,0 -102.9925937303119,19.63539952757439,0 -102.9925178838262,19.63522947184952,0 -102.9922195807448,19.6352450209887,0 -102.9919939889716,19.6357874295345,0 -102.9916945970925,19.63604712386816,0 -102.9908813933695,19.6360190098948,0 -102.9903245494765,19.63612578339652,0 -102.989946984668,19.63615879300185,0 -102.9895321145367,19.63592869439126,0 -102.9889219749726,19.63554644616225,0 -102.9892023788603,19.63530554926681,0 -102.9894867387847,19.63495143842278,0 -102.9896200552596,19.63460792088721,0 -102.9894277890203,19.63408012095965,0 -102.9891080973883,19.63391627913824,0 -102.9887711369689,19.63361371526829,0 -102.9886318001166,19.63312979215588,0 -102.9884723450137,19.63290427608193,0 -102.9882479721432,19.63335269399926,0 -102.9884005219353,19.63420690778606,0 -102.9883064556002,19.6350814910504,0 -102.9877646442178,19.63554548439989,0 -102.9872671043927,19.63552099900022,0 -102.986499143022,19.63513687050045,0 -102.9859636158332,19.63514942222,0 -102.9855469748731,19.63506948647271,0 -102.9850502569744,19.63515817771583,0 -102.9845372815959,19.6349831689832,0 -102.9843153360808,19.63471274336161,0 -102.9842301197701,19.63417182453478,0 -102.9838585916515,19.63371713712162,0 -102.98331025393,19.63301610644778,0 -102.9831170432373,19.63275056780913,0 -102.9821832004179,19.63283420316418,0 -102.9810091165943,19.6331589975387,0 -102.9800730172374,19.63332818280214,0 -102.9796666839606,19.63335011640476,0 -102.979298319926,19.63306649357201,0 -102.9788379372476,19.63315329793759,0 -102.9788261845101,19.63391170658234,0 -102.9786064181777,19.63420765248402,0 -102.977845855921,19.63418257120613,0 -102.9775345253554,19.63411552822159,0 -102.9770884840771,19.63433526836237,0 -102.9765966814237,19.63444265909238,0 -102.9762213163998,19.63438227866851,0 -102.9759480517258,19.63402209242773,0 -102.9756507186214,19.63390619884271,0 -102.9753457774406,19.63406276710623,0 -102.9749141626041,19.6341607022855,0 -102.9744947916684,19.63409887904713,0 -102.9739442549329,19.63401859626057,0 -102.9737119929493,19.63364001766712,0 -102.9735759252424,19.63333784936058,0 -102.9733151694912,19.63365444112201,0 -102.9735704861905,19.63418067829294,0 -102.9737207875772,19.63446689542777,0 -102.973618692618,19.63463466142288,0 -102.973007661601,19.63478866233287,0 -102.9731173470931,19.63501279338169,0 -102.9731429486976,19.63524879246462,0 -102.9731398582189,19.6354850662476,0 -102.9731485278119,19.63576077719587,0 -102.9731459037386,19.63606211566946,0 -102.9729225272741,19.63625676043807,0 -102.9726728833272,19.63612242977301,0 -102.972621361213,19.63587291291134,0 -102.9725405596887,19.6356752395404,0 -102.9724320173062,19.63547710980821,0 -102.9721549956738,19.63552646583041,0 -102.9721108663913,19.63577541930502,0 -102.9717863542221,19.63613881740665,0 -102.9714929569731,19.63630608856509,0 -102.9711755692973,19.63632851576414,0 -102.9707717013769,19.63642916047764,0 -102.9707695090392,19.6367916670369,0 -102.9708371801286,19.63715988904138,0 -102.9708295213734,19.6374267324734,0 -102.9705217710021,19.63759354988294,0 -102.9700350522711,19.63774565519432,0 -102.9697289348932,19.63800752371928,0 -102.9695550408317,19.63843574613692,0 -102.9695870728519,19.63866874861042,0 -102.9696175894561,19.63889072772641,0 -102.9698770373398,19.63932632407233,0 -102.969944413488,19.6400554119634,0 -102.9698017138176,19.64083396670413,0 -102.9697562681062,19.64156948749558,0 -102.9700107944196,19.64238682410295,0 -102.9702682871354,19.64321719102116,0 -102.9699733807872,19.64344337483216,0 -102.9699670946404,19.64390278740515,0 -102.9701188917126,19.64413009637997,0 -102.9702287702024,19.64438087399779,0 -102.9701844439305,19.64460318690579,0 -102.9701242984834,19.64488731578089,0 -102.9699280604773,19.64513443608749,0 -102.9697721846451,19.64540785149776,0 -102.9695069018506,19.64549673033962,0 -102.9695465724258,19.64569421874333,0 -102.9696105302808,19.6459441123076,0 -102.9697487323307,19.64614260040964,0 -102.9699780700259,19.64651214578582,0 -102.9700448986996,19.64676202197993,0 -102.9697511986136,19.64689023341723,0 -102.9694776261358,19.64675604988403,0 -102.9692553133496,19.64670083368064,0 -102.9688539068741,19.64674871480172,0 -102.9685036467974,19.64699391967331,0 -102.9684581551649,19.64732163658035,0 -102.9683375837989,19.64812044491784,0 -102.9680033124062,19.64926789397902,0 -102.9677070150487,19.64997267180943,0 -102.9678526922376,19.65028040685019,0 -102.9680004001514,19.65047031805489,0 -102.9684976887685,19.65045245643045,0 -102.9687684705656,19.65059680989816,0 -102.9689382377652,19.65092876916168,0 -102.9688133049916,19.65111598298092,0 -102.9686867816087,19.65121421468419,0 -102.9687247202156,19.65143708964692,0 -102.9686654403486,19.65184355773887,0 -102.9688410482231,19.65205540234508,0 -102.9689222266419,19.65230527844682,0 -102.9689458921862,19.65267270094059,0 -102.9691069246644,19.6531208067388,0 -102.9693793444398,19.65335985262661,0 -102.9695020297212,19.65352781093326,0 -102.9695686721273,19.65375113654804,0 -102.9698367273978,19.65390058859725,0 -102.9700558360572,19.65412439142305,0 -102.9702408602721,19.65432269030298,0 -102.9702624554996,19.65448342849205,0 -102.9701682693655,19.65463202180692,0 -102.9699306423455,19.65467859558337,0 -102.969719874795,19.65467350235949,0 -102.9694542855945,19.65461731709534,0 -102.9692564361911,19.65452203770044,0 -102.969065596958,19.65445892928378,0 -102.9689700331087,19.65441448925778,0 -102.9688476687378,19.6544152724997,0 -102.9687441324609,19.65442662254019,0 -102.9686076366915,19.65443675182362,0 -102.9683934308747,19.65448424672852,0 -102.9682274981035,19.65446684852389,0 -102.9680233276617,19.6545697116285,0 -102.9678875956674,19.65467208640439,0 -102.9677034183974,19.65483020269977,0 -102.9675874669917,19.65498783114354,0 -102.9673939369638,19.65520138823782,0 -102.9672980055339,19.65543278185138,0 -102.9672031344816,19.6556344068679,0 -102.967297361826,19.65585058413284,0 -102.967798272645,19.65614340358554,0 -102.9680786305851,19.65639841981304,0 -102.9684280497807,19.65682916090592,0 -102.9686239096316,19.65737312833609,0 -102.9685789633456,19.65753332126211,0 -102.96825666876,19.65757900309455,0 -102.967727479478,19.6574943798178,0 -102.9673944534277,19.65765462392387,0 -102.9671057557899,19.65798471660356,0 -102.9668962349891,19.65827462060487,0 -102.9665700770021,19.6585071779942,0 -102.9666950530916,19.65881335480512,0 -102.9668644354681,19.65921052801316,0 -102.9666056182963,19.65943718386678,0 -102.9664564543357,19.65979701488581,0 -102.9662367461125,19.66077048168775,0 -102.9656888292052,19.66064649335229,0 -102.9654922360992,19.66057968357167,0 -102.9651782929147,19.66053417952139,0 -102.9648636119189,19.66036999003541,0 -102.964536998733,19.66030083680398,0 -102.9640857858641,19.66035121767479,0 -102.9637731062397,19.66048376145853,0 -102.9634236572447,19.66073527883023,0 -102.9630619554105,19.66102246528275,0 -102.9628334585896,19.66079265209952,0 -102.9624206491099,19.66085753677023,0 -102.9618422877246,19.66064488919194,0 -102.9610426502902,19.66103043872095,0 -102.9609744969489,19.66009808074373,0 -102.9604998467101,19.65977069638006,0 -102.9596392192383,19.66002882240339,0 -102.9593483839764,19.65956424455816,0 -102.9594674836778,19.65898047709793,0 -102.9589327955623,19.65886727311657,0 -102.9583168208285,19.658871173513,0 -102.9578879462221,19.65920423194824,0 -102.9574598913421,19.65965392880051,0 -102.9570833928954,19.65934285613884,0 -102.9568377679,19.65910370768412,0 -102.9559508681981,19.65866747006199,0 -102.9548556815366,19.65841568016335,0 -102.9542305562298,19.65912275381619,0 -102.9543717297999,19.65967036669806,0 -102.9543294606966,19.66041236894374,0 -102.9542763320722,19.66060185944872,0 -102.9540442962415,19.66072250732091,0 -102.9534089789977,19.66094564724408,0 -102.9532504580956,19.66130598600437,0 -102.953322258311,19.66170844303793,0 -102.952805401002,19.66184240206847,0 -102.9524313533073,19.66194423514243,0 -102.9515559189737,19.66252918895815,0 -102.9502001365793,19.66665427911115,0 -102.9487539300155,19.67148185357341,0 -102.9487155247441,19.67232730243623,0 -102.9483304618573,19.67289556867253,0 -102.9475716645331,19.67334205190056,0 -102.9469996810378,19.67459745672326,0 -102.9467828915196,19.67516237279257,0 -102.946125741754,19.67608102936977,0 -102.9453005683127,19.67694280386409,0 -102.9435291908132,19.67748634215825,0 -102.9433248836468,19.67841653637064,0 -102.9434322359408,19.67916529427805,0 -102.9433656524683,19.6796636917978,0 -102.9432023045138,19.68003765936681,0 -102.9431515108851,19.68049918364395,0 -102.9430285542654,19.68070440464383,0 -102.9432180090567,19.68111956636378,0 -102.9439818978433,19.68199960124399,0 -102.9448137647541,19.68313154458204,0 -102.9457725297805,19.68321520389309,0 -102.9460611385453,19.68383115119073,0 -102.9462861335896,19.68457933041823,0 -102.9466611332569,19.68495453968268,0 -102.9465075932334,19.68539931616286,0 -102.9467919578764,19.68597583425122,0 -102.9469377241477,19.68602313645954,0 -102.9474887425816,19.68641899614697,0 -102.9483702436301,19.68769078757001,0 -102.9487054882727,19.68801549169366,0 -102.9500073754808,19.68851085873741,0 -102.9497889301124,19.68918895523774,0 -102.9498322738894,19.69003783978627,0 -102.9504318424918,19.69022865954948,0 -102.9508428691711,19.69019069189104,0 -102.951159438308,19.69001181537595,0 -102.9516076244939,19.68993822317475,0 -102.952099841808,19.68976621817784,0 -102.9523772951891,19.68988868907885,0 -102.9523505044334,19.69026958427605,0 -102.9525447783804,19.69108516231663,0 -102.9526590068874,19.69168259056202,0 -102.953278996081,19.6924927139688,0 -102.9543626093426,19.69310043971146,0 -102.9553353883988,19.69385084607831,0 -102.9560900087053,19.69449537388688,0 -102.956778792226,19.69555817622285,0 -102.9576471045889,19.69588864766343,0 -102.9593867447277,19.69629733873336,0 -102.9616871401849,19.69643627110669,0 -102.9622314789012,19.69683552573904,0 -102.9626280248149,19.69709974584217,0 -102.963098071098,19.69713229909841,0 -102.9636988772371,19.69705734215094,0 -102.9644145942821,19.69715356317218,0 -102.9645265410898,19.69809539177276,0 -102.9644909537718,19.69871017654092,0 -102.9644525330688,19.69958305965538,0 -102.9645243078608,19.70020652160257,0 -102.9642363737269,19.70210758301152,0 -102.9643399941235,19.70288440512768,0 -102.9641164548999,19.70364381610164,0 -102.9641610972113,19.70430981590296,0 -102.963313948044,19.70539543579807,0 -102.9632360058671,19.70677793193443,0 -102.9631862901079,19.70763032937763,0 -102.9621426033233,19.70932001996198,0 -102.9618084443145,19.71059464467348,0 -102.9617819967214,19.71144184778746,0 -102.9613899251738,19.71205874462882,0 -102.9613650026255,19.71209795873398,0 -102.9614732709544,19.7127038418954,0 -102.9625710977608,19.71339917150626,0 -102.9631945546819,19.71353379676807,0 -102.9631726916695,19.7139034208761,0 -102.9628045596715,19.71432014889017,0 -102.9625729682917,19.71453052774754,0 -102.9627108548677,19.71494746401249,0 -102.9625670300405,19.71541262726531,0 -102.9619576275307,19.71578189434593,0 -102.9612917353654,19.7160328219676,0 -102.9612938266372,19.71632829611188,0 -102.9613911826741,19.71684480654885,0 -102.9608420661074,19.71731658021558,0 -102.9604364232582,19.71781074660892,0 -102.9601960159546,19.71803653744328,0 -102.9598630089139,19.71822178110362,0 -102.9594296788383,19.71858025746228,0 -102.9592375856786,19.71905712992456,0 -102.9590170436373,19.7194681074906,0 -102.9589272054727,19.72061605912563,0 -102.9603772665696,19.72178314787144,0 -102.9614823219709,19.72362475857018,0 -102.9611117595964,19.7240620597732,0 -102.962092504179,19.7245724024489,0 -102.9631848805156,19.72461982204557,0 -102.9638081525196,19.72604637912076,0 -102.9646336170347,19.72637818262819,0 -102.964653052684,19.72638453645871,0 -102.964810314567,19.72643594292319,0 -102.9652032132559,19.7265643765966,0 -102.9658403464813,19.72676477507902,0 -102.9663924306187,19.72707939818613,0 -102.9675329891946,19.72753320060598,0 -102.9679503823406,19.72783793995096,0 -102.9685838345035,19.7280558919936,0 -102.9691636266246,19.72835958940145,0 -102.9699410741884,19.72850834205064,0 -102.9704833666328,19.72860735378203,0 -102.9709161045812,19.72853625598646,0 -102.9712961247353,19.72865333619378,0 -102.9714616954163,19.729096327697,0 -102.971450759528,19.73008694385054,0 -102.9715885982316,19.73169137016285,0 -102.9722079664613,19.73245594108628,0 -102.9730217280506,19.73263855599886,0 -102.9736706601479,19.73249773723063,0 -102.9742162122076,19.73225777526084,0 -102.9744024350114,19.73264476604992,0 -102.9746597052214,19.73310460016836,0 -102.9744734623985,19.73413706237337,0 -102.9748740260023,19.73469141118422,0 -102.9750056218254,19.73508041245925,0 -102.9745946947644,19.73525361225638,0 -102.9743388476457,19.73549889430257,0 -102.9741101751482,19.73592672883649,0 -102.9741259730335,19.73634081852832,0 -102.9737328127633,19.73761858878378,0 -102.9731687162611,19.73945185663278,0 -102.9725727411239,19.74160341633717,0 -102.9730974716542,19.74220310527217,0 -102.9730359960015,19.74270811241623,0 -102.9725434245104,19.74295742011824,0 -102.9722428563026,19.74339336538373,0 -102.9720177096983,19.74403431881326,0 -102.9719812088099,19.74495276046139,0 -102.9715078995737,19.74609614717923,0 -102.9706517396131,19.74684591906135,0 -102.9712320640253,19.7470121373497,0 -102.9731909974078,19.74746859404631,0 -102.9758290104925,19.74797675410724,0 -102.9761862715173,19.74773880447804,0 -102.976645133684,19.7476525535666,0 -102.9772416423098,19.74767190918954,0 -102.97771149155,19.74778216941164,0 -102.9778816400832,19.74748261387956,0 -102.9781159970563,19.74745898596049,0 -102.9783495637654,19.74772430352537,0 -102.9786807859931,19.74785865820027,0 -102.979082487609,19.7478107455944,0 -102.9793515282581,19.74755242208376,0 -102.9809701736768,19.74767499873811,0 -102.981296245289,19.74749388446729,0 -102.9815192094982,19.7474833770695,0 -102.9818259531082,19.74727691967119,0 -102.982255121857,19.74732117532995,0 -102.9826827479583,19.74754897476442,0 -102.9833702817986,19.74797665423856,0 -102.9841717464831,19.7482739848689,0 -102.9846317103379,19.74834005868391,0 -102.9849133620407,19.74863396607844,0 -102.9852545624406,19.7497465438961,0 -102.9862224023523,19.75054290057104,0 -102.9863337844605,19.75072117729836,0 -102.9867343361816,19.75090944395216,0 -102.9871187078089,19.75111032252213,0 -102.9877948707157,19.75154947764543,0 -102.9876113399056,19.75198118746662,0 -102.9873079594462,19.75238703032348,0 -102.9870605874403,19.75267033198409,0 -102.9868051742839,19.75301686137058,0 -102.9858397245268,19.75453048772291,0 -102.9855227615976,19.75544061654827,0 -102.9849211581879,19.75644144789739,0 -102.9837204828833,19.75884069409736,0 -102.9840505016349,19.75993478580441,0 -102.9838139826228,19.76222658292825,0 -102.9834311602726,19.76403524603692,0 -102.9834395264828,19.76546813896462,0 -102.9834271463991,19.76547728217923,0 -102.9829583403804,19.76610941241009,0 -102.9826245623191,19.76626518734738,0 -102.9828330476956,19.7668342414021,0 -102.9828021592765,19.7671313231832,0 -102.9824393784488,19.7672274292296,0 -102.9820592116411,19.76720646591849,0 -102.981776955228,19.76701297790631,0 -102.9810680709799,19.76692235307369,0 -102.9805849958784,19.76706842963393,0 -102.9802290581588,19.76740588624656,0 -102.9799127989353,19.76795096369404,0 -102.9794282374227,19.76806484695117,0 -102.9785401690135,19.76785650588052,0 -102.9779145357131,19.76800091220892,0 -102.9777913399254,19.76817672553573,0 -102.9776812100627,19.76883744465894,0 -102.9774787959189,19.76914573484881,0 -102.9771675548406,19.76947253553972,0 -102.9767816767405,19.769799834462,0 -102.9765219044244,19.77005092078524,0 -102.976179586188,19.77011149669852,0 -102.975219939908,19.77065719708817,0 -102.9745559016554,19.77065724575389,0 -102.9737718997716,19.77040732865786,0 -102.9728554090884,19.77077412837598,0 -102.9724652025166,19.770832646617,0 -102.9717110123513,19.77067974457628,0 -102.9708987870089,19.77095544442202,0 -102.9702461034075,19.77133520372504,0 -102.9698087480188,19.7721502935627,0 -102.9691117832175,19.77224471415854,0 -102.9683232910587,19.77258235923719,0 -102.967973666132,19.77273182580254,0 -102.9679877918402,19.77323154175499,0 -102.9677911050694,19.77381259977354,0 -102.9676429103473,19.77422222246618,0 -102.9673641226239,19.77473546276288,0 -102.967011054379,19.7750884352497,0 -102.9665545942108,19.77533946282336,0 -102.9662091958329,19.77564239756854,0 -102.9661712742104,19.77596439837682,0 -102.9659086287011,19.77621245277561,0 -102.965497706182,19.77657033568918,0 -102.9651228094325,19.77663046046245,0 -102.9649870584009,19.77671952858335,0 -102.9648822556511,19.77722824151955,0 -102.9646757042434,19.77749841869793,0 -102.9641744427697,19.77764499339467,0 -102.964111884162,19.7781741709433,0 -102.9638659302525,19.7782384743233,0 -102.963631749311,19.77862532137645,0 -102.9635583299816,19.77896635284686,0 -102.9633982042968,19.77910181181943,0 -102.9633495838374,19.77979723141315,0 -102.9636021496187,19.78018049964573,0 -102.964373050769,19.78026015144082,0 -102.9645303006469,19.78015664024018,0 -102.9647061623596,19.77997760066134,0 -102.9648742441401,19.77978166195938,0 -102.9653841856226,19.77963749234907,0 -102.9658621922077,19.77977621323922,0 -102.9665931525765,19.77993994510037,0 -102.9669429721756,19.77983681796745,0 -102.9674912970289,19.77979008504976,0 -102.9675118028128,19.78052500713939,0 -102.967343457467,19.78108141623818,0 -102.9675125543111,19.78174502702353,0 -102.9676451720202,19.7825052112787,0 -102.9678544075097,19.78286026472135,0 -102.9681934639917,19.78267415812013,0 -102.9685359201287,19.78295937102152,0 -102.9685990620561,19.78329237350522,0 -102.9686540816092,19.78349749004029,0 -102.9688328378985,19.78368176104775,0 -102.9690170942549,19.78394500236761,0 -102.969224984345,19.78411612125983,0 -102.9695305230671,19.78421299281723,0 -102.9689487229554,19.78587428664741,0 -102.9683163666601,19.78634761059452,0 -102.9683921807963,19.78664880560946,0 -102.9682860450982,19.78693834436997,0 -102.9683459602123,19.78755203024298,0 -102.9683826934606,19.78800263910745,0 -102.9678582675797,19.78814465265302,0 -102.9676766138571,19.78837691067155,0 -102.967801207772,19.78877295253917,0 -102.9674205733255,19.78910729802861,0 -102.9672491228986,19.78923474106957,0 -102.9670767855892,19.78950657536334,0 -102.9667493578341,19.78964860942898,0 -102.9667112034329,19.78993834936781,0 -102.9668952246823,19.79023120329971,0 -102.9672000584475,19.79041216493348,0 -102.9674510993963,19.7907035027873,0 -102.9669593393741,19.79089752496103,0 -102.9662921950436,19.79133965202557,0 -102.965961773207,19.79394545805854,0 -102.9682111353006,19.7954995553728,0 -102.968393496956,19.79528992202031,0 -102.9687275549353,19.79513596782132,0 -102.9692547960986,19.79512873861602,0 -102.9700071503527,19.79505800467448,0 -102.9703278534003,19.79506253426833,0 -102.9705929414759,19.79508720450473,0 -102.9708708183572,19.79495360400829,0 -102.9710956406984,19.79486366884568,0 -102.971545855757,19.79488453074729,0 -102.9718584489473,19.79507685329293,0 -102.9722265886432,19.79500252490043,0 -102.9728894096061,19.7952934791629,0 -102.9734361862494,19.79542592483959,0 -102.9741008669786,19.79557510357171,0 -102.9743148254678,19.79576633350822,0 -102.9749808591398,19.7958368259597,0 -102.9756283093942,19.79598619956359,0 -102.9760715880349,19.79599043137943,0 -102.9764240001546,19.79608736521015,0 -102.9772633073795,19.79619289251027,0 -102.9774992614138,19.79632657606839,0 -102.9778204942542,19.79637748131337,0 -102.9781372787823,19.79660822932025,0 -102.9785874555185,19.79694039048705,0 -102.9786067125743,19.79695494932272,0 -102.9792588225659,19.79681985451452,0 -102.9805397295889,19.79852127861782,0 -102.9822230299086,19.79923058561751,0 -102.9838912439776,19.79999505177564,0 -102.9836210491366,19.80042752635442,0 -102.9827816630186,19.80088520806842,0 -102.9841066526169,19.80143654815142,0 -102.9857563968026,19.80236414630491,0 -102.9835226226522,19.80571700965766,0 -102.9830692824991,19.80596618621311,0 -102.981517521858,19.80790568216017,0 -102.9814871442998,19.80794267837793,0 -102.9732530084479,19.81822674726483,0 -102.9742798351198,19.82024432893576,0 -102.974559665272,19.82079488198982,0 -102.9755476674377,19.82274120385066,0 -102.9759152561211,19.82352176531632,0 -102.9772624585276,19.82638243566794,0 -102.9773082042317,19.82648356815519,0 -102.9774720722764,19.82678509696562,0 -102.9788999137584,19.82824542921086,0 -102.9789738685964,19.82957910248455,0 -102.9784725760305,19.83091771952723,0 -102.9775785562988,19.83197476448785,0 -102.9766231658032,19.83286171340911,0 -102.9765141536171,19.83592131936871,0 -102.9759733256958,19.83724548196524,0 -102.9748799035647,19.84020383950097,0 -102.9745672018877,19.84092456538267,0 -102.9742312322977,19.84168954897819,0 -102.9734149725287,19.84248608956093,0 -102.9733763488441,19.84297390609531,0 -102.9737310612435,19.84318657835934,0 -102.9741599359163,19.84349887623407,0 -102.974480620017,19.84359764223844,0 -102.9745265928836,19.84442910861428,0 -102.9748111723421,19.84506999409397,0 -102.9746535242577,19.84539868973949,0 -102.9741900693949,19.84584274818838,0 -102.9725180651658,19.84602957464231,0 -102.9724447281391,19.84615311942499,0 -102.9730379134133,19.84641760133407,0 -102.972995958341,19.84656207279443,0 -102.9738879090996,19.84678410440909,0 -102.9740664101276,19.8470052985405,0 -102.9745509663974,19.84716584399008,0 -102.9754603222449,19.84730068572887,0 -102.9757763158955,19.84719414006275,0 -102.9769167927229,19.84871455964427,0 -102.9763984113253,19.85002112359468,0 -102.9756734877462,19.85038307406025,0 -102.9753353817422,19.85054234417884,0 -102.9752754254945,19.85089798417994,0 -102.9749873186207,19.85125724031071,0 -102.9749490314891,19.85164511744949,0 -102.9747083327976,19.85223648772071,0 -102.9747566608464,19.85228032584121,0 -102.9756666060146,19.85179978418227,0 -102.9761277442537,19.85179030239112,0 -102.9765019768163,19.85168631603101,0 -102.977019275346,19.85160589700081,0 -102.9772824711724,19.85187568167144,0 -102.9774314547221,19.85218401228703,0 -102.9779852135619,19.85309342122886,0 -102.9783299156062,19.85357481186707,0 -102.978743387399,19.85338600758251,0 -102.9789881743565,19.85345137044239,0 -102.9784691130135,19.85439743691527,0 -102.9780404439928,19.85521991123035,0 -102.9791198683176,19.85515313928024,0 -102.9793483587609,19.85533079225998,0 -102.9796806473505,19.85528900775672,0 -102.9787311660676,19.85591175092026,0 -102.9784180322185,19.85592647810168,0 -102.9782231993574,19.85606798816833,0 -102.9780854310392,19.85645545573075,0 -102.978038069321,19.85671241713546,0 -102.980372604236,19.85773972372985,0 -102.9814460947485,19.8585778846987,0 -102.9819925114234,19.8595101930704,0 -102.9818804270048,19.85960384786699,0 -102.979850879702,19.85873400931862,0 -102.9799212522781,19.85885309200428,0 -102.9812953759716,19.86117830151671,0 -102.9791211538175,19.86158500019145,0 -102.9770102917293,19.86347020267126,0 -102.9763524037428,19.86400693511443,0 -102.9758565355469,19.86416322127856,0 -102.9764539690741,19.86458142886709,0 -102.9768615294441,19.86411706966639,0 -102.9776171753825,19.86393895374445,0 -102.9780097030469,19.86435484641361,0 -102.9784508669738,19.86391750222857,0 -102.9783152706442,19.8637576143869,0 -102.9790068722134,19.86327685502329,0 -102.9787116898743,19.8652272996736,0 -102.9792998638086,19.86602191755877,0 -102.9790927629024,19.86785698162633,0 -102.978916353127,19.86807910636837,0 -102.9783635606673,19.86746764603884,0 -102.9782833403495,19.86684596926697,0 -102.976531798936,19.86811980509706,0 -102.9753922358347,19.86846576408534,0 -102.9740302681082,19.86902479128118,0 -102.9731371636731,19.86882377027279,0 -102.9724592662247,19.86865168968669,0 -102.9716969715437,19.86843906181232,0 -102.9705564714767,19.86812176901921,0 -102.9682900479279,19.86764796050814,0 -102.9680893650479,19.86744727145435,0 -102.9675458862987,19.86734936397435,0 -102.9658940139952,19.86728748217845,0 -102.9638185977106,19.8677725039096,0 -102.963121744585,19.86880414252634,0 -102.9622596401891,19.86821733988384,0 -102.9617448668333,19.86883748709848,0 -102.9614545444777,19.86926299462652,0 -102.9611340932644,19.86914997869873,0 -102.9608673364621,19.86923651628455,0 -102.9607660593349,19.86956352699833,0 -102.960312524858,19.86978635908877,0 -102.9602461842333,19.87009986954325,0 -102.9603588314418,19.87057786646195,0 -102.960152963073,19.87076411308337,0 -102.9599234461763,19.87086347695325,0 -102.9598222439829,19.87120138349758,0 -102.9590544395237,19.8716849169776,0 -102.9588864369981,19.87186869010182,0 -102.958936312515,19.87235286983545,0 -102.9583000437543,19.87362534405317,0 -102.9553093634023,19.87513869120062,0 -102.9534463316908,19.87700772678775,0 -102.9527774317383,19.87942699020823,0 -102.9526952644792,19.87982251478485,0 -102.9538134438936,19.88199404834374,0 -102.9545259085485,19.88201679103262,0 -102.9548091808858,19.88231487076508,0 -102.9518781103738,19.88311488549509,0 -102.951030170078,19.88256459608579,0 -102.9509501815977,19.88266261556886,0 -102.9482361538326,19.8860346068611,0 -102.9480176476586,19.88630455771419,0 -102.9479802630272,19.8863621927693,0 -102.9469755148317,19.88667231345103,0 -102.9465401479697,19.88674052308745,0 -102.9458450713958,19.88695475845085,0 -102.9447859485303,19.88748331076053,0 -102.9439967219864,19.88802860683165,0 -102.942158305052,19.88896830905135,0 -102.9404986559979,19.88964840142992,0 -102.9396895021155,19.89000560225022,0 -102.9392516915027,19.89046071748475,0 -102.9393133871276,19.8908597526973,0 -102.9394246094062,19.89115278233047,0 -102.9390724682063,19.89182956267502,0 -102.9388162901842,19.89192179560162,0 -102.9380228438397,19.89218652458147,0 -102.9370402352252,19.89212150344046,0 -102.9359680483229,19.89208710409053,0 -102.9349973365917,19.89188647481197,0 -102.9320604077138,19.89128138680293,0 -102.9319666094815,19.89080576693429,0 -102.9312176586446,19.89087138953784,0 -102.9305666758708,19.89089195917952,0 -102.9292829133406,19.891095733381,0 -102.9285229759431,19.89109189873252,0 -102.9283552025982,19.89083150459104,0 -102.928078633582,19.89083319721899,0 -102.9272516904037,19.89127394337297,0 -102.9242073921162,19.89235131599427,0 -102.9236782910028,19.89236318458939,0 -102.923498565216,19.8927781259676,0 -102.9237287390274,19.89306991035777,0 -102.924540269868,19.89323098659833,0 -102.9249121590229,19.89360257386157,0 -102.9250010155127,19.89404689848757,0 -102.9255248459398,19.8941895052263,0 -102.925675549791,19.89459276501421,0 -102.9250074523213,19.8950790256763,0 -102.9243116541671,19.89522336671896,0 -102.9237933605942,19.89529654876278,0 -102.9241821592921,19.89579845845375,0 -102.9240943113688,19.89639539348348,0 -102.9237873187731,19.89682528100292,0 -102.9224552917419,19.89726140825239,0 -102.9202056986478,19.89777654561236,0 -102.9156532490163,19.89887972475863,0 -102.9152369945092,19.89908744963228,0 -102.9151045126159,19.89954056337389,0 -102.9151239224244,19.89980611521739,0 -102.915266688951,19.90010637012435,0 -102.9155501074808,19.9003303302062,0 -102.9163882424818,19.90054260058138,0 -102.9182451699979,19.90093570256951,0 -102.9187641457407,19.90114774375329,0 -102.918813151673,19.90144084050206,0 -102.9185237157495,19.9017715357986,0 -102.9180475422608,19.90231675735715,0 -102.9179934695788,19.9026549284917,0 -102.9182142288537,19.90301342805692,0 -102.9186458227239,19.90339244029177,0 -102.9191624445245,19.90388223887722,0 -102.9192401691607,19.90418390803604,0 -102.9191246697752,19.90451058458411,0 -102.9187232794437,19.90489305816883,0 -102.9183065229578,19.905310969191,0 -102.9183423882078,19.90577964122655,0 -102.9187286118745,19.90607233235362,0 -102.9191216920675,19.90635833246031,0 -102.9195132053765,19.90661646364686,0 -102.9198007955145,19.90698294687374,0 -102.9195871220735,19.90770284519914,0 -102.9193443290436,19.90785372666833,0 -102.9190117207967,19.90840984827014,0 -102.9188256748143,19.90877454866022,0 -102.9186528606726,19.90929067446461,0 -102.9184869402489,19.90980619603472,0 -102.9184226636645,19.91040902910302,0 -102.9183430077927,19.91073160256654,0 -102.9182626540066,19.91095111261972,0 -102.9181151139244,19.91131276719955,0 -102.9179828840351,19.91163100355125,0 -102.9180499085808,19.91196716535609,0 -102.9183543815957,19.91230183711814,0 -102.9187985257061,19.91252354159191,0 -102.9192540825522,19.91284716935426,0 -102.9194604691382,19.91303967400602,0 -102.9187838694633,19.91435613230408,0 -102.918442553058,19.91510238295048,0 -102.9181897206516,19.91636011072833,0 -102.9180071499214,19.91662827251696,0 -102.9178924573342,19.91740552847156,0 -102.9176797654875,19.91759980702645,0 -102.9173622522627,19.91811640164582,0 -102.9173389179068,19.9187581041129,0 -102.9173071548321,19.91973050686983,0 -102.9173063219522,19.92077118742799,0 -102.917749267572,19.92126686614087,0 -102.9179618637914,19.92182629051892,0 -102.9183289002088,19.92236728640553,0 -102.9190146735422,19.92275873052516,0 -102.9199000162745,19.92333627405003,0 -102.9201352078404,19.92390737493935,0 -102.9199511653837,19.92447647707164,0 -102.919916687863,19.9247633197535,0 -102.919819941777,19.92562054517531,0 -102.9193594831451,19.9264720160007,0 -102.9196012528004,19.92669745443524,0 -102.9205620937404,19.92671055087765,0 -102.9214211372093,19.92645950321,0 -102.9211678849073,19.92748226570462,0 -102.9209349710218,19.92856163254035,0 -102.9203436350318,19.93009279108736,0 -102.9200848008799,19.93217293145987,0 -102.9198168913141,19.93321358641478,0 -102.9197333882687,19.93442632224082,0 -102.9198802632095,19.93581086047296,0 -102.9198157786252,19.93755796299279,0 -102.919405308982,19.93890204833071,0 -102.9187333307455,19.93975988733277,0 -102.9183500131572,19.94121189055235,0 -102.9179465111494,19.94205178506138,0 -102.9172756183556,19.94330931123452,0 -102.9164058290358,19.94508241935968,0 -102.9161959553383,19.94596758767498,0 -102.9155866146523,19.94634523747978,0 -102.9145011624177,19.94680038536374,0 -102.9138917796494,19.94770205263638,0 -102.9136281009939,19.94840673389695,0 -102.9132698324087,19.9490168012648,0 -102.9128102389224,19.94994443751826,0 -102.9120747672461,19.95189038344355,0 -102.9115696214834,19.95335273585356,0 -102.9107840657443,19.95523018248333,0 -102.9104685949544,19.95626535330748,0 -102.9098396559769,19.9583290743043,0 -102.9096980746856,19.95898861133238,0 -102.909654273677,19.95970879172252,0 -102.9099022642235,19.96041192745415,0 -102.9105168627298,19.9610112747933,0 -102.9100288070919,19.96143580151679,0 -102.9093248402464,19.96163430082411,0 -102.9095684960172,19.96290975899966,0 -102.9090434974585,19.9634957885525,0 -102.908865481559,19.96531144040137,0 -102.9087751049242,19.96665698991794,0 -102.9087837003345,19.96793938680309,0 -102.9085853723631,19.96884889501411,0 -102.9085432781448,19.96950835235084,0 -102.9088076967703,19.96983027345778,0 -102.9087673711478,19.97020249294581,0 -102.9088357859927,19.9703516342541,0 -102.9088659398975,19.97073059174838,0 -102.9088395957539,19.97033391438108,0 
					</coordinates>
				</LinearRing>
			</outerBoundaryIs>
		</Polygon>
	</Placemark>
</Document>
</kml>
