<?xml version="1.0" encoding="UTF-8"?>
<kml xmlns="http://www.opengis.net/kml/2.2" xmlns:gx="http://www.google.com/kml/ext/2.2" xmlns:kml="http://www.opengis.net/kml/2.2" xmlns:atom="http://www.w3.org/2005/Atom">
<Document>
	<name>Elemento_80.kml</name>
	<Style id="highlight00">
		<LineStyle>
			<color>7f00ff00</color>
		</LineStyle>
		<PolyStyle>
			<color>7f7fffaa</color>
		</PolyStyle>
	</Style>
	<Style id="normal00">
		<LineStyle>
			<color>7f00ff00</color>
		</LineStyle>
		<PolyStyle>
			<color>7f7fffaa</color>
		</PolyStyle>
	</Style>
	<StyleMap id="styleMapID00">
		<Pair>
			<key>normal</key>
			<styleUrl>#normal00</styleUrl>
		</Pair>
		<Pair>
			<key>highlight</key>
			<styleUrl>#highlight00</styleUrl>
		</Pair>
	</StyleMap>
	<Placemark>
		<name>Elemento_80</name>
		<styleUrl>#styleMapID00</styleUrl>
		<ExtendedData>
			<SchemaData schemaUrl="#schemaID">
				<SimpleData name="MUNICIPIO">SAN PEDRO TLAQUEPAQUE</SimpleData>
				<SimpleData name="REGION">CENTRO</SimpleData>
				<SimpleData name="CLAVE">98</SimpleData>
				<SimpleData name="AREA_KMS2">118.597298182</SimpleData>
				<SimpleData name="GID">79</SimpleData>
			</SchemaData>
		</ExtendedData>
		<Polygon>
			<outerBoundaryIs>
				<LinearRing>
					<coordinates>
						-103.3163769774137,20.64672828441147,0 -103.3128308386027,20.64551682573502,0 -103.311594480738,20.64618293647256,0 -103.311046039437,20.6459577958882,0 -103.3113883701855,20.64564236928123,0 -103.3116155780078,20.64422866084451,0 -103.3074883454469,20.64386913585936,0 -103.3034665772221,20.64351053634346,0 -103.2979216881762,20.64293738277153,0 -103.2914690011558,20.64226522508318,0 -103.2914971695884,20.64203490352274,0 -103.2905822092046,20.6419369374584,0 -103.2904314942689,20.64301834491011,0 -103.28874613974,20.64283993799612,0 -103.289021166989,20.64097381910046,0 -103.2874769172831,20.64087784358556,0 -103.2874110738675,20.64153559017489,0 -103.2859872574211,20.64141797957674,0 -103.2852309687033,20.64137626920356,0 -103.2848895798958,20.64139008523183,0 -103.2844449366831,20.64137419469904,0 -103.2823923830966,20.64119488379129,0 -103.2822110351375,20.64118247537243,0 -103.2828956040232,20.64009183472442,0 -103.2831348232821,20.63935602629527,0 -103.2831588308516,20.63928218124821,0 -103.2832136627914,20.63903889988612,0 -103.2832964809059,20.63867144611639,0 -103.2833371237623,20.63849112239205,0 -103.2833765264148,20.63831629735869,0 -103.2837483197815,20.6367844670373,0 -103.2837721732317,20.63669683148437,0 -103.283857447547,20.63638353706679,0 -103.2840211049001,20.63584365014408,0 -103.2841446172725,20.63537012485653,0 -103.2843572928162,20.63467494563207,0 -103.2843911636785,20.63455997274087,0 -103.2847219054603,20.63343724220744,0 -103.2848548027439,20.63298610624931,0 -103.2849814368483,20.63255622845507,0 -103.2851011107071,20.63214997667092,0 -103.2852092240309,20.6317829665984,0 -103.2852192790375,20.63175247989061,0 -103.2854265415109,20.63112408331639,0 -103.2854457752349,20.63106576862704,0 -103.2854749802038,20.63056905162319,0 -103.2854604653632,20.6302756257522,0 -103.2854324902032,20.62971010315121,0 -103.2854147107285,20.62935067703846,0 -103.2854107324582,20.62927026119156,0 -103.2854332203088,20.62866962527352,0 -103.2857010308959,20.62797499031172,0 -103.2860351822722,20.62750124895658,0 -103.2861894438942,20.62728254398762,0 -103.2862707681709,20.62713470330352,0 -103.2864000888462,20.62689960413781,0 -103.2864946272972,20.62672773933347,0 -103.2866773224971,20.62639560780117,0 -103.2866804252858,20.62637428458582,0 -103.2867081788034,20.62618355743667,0 -103.2813531546915,20.62395835645471,0 -103.2826623759287,20.61642068196131,0 -103.2826917220412,20.61641839655363,0 -103.2834950296216,20.61635582586348,0 -103.2839754504618,20.61605351349841,0 -103.2842027826176,20.61580541286027,0 -103.2843209899417,20.61555541001942,0 -103.2841877916029,20.61481766416465,0 -103.2841843370765,20.61479853052472,0 -103.2829643806849,20.61315323446086,0 -103.2827735698217,20.61306085141291,0 -103.282434926718,20.61311988030387,0 -103.2803264284518,20.6136330391665,0 -103.2788030131337,20.61357471680736,0 -103.2763124405853,20.61341503111547,0 -103.2761285541314,20.61341413078741,0 -103.2761210522342,20.61340426060647,0 -103.2761206980195,20.61339524037818,0 -103.2761519806185,20.61315706153989,0 -103.2761740458381,20.6129890644619,0 -103.2762087595119,20.61272476219511,0 -103.2762215339797,20.61262749444427,0 -103.2763029679012,20.61200747315872,0 -103.2763040906125,20.61199892743371,0 -103.2763058965046,20.61198517471579,0 -103.2763143351237,20.61195263452298,0 -103.2757482184373,20.61192747399177,0 -103.2757319569079,20.61192675079853,0 -103.275740816388,20.61184660394072,0 -103.275742061867,20.61183533781501,0 -103.2755985695841,20.61183416438201,0 -103.2747579846233,20.61182728496814,0 -103.2746118161194,20.61180878136732,0 -103.2744702339578,20.61180472739436,0 -103.2741169640617,20.61179591900784,0 -103.2740504859216,20.61179471040261,0 -103.2737945107942,20.61179005803365,0 -103.2735799456846,20.61179187558933,0 -103.273385098065,20.61178596799291,0 -103.272542132349,20.61177054586965,0 -103.27253712472,20.61068622411065,0 -103.2587675028385,20.61162621380846,0 -103.2572930179925,20.61160473883951,0 -103.2571454494187,20.60898488228424,0 -103.2572292818931,20.60898828936746,0 -103.2572308059335,20.60882689683798,0 -103.2572636097925,20.60828061732917,0 -103.2572627370656,20.60796766385369,0 -103.2572537143468,20.6075920392473,0 -103.2572184843528,20.60718276931951,0 -103.2571789628178,20.60694374518013,0 -103.2568986649533,20.60636659092294,0 -103.2567810891031,20.60618389727248,0 -103.2566941350866,20.60593892348836,0 -103.2565540752757,20.60570908787947,0 -103.2565455546087,20.60541510403755,0 -103.2565401297565,20.60499312007745,0 -103.2565383570947,20.60475943651846,0 -103.2564739319563,20.60457936538268,0 -103.2564535325437,20.60442477388914,0 -103.2564120055138,20.60379012016589,0 -103.2563551591262,20.60255445799508,0 -103.2563368958611,20.60221212115351,0 -103.2563254065122,20.60205344628603,0 -103.2565417468581,20.60138612055522,0 -103.2566193366414,20.60114678503591,0 -103.2567342389793,20.6007849276428,0 -103.2569352143364,20.60060244975763,0 -103.2557082232282,20.59927755332231,0 -103.2560072896816,20.59925970781362,0 -103.2557354033444,20.59695857183313,0 -103.2549326462979,20.59678367794887,0 -103.255356675101,20.59132350081719,0 -103.2550120220053,20.59131287969504,0 -103.2558693798903,20.58708154281227,0 -103.2420248694243,20.58322153072223,0 -103.2404818579585,20.58317470959947,0 -103.2405308268923,20.58181767189396,0 -103.2412403991757,20.58177367628592,0 -103.2412689959313,20.58096580487668,0 -103.2412859107958,20.5805209014445,0 -103.2412986822211,20.57973684136425,0 -103.2413058442565,20.57929714734632,0 -103.241329941354,20.57874104817794,0 -103.2413574158483,20.5778901207035,0 -103.2413183410652,20.57768460163978,0 -103.2393130333842,20.57354683502782,0 -103.2395222248438,20.57320245693439,0 -103.2396935624399,20.5729203933476,0 -103.2369945510292,20.56968714130702,0 -103.2365907132569,20.56855335162645,0 -103.2370334150362,20.56708434655641,0 -103.2376217123887,20.56513216070922,0 -103.2377297625778,20.56209456907508,0 -103.2384333312313,20.56241451032841,0 -103.2384361540327,20.56241164942654,0 -103.2389095742112,20.5624847057648,0 -103.2392638767767,20.56253347331949,0 -103.2442425992849,20.56327956200266,0 -103.2470863435295,20.56369678990285,0 -103.2477278333623,20.56379361223061,0 -103.248560606647,20.56393753181452,0 -103.2511455555642,20.56434304337698,0 -103.2520837227469,20.5644970438308,0 -103.254151452428,20.564843091587,0 -103.2545727948741,20.56490153732562,0 -103.2560282140599,20.56511492821138,0 -103.2566316656912,20.56518423624318,0 -103.2570148555147,20.56522422609129,0 -103.2596860664001,20.56563951400571,0 -103.2680132750889,20.56685254378775,0 -103.2674397403544,20.56788481528888,0 -103.2671768149547,20.56835803333674,0 -103.266863322076,20.56972623589045,0 -103.2672441659471,20.56973316765674,0 -103.2675390461129,20.56972877624534,0 -103.2680918320785,20.56974715265626,0 -103.268926382691,20.56977489149961,0 -103.2699296185496,20.56980823173688,0 -103.27099586176,20.56982331387377,0 -103.2719513769926,20.5698681597727,0 -103.2724795741953,20.56989294763252,0 -103.273052225836,20.5698995170474,0 -103.2734724517397,20.56991772809535,0 -103.2737956911702,20.56993156648974,0 -103.2741757583496,20.56995545998061,0 -103.2745397534873,20.56996653093393,0 -103.2745965021195,20.56996825731195,0 -103.2749644124449,20.56999137847449,0 -103.2753414419208,20.57001199271037,0 -103.2757726947559,20.57004108444102,0 -103.276037449089,20.57003288272907,0 -103.2761950668208,20.57002799922866,0 -103.2766349469892,20.57005859203381,0 -103.2770496364034,20.57008849579208,0 -103.2774753947608,20.57011437156045,0 -103.2779066237926,20.57014037572958,0 -103.2782489193314,20.57014042497671,0 -103.2784211955982,20.57014044837145,0 -103.2786852142931,20.57013885553639,0 -103.2789249553489,20.57013740757153,0 -103.2793540284799,20.57016575244174,0 -103.2796913114862,20.57020143300149,0 -103.2797793951293,20.57021075063494,0 -103.2801686178926,20.57022163773329,0 -103.2801836266191,20.57022292593657,0 -103.2805352775827,20.57025309202652,0 -103.2810311872121,20.57029076298347,0 -103.2814111385582,20.57031962395698,0 -103.2818400297385,20.57035543576222,0 -103.2832710828523,20.57038828205277,0 -103.2832771476052,20.57054765312737,0 -103.2832873666866,20.57084596173657,0 -103.2832987990702,20.5711501059543,0 -103.2833120725628,20.57144631304704,0 -103.2833287872657,20.57173036420707,0 -103.2833473309969,20.57201742974911,0 -103.2833691820937,20.57230439345813,0 -103.2833968891026,20.57258422590328,0 -103.2834265849584,20.57285578572326,0 -103.2834539056588,20.5731175934178,0 -103.2834821603307,20.57336768009211,0 -103.283509214373,20.57360436789297,0 -103.2835348138578,20.57382917732299,0 -103.2835599466825,20.57406046960916,0 -103.2835832787073,20.57426203895508,0 -103.2836044102046,20.57442365419025,0 -103.2836132857907,20.57451395138617,0 -103.2836263941966,20.57464731033597,0 -103.2836392814994,20.57479452736969,0 -103.2836524210987,20.57494011192891,0 -103.2836779944572,20.57515793400949,0 -103.2837096775234,20.57540323461895,0 -103.2837393596081,20.57566502232499,0 -103.2837694414288,20.57594159109668,0 -103.2837991369466,20.57622955209536,0 -103.2838316601925,20.57652549381565,0 -103.2838655179828,20.5768199582713,0 -103.2838985747982,20.57710963093852,0 -103.2839288973986,20.57739438238029,0 -103.2839594998501,20.57767340963074,0 -103.2839910757171,20.57794637002341,0 -103.2840230394181,20.57821450610463,0 -103.284045224232,20.57848614940271,0 -103.2840797485842,20.57875536142607,0 -103.2841100304421,20.57903221304448,0 -103.2841356304398,20.57931515613813,0 -103.2841676468063,20.5795934539603,0 -103.284187569119,20.57974302244872,0 -103.2841968820226,20.57981294365141,0 -103.2857099609491,20.57989147264685,0 -103.2885806478969,20.58004974836873,0 -103.2958646569989,20.58029637284985,0 -103.3047974777257,20.58111729614537,0 -103.3049882338568,20.58108270284281,0 -103.3050295451508,20.5810752108135,0 -103.3052011914031,20.58101283310429,0 -103.3053016170259,20.58095096537103,0 -103.3053569040883,20.58091690558437,0 -103.3054539281249,20.58079814836339,0 -103.3055007286177,20.58068498030718,0 -103.3056662562541,20.57950463423714,0 -103.3056960337811,20.5792893048726,0 -103.3058414972168,20.5780753727854,0 -103.3058726884547,20.57781506875616,0 -103.3059144799757,20.57692534542394,0 -103.3059323913232,20.57688822311295,0 -103.3059592285135,20.5768547065294,0 -103.3060085479198,20.57681966754837,0 -103.3060892538222,20.57680413741601,0 -103.3071852187785,20.57700196417074,0 -103.308129364682,20.57712264945845,0 -103.3096039079782,20.57728945313641,0 -103.3096049984591,20.57742035718385,0 -103.3101400425127,20.57748343440323,0 -103.3137042590029,20.57790138495545,0 -103.3137327156938,20.57790472176611,0 -103.3136873883236,20.57832948918725,0 -103.3136820779666,20.57837925963511,0 -103.3151314907174,20.57833185061923,0 -103.3155840711843,20.57831704491304,0 -103.3159987280196,20.5791491931436,0 -103.3161440423265,20.5794381680212,0 -103.3165413721598,20.58022829971028,0 -103.3168957474733,20.58093300380528,0 -103.3170129595408,20.58116608864115,0 -103.3176357054682,20.58240444978974,0 -103.3177438529572,20.58261950534743,0 -103.3179461432131,20.58302176289234,0 -103.3180850305977,20.58333822868517,0 -103.3188823923756,20.58515504943094,0 -103.3189357464768,20.58512150572006,0 -103.319022613795,20.58506689174889,0 -103.3191485272294,20.58498885297041,0 -103.3207737881732,20.58397371948263,0 -103.3222897722325,20.583026812948,0 -103.3227088969949,20.5827650165334,0 -103.3237634033553,20.58210602641884,0 -103.3239496407412,20.58198968410882,0 -103.3251620913047,20.58123225730902,0 -103.327251547407,20.57992691975625,0 -103.3301552688809,20.57811280812015,0 -103.3314006245665,20.57824805784841,0 -103.3316230465152,20.57826110452441,0 -103.3316538539733,20.57813570112759,0 -103.3318583645878,20.57730321366874,0 -103.3319887135574,20.57703618977518,0 -103.3322613218124,20.57612111069733,0 -103.3322980225084,20.57599791467812,0 -103.3327168961805,20.57459183358431,0 -103.3328046285885,20.57432508927037,0 -103.3330135458375,20.5736898763436,0 -103.3332395015848,20.57300285642981,0 -103.3332780746931,20.57283470541956,0 -103.3333299953311,20.57260836818655,0 -103.3334204894889,20.5722138798215,0 -103.333423401642,20.57194562723776,0 -103.3334248577013,20.57181150092539,0 -103.333426313749,20.57167737461085,0 -103.3332438991145,20.5707696712666,0 -103.3332014871224,20.57055862847857,0 -103.3331739275111,20.57042148751877,0 -103.3330023116261,20.56956750181043,0 -103.3328476359324,20.56904717859502,0 -103.3327795939794,20.56863544757383,0 -103.3327745747948,20.56849904938359,0 -103.3327696269717,20.56836456059368,0 -103.3327263960471,20.56765662319244,0 -103.3327004514972,20.56723176494088,0 -103.3326347595326,20.56615599409419,0 -103.3326245344776,20.56598856005729,0 -103.3325872959865,20.56537874920209,0 -103.3325839685517,20.56532426141931,0 -103.3325448715395,20.56440630911525,0 -103.3325230240608,20.56389335050305,0 -103.3325089383425,20.56353008811554,0 -103.3325039645398,20.5634012628306,0 -103.3324726579924,20.56259052016785,0 -103.3324484169682,20.56203874712661,0 -103.332443555489,20.56192811037546,0 -103.3324029840796,20.56124245332639,0 -103.3323749629187,20.56077455330265,0 -103.3323631803133,20.56057779954156,0 -103.3323114624105,20.5597142136665,0 -103.3321976847496,20.55823791726489,0 -103.3321524225023,20.55762627090556,0 -103.3321071614153,20.5570146245274,0 -103.3320009707644,20.55615580368342,0 -103.3319805045819,20.55599027805148,0 -103.3317826856643,20.55515771490462,0 -103.3317601247647,20.5550665160182,0 -103.331666998402,20.55469006512615,0 -103.3315569490385,20.55427206731513,0 -103.3314469011422,20.55385406946527,0 -103.3315929341582,20.55380532914096,0 -103.3317389661683,20.55375658595569,0 -103.3323569521166,20.55375428036502,0 -103.3335685828467,20.55399591867153,0 -103.3339663088264,20.55407523609777,0 -103.3341964060677,20.55410865071552,0 -103.3348196969203,20.5541991613152,0 -103.3354952420458,20.55429725663387,0 -103.3360973428826,20.55438468558682,0 -103.3376507076424,20.55459576428399,0 -103.3381631428961,20.55464805988295,0 -103.3392339927,20.55474769098771,0 -103.3401288198993,20.55487346116627,0 -103.3401925649974,20.55488242052846,0 -103.340496101625,20.5549408969373,0 -103.3410496516272,20.55499965198796,0 -103.3411771587653,20.55500412059531,0 -103.3411958575147,20.55500477572457,0 -103.3416262079224,20.5550535750681,0 -103.3420323000526,20.55509479164992,0 -103.3422754466772,20.55515780879418,0 -103.3433755440938,20.5551941682274,0 -103.3435493423352,20.55521075062523,0 -103.3436353476641,20.55522731082759,0 -103.3451038585409,20.55532854042431,0 -103.3451344396762,20.55533665541825,0 -103.3452676323571,20.55536084980317,0 -103.3458696575178,20.55540813241076,0 -103.3470852537311,20.55550359656203,0 -103.3472355263463,20.55550576405551,0 -103.3477632932301,20.55552200870316,0 -103.3478552606088,20.55551470181161,0 -103.3479636201849,20.55551626474016,0 -103.3481476473876,20.5555189177953,0 -103.3492100417299,20.55553423162738,0 -103.349361365574,20.55553641270694,0 -103.3494477456218,20.5555348781825,0 -103.3536051483438,20.55552444671438,0 -103.3537487650841,20.55532084380129,0 -103.3537517331744,20.55534110024894,0 -103.3537715170884,20.55532588833922,0 -103.3538388414525,20.55537713809778,0 -103.3551633072352,20.55529035454702,0 -103.357120317488,20.55524569478975,0 -103.3571313065984,20.55524516669291,0 -103.3571834327275,20.55524266475823,0 -103.3579813902477,20.55520435743117,0 -103.3582273845515,20.5551925476635,0 -103.3596344093516,20.55512498977547,0 -103.3603127848898,20.55536627900053,0 -103.3608570966231,20.55558823039439,0 -103.3631655079907,20.55766965724917,0 -103.3634762069974,20.55821459245047,0 -103.3634925065271,20.55833033498819,0 -103.3635564564438,20.55878444974537,0 -103.3634632174029,20.55943396748797,0 -103.3632810671002,20.56032654429571,0 -103.3628307348397,20.56208378340548,0 -103.3629113870662,20.56222830929437,0 -103.3632260210776,20.562792118608,0 -103.3633425102044,20.56294150152547,0 -103.3612954923593,20.56633998829741,0 -103.3600510038879,20.56840668773286,0 -103.3598051148594,20.56881502357648,0 -103.3594322442825,20.56943423115694,0 -103.3589754219383,20.57019284486812,0 -103.3582589448909,20.57138263124536,0 -103.3580148094822,20.57178803925708,0 -103.3579555964336,20.57188636673811,0 -103.3593309642605,20.57221031553025,0 -103.3599974560085,20.57238456961192,0 -103.3604048530865,20.57241519661078,0 -103.3618851708356,20.57252647593736,0 -103.3620349260096,20.5725363681782,0 -103.362669041519,20.57254828274384,0 -103.3631309889234,20.57253559702503,0 -103.3631997649982,20.57262008279239,0 -103.3638320348538,20.57253254518054,0 -103.3642303979854,20.57247739057823,0 -103.365104842711,20.57234326561959,0 -103.3654184322156,20.57228390015117,0 -103.3664246083559,20.57209898855965,0 -103.3675612613418,20.57197434509252,0 -103.3682030898836,20.57185777870059,0 -103.3689102663186,20.57152039359501,0 -103.3695078520074,20.57130939903201,0 -103.3698198569578,20.57109831650026,0 -103.370763538313,20.57073985082656,0 -103.3711698059111,20.57054707088048,0 -103.3742434834297,20.56897845772683,0 -103.37522029659,20.56852589070295,0 -103.3759525261261,20.56817351952367,0 -103.3761662361202,20.56806951876365,0 -103.3776247140204,20.56736983404559,0 -103.3805439206491,20.56596932713289,0 -103.3811880554901,20.56566749641366,0 -103.3824996307589,20.56508781547007,0 -103.3840988115072,20.56438100132673,0 -103.3845343008661,20.5642357414026,0 -103.3850470042228,20.56407458629415,0 -103.3854460928697,20.56400262276856,0 -103.3858191853275,20.56393313140809,0 -103.3861685969888,20.5638691222015,0 -103.3865754261408,20.56379459316037,0 -103.3866398498668,20.56378613838439,0 -103.3868346625594,20.56376057234733,0 -103.386865904117,20.56375179024895,0 -103.3869871858346,20.56371770071933,0 -103.3873529104773,20.56361490167937,0 -103.3878711584592,20.56346923033102,0 -103.3882278903737,20.56336895720528,0 -103.3885997961599,20.5632644180299,0 -103.388993913671,20.56315363482648,0 -103.3894505119329,20.56305541737228,0 -103.3917123801613,20.56287318251276,0 -103.39226529302,20.5629055889601,0 -103.3923026804883,20.56288066605048,0 -103.3923255543799,20.56283318019958,0 -103.3923515219892,20.56276851353483,0 -103.3923767727656,20.56270185825806,0 -103.3924036548405,20.56262954063913,0 -103.3924331104645,20.56256325141068,0 -103.3924647902697,20.56250035677573,0 -103.392495210958,20.56244147306655,0 -103.3925085571291,20.56241556267028,0 -103.3925315622904,20.56236835081851,0 -103.3925603692071,20.56230923167443,0 -103.3926166634674,20.56217877878856,0 -103.3926437103048,20.56211269117406,0 -103.3926706441845,20.56205180485674,0 -103.3926798444403,20.56203299866998,0 -103.3926979656006,20.56199595552641,0 -103.3927231577151,20.56194312980701,0 -103.3927440036711,20.56189060520461,0 -103.3927694956255,20.561831391115,0 -103.392869011565,20.56163021830291,0 -103.3928942351507,20.56157327090567,0 -103.3929232297763,20.56150315070249,0 -103.3929518142087,20.56143097522843,0 -103.3929816101054,20.56135934304848,0 -103.3930107810549,20.56128794445365,0 -103.3930421489698,20.56121438197377,0 -103.3930733587656,20.56113805196952,0 -103.3931047448496,20.56106384462477,0 -103.393133071051,20.56099369380614,0 -103.3931609556377,20.56092999688061,0 -103.3931757463449,20.56090029763358,0 -103.3931905380062,20.56087059753223,0 -103.3932230992552,20.56081350494987,0 -103.3932591876501,20.56075416864019,0 -103.3932945658952,20.56069386189307,0 -103.3933274745252,20.56063353494638,0 -103.3933615659606,20.56056988650072,0 -103.3933961134952,20.5605049938699,0 -103.3934229356498,20.5604466600986,0 -103.3934434317116,20.5603996669196,0 -103.3934675837388,20.56034581604774,0 -103.3934957030871,20.56029000196556,0 -103.3935321966039,20.56021510659296,0 -103.3935621829358,20.56015658170579,0 -103.3935948858844,20.56009893209905,0 -103.393629849255,20.56002654010043,0 -103.3936623612255,20.55995036748325,0 -103.3936924282343,20.55987943501112,0 -103.3937267973706,20.55980965176339,0 -103.3937621874711,20.55974202251004,0 -103.3938006203375,20.55967957775059,0 -103.3938364661104,20.55961872325376,0 -103.3938704328117,20.5595617293528,0 -103.3939025349492,20.55950749233421,0 -103.3939388131615,20.55944058489775,0 -103.3939552495231,20.55943215736206,0 -103.3939814406055,20.55938415007159,0 -103.3940320312471,20.55929141779836,0 -103.3940927441605,20.55918531507789,0 -103.3942220774376,20.55894670230095,0 -103.3942685488101,20.55885062460552,0 -103.3943080816668,20.55878557926422,0 -103.3943421515478,20.55871821853249,0 -103.394374421278,20.55865543462422,0 -103.3944101823689,20.5585932747501,0 -103.3944479364901,20.55852945945975,0 -103.3944853200429,20.55846117821775,0 -103.3945259143802,20.55838732870517,0 -103.3945677188129,20.55831525012038,0 -103.3946060023732,20.55824398621714,0 -103.3946452783188,20.55817458605771,0 -103.39468258541,20.55810690296273,0 -103.3947218793937,20.55803843067422,0 -103.3947602894427,20.55797212094062,0 -103.394797778228,20.5579098974784,0 -103.3947979235403,20.55790966756564,0 -103.3948363283695,20.55784890065188,0 -103.3948751204155,20.55778549593966,0 -103.394910808386,20.55772579416755,0 -103.3949432346132,20.55766754182674,0 -103.3949740591045,20.55760919423981,0 -103.3950043025277,20.5575502793942,0 -103.3950409282898,20.55748113278852,0 -103.3950833410213,20.55740071820851,0 -103.3951113856105,20.55734194013376,0 -103.3951248313294,20.55731375849456,0 -103.3951645880527,20.55722564267082,0 -103.3952075242523,20.557138624031,0 -103.3952600658932,20.55705463386366,0 -103.3953128715764,20.55696996953923,0 -103.3953615739891,20.55688072334589,0 -103.3954105804215,20.55679028212906,0 -103.3954627747808,20.55669589841963,0 -103.3955198823895,20.55659960447372,0 -103.3955810801498,20.55650224361127,0 -103.3956430776733,20.55640167513452,0 -103.3957042701448,20.55629763934077,0 -103.3957642734589,20.55619431791856,0 -103.3958234344183,20.55609689107998,0 -103.3958793861589,20.55600415269517,0 -103.3959313311422,20.55591908449386,0 -103.3959756032776,20.55584549893273,0 -103.3960204606149,20.55577327294332,0 -103.3960755287196,20.55570139256685,0 -103.396129438952,20.55562337411578,0 -103.3961837982986,20.55554395056903,0 -103.3962407596925,20.555459554698,0 -103.3962949348228,20.55537120889624,0 -103.3963488282847,20.55527887673942,0 -103.3964030675798,20.55518823336444,0 -103.3964564885837,20.55510072423102,0 -103.3965056128043,20.55501578325269,0 -103.3965555638743,20.55493716973661,0 -103.3966012578986,20.55486807139896,0 -103.3966586604822,20.55476653130792,0 -103.396713123576,20.55467655292294,0 -103.3967731615908,20.55458383935099,0 -103.3968327040397,20.55449421869045,0 -103.3968999777904,20.55439428567723,0 -103.3969719032031,20.55429875426156,0 -103.3970490867047,20.55420869695996,0 -103.3971065243903,20.55412203596507,0 -103.3971516073742,20.55402678633489,0 -103.3972049730879,20.55392242454822,0 -103.3972623318729,20.55383236436449,0 -103.3973116967367,20.55374817510082,0 -103.3973600308905,20.55366974413425,0 -103.3974336290957,20.55357183593139,0 -103.3974953845545,20.55346526796022,0 -103.3975553829928,20.55335795112571,0 -103.3975810335282,20.55331189655686,0 -103.3975943608054,20.55328634682003,0 -103.3975968857249,20.55328150565485,0 -103.3976675237591,20.55314607665089,0 -103.3977299923874,20.55304898855594,0 -103.3977818796227,20.55297137261262,0 -103.3978256533258,20.55290733562837,0 -103.3978703199208,20.55283878837725,0 -103.3979224490621,20.55275975818219,0 -103.3979802011487,20.5526763228647,0 -103.3980279177757,20.55260627799189,0 -103.398072270809,20.55253559137,0 -103.3981183066848,20.55246125452659,0 -103.3981624181086,20.55239533981121,0 -103.3982088164825,20.55231427907397,0 -103.3982340507807,20.55226754122653,0 -103.3983058579539,20.55210164024566,0 -103.3984123751414,20.55193627426294,0 -103.3986918677639,20.55150919945011,0 -103.3987463601198,20.5514259324141,0 -103.3988033815507,20.55133741592714,0 -103.3988138983534,20.55131803249419,0 -103.3988153730663,20.55131880041623,0 -103.3990435509397,20.5514377125774,0 -103.3996935908065,20.55164245446767,0 -103.4003064953383,20.55172941627072,0 -103.4008125023153,20.55195089091205,0 -103.4011661062153,20.55207158966743,0 -103.4018743490428,20.55221362666727,0 -103.4024291548149,20.55235424588058,0 -103.4033384134834,20.55253426455747,0 -103.4056027110709,20.55285356112336,0 -103.4057581105579,20.55286682700336,0 -103.4059942541841,20.55288698485633,0 -103.4062292277812,20.5529146330035,0 -103.4065452381302,20.55297517096822,0 -103.4067410541969,20.55301449078375,0 -103.4069104580185,20.55304761535376,0 -103.4071720174247,20.55307671090865,0 -103.4073070832352,20.55307068267651,0 -103.4075611411016,20.55313390484414,0 -103.4076672670955,20.55317103690293,0 -103.4078344952632,20.55319812970426,0 -103.4086666891587,20.55332475472399,0 -103.4089942399366,20.55332169658541,0 -103.4090789027866,20.55333216258475,0 -103.4092536675678,20.5533756982577,0 -103.4094105915737,20.55340801204432,0 -103.4096316530626,20.55344754692548,0 -103.4109581118717,20.55363748183763,0 -103.4112666281422,20.55366580780432,0 -103.4114035863083,20.55368199715854,0 -103.4115838055381,20.55389794843741,0 -103.4117306422016,20.55398276064147,0 -103.4117567171777,20.55388244528394,0 -103.4119445762782,20.55320966713064,0 -103.4120814037699,20.55274458488979,0 -103.4124757130355,20.55281885977391,0 -103.4132409764446,20.55297164735063,0 -103.413424356905,20.55300923333508,0 -103.4143576857938,20.55319635413397,0 -103.4149970965804,20.55332773622415,0 -103.4152011031742,20.5533742634696,0 -103.4152128772129,20.55337712819865,0 -103.4152669858913,20.55339940658815,0 -103.4156961832693,20.55348937662149,0 -103.416371443901,20.55371066234292,0 -103.4178607313137,20.55435526245309,0 -103.4182474394277,20.55450578643248,0 -103.4184571083597,20.55458400242014,0 -103.4184982164356,20.55446882383261,0 -103.4263656478246,20.55659305422627,0 -103.4266286280168,20.55650607463258,0 -103.4265720201875,20.55673280064053,0 -103.4266796506689,20.55682467464415,0 -103.4268297906086,20.55688852968824,0 -103.4270824015428,20.55695899640325,0 -103.4284245070501,20.55724954974348,0 -103.4303381321975,20.5576872988214,0 -103.4302386008992,20.55798374028124,0 -103.4302004036745,20.55809750486526,0 -103.4320562240838,20.55875489730911,0 -103.4329518993619,20.55602508197188,0 -103.4331620808948,20.5553844809838,0 -103.4332414718467,20.55514250638067,0 -103.4335004481052,20.55430386626151,0 -103.4335099926707,20.55427295665863,0 -103.4337199083951,20.55359317999536,0 -103.4337336989018,20.55354852261725,0 -103.4343670911333,20.55149734302954,0 -103.4343873306841,20.55106397462038,0 -103.4345047651752,20.55074165512348,0 -103.4344512807915,20.55072735226393,0 -103.4333135146852,20.55042308420895,0 -103.432659857973,20.55015733337596,0 -103.4326353594604,20.5501330463329,0 -103.4326017147496,20.55011265584137,0 -103.4321653568821,20.54987042670824,0 -103.4318150161457,20.54969258764663,0 -103.4311885697252,20.54937993261218,0 -103.4310920213856,20.54935054663624,0 -103.43102412564,20.54935054335444,0 -103.4309483501405,20.54935298996929,0 -103.430966645141,20.5492745646427,0 -103.4310854565089,20.54890591716617,0 -103.4311070922685,20.54883496844783,0 -103.4312438196308,20.54838659568459,0 -103.4315101250285,20.54754658975839,0 -103.4315717998559,20.54735489143372,0 -103.4317535875926,20.54678984741809,0 -103.4319435351093,20.5462396838769,0 -103.4319505060807,20.54621922630643,0 -103.432095064605,20.54579501588009,0 -103.4320982698352,20.54572438439646,0 -103.4320904657251,20.54568896365443,0 -103.4322247737901,20.54532786809568,0 -103.4322685277448,20.54496942202371,0 -103.4323738783893,20.54493939182989,0 -103.4323978770806,20.54488893154838,0 -103.4324264839886,20.54482878111941,0 -103.4324336187473,20.54470730631759,0 -103.4324323569424,20.54452836988533,0 -103.4324397083888,20.54443370684342,0 -103.4324652170904,20.54425394295511,0 -103.4325468929356,20.54404614922413,0 -103.4326157801352,20.54384057038713,0 -103.4326370078625,20.54378033058644,0 -103.4327278511503,20.5437226427047,0 -103.4328348242802,20.54351978857794,0 -103.4331985896113,20.54367318317755,0 -103.4336678855709,20.54384710671317,0 -103.4339428720152,20.54391671865906,0 -103.4340604388713,20.54394657916758,0 -103.4352604563262,20.54467810187603,0 -103.4356784845157,20.54380356895318,0 -103.4343733949504,20.54294646488551,0 -103.4342125512151,20.54304356793073,0 -103.4340619213203,20.54297339818915,0 -103.433801464724,20.5428432655925,0 -103.4336620772207,20.54276074705931,0 -103.4333704350001,20.5425759742727,0 -103.4327795873966,20.54222322464129,0 -103.4323377104381,20.54198993093226,0 -103.4322333825974,20.54194486633801,0 -103.4321880005349,20.54189481365054,0 -103.4320740124456,20.54162515497971,0 -103.4320322131462,20.54151324575084,0 -103.4320482576525,20.54134300887655,0 -103.4320669459266,20.54125048182222,0 -103.4321923133167,20.54107308568662,0 -103.4323523890153,20.54110305804575,0 -103.4324297505529,20.5411030567961,0 -103.4325657344289,20.54107058516451,0 -103.4326057624074,20.5410413902865,0 -103.4326065334344,20.54104082811294,0 -103.4326376249591,20.54101815141965,0 -103.4326962442171,20.54088331986076,0 -103.4328029020838,20.54068605902072,0 -103.4329199594578,20.54051644811646,0 -103.4329889946328,20.5404392616888,0 -103.4331286860525,20.54039862873947,0 -103.4333206017446,20.54019410563991,0 -103.43354676244,20.53997997922149,0 -103.4343347482937,20.5394926755911,0 -103.4344479335783,20.53939483728873,0 -103.434634681562,20.53923341108371,0 -103.4349162833597,20.53903529856305,0 -103.4352432152692,20.53880529432586,0 -103.4356859731121,20.53864668649185,0 -103.4359757261008,20.53861982206408,0 -103.4360411413317,20.53861375727083,0 -103.4364526509059,20.53869877210394,0 -103.4367488148776,20.53880984645164,0 -103.4368824213853,20.53887428648086,0 -103.4371104516506,20.5390841151745,0 -103.4374819543175,20.53933137139924,0 -103.4377280039655,20.53941584287435,0 -103.438265613747,20.5396004083387,0 -103.4386392289215,20.53963990879151,0 -103.4386969480423,20.53962236157119,0 -103.4389264490513,20.53968766391019,0 -103.4392510181761,20.53983512436341,0 -103.4395952248436,20.53993759309465,0 -103.4399599851191,20.53990474231603,0 -103.4404004520979,20.5399719415262,0 -103.4408592739698,20.54012060709303,0 -103.4416359179627,20.54013662552197,0 -103.4420887495097,20.54020002377002,0 -103.4423254349185,20.54023315983254,0 -103.4429781502868,20.5401757896363,0 -103.4434095791451,20.54018869850176,0 -103.4436112295795,20.54016340863194,0 -103.4438505974978,20.54020169239675,0 -103.4442231198402,20.54034957439189,0 -103.4444425785787,20.54045994748102,0 -103.4446725405916,20.54048007851387,0 -103.4451036054222,20.54052911437192,0 -103.4457655459742,20.54050795087908,0 -103.4459824190391,20.54050478888964,0 -103.4452965221376,20.54252331346671,0 -103.4451965244861,20.54276079239343,0 -103.4450314296004,20.54315286368354,0 -103.4448139977863,20.54365588101317,0 -103.4445516792005,20.54421757575725,0 -103.4445290326734,20.54426606809885,0 -103.444253586218,20.54487241217276,0 -103.4442453057459,20.54493031997998,0 -103.44552689605,20.54526797333881,0 -103.4463001627275,20.54547706240982,0 -103.446792812067,20.54563446764478,0 -103.4469063000163,20.54566988844833,0 -103.4472648225145,20.54578362769504,0 -103.4489268441229,20.54620157381254,0 -103.4490187051862,20.54612977215624,0 -103.4489229093449,20.54581580510979,0 -103.4488322369558,20.54549710417925,0 -103.4488398347081,20.54527257307705,0 -103.4488352214235,20.5449497869404,0 -103.4489046626777,20.54460622689499,0 -103.4490185638562,20.54418634856733,0 -103.4492091414334,20.54326228100082,0 -103.4492254126867,20.54320359699502,0 -103.4492375407412,20.54315985634503,0 -103.44949660392,20.54222551550279,0 -103.4497283279259,20.54138976542263,0 -103.4498044412997,20.54131091244975,0 -103.4498610604757,20.5414118573663,0 -103.4501382440533,20.54150467259025,0 -103.450320716782,20.54147920344048,0 -103.4504841925997,20.541435497003,0 -103.4505998121015,20.54138232894985,0 -103.4506282364476,20.54134819747572,0 -103.4508971625217,20.54146221096801,0 -103.4518960414582,20.54211129905615,0 -103.4518377981189,20.54233563114007,0 -103.4527191799005,20.5425639682294,0 -103.4547171758692,20.54388621609819,0 -103.4547703636128,20.54427337420092,0 -103.4548342375406,20.54445762736465,0 -103.4552187394938,20.54556677143094,0 -103.4552560877865,20.54567275635349,0 -103.4558658415026,20.54740301831492,0 -103.4560874095283,20.54830362173767,0 -103.4561428180155,20.54845003304267,0 -103.4562074627912,20.54848115897974,0 -103.4562540542726,20.54850097387127,0 -103.4564285549992,20.54855241592614,0 -103.4572868869142,20.54865025971421,0 -103.4574396624238,20.54870177292062,0 -103.4575845713232,20.54884068237297,0 -103.457645839569,20.54900792552824,0 -103.4577527091576,20.54929964622154,0 -103.4577765924341,20.54940544671116,0 -103.4577848523386,20.54951066093241,0 -103.4577795217149,20.54960730323193,0 -103.4577289853716,20.54998631677254,0 -103.4576618542664,20.55021310307966,0 -103.4576349140147,20.55052500522115,0 -103.4566882273678,20.55191729544533,0 -103.4564789037083,20.552221384299,0 -103.4560902951299,20.55276433315696,0 -103.455699120084,20.55330087943119,0 -103.4556651677342,20.55334744951428,0 -103.4553125091787,20.5538311616786,0 -103.455123095399,20.55406738028367,0 -103.4550226193385,20.55419268388525,0 -103.454393674954,20.55497703637558,0 -103.4542926245306,20.55508112792405,0 -103.4540682525864,20.55532410475392,0 -103.4535418591323,20.55588550574026,0 -103.4534904824242,20.55593585572351,0 -103.4534246358303,20.55600778878727,0 -103.4533762550676,20.55606064247,0 -103.4533587212184,20.55607971215156,0 -103.4531439312147,20.55631331315991,0 -103.452875624989,20.55659883890806,0 -103.4525429998122,20.55695280996799,0 -103.4522818471971,20.55726454095789,0 -103.4522323876154,20.55732357897379,0 -103.4519128917118,20.55766061321452,0 -103.451595284699,20.55799385870826,0 -103.4513060590503,20.55829732418125,0 -103.4510155344117,20.55864046937166,0 -103.4508293677064,20.55886035342948,0 -103.4503209024511,20.55946090788437,0 -103.4502422185724,20.55954215485047,0 -103.4497008868336,20.56010112499406,0 -103.4493430813257,20.5604705847009,0 -103.448845891857,20.56098396416718,0 -103.4486303670691,20.5612065067149,0 -103.4473653724431,20.56251266405972,0 -103.4470371991972,20.56285151171716,0 -103.4430784003998,20.56693889237468,0 -103.4421028783495,20.56789105594148,0 -103.4405353966463,20.56942098486391,0 -103.4404956564256,20.56946484888982,0 -103.4397689727662,20.5702669158324,0 -103.4397488107738,20.57028734419547,0 -103.4394568999144,20.57058309589104,0 -103.438233709431,20.57183501516174,0 -103.4349142889517,20.57505905674386,0 -103.434475377405,20.57548770153088,0 -103.4342399099942,20.575717540052,0 -103.4340204654364,20.57593173710478,0 -103.434004441922,20.57594737730568,0 -103.4339365722788,20.57600222819308,0 -103.4339139481054,20.5760205115083,0 -103.4336474835507,20.57623930153247,0 -103.4334409432886,20.5764089274541,0 -103.4333912948577,20.57644970167066,0 -103.4329665896935,20.5767987136652,0 -103.4326953503743,20.57701607579423,0 -103.4325144792155,20.57716393266875,0 -103.4324104108261,20.57724841201285,0 -103.4323566231408,20.57728858019078,0 -103.4321629225685,20.57745369099089,0 -103.4319827565567,20.57760312997958,0 -103.431892145179,20.57767828726578,0 -103.4315783017689,20.57793860336506,0 -103.4314886574752,20.57801295795307,0 -103.4313880198686,20.57809643066191,0 -103.4307702722038,20.57860881143384,0 -103.4305951952491,20.57875402572113,0 -103.4304201180025,20.57889923980777,0 -103.4302976754423,20.57900079607239,0 -103.4302250602558,20.57906102418033,0 -103.4301524459546,20.57912125319265,0 -103.4309833314465,20.58795692529231,0 -103.430998957287,20.58812531533528,0 -103.4300159697408,20.58781075510382,0 -103.4294776462616,20.58763848666988,0 -103.4293510708338,20.58759799292819,0 -103.4290986792211,20.58750902828654,0 -103.4287263159723,20.58737777537623,0 -103.4286811120788,20.58736074853799,0 -103.4286586262353,20.58735227955451,0 -103.4276459160534,20.58699694184739,0 -103.4270572134611,20.58678943021779,0 -103.4262472590802,20.58652023146236,0 -103.4256084444426,20.58627851816651,0 -103.4254940610391,20.58623523743672,0 -103.4240485949408,20.58570523441179,0 -103.4239576353243,20.58567188157921,0 -103.4238655231601,20.58563810629969,0 -103.4236207606881,20.58504596383773,0 -103.4234603656591,20.58475255786162,0 -103.4230823442069,20.58504968050282,0 -103.4227198927373,20.58533456286169,0 -103.4220970371155,20.58582411612954,0 -103.4218707235972,20.58600199435212,0 -103.4218549340424,20.58601406632373,0 -103.4216420677881,20.58617680481724,0 -103.421503348322,20.58628287319472,0 -103.4204025016791,20.58708667949099,0 -103.4203638242187,20.58711492091426,0 -103.4203269764442,20.58714182579182,0 -103.4194424478002,20.58778767084992,0 -103.4189186080306,20.58817015160311,0 -103.4186724343756,20.58834989427771,0 -103.4184262592114,20.58852963565609,0 -103.4182349801723,20.58866929575959,0 -103.4200448561946,20.5896226022597,0 -103.4200586705507,20.5898874490788,0 -103.4200693509657,20.59009221179304,0 -103.420092743517,20.59054068465458,0 -103.4200995288304,20.59101227962603,0 -103.4201212881323,20.59175702918325,0 -103.4201295552839,20.59203997803931,0 -103.4201444176882,20.59242100486934,0 -103.4201462064179,20.59246686248162,0 -103.4201603744916,20.5928300815547,0 -103.4201706531955,20.59309358252844,0 -103.4201720867956,20.59331424728592,0 -103.4201203230866,20.59330626850324,0 -103.420155836405,20.59408619253276,0 -103.4201714976252,20.59436937869128,0 -103.4201959304821,20.5949548805966,0 -103.4202018470957,20.59509666892034,0 -103.4202783215142,20.59693649564648,0 -103.4203546789612,20.59877344925702,0 -103.4203573459313,20.59883761123994,0 -103.4203649380286,20.5989369972771,0 -103.420401461281,20.59934485061735,0 -103.420362403071,20.5996528187401,0 -103.420199124224,20.60027320260975,0 -103.4201297312306,20.60053686341954,0 -103.4198547292186,20.60186403671481,0 -103.4198353230819,20.60195769447068,0 -103.4197503138542,20.60236795547547,0 -103.4195687907249,20.60324400098937,0 -103.4195527866898,20.60332124164607,0 -103.4195209982099,20.60347665451435,0 -103.4191577054086,20.60525274651852,0 -103.4191671131746,20.60538131185276,0 -103.4196940491187,20.60668308624354,0 -103.4196943552715,20.60668437811892,0 -103.4198254752712,20.60723912101476,0 -103.4199630669566,20.60768998400071,0 -103.4201420364827,20.60829927904992,0 -103.420278616489,20.60861838682838,0 -103.4203133603262,20.60869762429192,0 -103.4204178621758,20.6089090336611,0 -103.4204891616642,20.60901491238548,0 -103.4205335696775,20.6090317428667,0 -103.420905160129,20.60943962131511,0 -103.4210407818515,20.60958913465261,0 -103.4212184621316,20.60977953090284,0 -103.4214386869304,20.61034333344756,0 -103.4215944077053,20.6104952567497,0 -103.4215942532416,20.61080910039546,0 -103.4216082428503,20.61118535799738,0 -103.4216209942006,20.61152833136455,0 -103.4216158696641,20.61192309740423,0 -103.4220401961223,20.61203969450923,0 -103.4228350664598,20.61231705546581,0 -103.4232731540256,20.6125356185452,0 -103.424303169706,20.61314176213245,0 -103.4247165499207,20.61338502616727,0 -103.4248053075173,20.61362066026295,0 -103.4249751649096,20.61388990089527,0 -103.4251934812311,20.61438425353589,0 -103.4253921301411,20.61481628368981,0 -103.4255912223095,20.61520529581942,0 -103.4257963750445,20.61549875809347,0 -103.4258710534753,20.61564284476483,0 -103.4259144851475,20.61586313136846,0 -103.4259400147459,20.61614905830934,0 -103.4258498239744,20.61628560144717,0 -103.4251238171396,20.61738472300097,0 -103.4240312446272,20.61905363281768,0 -103.4234108478237,20.62000127093853,0 -103.4221808094907,20.61926134363077,0 -103.4214794417927,20.61883943064629,0 -103.4209744129284,20.61851491326812,0 -103.4203599874003,20.61811256573972,0 -103.4196178058523,20.61762655426739,0 -103.4185579557984,20.61693603320419,0 -103.4172658536771,20.61608668844427,0 -103.4169768912671,20.61615189605521,0 -103.4169093415359,20.61617407216916,0 -103.4146213973726,20.61692517198911,0 -103.4140717864871,20.61712353850381,0 -103.4135221733716,20.61732190319837,0 -103.4130388768019,20.61748817682835,0 -103.4126580234086,20.6176192041709,0 -103.4125596351704,20.61765305273682,0 -103.4120222417263,20.61784389416525,0 -103.4119329914605,20.61814858061218,0 -103.4116753508437,20.61872605141504,0 -103.411365767914,20.61920328713686,0 -103.4110841583311,20.61953737753635,0 -103.4105822140937,20.62004401669033,0 -103.4095896261321,20.6201068757335,0 -103.4086954535015,20.62007575764621,0 -103.4086427130063,20.62007392227394,0 -103.4084594838258,20.62086225665344,0 -103.4083465378325,20.62083213482371,0 -103.407543748336,20.62030613436541,0 -103.4073786700907,20.62022894252218,0 -103.4065498478924,20.61984137496024,0 -103.4049806338862,20.61925497852452,0 -103.4048531286533,20.61917463622505,0 -103.403149635785,20.6193602343556,0 -103.4024315098785,20.61943847049991,0 -103.4018533844465,20.61950145132762,0 -103.4017744722352,20.6195608232033,0 -103.4013149635616,20.61990654415331,0 -103.4008190886626,20.62027962346739,0 -103.4003544513552,20.62063614503586,0 -103.4004028879482,20.62068431323377,0 -103.4004912231313,20.62092866840512,0 -103.4004409429954,20.621142112463,0 -103.4004050706615,20.62129439658149,0 -103.400731371724,20.62127720629753,0 -103.4008093194357,20.62127310042402,0 -103.4012012330136,20.62122263962159,0 -103.401800075389,20.62111156687997,0 -103.4023989170894,20.62100049107321,0 -103.4029892729643,20.62089098782659,0 -103.4034063181432,20.62084075420252,0 -103.4034886849018,20.62086179900364,0 -103.4037233449564,20.62094704478144,0 -103.4040886634875,20.6210102643613,0 -103.4041118129003,20.62101466519755,0 -103.404142102546,20.62101993775945,0 -103.4040971615826,20.62122185073223,0 -103.4040100426091,20.62161325509906,0 -103.4037208004257,20.62257306077359,0 -103.403691623987,20.62268490368113,0 -103.4035687338833,20.62315597768928,0 -103.4034644492761,20.62355573145442,0 -103.4034458439197,20.62362705064897,0 -103.4034204760452,20.62372429008114,0 -103.4033464550947,20.62400803209023,0 -103.4033141756246,20.62413176486371,0 -103.4032287289835,20.62445930344403,0 -103.4031802224119,20.62464523730252,0 -103.4031731869623,20.62467220467859,0 -103.4031155088311,20.6248932974861,0 -103.40310981767,20.62491511199259,0 -103.4030464481497,20.62515801926356,0 -103.4029893562967,20.62537686179298,0 -103.4029191067152,20.62564614066432,0 -103.402873451923,20.62582113875168,0 -103.4028037875896,20.62608817091183,0 -103.4027295945124,20.62629104762763,0 -103.4026501261878,20.6266429344778,0 -103.4025483373806,20.62709365594121,0 -103.4025275847339,20.6271855503074,0 -103.4024544151784,20.62750954142511,0 -103.4023701394644,20.6278827068624,0 -103.4022296982072,20.62805347642256,0 -103.4020993217281,20.6284676088013,0 -103.4018216252727,20.62971105659027,0 -103.4017101937825,20.63014070336954,0 -103.4016032718195,20.63055296095956,0 -103.4015065855841,20.63092574880963,0 -103.4014948554621,20.63097097692644,0 -103.4014442654982,20.63116603064094,0 -103.4013909897317,20.63137144510455,0 -103.4013238499431,20.63163030727184,0 -103.401247799153,20.63192352842346,0 -103.4011064541201,20.63246849400563,0 -103.4008759302947,20.63335728379728,0 -103.4008741942874,20.63352340316628,0 -103.4003579507416,20.63385790125641,0 -103.4002690446005,20.63391938886359,0 -103.3996446638898,20.63435120910025,0 -103.3978302097076,20.63555518580311,0 -103.3968493578118,20.63638227998536,0 -103.3967543883061,20.63647523300155,0 -103.3966570787726,20.63660961109448,0 -103.3962533596422,20.63611620488177,0 -103.3957793861855,20.63594473426682,0 -103.396024562716,20.63497466289516,0 -103.3965157661887,20.6350952127193,0 -103.39687674352,20.63376018340212,0 -103.3970197618491,20.63378400421323,0 -103.3980013230692,20.63044556977956,0 -103.3985466633789,20.62840883832492,0 -103.3989499263664,20.62612056887478,0 -103.3899085588568,20.62098263729324,0 -103.391465901442,20.61908582088844,0 -103.3936414298753,20.61644618470827,0 -103.3936734264984,20.61640539663382,0 -103.396315692668,20.61303703820754,0 -103.3955015505297,20.61253446400701,0 -103.3948819276997,20.61199801477648,0 -103.3945362167957,20.61145909932401,0 -103.3941419956367,20.61225380503296,0 -103.3926471369169,20.61202771426508,0 -103.3925992184878,20.61205281402976,0 -103.392522585773,20.61209224551831,0 -103.3922738583254,20.61222835003331,0 -103.3921863997811,20.61227721081472,0 -103.3920609410928,20.61232112907966,0 -103.3919025038089,20.61237164186679,0 -103.3917682113279,20.61239197289189,0 -103.3914648842352,20.61246418094739,0 -103.3914590553391,20.61246557202937,0 -103.3912902679549,20.61250303404153,0 -103.3912290229281,20.61251427956799,0 -103.3912320081452,20.612532428247,0 -103.3911611446172,20.61255143419223,0 -103.3910946268081,20.61256867388727,0 -103.3910692697878,20.61257310804312,0 -103.3909784270501,20.61258786288256,0 -103.3909418686912,20.61259546279838,0 -103.3907922366443,20.61265347289129,0 -103.3907338043014,20.61267644260888,0 -103.3907030996076,20.61268851431397,0 -103.3906344034133,20.61273866013034,0 -103.3904610800336,20.6128343080679,0 -103.3904501295873,20.61284007777335,0 -103.3903894629388,20.61287205085039,0 -103.3902491711312,20.61294600098898,0 -103.3901531749411,20.61293892795849,0 -103.3901375943346,20.61293974937056,0 -103.3900704045961,20.61294329683274,0 -103.390005098714,20.61294835236568,0 -103.3897509261554,20.6129750715748,0 -103.3896954376162,20.61297901703523,0 -103.3894517988588,20.61296749640878,0 -103.3894357675953,20.61296646173773,0 -103.3893767384408,20.61260349258749,0 -103.3892876411262,20.61195226076126,0 -103.3878839256912,20.61091660692413,0 -103.38908208239,20.60712960633992,0 -103.389082091321,20.60712957840756,0 -103.3881330977154,20.60700359605181,0 -103.3893409134452,20.6049124325492,0 -103.3873886485576,20.60362859459533,0 -103.3872325014135,20.6039840990887,0 -103.3870620532887,20.60437891954379,0 -103.3869133470425,20.60471970634864,0 -103.3867195473013,20.6051544255317,0 -103.3864459564403,20.60578920193895,0 -103.3863573753678,20.60598769594323,0 -103.3863279293381,20.60606438520198,0 -103.3862050463167,20.60634420223703,0 -103.3860305658766,20.60672690602592,0 -103.3858665789879,20.60711704264447,0 -103.385693787875,20.60751862334107,0 -103.3855038806033,20.60796564424741,0 -103.3853947811816,20.60821451456868,0 -103.3852601284771,20.60852742731714,0 -103.3851316292778,20.60881355031699,0 -103.3850642812077,20.60897611740527,0 -103.3849967542883,20.60912013735643,0 -103.3849648810338,20.6092030546883,0 -103.3849249461272,20.60930166887911,0 -103.3848148686248,20.60956121598066,0 -103.3847375840587,20.60974615594373,0 -103.3845959685641,20.61008401622235,0 -103.3844804487916,20.61035913080094,0 -103.3843371520191,20.61069890820527,0 -103.3842112534709,20.61100462980392,0 -103.3841168634372,20.61117745836533,0 -103.3840808414523,20.61122490881591,0 -103.3840440243366,20.61127278363401,0 -103.3808462876238,20.60988943062996,0 -103.3796372567465,20.60977636204646,0 -103.3790976785389,20.60971025984616,0 -103.3775675000812,20.60911547214879,0 -103.3771399046449,20.61000105861199,0 -103.3762232542417,20.60961241759574,0 -103.3752507795343,20.61286872855935,0 -103.3702951446858,20.61164873160909,0 -103.3703606420096,20.6112459225114,0 -103.3687694830627,20.61067147996596,0 -103.3686190927843,20.61124349333595,0 -103.3683815353099,20.61114586557762,0 -103.368024716524,20.61096462484326,0 -103.3677976852716,20.61173552920255,0 -103.3675867094171,20.61223643906763,0 -103.3672089675328,20.61527552391696,0 -103.3650890163395,20.61486586046065,0 -103.3636266936794,20.61487799289355,0 -103.3618079783888,20.61467894070401,0 -103.3592742704271,20.61426528413241,0 -103.3569041422213,20.61403497040011,0 -103.3549199377106,20.61383427128863,0 -103.3539287085789,20.61380700765521,0 -103.3535115350841,20.61393070267027,0 -103.3531684097115,20.61389338768123,0 -103.3524134204193,20.61348616170173,0 -103.3520099544112,20.61317590837601,0 -103.3516420057733,20.61292557069001,0 -103.3513443557472,20.61286315447982,0 -103.3510084413142,20.61299612797379,0 -103.3508366753986,20.61324329811271,0 -103.3506871572974,20.61342464032408,0 -103.3505391425264,20.61302082651292,0 -103.3502824877222,20.61278480006002,0 -103.3500102734402,20.61261834945527,0 -103.3491893311073,20.61217473150059,0 -103.3483799133557,20.61169287226038,0 -103.3476256230558,20.61124988711294,0 -103.3473052810475,20.61108297234826,0 -103.3471462147479,20.61098029635826,0 -103.3470441447044,20.61092010834508,0 -103.3469278498493,20.61071679664432,0 -103.346882955081,20.61041655225391,0 -103.3469402573122,20.61025324872744,0 -103.3469801013886,20.60999216441973,0 -103.3469301486902,20.60981737458416,0 -103.3467853650261,20.60950920379127,0 -103.3466374808108,20.60914522410018,0 -103.3465622155628,20.60891441283029,0 -103.3464450459926,20.60837726388699,0 -103.3457601652374,20.60847063570514,0 -103.3452732948473,20.60855312943011,0 -103.345126863384,20.60860872970292,0 -103.3441710529512,20.60883127538716,0 -103.3425776244733,20.60905567866704,0 -103.342111529005,20.60901840072683,0 -103.3407873135252,20.60934870721264,0 -103.3406226398886,20.60948647406772,0 -103.3403299774155,20.60934844975686,0 -103.3401800021008,20.60991728915187,0 -103.3400103913655,20.61071400149753,0 -103.3399525032965,20.61172887586115,0 -103.3398671031333,20.6131187521734,0 -103.3397964540538,20.61489845055689,0 -103.3393086369133,20.61464307868614,0 -103.3390373605343,20.61461720366361,0 -103.3382579499229,20.61421080950229,0 -103.335858067909,20.6129937714175,0 -103.3349552811373,20.61401945952612,0 -103.3339471445748,20.61516654922613,0 -103.3331328890628,20.61601632790294,0 -103.3325123055183,20.6165887438318,0 -103.3318521776805,20.61690149149726,0 -103.3316007161691,20.61704303752714,0 -103.3314163969225,20.61717485247668,0 -103.331317079265,20.61727152179457,0 -103.3312540734432,20.61735444824274,0 -103.3309313372131,20.61781006487525,0 -103.3303926422411,20.61864254615329,0 -103.3300301463512,20.61885843607315,0 -103.3298954381576,20.61955520625767,0 -103.3296309435549,20.62058494668355,0 -103.3305600217315,20.62077826855182,0 -103.331527048404,20.6214657373142,0 -103.3323501845307,20.62211207524957,0 -103.3327980709099,20.62222714490274,0 -103.3326129285092,20.62291225761635,0 -103.3325023208916,20.62326978696267,0 -103.3322692167982,20.62334772743751,0 -103.3318001426329,20.62362242704247,0 -103.3315212839986,20.6239388521476,0 -103.3312164541049,20.62469381253257,0 -103.3310607785637,20.62537043635093,0 -103.3301361804762,20.62661802840599,0 -103.3291063620401,20.62799887850995,0 -103.3273373170233,20.62683028355029,0 -103.3267684085339,20.62654554461427,0 -103.3258164526571,20.62641665064952,0 -103.3246895028195,20.62631143002196,0 -103.3240077651249,20.62713706765622,0 -103.322459587942,20.62921624607323,0 -103.3210889351895,20.63055917446571,0 -103.3206997437573,20.63127340244794,0 -103.3200693927264,20.63278357412553,0 -103.3198198396361,20.63281601379288,0 -103.3198015738762,20.63841138523311,0 -103.3187353692939,20.63841157357697,0 -103.3187131646096,20.64137084152814,0 -103.3191020393483,20.64172025992663,0 -103.3179063307699,20.64253459668093,0 -103.3206407723633,20.6462912556677,0 -103.3186739944573,20.6459529943428,0 -103.316836719142,20.64539650658271,0 -103.3163769774137,20.64672828441147,0 
					</coordinates>
				</LinearRing>
			</outerBoundaryIs>
		</Polygon>
	</Placemark>
</Document>
</kml>
