<?xml version="1.0" encoding="UTF-8"?>
<kml xmlns="http://www.opengis.net/kml/2.2" xmlns:gx="http://www.google.com/kml/ext/2.2" xmlns:kml="http://www.opengis.net/kml/2.2" xmlns:atom="http://www.w3.org/2005/Atom">
<Document>
	<name>Elemento_116.kml</name>
	<Style id="highlight00">
		<LineStyle>
			<color>7f7f00ff</color>
		</LineStyle>
		<PolyStyle>
			<color>7f7f55ff</color>
		</PolyStyle>
	</Style>
	<StyleMap id="styleMapID00">
		<Pair>
			<key>normal</key>
			<styleUrl>#normal00</styleUrl>
		</Pair>
		<Pair>
			<key>highlight</key>
			<styleUrl>#highlight00</styleUrl>
		</Pair>
	</StyleMap>
	<Style id="normal00">
		<LineStyle>
			<color>7f7f00ff</color>
		</LineStyle>
		<PolyStyle>
			<color>7f7f55ff</color>
		</PolyStyle>
	</Style>
	<Placemark>
		<name>Elemento_116</name>
		<styleUrl>#styleMapID00</styleUrl>
		<ExtendedData>
			<SchemaData schemaUrl="#schemaID">
				<SimpleData name="MUNICIPIO">VILLA HIDALGO</SimpleData>
				<SimpleData name="REGION">ALTOS NORTE</SimpleData>
				<SimpleData name="CLAVE">116</SimpleData>
				<SimpleData name="AREA_KMS2">445.119803728</SimpleData>
				<SimpleData name="GID">115</SimpleData>
			</SchemaData>
		</ExtendedData>
		<Polygon>
			<outerBoundaryIs>
				<LinearRing>
					<coordinates>
						-102.6294858400387,21.76442371341017,0 -102.6286234300495,21.76374796276102,0 -102.6263333864084,21.76190936205592,0 -102.6258580594508,21.761452033461,0 -102.6247526703526,21.76089115470774,0 -102.6238439510621,21.76043005781971,0 -102.6216521646741,21.75859189918985,0 -102.6202203055789,21.75739869745765,0 -102.6193623084272,21.75675410672478,0 -102.6185995399415,21.75611003466899,0 -102.6181232842239,21.75565177960043,0 -102.6172597583668,21.75527858405528,0 -102.6166816251711,21.75527092351222,0 -102.6157148225099,21.75525665119038,0 -102.6149383198539,21.75542495346391,0 -102.6142666375912,21.75514536687772,0 -102.6134937571827,21.75504407901486,0 -102.6129207688709,21.7546742352008,0 -102.6118709951738,21.75393597478902,0 -102.6107150319324,21.75355846178254,0 -102.6086130392493,21.7521735847137,0 -102.6063121642398,21.75105721824803,0 -102.6058691759239,21.751051107535,0 -102.6054425603954,21.75104522095306,0 -102.6048624949455,21.75103570817569,0 -102.6043636757904,21.75202245897613,0 -102.6037641999593,21.75309673802882,0 -102.6012083101044,21.7557688718068,0 -102.6007228142595,21.75583712040002,0 -102.600046040085,21.75593225492307,0 -102.5980974547875,21.75536630937985,0 -102.5967743214519,21.7549820028308,0 -102.5964153465367,21.7533514652171,0 -102.5965290647536,21.75227002636286,0 -102.5966037400034,21.75143011364386,0 -102.5966493441566,21.75091718026594,0 -102.5966615834735,21.75019978347007,0 -102.5966709174429,21.74965275844727,0 -102.5962787336265,21.74404963429053,0 -102.5919221865848,21.74398644196974,0 -102.5857497892082,21.74389684348193,0 -102.5831404260394,21.74385840321851,0 -102.5820276204198,21.74349997979833,0 -102.5784436184337,21.74325729865348,0 -102.5777308094858,21.74299598586433,0 -102.5754550294036,21.74228258852252,0 -102.5748215968793,21.74228620842797,0 -102.5735945198672,21.74250628654277,0 -102.5730696052452,21.74288317505229,0 -102.5727894156668,21.74282116056646,0 -102.5704117194617,21.74343916319728,0 -102.5674209964832,21.74459171340769,0 -102.5649712782694,21.7443742031203,0 -102.5641001438425,21.74432668574227,0 -102.5628194033666,21.74425681688647,0 -102.5586665704982,21.74366078740805,0 -102.5552075042273,21.74357389618733,0 -102.5524937176076,21.74265103106751,0 -102.5518482203806,21.74146623293808,0 -102.5489501957066,21.73859339600282,0 -102.5447773661369,21.73695784752326,0 -102.5447506815804,21.73694738811003,0 -102.5444859915671,21.73684363661185,0 -102.5444135455239,21.73676574647313,0 -102.543852861533,21.73659149010789,0 -102.5421399200194,21.73593529812646,0 -102.5411933397891,21.73564648937851,0 -102.5409766082885,21.73558036205311,0 -102.5412021084366,21.73507184749711,0 -102.5426139597622,21.73276164015624,0 -102.5425969755485,21.73274526078349,0 -102.5424524343111,21.73260436926055,0 -102.5267338557342,21.72496697589817,0 -102.5253898043201,21.7243421142062,0 -102.5208097238214,21.72215841126631,0 -102.5205350210878,21.7220274303126,0 -102.5171698925425,21.7205998509962,0 -102.5098395014856,21.71714862622104,0 -102.4932864232273,21.7092743744616,0 -102.4909624520172,21.70816866317362,0 -102.4900835193761,21.70775648707004,0 -102.4877023725138,21.70661751008186,0 -102.4870673400875,21.70631534871843,0 -102.4842856910618,21.70499173536506,0 -102.4840923213654,21.70479633620969,0 -102.4816652184988,21.70402814928129,0 -102.4801047978536,21.70353424275464,0 -102.479914515613,21.70322187415777,0 -102.4765217549015,21.70208495641439,0 -102.4769349408819,21.69847126138875,0 -102.4767446108818,21.69778836640196,0 -102.4765852428851,21.69721524980816,0 -102.4763062018684,21.69657987950727,0 -102.4762501459529,21.69587613086953,0 -102.4762269147705,21.6955844746731,0 -102.4757565466075,21.69494515909114,0 -102.4730394074843,21.69553715321274,0 -102.4714766537564,21.69659570109664,0 -102.4697219171761,21.69747239051508,0 -102.4683618401716,21.69790312600917,0 -102.4670072905226,21.69797169410478,0 -102.4634351231792,21.69791808217859,0 -102.4568637629477,21.69808754285732,0 -102.4567061471595,21.69600867116136,0 -102.4552836792966,21.69466237081169,0 -102.4559975073386,21.69324437754905,0 -102.4544645082243,21.69222604833369,0 -102.4543738945271,21.69127877117253,0 -102.454597939311,21.68947650156727,0 -102.4541293309612,21.68874635574351,0 -102.4532722691469,21.68801100378979,0 -102.4526967359322,21.68782119643057,0 -102.4522196516161,21.6874522993053,0 -102.4521323685402,21.68691071348608,0 -102.4523387228795,21.68619037237265,0 -102.4533089491403,21.68593519414273,0 -102.4546738621471,21.68523411320611,0 -102.4547749099675,21.68496425394237,0 -102.454690220763,21.68433099452499,0 -102.4544625215118,21.68247470439571,0 -102.4566888241151,21.68237370368352,0 -102.4570356411891,21.68099310877874,0 -102.4581524166014,21.68101246885271,0 -102.4589169885679,21.68081763061371,0 -102.4610664046157,21.67925908531284,0 -102.4584212275309,21.67879894646199,0 -102.4560913505337,21.6785540981439,0 -102.4532399174357,21.67844310440373,0 -102.4524531803153,21.6783837090189,0 -102.4524805986149,21.67845169864933,0 -102.453035864703,21.67983960428128,0 -102.4539186391642,21.68101506834756,0 -102.4525275652263,21.68172166426809,0 -102.4512057836279,21.68195881142995,0 -102.4498953928545,21.68154062181207,0 -102.4492514047348,21.68119761866256,0 -102.4488026224832,21.68056923451987,0 -102.4487635297121,21.68051449629486,0 -102.4485030344908,21.68014974834486,0 -102.4484855399558,21.68012525335601,0 -102.447210933334,21.67907162047022,0 -102.4465789362164,21.67824893133624,0 -102.4447656893078,21.67683199411304,0 -102.4423340009878,21.67481715605665,0 -102.4414549552718,21.67341917114958,0 -102.4380382839735,21.67322143643408,0 -102.4356646687447,21.67320358955669,0 -102.4327907723267,21.67270297721889,0 -102.432487575455,21.67266176845645,0 -102.4313288681081,21.67250427839931,0 -102.4263140290485,21.67186510937275,0 -102.4250064963339,21.67175499534885,0 -102.4237245668743,21.67112322158629,0 -102.4199861607413,21.66953067609206,0 -102.4198111946882,21.66946943835684,0 -102.419768622365,21.66945475355183,0 -102.4196284556487,21.66940640658584,0 -102.4195680624472,21.66938542449667,0 -102.419567978947,21.66938539612801,0 -102.419567564258,21.66938525153882,0 -102.4195676168668,21.66938517111336,0 -102.4198405037087,21.66896797826839,0 -102.4208929513625,21.66790095659034,0 -102.4212117312569,21.66735519005213,0 -102.4214159244151,21.66673541585481,0 -102.4214983075018,21.66644779279339,0 -102.4229122260814,21.6635175264607,0 -102.4234244175439,21.66295670135034,0 -102.4244048760092,21.66213229586729,0 -102.424943939128,21.66168924951248,0 -102.4260521004627,21.66019872291425,0 -102.4284701476846,21.65890905482558,0 -102.4291906605565,21.65803544649376,0 -102.4298813993586,21.65720651457721,0 -102.4300849569736,21.65716452533377,0 -102.430930772318,21.65739429949597,0 -102.4317686283393,21.65698293740586,0 -102.4322130844209,21.65697175799262,0 -102.4333849590856,21.65624053572538,0 -102.4337669377688,21.65593947993154,0 -102.4342568769112,21.65554078068363,0 -102.4345625694762,21.65518437356617,0 -102.4361763153507,21.65458635482185,0 -102.4384550360105,21.65352008113978,0 -102.4396064292842,21.65285169196388,0 -102.4411964779422,21.65140458994288,0 -102.4415182210984,21.65013655159242,0 -102.442711643229,21.64982089091312,0 -102.4429402243845,21.64945424918059,0 -102.4428947519904,21.64819860668923,0 -102.4426833533221,21.64759045037444,0 -102.4430512296228,21.64699121622851,0 -102.4433113585291,21.64592987521843,0 -102.4423455308412,21.64484062506488,0 -102.4420620430321,21.64339172040263,0 -102.4417216975051,21.64242947102317,0 -102.4418979095373,21.64174603026152,0 -102.4412544195179,21.6415465206598,0 -102.4410238329965,21.6414797689928,0 -102.43972683051,21.64164937257885,0 -102.4389377361484,21.64149275103653,0 -102.4376611274445,21.64050702523512,0 -102.4372742334427,21.63999546817986,0 -102.436659402634,21.6398144407864,0 -102.436437747723,21.63924223422452,0 -102.4377414839304,21.63814283949952,0 -102.4380242180919,21.63744299033862,0 -102.4376725667633,21.63602914385889,0 -102.4379408889057,21.63395676330506,0 -102.4385998265395,21.63437320138366,0 -102.4394411301766,21.63430491736605,0 -102.4399181394503,21.63408656101578,0 -102.4406286937044,21.63431419149346,0 -102.4411273948679,21.63396074028428,0 -102.4419845055888,21.63409131066219,0 -102.4420038129781,21.63409160799327,0 -102.4436117301876,21.63380939700305,0 -102.4445424913813,21.63304727789707,0 -102.4452056088506,21.63267828569395,0 -102.4458494460587,21.63175826230352,0 -102.4459371514341,21.63116373696701,0 -102.4460852876629,21.63097641817502,0 -102.4467767176182,21.63064396733697,0 -102.4475287622757,21.63015896185135,0 -102.4493672505747,21.62829123245624,0 -102.4498538806756,21.62807299219402,0 -102.4521915822783,21.62746783899365,0 -102.4526636458895,21.62752924781666,0 -102.4537516239153,21.62715770223685,0 -102.4549340806833,21.62745570090485,0 -102.4554757752976,21.62740079864403,0 -102.4568351604029,21.6275209247436,0 -102.4574852541731,21.6273412767111,0 -102.4597344404269,21.62627420715328,0 -102.4601813333582,21.62611852643282,0 -102.4613932020431,21.62583910660621,0 -102.4616487614886,21.62558118508521,0 -102.4640043531882,21.62394688315839,0 -102.4649777045076,21.62350128178422,0 -102.4652421995765,21.62313560139036,0 -102.4660565547333,21.62254265832,0 -102.4666624444597,21.62212755624443,0 -102.4674687862632,21.62129116654615,0 -102.468330834944,21.62058201992455,0 -102.4694467460531,21.62026496009722,0 -102.4699748314045,21.6204355136195,0 -102.4706986493866,21.62045555960438,0 -102.472603903827,21.62027688865325,0 -102.4727217807385,21.62016131023598,0 -102.4731689571594,21.61887702838699,0 -102.4762309877687,21.61602538610948,0 -102.4769238545097,21.61560253363664,0 -102.4775845289188,21.6148090181498,0 -102.4779171054829,21.61456126454858,0 -102.4797446350233,21.61217835157215,0 -102.4797645569825,21.6104722516391,0 -102.4797650263953,21.61044517300739,0 -102.4797838618028,21.61047254427794,0 -102.4800679582791,21.61079285103006,0 -102.4804438875099,21.61138540671259,0 -102.4808214290118,21.61132792793958,0 -102.4817239979024,21.61050194307476,0 -102.4818210319528,21.60991655427709,0 -102.4822381556544,21.60924572690886,0 -102.482617722926,21.6090709024216,0 -102.4833100354074,21.60923486946737,0 -102.4840355241721,21.60915556345246,0 -102.4844275828757,21.60825863502493,0 -102.4853436411529,21.60776688975267,0 -102.486017318302,21.60677490044671,0 -102.4875998141799,21.60682590482597,0 -102.4882946330319,21.60628565547852,0 -102.4896842470927,21.6057649218503,0 -102.4898059939164,21.60542367152654,0 -102.490178383882,21.60510426152472,0 -102.4902448583549,21.60516846530527,0 -102.4911314537055,21.60526310196771,0 -102.49117253906,21.60525415239317,0 -102.4915190967307,21.60517866362559,0 -102.4926719107818,21.60607182926836,0 -102.4932521329647,21.60601737667433,0 -102.4935862202384,21.60567932381389,0 -102.4938091388382,21.60450895811729,0 -102.4942129631159,21.60404555327614,0 -102.4948207340418,21.60407276756763,0 -102.495189379356,21.60396997667667,0 -102.4960290950094,21.60342284507549,0 -102.495742314795,21.60269623317508,0 -102.4955937730059,21.60179112932117,0 -102.4965506549489,21.60004494418049,0 -102.4974661827902,21.60013998030706,0 -102.4980754656008,21.59951713886052,0 -102.4984931606609,21.59992971242643,0 -102.4990106360045,21.60015418310901,0 -102.4996111919711,21.5994770321084,0 -102.4999178111818,21.59848848489601,0 -102.5019061477432,21.59738977120142,0 -102.5023544653599,21.59714369971466,0 -102.5030109356351,21.59714452689226,0 -102.503826169885,21.59689493000147,0 -102.5039282618543,21.59657142819976,0 -102.5041365214141,21.59624951928256,0 -102.5046570912375,21.59629344408919,0 -102.5060065631631,21.59585321705371,0 -102.5069150846602,21.59466601427648,0 -102.5079278142946,21.59415752170571,0 -102.5093299146021,21.59402503088494,0 -102.5101072894921,21.59372969018484,0 -102.5108459791726,21.59400257828702,0 -102.5123667581266,21.59426910266563,0 -102.5141944543423,21.59408876147912,0 -102.5144936533083,21.59409323198081,0 -102.5151564350853,21.59372392448027,0 -102.515357268311,21.59383526942254,0 -102.5157993913592,21.59395021743626,0 -102.5164580100096,21.59382461937239,0 -102.5169010055962,21.59445421824925,0 -102.5176304213161,21.59414006782314,0 -102.5183009535537,21.5944480221405,0 -102.5190466363843,21.59374586971312,0 -102.5202123258767,21.59388965285935,0 -102.5205936222429,21.59417522896939,0 -102.5211272300441,21.5940206625044,0 -102.5214681120353,21.59384516538836,0 -102.5218534080737,21.59389604934306,0 -102.5227056709469,21.59373719523218,0 -102.5242335215106,21.59415720764368,0 -102.5245068392553,21.59398069850673,0 -102.525085631146,21.59400736777096,0 -102.5265479416662,21.59374019329885,0 -102.5276848530438,21.59330565098309,0 -102.5284605165974,21.59254069566888,0 -102.5285807812981,21.59228064576328,0 -102.5297015723957,21.59080423892365,0 -102.5423534132787,21.58449407566415,0 -102.5696544701728,21.57809613098291,0 -102.5987517911732,21.56976910881263,0 -102.5996236154557,21.56958303599615,0 -102.6007242390258,21.56898491112153,0 -102.6020389417483,21.56886841011162,0 -102.602980985036,21.56852080389682,0 -102.6048407184253,21.5687191189008,0 -102.6061251323834,21.56868341266536,0 -102.6064199991267,21.56894949948236,0 -102.6067396668783,21.56946876126714,0 -102.6078484671936,21.57013479991225,0 -102.6083200344597,21.570809738701,0 -102.6087452977782,21.5719535327973,0 -102.609433340881,21.57237875871553,0 -102.6104943399819,21.57243010590608,0 -102.6127917556222,21.57360977897588,0 -102.6144225098804,21.57423811490018,0 -102.6150529716487,21.57464443591502,0 -102.6162615652484,21.57452630542778,0 -102.6167395374325,21.57481305630909,0 -102.6169001617463,21.57620586659891,0 -102.6170281413995,21.57782394175493,0 -102.6173536765841,21.57857803269623,0 -102.6177612987689,21.57903533132374,0 -102.6186070728864,21.57926413632678,0 -102.6226122412517,21.5793304162199,0 -102.6233710173188,21.57956698444225,0 -102.6235988207772,21.57980499913926,0 -102.6245015570604,21.57950185819696,0 -102.6257322901775,21.57921242002455,0 -102.627042285975,21.57933265363383,0 -102.627067400208,21.57941712081205,0 -102.6270920162246,21.57951705449031,0 -102.6271884195174,21.57963407468017,0 -102.6274984656638,21.57986901216285,0 -102.6275831660009,21.57991696156751,0 -102.6279421099133,21.58012016363449,0 -102.628494794202,21.58043263285232,0 -102.6287546773609,21.58071506754195,0 -102.6288209875826,21.58086603203888,0 -102.6287828013024,21.58114079635769,0 -102.628489701183,21.58237519896763,0 -102.6284183532162,21.58280265529886,0 -102.6283378525075,21.58331665468339,0 -102.6282452827559,21.58392238345684,0 -102.628094570899,21.58507093811812,0 -102.6281000634673,21.58520536210093,0 -102.6282380830551,21.58547649460669,0 -102.6284901305194,21.58587082748972,0 -102.6288167556666,21.58632109587258,0 -102.6291497257637,21.58678545860549,0 -102.6295547282407,21.58737731642248,0 -102.629990290341,21.58799699379309,0 -102.6303297286365,21.58853605720395,0 -102.6306476982934,21.58912759720385,0 -102.6310029377149,21.58975409724267,0 -102.6313339594551,21.59047435670453,0 -102.6316820859175,21.591174038393,0 -102.6318853141575,21.5915378187603,0 -102.6322760959632,21.59186711319615,0 -102.6326914349094,21.59213841936539,0 -102.6326577928495,21.59241634727897,0 -102.632599924332,21.59261813619621,0 -102.6329000943193,21.59294518841591,0 -102.6331517135659,21.5931877688176,0 -102.6335754444615,21.59372097890579,0 -102.6338715567347,21.59406200627515,0 -102.6343717391156,21.59449968963866,0 -102.6343134739619,21.59461721343462,0 -102.6342671833097,21.59477928589057,0 -102.6343757160821,21.59529278031779,0 -102.634554163824,21.59565197106354,0 -102.6349607691295,21.59614199847476,0 -102.6350399277514,21.59629193675393,0 -102.6352529894812,21.59647145077208,0 -102.6355556551075,21.59660577663955,0 -102.6359251186422,21.59664472245581,0 -102.6360940128292,21.59666991989698,0 -102.6362317192827,21.59674995270375,0 -102.6363306812779,21.59688921835111,0 -102.6367058375546,21.59705487935696,0 -102.6373228292615,21.59731223936646,0 -102.6373783020151,21.59739282883626,0 -102.6374578960883,21.5975982524191,0 -102.6376639842434,21.59790388624125,0 -102.6376727545366,21.59809489080818,0 -102.6375958575082,21.59821922934184,0 -102.6373285390254,21.5986565895975,0 -102.63757125313,21.59915945771602,0 -102.637594781419,21.59961768655393,0 -102.6376885794742,21.5999549149096,0 -102.6380699911611,21.60057048124713,0 -102.6383878902625,21.60109464556686,0 -102.6384815484797,21.60140192482953,0 -102.6386046096854,21.60176988895903,0 -102.6387619327949,21.60219942587733,0 -102.6389512870586,21.60262973706496,0 -102.639173637708,21.60305990972102,0 -102.639662174279,21.60381552625325,0 -102.6398382073062,21.60404278015486,0 -102.6398215709431,21.60440900673078,0 -102.6398453380313,21.60457706917576,0 -102.6396878372892,21.60473704843754,0 -102.6394119274828,21.60473822661928,0 -102.6392738366243,21.60481711546234,0 -102.6390155368996,21.60479862779839,0 -102.6389499079942,21.60502101497384,0 -102.6388925093743,21.60538005388464,0 -102.6387263131382,21.60616121593624,0 -102.6386980318367,21.6064106931167,0 -102.638420588013,21.6069459518746,0 -102.6381601488296,21.60748908856702,0 -102.6379103970873,21.60809120006844,0 -102.6378425708083,21.60839929361489,0 -102.6381349630685,21.6089362517658,0 -102.6384948397276,21.60953251033177,0 -102.6386640136092,21.60995738616438,0 -102.638894384041,21.61003625060841,0 -102.6392489394727,21.60994187892439,0 -102.6396360457001,21.60981748448988,0 -102.6398718035181,21.60963847570585,0 -102.6400750608972,21.60945248698582,0 -102.6402512129216,21.60918161457956,0 -102.6404793556338,21.60879391543624,0 -102.6406481731904,21.60833798700875,0 -102.6407785706511,21.60811643230105,0 -102.6411996584174,21.6079786611592,0 -102.6414890460325,21.60788479991236,0 -102.6417787056421,21.60785976485177,0 -102.6420422289915,21.60783368055401,0 -102.642378773222,21.60793704979298,0 -102.6426420356219,21.60802188685579,0 -102.64294460549,21.60808200835255,0 -102.64306913308,21.60831209058607,0 -102.6429453445195,21.60855477228241,0 -102.6430505908384,21.60866840732743,0 -102.6432504336142,21.60864463572046,0 -102.6435418276779,21.6087240010903,0 -102.6438754436061,21.60861452493253,0 -102.6443585285502,21.60860699910277,0 -102.6446650630374,21.60864424722767,0 -102.6448775477354,21.60872040135434,0 -102.6453801571533,21.60866802739798,0 -102.6457023271599,21.60863958676645,0 -102.6459719675897,21.60862681003665,0 -102.6460071581631,21.60864330742583,0 -102.6458129904111,21.6089024581158,0 -102.6467012788032,21.6093148316858,0 -102.6468271761773,21.60954262762344,0 -102.6469405205389,21.60980961853312,0 -102.6468709009614,21.60999984989208,0 -102.6470419029017,21.61023530978887,0 -102.647169274383,21.61043163632873,0 -102.6471118656049,21.61055002294789,0 -102.6470389122988,21.61071765801697,0 -102.6465603626881,21.61089287807099,0 -102.6463921596814,21.61096815537298,0 -102.6464563146307,21.6111696796854,0 -102.647057688785,21.61131479809268,0 -102.6477690180411,21.61122350994148,0 -102.6481056279553,21.61100980976776,0 -102.6485152134816,21.61072753771088,0 -102.6486772776188,21.61081015171336,0 -102.6490874387667,21.6110911402041,0 -102.6493915255727,21.61139238367704,0 -102.6499932025984,21.61177712771728,0 -102.6502851288009,21.6119338093432,0 -102.6507597599896,21.6118734468745,0 -102.6510834126978,21.61175301191745,0 -102.6513652839732,21.61191833529848,0 -102.6515430830077,21.61230297751199,0 -102.6516922680326,21.61241157867342,0 -102.6518341473116,21.61255989271662,0 -102.6522256678641,21.61215126382951,0 -102.6523877193716,21.61202094863711,0 -102.6525549559271,21.61198003008809,0 -102.652799250657,21.61200006439973,0 -102.6534404442692,21.6123048500699,0 -102.6535873896559,21.61224396536541,0 -102.6537920386933,21.61214947279791,0 -102.6540312753414,21.61215292635722,0 -102.6542132072931,21.61204006828222,0 -102.6545008733827,21.61153543162178,0 -102.6547320359457,21.61143807476197,0 -102.6548797160798,21.61130784581717,0 -102.6552140135009,21.61119021352587,0 -102.6554723917466,21.61103665905041,0 -102.6555405763832,21.6112547768624,0 -102.6578890682286,21.61107271389775,0 -102.658574605148,21.61053270641201,0 -102.6586025240269,21.61050717328208,0 -102.6589127065163,21.61052728476768,0 -102.6590068695341,21.61001496237368,0 -102.6589941495776,21.60979770057391,0 -102.6590045212714,21.60951412375189,0 -102.6591380236921,21.60921657091783,0 -102.6593769027277,21.60898717757075,0 -102.6598232638051,21.60898867998244,0 -102.6599870887439,21.60895652549802,0 -102.6601708322894,21.60869648458617,0 -102.6603899866096,21.60872378349592,0 -102.6605372488885,21.60874034323606,0 -102.660599650194,21.60868477526945,0 -102.6608980935177,21.6086746503491,0 -102.6611118624598,21.60877996215073,0 -102.6620891096397,21.60874036175986,0 -102.6623695750021,21.6088238789933,0 -102.6625543123657,21.60872021617458,0 -102.6627912026825,21.6087191929058,0 -102.6629383852711,21.60877660511273,0 -102.663246678473,21.60883674191178,0 -102.6634799880132,21.60888960407485,0 -102.6637119855627,21.60884877019446,0 -102.6639633790885,21.60890966467843,0 -102.6642207502229,21.60895544256876,0 -102.6644716459982,21.60899577550781,0 -102.6645132706904,21.60924541331831,0 -102.664639282378,21.60968739969488,0 -102.6649161787999,21.60985851197179,0 -102.6649933557466,21.61004722498139,0 -102.6652657978345,21.6102685621597,0 -102.6657199126771,21.61056793073383,0 -102.6662437445275,21.61051483159096,0 -102.666662324955,21.61076532074727,0 -102.6668873871509,21.61113463602898,0 -102.667423701972,21.6115382463205,0 -102.6676640709495,21.61159896744512,0 -102.6678229466036,21.6117541757035,0 -102.6681071395572,21.61201617720912,0 -102.668452274258,21.6121457547364,0 -102.6686648835956,21.61217498309248,0 -102.6688576503577,21.61250558260052,0 -102.6688913474811,21.61289512747741,0 -102.6689920887832,21.61299652911814,0 -102.6692116208422,21.61306383384614,0 -102.6694140056742,21.61336755774696,0 -102.6697481998189,21.61340091635988,0 -102.6700785401276,21.61364775654281,0 -102.6701529997302,21.61376457914355,0 -102.6705171912288,21.61393670055268,0 -102.6707930275765,21.61415456483638,0 -102.6711238874433,21.61439161792393,0 -102.6711082670772,21.6147744988682,0 -102.6712066117616,21.61507425595632,0 -102.6714103894115,21.61536101917828,0 -102.6716305769347,21.6154790354887,0 -102.6721054284621,21.61546089417129,0 -102.6725323892645,21.61564064561167,0 -102.6728560277116,21.6159205778034,0 -102.6731284675971,21.61619538100213,0 -102.673414308945,21.6161619489844,0 -102.6737327339062,21.61574601762636,0 -102.6739033421977,21.61562221912391,0 -102.6740702964904,21.61563787010535,0 -102.6742255679551,21.61571517900519,0 -102.6746518926421,21.6159762200375,0 -102.6751046266426,21.61625648669147,0 -102.6754953400277,21.61660090934886,0 -102.6758141566617,21.61716163802949,0 -102.675936116725,21.61739701401531,0 -102.6760487457471,21.61741958595728,0 -102.6761763422805,21.61734787744739,0 -102.6764142069604,21.61725692696244,0 -102.6768621569013,21.61736960825909,0 -102.6775792769238,21.61753162317901,0 -102.6780063857256,21.61789452149874,0 -102.6782711160516,21.61825021264115,0 -102.6785847972572,21.618430112752,0 -102.6791600414364,21.61880614293733,0 -102.6796149327234,21.61893391319373,0 -102.6798371382377,21.61930413128788,0 -102.6798790254964,21.61933389588826,0 -102.6799861861098,21.61941147285269,0 -102.6800953014368,21.61949176423126,0 -102.6804207854321,21.61955657451618,0 -102.6807127648437,21.61971319964248,0 -102.6808522617752,21.62003612872643,0 -102.6811410347445,21.620211148604,0 -102.6816472147149,21.62023204929499,0 -102.6837568455517,21.62185336364938,0 -102.6840792200525,21.62209847694578,0 -102.6912844623708,21.62757646080434,0 -102.6928022020754,21.62982239681962,0 -102.6973129217209,21.63649686589835,0 -102.6986093224899,21.63841623745737,0 -102.6988228946784,21.63889298434052,0 -102.6986436163387,21.63934137745799,0 -102.6986031469,21.63973993047959,0 -102.6986241775153,21.6401821829569,0 -102.6988337297035,21.64045069725238,0 -102.6992950299421,21.64053234897489,0 -102.6996668413306,21.64046067046698,0 -102.699955292863,21.64044170295976,0 -102.7000967589295,21.64022904577993,0 -102.7003092093709,21.64015296653169,0 -102.7005173729595,21.64023106002863,0 -102.7006403400752,21.64036524517496,0 -102.7007917536939,21.64064857547049,0 -102.7008569193584,21.64093852414487,0 -102.7009674706173,21.6413059342142,0 -102.7012239772695,21.64165860911267,0 -102.7013046928647,21.64203302658602,0 -102.7012043944836,21.64218769020387,0 -102.7013011943802,21.64240265578504,0 -102.7014012102623,21.64245345654294,0 -102.7014430499718,21.64256707307652,0 -102.7014882894854,21.64271393046558,0 -102.7015356226369,21.64287166502891,0 -102.7017027122734,21.64294927017376,0 -102.7019259090971,21.64331487063383,0 -102.7023297669948,21.64359424082861,0 -102.7026301692072,21.6436629072243,0 -102.7028618731595,21.64377282377975,0 -102.7036056178486,21.64439884833389,0 -102.7039221015341,21.64460954363161,0 -102.7042278757838,21.64468780337579,0 -102.7044643850198,21.64490409302145,0 -102.7045792741054,21.64499616358356,0 -102.7048396616968,21.64520153548934,0 -102.7047703258077,21.64573777504833,0 -102.7047652909123,21.646072701635,0 -102.7048982918399,21.64632325878672,0 -102.7050720627273,21.64678790693922,0 -102.705230045411,21.64720902246095,0 -102.7054183817141,21.64748452540384,0 -102.7053433468429,21.64800992849532,0 -102.7053147725923,21.64850458566597,0 -102.705161329267,21.64895766822291,0 -102.7052887507771,21.64949526636736,0 -102.7054320041215,21.64997670940301,0 -102.7055901816686,21.65041248531662,0 -102.7059364810109,21.65079131372835,0 -102.7062651309081,21.65109527487897,0 -102.7066867948231,21.65131149072363,0 -102.7073863385364,21.65192438980764,0 -102.7076140584164,21.6523907815947,0 -102.7076963262568,21.65302242557198,0 -102.7081973050778,21.65339474081406,0 -102.7088139956552,21.65345587176284,0 -102.7091558133859,21.6533263613756,0 -102.7093217217657,21.65325248015195,0 -102.7095180138471,21.65337036637331,0 -102.7097243434012,21.65352475147973,0 -102.7100841098209,21.65372919504708,0 -102.71038481144,21.65380638991725,0 -102.7106882404356,21.65383239300926,0 -102.7111293899773,21.65398568669641,0 -102.7115119465396,21.65417579458244,0 -102.7118353218631,21.65422849051988,0 -102.7121585938592,21.65420831405426,0 -102.7124223421754,21.65412483863844,0 -102.7127447178967,21.65403198235616,0 -102.7131550460936,21.65391128048958,0 -102.7134475188941,21.65371801260349,0 -102.713946892595,21.65367901029871,0 -102.7141717257034,21.65364139323803,0 -102.7142575106775,21.65361005583866,0 -102.7143226669573,21.65349863906427,0 -102.7144356996596,21.65325014900518,0 -102.7146106754672,21.65314757158886,0 -102.7147734231117,21.6530224672359,0 -102.7147871790832,21.65258837939511,0 -102.7149166420145,21.65231259251868,0 -102.7151122248752,21.65214860820262,0 -102.715384301859,21.65200464130474,0 -102.7155513515736,21.65179548731645,0 -102.7157193073255,21.65158654512874,0 -102.7157941407148,21.65121086783505,0 -102.7158419951072,21.65087951447549,0 -102.7159275476998,21.65041310068881,0 -102.7162232162934,21.64997276532066,0 -102.7166568256778,21.64948928442976,0 -102.7167331269721,21.64893344261197,0 -102.7170284343377,21.64854320526485,0 -102.7173842537282,21.64833785784052,0 -102.7177398171363,21.64809547974606,0 -102.7179957558756,21.64776096870778,0 -102.7182123840934,21.64748221268011,0 -102.7182092096026,21.6468896868135,0 -102.7219899420475,21.64384250204137,0 -102.7273375255401,21.64612141066107,0 -102.7275513586675,21.64655159044509,0 -102.727677716028,21.64680388609988,0 -102.7275472083778,21.64705882848793,0 -102.7274166711441,21.64731883781438,0 -102.7273283256457,21.64766944023961,0 -102.7272198471661,21.64815750036953,0 -102.7272012418219,21.64856611793261,0 -102.727327251085,21.64875422209891,0 -102.7275556597574,21.64872468859767,0 -102.7276294475857,21.64880816984143,0 -102.7278790665173,21.64943040438481,0 -102.7280071501763,21.64974755983838,0 -102.7278628599628,21.65007860236416,0 -102.7279063031046,21.65041001156579,0 -102.7280684603878,21.65082518256285,0 -102.728284893562,21.65104463050653,0 -102.7285036962583,21.65122092133705,0 -102.7286217992598,21.65156712229556,0 -102.7288713719452,21.65175167330236,0 -102.7290989635196,21.65195182564377,0 -102.729382238362,21.6521113414792,0 -102.7298034363132,21.65220336554157,0 -102.7301779118795,21.65199676608392,0 -102.7305284914951,21.65172473809084,0 -102.7309984274815,21.65181016631782,0 -102.731257843469,21.65216576832413,0 -102.7315799087821,21.65247463289824,0 -102.731734681658,21.65290500573826,0 -102.7317274697178,21.65336247134997,0 -102.7315001976978,21.65391362428678,0 -102.7315162792832,21.65422681097814,0 -102.7318417315899,21.6545028948247,0 -102.7323962318928,21.65473621967749,0 -102.732751772422,21.65460551485193,0 -102.7331373451723,21.65431671169103,0 -102.7334162163817,21.65414946774462,0 -102.7339474630929,21.65417221449344,0 -102.7344814963577,21.65426352542478,0 -102.7352619915255,21.65433044781853,0 -102.7355855455572,21.65440228604197,0 -102.7358340759702,21.65457716952065,0 -102.7364306112388,21.65492490482551,0 -102.7366307743697,21.65512496280389,0 -102.7367376149282,21.65523971346645,0 -102.7370054015636,21.6552860200677,0 -102.7372457160902,21.65519326424061,0 -102.737357137311,21.65490641410624,0 -102.7374845464471,21.65460442298857,0 -102.7375797426664,21.65431010506742,0 -102.7376271983276,21.6541009907622,0 -102.7376295920583,21.6537439494922,0 -102.7377835897092,21.65345182778319,0 -102.7379340444591,21.65297832498275,0 -102.7380253212447,21.65248651324718,0 -102.7384371718745,21.65204077723137,0 -102.7386994273199,21.65202908557175,0 -102.7390466539196,21.652178465644,0 -102.7394326140959,21.6523329957191,0 -102.7399877012976,21.65246698021047,0 -102.7403408281379,21.6527109502864,0 -102.7406607794109,21.65306406380775,0 -102.7410465125603,21.65317687232194,0 -102.7414046390403,21.653341960816,0 -102.7418621914816,21.65328323559809,0 -102.7421322330867,21.65309320109286,0 -102.7424305087912,21.65280091631172,0 -102.742665995988,21.65264516572224,0 -102.7429847257201,21.65229699516702,0 -102.7432429879053,21.65204460018882,0 -102.743506186987,21.65181511457227,0 -102.7437131751286,21.65159185724323,0 -102.7437893495163,21.65142300726363,0 -102.743616326311,21.65108572640287,0 -102.743410916094,21.6507463473341,0 -102.7433471871239,21.65031481487364,0 -102.7433795225275,21.65009512550724,0 -102.7434515568937,21.64994283422491,0 -102.7435277709202,21.64979952387304,0 -102.7436310825439,21.64963492733436,0 -102.7438093815307,21.64942207665307,0 -102.7439975715054,21.64913617164658,0 -102.7440067724038,21.6488774098922,0 -102.7439711359087,21.64863455086927,0 -102.7439856669847,21.64842850357345,0 -102.7440709600028,21.64820869275726,0 -102.7442230954327,21.64804307674465,0 -102.7443462012585,21.6478262355326,0 -102.7444638214735,21.64762014645372,0 -102.7446468714446,21.6474383178581,0 -102.7455060547845,21.64669440455596,0 -102.7456814121681,21.64664582452133,0 -102.7458161270101,21.64674658148763,0 -102.7458622951736,21.64699052059655,0 -102.7458954047237,21.64729720775486,0 -102.7458686958743,21.64761208290639,0 -102.7458142427494,21.64807620473781,0 -102.7458405522439,21.64877011333399,0 -102.7457896477466,21.649741494127,0 -102.7458063671424,21.65013913286268,0 -102.7459371592408,21.65062251353907,0 -102.7463378270839,21.65142424454592,0 -102.7466473512919,21.65179487363547,0 -102.7469539185388,21.65227192652383,0 -102.7471618902963,21.65259183133881,0 -102.7472361713013,21.6528836314909,0 -102.7471900476422,21.65341029176208,0 -102.7470385651135,21.65372375460571,0 -102.7467092781956,21.65405460271665,0 -102.7462683037455,21.65433688930938,0 -102.7459933000652,21.65455997034275,0 -102.7458012238219,21.65496186218979,0 -102.7456681560975,21.65530296449794,0 -102.7454482668454,21.65556723833477,0 -102.7445882539074,21.65630260146588,0 -102.744322000995,21.65661513639858,0 -102.7441060405657,21.65690524700605,0 -102.7439711023902,21.65709201607227,0 -102.7440211644132,21.65728273973176,0 -102.744241931154,21.6574710986824,0 -102.7444669891029,21.65753522570014,0 -102.7447122839431,21.65757524143703,0 -102.7448640769387,21.65749909839353,0 -102.7449469831284,21.65732753852371,0 -102.7450103397335,21.6571204172762,0 -102.7449173231385,21.65702021206431,0 -102.7449571268768,21.65691270474523,0 -102.7450233391168,21.6568630661473,0 -102.745301200189,21.6568271121416,0 -102.7456827183669,21.65687126216949,0 -102.7459290842598,21.65700225252325,0 -102.7459421735579,21.65710713106796,0 -102.7456781524793,21.6575155446856,0 -102.745384834614,21.65797746060823,0 -102.7453279439177,21.65859453780937,0 -102.7454258319875,21.65943815536129,0 -102.7457089859653,21.65964070800679,0 -102.7459298638328,21.65969517784489,0 -102.7462721651967,21.66033726386971,0 -102.7462086423507,21.66048396389872,0 -102.7461891601249,21.66059290868309,0 -102.7462155379888,21.6608179730467,0 -102.7462392057034,21.66103394188393,0 -102.7460370172717,21.66130819574249,0 -102.7462357227621,21.66129281112184,0 -102.7462530443144,21.66138538078346,0 -102.7461489097423,21.66149471011671,0 -102.7458971441823,21.66154395996876,0 -102.7455729258165,21.66166093398613,0 -102.7453564864992,21.66152993199827,0 -102.7451820181258,21.66151808671216,0 -102.7449140017446,21.66164710304074,0 -102.7445510605122,21.6616796681895,0 -102.7443689897087,21.66174571643806,0 -102.7442002918411,21.66166215433842,0 -102.7439409075691,21.66164411668598,0 -102.7438147191102,21.66184849577668,0 -102.74379757427,21.66200563147996,0 -102.7437106530734,21.66240912511783,0 -102.7436554405871,21.66288152727999,0 -102.7436539306372,21.66301730781194,0 -102.7436028366619,21.66322232114307,0 -102.7436978243084,21.66345260490677,0 -102.743778080801,21.66374082131006,0 -102.7437628728502,21.66395770645057,0 -102.743720537548,21.66421142911905,0 -102.7436986133318,21.66442120492685,0 -102.7438557186904,21.66450560433234,0 -102.7438727683397,21.66465132074532,0 -102.7437440577177,21.66472786278425,0 -102.7437816232996,21.66484860449247,0 -102.7437896381779,21.66503850826171,0 -102.7439100986219,21.66515795883204,0 -102.7440355797892,21.66559043439315,0 -102.7441426685755,21.66598176655692,0 -102.7443175952597,21.66636050689449,0 -102.7443525712066,21.66665675817718,0 -102.744480582163,21.66687168300921,0 -102.7444663521072,21.66707099230715,0 -102.7444943454758,21.66739360867619,0 -102.7445232376503,21.66806150183924,0 -102.7444875642134,21.66857744230176,0 -102.7449806192731,21.66972508190457,0 -102.7452731483272,21.67006296092256,0 -102.7454336179468,21.6706594998268,0 -102.7458738640782,21.67097881898763,0 -102.746251370583,21.67125063233511,0 -102.7465799151334,21.67152050124389,0 -102.746626710937,21.67195648574234,0 -102.7464591674744,21.67235737202009,0 -102.7464531349298,21.67272729015035,0 -102.7465515188317,21.67297590976216,0 -102.7467311068007,21.67328452926834,0 -102.7468484631419,21.67372800700299,0 -102.7469494763729,21.67384957658986,0 -102.7469334175171,21.67402464158006,0 -102.7467941258938,21.67450912503772,0 -102.7468633247813,21.67469970178881,0 -102.7468652384454,21.67500244945337,0 -102.7466906615822,21.67526910590935,0 -102.7465727424618,21.67555734374868,0 -102.7464434141108,21.67582952130124,0 -102.7463487974697,21.67620690439075,0 -102.7462643770559,21.67660162406761,0 -102.7458479264814,21.67703764797935,0 -102.7457299395877,21.67729419211334,0 -102.7457882329146,21.67755904377968,0 -102.745739989433,21.6778176518084,0 -102.7455085539292,21.67840512285185,0 -102.7455636788357,21.67852774827634,0 -102.7455422178394,21.67866810022782,0 -102.7454151172695,21.67882265578422,0 -102.7454321984924,21.67921959418792,0 -102.7452992453441,21.67963293268657,0 -102.7451853647218,21.67989568214944,0 -102.7451328579417,21.68060046541502,0 -102.7451837687385,21.68074868553853,0 -102.7453846461414,21.68084397558011,0 -102.7455681983699,21.68092103707713,0 -102.7455291477905,21.68110162773669,0 -102.7455039369644,21.68123432645488,0 -102.7456464389286,21.68143047381621,0 -102.7457492480573,21.68151820068719,0 -102.7457981078168,21.68157427347893,0 -102.745823337257,21.68163409299335,0 -102.7458170671913,21.68168550652823,0 -102.7457878680645,21.68174322091361,0 -102.7457103158062,21.68184826956028,0 -102.7455814201063,21.68192932154748,0 -102.745293375519,21.68205759727788,0 -102.7450970116663,21.6823325222742,0 -102.745100025335,21.68273619419489,0 -102.7451761021259,21.68297689110564,0 -102.7451429072429,21.68311661647248,0 -102.7450492493645,21.68337783185377,0 -102.7451624485741,21.68361634812821,0 -102.7451496669616,21.68376231883754,0 -102.7450517715197,21.68387381402351,0 -102.7449264126416,21.68393468666954,0 -102.744675158313,21.68396186709716,0 -102.7445259011604,21.6840006543845,0 -102.7444884818843,21.6842353461766,0 -102.7444772006553,21.68443928134247,0 -102.7443355108136,21.68458576222874,0 -102.7442480477032,21.68480282336006,0 -102.7441488582414,21.68490339320435,0 -102.7439150809189,21.6850160765662,0 -102.7435877307422,21.68506823285583,0 -102.7434364971908,21.68504657116209,0 -102.7431443130326,21.68520940458211,0 -102.7431017272351,21.68536943047306,0 -102.743063804077,21.68547066191166,0 -102.7430626343078,21.68565269364447,0 -102.7430520822801,21.68593121090592,0 -102.743016764073,21.68605008223727,0 -102.742957465294,21.6861669746586,0 -102.7428978426198,21.68623433969242,0 -102.7427778889085,21.68624222689703,0 -102.7427013349184,21.68635488861593,0 -102.7426251223423,21.68662118854338,0 -102.7426215684492,21.68685627831976,0 -102.7426377189527,21.68698977053339,0 -102.7426238574227,21.68708673954125,0 -102.7426100992828,21.6872036070615,0 -102.7425698721268,21.68730234361177,0 -102.7425214128717,21.68738040994125,0 -102.7422160007742,21.68762154616995,0 -102.7420685256159,21.6878210274154,0 -102.7420264903836,21.6881216512629,0 -102.7419526359849,21.68828810264729,0 -102.7414085793204,21.68877267656227,0 -102.7410788407863,21.68920357272817,0 -102.7408918646072,21.68963650105772,0 -102.7407791166246,21.6899701406545,0 -102.7406219280057,21.690873071096,0 -102.7405779019946,21.69134161440308,0 -102.7404623801031,21.69187675923401,0 -102.7402720219825,21.69257745131068,0 -102.7398642518878,21.69347705273246,0 -102.7397654577854,21.69376689198215,0 -102.7396367997302,21.69414434150221,0 -102.7396662159799,21.69454718273731,0 -102.7400196491669,21.69488674319459,0 -102.7405513796996,21.69532981990335,0 -102.7408688809463,21.69566864429963,0 -102.7412246824639,21.69590835297355,0 -102.7416490275636,21.69624938335186,0 -102.7420425945112,21.6966441106486,0 -102.7425663665079,21.69740125510255,0 -102.7434630290835,21.69797416009063,0 -102.743882117947,21.69824078531317,0 -102.7442318345931,21.6987818473893,0 -102.7444772569119,21.69925443437845,0 -102.7445756081001,21.69982575947522,0 -102.7444626730982,21.7001258224224,0 -102.7442756941247,21.70055875738439,0 -102.7442000356074,21.70092580279387,0 -102.7441571817239,21.70142883342405,0 -102.7442565425993,21.7018322438245,0 -102.7444328636618,21.70210276760748,0 -102.7447158339468,21.70234009912096,0 -102.7449607091263,21.70271285146925,0 -102.7451690494501,21.70315203687985,0 -102.7453437992728,21.70348882341649,0 -102.7455886735978,21.70386066756212,0 -102.7460080841139,21.70470453438843,0 -102.7462517631709,21.70520980356358,0 -102.7464942958057,21.70568331091077,0 -102.7465963881374,21.70605221685942,0 -102.7466596020128,21.70659013084911,0 -102.7467237822364,21.70712713153969,0 -102.7467891570196,21.70752979886472,0 -102.7468186829315,21.70812233450183,0 -102.7467392941295,21.70869089387031,0 -102.7461917166009,21.70925265376499,0 -102.7456123504463,21.70951323512848,0 -102.7449676596726,21.70963062951784,0 -102.744312330043,21.71012407639058,0 -102.7438789252781,21.71253950281974,0 -102.7440624508433,21.71288078813426,0 -102.7442927645779,21.71325179893522,0 -102.745302079013,21.71397572519358,0 -102.7460025852827,21.71453505091227,0 -102.7467656840932,21.71517030899515,0 -102.7472970620899,21.71553168187045,0 -102.7476720340609,21.71598329921113,0 -102.7475917107854,21.71612063334855,0 -102.7475503726036,21.71619131248347,0 -102.7463929119545,21.71817025447471,0 -102.7452999343561,21.72005230737758,0 -102.744629585722,21.71968071029679,0 -102.744109541443,21.71918081097573,0 -102.7416263806944,21.72100010045891,0 -102.7370169287718,21.71591644305156,0 -102.737323401975,21.71560896448761,0 -102.7352224977209,21.71567077739907,0 -102.7336707564817,21.71610115698464,0 -102.731921806248,21.71661879907978,0 -102.730079122588,21.71704497110292,0 -102.7277497575257,21.71773493945723,0 -102.7256156136816,21.71824696180849,0 -102.723865654393,21.7188560750308,0 -102.7227985652984,21.71911160915664,0 -102.7221161583258,21.71955411349065,0 -102.7211326112789,21.72053443871277,0 -102.7204414438758,21.72151792345809,0 -102.7202476413995,21.72160505797935,0 -102.7201373800025,21.72241608880433,0 -102.7202257795061,21.72295934372732,0 -102.7207984399797,21.72341863901413,0 -102.7205968688629,21.72386795516408,0 -102.7202952274397,21.72467534614783,0 -102.7200941353897,21.72521451474704,0 -102.7197920101765,21.7259329602039,0 -102.7192120541242,21.72592569432006,0 -102.7188098520808,21.72700312159374,0 -102.7192839174874,21.72755092537494,0 -102.7197555608414,21.72818950210844,0 -102.7197472973817,21.728821252492,0 -102.7193480135262,21.72953833890266,0 -102.7187626907874,21.72998218998573,0 -102.7182701322686,21.73051636848246,0 -102.7180578432451,21.73168820752844,0 -102.717854298579,21.73231724224202,0 -102.7176497776407,21.73312689976604,0 -102.7156051964656,21.73409127523927,0 -102.7154268736957,21.7336276310664,0 -102.7147678552323,21.73191413338938,0 -102.7140247486529,21.73009778849993,0 -102.7126738977884,21.72998788933132,0 -102.7114124111812,21.73024243299067,0 -102.7111248636686,21.73005770025297,0 -102.7098784877423,21.72949801514986,0 -102.7092950921404,21.72976120225554,0 -102.7088646245872,21.72974427686113,0 -102.7071015783286,21.7296749418367,0 -102.7057214984016,21.72962065347722,0 -102.7052473487858,21.72956088741334,0 -102.7033108043425,21.72931676983506,0 -102.701670974511,21.72911370400049,0 -102.7011896163199,21.72901606491192,0 -102.6986778809139,21.72889137322785,0 -102.6982503495091,21.7288697207477,0 -102.6981383037555,21.72886398666597,0 -102.6962632972499,21.72876801548366,0 -102.6953328678875,21.73254616710619,0 -102.6974270846884,21.7345625033392,0 -102.6974067476899,21.73586263950319,0 -102.6973637560628,21.73860522488711,0 -102.6973308002577,21.74070127363431,0 -102.6973175411354,21.74151366845094,0 -102.6954503198499,21.74338460812236,0 -102.6940112703933,21.74489461245567,0 -102.6939664417872,21.74494165080086,0 -102.693582534619,21.74534447893808,0 -102.6923065626197,21.74659097897337,0 -102.6913842673182,21.74991981574875,0 -102.690777980413,21.75205238534365,0 -102.6906685753403,21.7524371986952,0 -102.6876577349608,21.75320859381344,0 -102.6867866230567,21.7532860123732,0 -102.6860141589888,21.75327494432145,0 -102.6857270612829,21.75318092456568,0 -102.6852377605546,21.7534445096554,0 -102.6843656795393,21.75352282629974,0 -102.6837899960836,21.75342373505142,0 -102.6832124251061,21.75314493848971,0 -102.6827349421725,21.75286841725887,0 -102.6822530556768,21.75268086250867,0 -102.681192014663,21.75266560621602,0 -102.680315995541,21.75292453711799,0 -102.6793457224562,21.75318206575427,0 -102.67929589852,21.75318134770269,0 -102.6789027873209,21.75317568072466,0 -102.678767589301,21.7531737309932,0 -102.6781800809701,21.75361653327681,0 -102.6776922525833,21.75379023127876,0 -102.6772058536095,21.75405468532749,0 -102.67671698677,21.7544080979648,0 -102.67603424866,21.75485040451562,0 -102.6752479286645,21.7555618244046,0 -102.6748547374332,21.75600829720081,0 -102.6743524622657,21.75717500817184,0 -102.6738600837819,21.75779981232856,0 -102.6736493646318,21.75879006640539,0 -102.6734420772862,21.75969044899656,0 -102.6727518450559,21.76058296456311,0 -102.672358630386,21.76102943197758,0 -102.6721583277009,21.76138792037283,0 -102.6718598166526,21.76192564407148,0 -102.6712702365025,21.76254905142254,0 -102.6703891398514,21.76316919052182,0 -102.6696091582298,21.76360917160137,0 -102.6689263489587,21.76405144695709,0 -102.667566237671,21.76448395938856,0 -102.666694069004,21.76456126903307,0 -102.6659175860214,21.76473164509685,0 -102.6639020688772,21.76388991097779,0 -102.6633184331289,21.7641529273932,0 -102.6621686685201,21.76350438758465,0 -102.6612132547368,21.76285772483281,0 -102.661214311265,21.76267800638063,0 -102.6605349990484,21.76284884431848,0 -102.6601527467801,21.76257184195151,0 -102.6595756338248,21.76238371750855,0 -102.658413377379,21.76254754365436,0 -102.657343796285,21.76298507272349,0 -102.656754139572,21.76360751637584,0 -102.6555843644378,21.76422336024307,0 -102.6546135231197,21.76439087822161,0 -102.6529677637296,21.76463841162563,0 -102.650923305785,21.76542222108947,0 -102.6495836618517,21.76467999587988,0 -102.6487235342536,21.76403557529044,0 -102.6482889420103,21.76353300711449,0 -102.6477757260634,21.76293951342714,0 -102.6459517781883,21.76210036805751,0 -102.6435391193157,21.76188449693243,0 -102.6424539573581,21.76313432658315,0 -102.6410866427843,21.76410758976587,0 -102.6398322557526,21.76390950995975,0 -102.6371148627248,21.76459246690243,0 -102.6361368478114,21.76530085281357,0 -102.6354478590467,21.76610424808531,0 -102.6345650509772,21.76681313800384,0 -102.6334938348886,21.76733945742434,0 -102.6323421301721,21.76687222953592,0 -102.6316759914515,21.76613978063224,0 -102.6294858400387,21.76442371341017,0 
					</coordinates>
				</LinearRing>
			</outerBoundaryIs>
		</Polygon>
	</Placemark>
</Document>
</kml>
