<?xml version="1.0" encoding="UTF-8"?>
<kml xmlns="http://www.opengis.net/kml/2.2" xmlns:gx="http://www.google.com/kml/ext/2.2" xmlns:kml="http://www.opengis.net/kml/2.2" xmlns:atom="http://www.w3.org/2005/Atom">
<Document>
	<name>Elemento_4.kml</name>
	<Style id="highlight00">
		<LineStyle>
			<color>7f00ffff</color>
		</LineStyle>
		<PolyStyle>
			<color>7f7fffff</color>
		</PolyStyle>
	</Style>
	<StyleMap id="styleMapID00">
		<Pair>
			<key>normal</key>
			<styleUrl>#normal00</styleUrl>
		</Pair>
		<Pair>
			<key>highlight</key>
			<styleUrl>#highlight00</styleUrl>
		</Pair>
	</StyleMap>
	<Style id="normal00">
		<LineStyle>
			<color>7f00ffff</color>
		</LineStyle>
		<PolyStyle>
			<color>7f7fffff</color>
		</PolyStyle>
	</Style>
	<Placemark>
		<name>Elemento_4</name>
		<styleUrl>#styleMapID00</styleUrl>
		<ExtendedData>
			<SchemaData schemaUrl="#schemaID">
				<SimpleData name="MUNICIPIO">AMACUECA</SimpleData>
				<SimpleData name="REGION">SUR</SimpleData>
				<SimpleData name="CLAVE">4</SimpleData>
				<SimpleData name="AREA_KMS2">132.002608357</SimpleData>
				<SimpleData name="GID">3</SimpleData>
			</SchemaData>
		</ExtendedData>
		<Polygon>
			<outerBoundaryIs>
				<LinearRing>
					<coordinates>
						-103.6177282906527,20.07680644201122,0 -103.6166495610926,20.07647338554573,0 -103.6163472036917,20.07647660593947,0 -103.6161122520083,20.07647910812315,0 -103.6163384970547,20.07533424477245,0 -103.6169869012078,20.07418488533565,0 -103.6163044340723,20.07247847717734,0 -103.615768330633,20.07258392265512,0 -103.6149972246376,20.07309988595166,0 -103.6144534482319,20.07256164719337,0 -103.6140746019982,20.07136882382025,0 -103.6128207344773,20.0700220954066,0 -103.6126150460286,20.06967066593004,0 -103.6112528680455,20.0697032672792,0 -103.6108979852249,20.06971610173049,0 -103.6100726584769,20.06970672583115,0 -103.6092237155076,20.07013281339843,0 -103.6088759205585,20.07155096032512,0 -103.6083906023902,20.0710846170474,0 -103.6072202981647,20.0711151482682,0 -103.6047689946961,20.06992574664534,0 -103.6015297464955,20.0685991607502,0 -103.6012063535895,20.06840687524459,0 -103.60037612538,20.06714449870974,0 -103.6003501678087,20.06683711856883,0 -103.5999276231208,20.065966454696,0 -103.5984046157201,20.0641203688028,0 -103.5959813361547,20.06244781195031,0 -103.5956669606177,20.06231883056322,0 -103.5949217944658,20.06224966585632,0 -103.5943363591224,20.06142286792179,0 -103.5943664893534,20.06126048598249,0 -103.594038952728,20.06046284183604,0 -103.5932511479345,20.05981512142898,0 -103.5922695624086,20.0594549594144,0 -103.5911075799986,20.05788272788185,0 -103.5904831322235,20.05714595297008,0 -103.5900994717889,20.05621233724039,0 -103.5891311103544,20.05544571116159,0 -103.5889134872335,20.0551910075327,0 -103.5876368699905,20.05468391407117,0 -103.5872019548543,20.0541383677883,0 -103.5864314695935,20.05369855191436,0 -103.5856329464086,20.05212015974265,0 -103.5851944829497,20.05197209933654,0 -103.5850050649643,20.05177182416345,0 -103.5847848621948,20.05180619973232,0 -103.5841773190694,20.05132250648675,0 -103.5838670275653,20.05074181276199,0 -103.583257140589,20.05052009866621,0 -103.5817780394334,20.05021010212477,0 -103.5808393288793,20.04934429243055,0 -103.5804275271447,20.04942229732849,0 -103.5800756834387,20.04921167870923,0 -103.5792830350772,20.04911496671892,0 -103.5788389297411,20.04853319001114,0 -103.5777425717883,20.04819009876152,0 -103.577512569257,20.04825149011954,0 -103.5770661936721,20.04792265692862,0 -103.5748852822746,20.04804964563854,0 -103.5741999216341,20.04771887932891,0 -103.573922202006,20.04777084674155,0 -103.5726164482108,20.04732665640562,0 -103.5713912652652,20.04643138384061,0 -103.570448547857,20.04601721418106,0 -103.5699711434368,20.04595011301354,0 -103.5686656630828,20.04547879357924,0 -103.5659024327348,20.04446261655982,0 -103.5649665939171,20.04434661191832,0 -103.5642571441151,20.04456671534039,0 -103.5632440915461,20.04453138484599,0 -103.5626003217333,20.04488753180216,0 -103.5619526652642,20.04462026756335,0 -103.5612444452571,20.04470485186762,0 -103.560292215684,20.0453385481922,0 -103.5598822299081,20.04521776227308,0 -103.5590259184009,20.04476809942775,0 -103.5580849795277,20.04416415724949,0 -103.5570754821195,20.04374033981593,0 -103.556219600143,20.04324549548711,0 -103.5554016303532,20.04278709466464,0 -103.5550509119342,20.04245899019983,0 -103.5546627019453,20.04204926886172,0 -103.5545804713194,20.04163301306236,0 -103.554487276556,20.04137025295449,0 -103.5541841109206,20.0410696388925,0 -103.5538133707413,20.04084074731783,0 -103.5535297392778,20.04049511980526,0 -103.5534771821452,20.03997069312792,0 -103.552956148004,20.03945146911702,0 -103.5521395322495,20.03884851483042,0 -103.5503596200578,20.03800277077539,0 -103.5475741911928,20.03694195767291,0 -103.5485563083478,20.03243842437698,0 -103.548939863783,20.02542172020914,0 -103.5512029908316,20.0205773332719,0 -103.558152579374,20.02006782726904,0 -103.5618263540809,20.01696198578635,0 -103.571022749915,20.01029263290372,0 -103.575612804903,20.00628627003926,0 -103.5756096944299,20.0060186820271,0 -103.5756027823603,20.00542393037341,0 -103.5741560411084,20.00061776498363,0 -103.5773143755121,19.99313408080857,0 -103.5804979028109,19.98784153176463,0 -103.5823008765253,19.98343991066205,0 -103.5859679799677,19.97989536621909,0 -103.5882136263166,19.97373596390353,0 -103.5937187342158,19.9688571746015,0 -103.5996972318267,19.96484975997533,0 -103.6033789210306,19.96261951416603,0 -103.6042384122411,19.95691288362492,0 -103.6075943617524,19.95409972837636,0 -103.6111220655418,19.9511424013786,0 -103.6110387754138,19.94413100507569,0 -103.6081805610347,19.93758737354244,0 -103.6043959625337,19.93105355456073,0 -103.6046631267055,19.93099890493235,0 -103.6059823814158,19.93072904134847,0 -103.607384788715,19.93044215749325,0 -103.607783204203,19.93036065322079,0 -103.6077842401348,19.93036039571812,0 -103.6077891965425,19.93037074406043,0 -103.6078416829369,19.93048032965819,0 -103.6082484092641,19.93132952122518,0 -103.6085624451188,19.93136072089596,0 -103.6089604463306,19.9290579075639,0 -103.6107939456934,19.92937066030133,0 -103.6133948689213,19.92978398408892,0 -103.6134051648666,19.92973139205834,0 -103.6127468776408,19.92753813598721,0 -103.611842143588,19.92359365621584,0 -103.61142632151,19.92171118650057,0 -103.6114445645893,19.92161033534335,0 -103.6112881897072,19.91968033353966,0 -103.6106310268926,19.91866239354713,0 -103.6103805967791,19.91775227014781,0 -103.6103192164353,19.91621527128487,0 -103.6102010420835,19.91570714933773,0 -103.6101071413099,19.91530592162387,0 -103.6101913593672,19.91408402877151,0 -103.6099889979229,19.9118125267027,0 -103.6094620151235,19.90859544024887,0 -103.6128581787091,19.9114545081692,0 -103.6136491449855,19.91211972992674,0 -103.6179575379291,19.9157475092025,0 -103.6197245159744,19.91723411423882,0 -103.621738900033,19.92115598456137,0 -103.6260540190509,19.92185309979677,0 -103.6262580807049,19.9218833107724,0 -103.6271814917458,19.92202001659982,0 -103.6321630775108,19.92518840406224,0 -103.6332452139726,19.92505279659892,0 -103.6344782931356,19.9252151491804,0 -103.6344498900628,19.9263142016875,0 -103.6324445093485,19.92762958368033,0 -103.6438352410793,19.93083081740768,0 -103.6438821365722,19.93058348617867,0 -103.6462908968572,19.93103831974368,0 -103.6456440881913,19.93456283977324,0 -103.6475734763565,19.93487577962329,0 -103.647559024093,19.9351604531431,0 -103.6511117934686,19.9358011915414,0 -103.653814482976,19.93612689500376,0 -103.6536114078447,19.93568372749371,0 -103.6536288863883,19.93543639334722,0 -103.6552238428187,19.93473183313278,0 -103.6560305555583,19.93510528736659,0 -103.6566351496248,19.93472931624477,0 -103.6570394687322,19.93479534750935,0 -103.6571751631195,19.93482655313037,0 -103.6573460407477,19.93485286203608,0 -103.6573978832099,19.93483446405459,0 -103.6575412253776,19.93471756124655,0 -103.6576951703367,19.93460108899619,0 -103.6578453614416,19.93449840612407,0 -103.6580080009702,19.93440386172738,0 -103.6580684669443,19.93432545241927,0 -103.6587829044013,19.93461896005153,0 -103.6591687891888,19.93493521367601,0 -103.659443099625,19.93592956962216,0 -103.6601815469505,19.93584642074005,0 -103.6609902842798,19.93582324329185,0 -103.6615054933951,19.93595281031668,0 -103.6614239757356,19.93617213776801,0 -103.6613735263553,19.93630787395266,0 -103.661350944492,19.93640247574422,0 -103.6615399866802,19.9363823989406,0 -103.6615538141952,19.93664695584136,0 -103.6615545245655,19.93675565040016,0 -103.661364702991,19.93677553610751,0 -103.6611761237414,19.93679662264079,0 -103.6611777246648,19.93682636566615,0 -103.6611906689309,19.93706687235169,0 -103.6610017099553,19.93708694753939,0 -103.6607604710298,19.93736982244871,0 -103.6608888081689,19.93767044319391,0 -103.6612695808948,19.93856236809826,0 -103.6597010270837,19.93905874815423,0 -103.6586089224824,19.93937196499125,0 -103.6580423410228,19.93977118221694,0 -103.6576371790047,19.94005082526601,0 -103.6576218884961,19.94043612486868,0 -103.6571645073755,19.94042830384074,0 -103.6536255836802,19.94036775228527,0 -103.6536363911907,19.94013004673003,0 -103.6524501994878,19.94054144277619,0 -103.6526536545821,19.94190968219628,0 -103.6542666184808,19.94423111403068,0 -103.6549151611613,19.94478444171222,0 -103.6552471251527,19.94492564112677,0 -103.6560034555312,19.94515173316115,0 -103.656003565035,19.94536457456119,0 -103.6558513351729,19.94613901764504,0 -103.6559057713368,19.94711260470949,0 -103.6558439994176,19.94760130313388,0 -103.6552369320936,19.94781194060046,0 -103.6548770750108,19.94781186669996,0 -103.6546129933976,19.94747786903889,0 -103.6544542142956,19.94695557565008,0 -103.654361462321,19.9463732013256,0 -103.6541640942474,19.94609940165577,0 -103.6537874552896,19.9460309929357,0 -103.653634588101,19.94608267141691,0 -103.6534991330447,19.94629984785632,0 -103.6533907060906,19.94652358511009,0 -103.6532266624175,19.94680349183479,0 -103.6530788763925,19.94711276285843,0 -103.6528264522301,19.94750525283083,0 -103.6528090910269,19.94789236041002,0 -103.6532050020347,19.94832758010203,0 -103.6534380214083,19.94861001652485,0 -103.6537270440435,19.94938059279109,0 -103.654129991066,19.94969424818676,0 -103.6547175296853,19.94973381362917,0 -103.6556135062018,19.95007299353776,0 -103.6556932999729,19.95032659431398,0 -103.6556882989094,19.95070223590392,0 -103.6554285157743,19.95101901346595,0 -103.6558779731831,19.95186736182084,0 -103.6563668938932,19.95288480539341,0 -103.6565951571682,19.95406872964664,0 -103.6571766331913,19.9581084656614,0 -103.6610062936363,19.95612910914175,0 -103.6642489242986,19.95549564250848,0 -103.6666906998656,19.95766461292988,0 -103.668467796207,19.95562170111706,0 -103.6685240263391,19.95554511884781,0 -103.6695605323399,19.95436141280819,0 -103.6699930454681,19.95424535391679,0 -103.670451373789,19.95424882776068,0 -103.6709130468573,19.95425761811838,0 -103.6720591070447,19.95445076795104,0 -103.6727692685583,19.95457044755358,0 -103.6728704351883,19.95458749555598,0 -103.6728706508075,19.95458753239143,0 -103.673033235637,19.9557929847238,0 -103.6727178143618,19.95664867902811,0 -103.6728321268266,19.95814332944684,0 -103.6714123253644,19.958364609726,0 -103.6713735673651,19.95837065031892,0 -103.6713297461747,19.95837747971904,0 -103.6716724215732,19.95895393586474,0 -103.6728076466943,19.95926780016479,0 -103.6743030619232,19.96002192096499,0 -103.6741803416487,19.96250740400434,0 -103.6730462665155,19.96384358066506,0 -103.6731260128121,19.96486717993147,0 -103.6728836365845,19.96698227828957,0 -103.6729295888116,19.96759827386453,0 -103.6724196302592,19.96900916156163,0 -103.6720872354541,19.97004637693031,0 -103.6722288346287,19.9706431872314,0 -103.6722149144244,19.97106945456944,0 -103.6722888720526,19.97240137823883,0 -103.6732052996106,19.97362428288639,0 -103.6727416927691,19.97490774031475,0 -103.672520648034,19.97564454707243,0 -103.6730105429623,19.97649137520453,0 -103.6732547413049,19.97763103562923,0 -103.6735419615685,19.97837130356872,0 -103.6735153575085,19.9793235602301,0 -103.6735663525562,19.9803474914848,0 -103.671958593696,19.98061001235678,0 -103.671631172971,19.98127546364622,0 -103.6713873596446,19.98172240075551,0 -103.671176910801,19.9833203954534,0 -103.6707320933467,19.98457645305251,0 -103.6704857192237,19.98559459882199,0 -103.6702420065601,19.98605060084464,0 -103.6704967761124,19.98649204770266,0 -103.6704900916349,19.98672784716255,0 -103.6705252230648,19.98724424397693,0 -103.6712015752507,19.98843355735098,0 -103.6731839233252,19.99054231061324,0 -103.6734393384036,19.99258850404421,0 -103.6742862147375,19.99360366682078,0 -103.6753833813416,19.9939179451112,0 -103.6771200386627,19.99476006853706,0 -103.6765920241047,19.99549122131165,0 -103.67636760382,19.99595609139452,0 -103.6751816721096,19.99777341874435,0 -103.6749572431806,19.99823828739461,0 -103.6739459712077,19.99944622604111,0 -103.6740455207936,20.00129469326874,0 -103.6729720136031,20.00290224130887,0 -103.6728488032526,20.00302146515283,0 -103.6733390227568,20.00388644481871,0 -103.6737370038649,20.00660201715038,0 -103.6729271073244,20.00936718467268,0 -103.6731820416966,20.00981770274987,0 -103.6734329835744,20.01072159357832,0 -103.6738940160003,20.0115506336592,0 -103.673187173045,20.01256482275062,0 -103.6727472826318,20.01344913471138,0 -103.6718222781444,20.01388546134013,0 -103.6686782374863,20.01716592542059,0 -103.6682476696768,20.0180319913197,0 -103.6673049974011,20.01937515051323,0 -103.667073926014,20.02008488931199,0 -103.6654178155755,20.02191641077192,0 -103.6651836107762,20.02237231505613,0 -103.6635372612287,20.02422184546251,0 -103.6631062869906,20.02896846266824,0 -103.6619129188362,20.02943487441889,0 -103.6600085096593,20.0305890639656,0 -103.6595221170072,20.03082105351809,0 -103.659963283413,20.03159596810409,0 -103.6602816091646,20.0333061037554,0 -103.6614889078623,20.03397289681211,0 -103.662456422628,20.03464230831785,0 -103.663179811655,20.03496078552144,0 -103.6629406301199,20.03657729636299,0 -103.6622444204657,20.03691132900155,0 -103.6620038112466,20.03763024234256,0 -103.6613098913457,20.03893439533129,0 -103.6622777748073,20.0396310081315,0 -103.6632327379573,20.04005575118936,0 -103.6636217205,20.04204619144193,0 -103.6630472408109,20.04370265571768,0 -103.6627351940877,20.045637318402,0 -103.6611606036732,20.04710526397839,0 -103.6611936776519,20.04823826387519,0 -103.6607185548484,20.04939496031867,0 -103.6610126354435,20.05068831014781,0 -103.6609973729947,20.05257439797466,0 -103.6622002567016,20.0536492605682,0 -103.662228004332,20.05434711123419,0 -103.660233088902,20.05597379980378,0 -103.6588637867784,20.05462873012747,0 -103.6582744390879,20.05351087011042,0 -103.6570462946654,20.05350615197241,0 -103.6564516309435,20.05352171072743,0 -103.6562118025104,20.05352432854323,0 -103.6539354921637,20.05411130400105,0 -103.6536924554123,20.05385101178909,0 -103.6521414345408,20.05333295623616,0 -103.6507166816389,20.05294044793124,0 -103.6487016840705,20.05134844082004,0 -103.647326573302,20.05188018834609,0 -103.6471052567277,20.05340583364922,0 -103.6456937436196,20.05331234464801,0 -103.6445295180374,20.05462153701991,0 -103.6435104087525,20.05524006218869,0 -103.6424170699759,20.05606792360872,0 -103.6402181103725,20.05591943417564,0 -103.639452456226,20.05687067039385,0 -103.6392375105411,20.0573444742929,0 -103.6383540385313,20.05728147803677,0 -103.6370100158657,20.05801227178843,0 -103.6358043022985,20.05827914810854,0 -103.6344626621571,20.05920936703275,0 -103.6337264704969,20.05942583444907,0 -103.6327177428403,20.06011671309763,0 -103.6185415939208,20.0781431076766,0 -103.6177282906527,20.07680644201122,0 
					</coordinates>
				</LinearRing>
			</outerBoundaryIs>
		</Polygon>
	</Placemark>
</Document>
</kml>
