<?xml version="1.0" encoding="UTF-8"?>
<kml xmlns="http://www.opengis.net/kml/2.2" xmlns:gx="http://www.google.com/kml/ext/2.2" xmlns:kml="http://www.opengis.net/kml/2.2" xmlns:atom="http://www.w3.org/2005/Atom">
<Document>
	<name>Elemento_25.kml</name>
	<StyleMap id="styleMapID00">
		<Pair>
			<key>normal</key>
			<styleUrl>#normal00</styleUrl>
		</Pair>
		<Pair>
			<key>highlight</key>
			<styleUrl>#highlight00</styleUrl>
		</Pair>
	</StyleMap>
	<Style id="highlight00">
		<LineStyle>
			<color>7f7f00ff</color>
		</LineStyle>
		<PolyStyle>
			<color>7f7f55ff</color>
		</PolyStyle>
	</Style>
	<Style id="normal00">
		<LineStyle>
			<color>7f7f00ff</color>
		</LineStyle>
		<PolyStyle>
			<color>7f7f55ff</color>
		</PolyStyle>
	</Style>
	<Placemark>
		<name>Elemento_25</name>
		<styleUrl>#styleMapID00</styleUrl>
		<ExtendedData>
			<SchemaData schemaUrl="#schemaID">
				<SimpleData name="MUNICIPIO">COLOTLÁN</SimpleData>
				<SimpleData name="REGION">NORTE</SimpleData>
				<SimpleData name="CLAVE">25</SimpleData>
				<SimpleData name="AREA_KMS2">646.523627985</SimpleData>
				<SimpleData name="GID">24</SimpleData>
			</SchemaData>
		</ExtendedData>
		<Polygon>
			<outerBoundaryIs>
				<LinearRing>
					<coordinates>
						-103.2875424753766,22.25477679570369,0 -103.2865209646302,22.25450249640615,0 -103.285804643315,22.25436101683516,0 -103.2855209827427,22.25430499067094,0 -103.285189155107,22.25423944957431,0 -103.2841589719701,22.25410551117529,0 -103.2833321857036,22.25402797232872,0 -103.282083038709,22.25410376932989,0 -103.2818634282751,22.25394856235159,0 -103.2813485725746,22.25382198483447,0 -103.2812277103009,22.25380744559674,0 -103.2808906970297,22.25376690397322,0 -103.2804100823536,22.25360360130006,0 -103.2801595290301,22.25350331945508,0 -103.2801972128062,22.25343560466662,0 -103.2802462666903,22.25334746025768,0 -103.2802555021138,22.25333086442986,0 -103.2802555318994,22.25333081055224,0 -103.2803752429125,22.25311570225001,0 -103.2806666170343,22.25268569641296,0 -103.2809134035213,22.25233045312278,0 -103.281232953674,22.2518161382669,0 -103.2815672635514,22.25132642213627,0 -103.2819508307433,22.25081024560038,0 -103.2823628330721,22.25030650493654,0 -103.2829138677939,22.24965906451847,0 -103.2833979674248,22.24930328956535,0 -103.2842186616799,22.2486284101582,0 -103.2847302019608,22.24822420341004,0 -103.2852498515596,22.24792504597073,0 -103.2858748705256,22.24756870050883,0 -103.2863199632679,22.24710361396414,0 -103.2864231653638,22.24697143221849,0 -103.286792400708,22.24649851338389,0 -103.2868938808065,22.24636441919913,0 -103.2874283550353,22.24565817111905,0 -103.2880761980065,22.24482003466185,0 -103.2883762756515,22.24436182409342,0 -103.2887193928556,22.24388374891689,0 -103.289031425626,22.24370921453367,0 -103.2894557166925,22.24358901254097,0 -103.2896576069839,22.24347517742857,0 -103.289745436911,22.24339374058222,0 -103.28983714133,22.24352919126507,0 -103.2901052436665,22.2437740735149,0 -103.290487134918,22.24408207605023,0 -103.2913024724579,22.24321512538702,0 -103.2926015736695,22.24183728721021,0 -103.2935746850558,22.2407555281223,0 -103.2942475859481,22.24007386837889,0 -103.2943085106079,22.23972693859511,0 -103.294371454488,22.2388766913177,0 -103.2942315367379,22.2378220738585,0 -103.2941681713032,22.23701918690742,0 -103.2943086478549,22.23642156990691,0 -103.2947041107102,22.23496846060849,0 -103.2948348120708,22.23386617928313,0 -103.2948267548484,22.23333698907148,0 -103.2946213304402,22.23276678991328,0 -103.2945897857445,22.23273165012479,0 -103.294167797812,22.23252972968487,0 -103.2936336461142,22.23213101944113,0 -103.2932872567209,22.23199932380849,0 -103.2928702653483,22.23204941690644,0 -103.292564789639,22.23211928374744,0 -103.2922936310975,22.23194254603059,0 -103.292070212342,22.23159698360121,0 -103.2910403089285,22.23099135961855,0 -103.2895601732267,22.23048806833072,0 -103.2890178118047,22.23018342452815,0 -103.2884942748923,22.22987861860757,0 -103.288047181761,22.22969568110023,0 -103.2874171951462,22.22941922254121,0 -103.2867103520783,22.22915177632859,0 -103.2863341035594,22.22916075310938,0 -103.2856769809055,22.22931207917039,0 -103.285125913581,22.22940418298184,0 -103.2846483073292,22.22930899431087,0 -103.2842187432234,22.22899172411238,0 -103.283982483693,22.22855616915404,0 -103.2839209960189,22.22804310376867,0 -103.2836143127396,22.22738113846501,0 -103.2834910134225,22.22726647044467,0 -103.2831546956045,22.22688175191976,0 -103.282767750312,22.22665434906684,0 -103.2819870728112,22.2263825102224,0 -103.2816779932698,22.22624988919798,0 -103.2815141014844,22.22610015552414,0 -103.2812912813682,22.22604634102183,0 -103.281144335337,22.22588056026934,0 -103.2810496837525,22.2258177264682,0 -103.2808873188253,22.22582702956791,0 -103.2803574813211,22.22585529155511,0 -103.2801596225498,22.2257296969583,0 -103.2799751200407,22.22566758141003,0 -103.2797907780388,22.2256055206553,0 -103.279472693284,22.22542525369243,0 -103.2792313285681,22.22522049374357,0 -103.2790166796751,22.22512684571639,0 -103.2789292796091,22.22492875843828,0 -103.2787236364688,22.22488275020043,0 -103.2781069072966,22.22490973862971,0 -103.277866232174,22.22477654245873,0 -103.2778223412595,22.2246576184381,0 -103.277331833428,22.22432768070981,0 -103.2772791660501,22.22418497159401,0 -103.2771233771333,22.22398745152919,0 -103.2767325368366,22.22382728764397,0 -103.2763773044757,22.22375505855452,0 -103.2760764221318,22.22352613767677,0 -103.2758862668197,22.2234820792739,0 -103.2756071609238,22.22330310438353,0 -103.2754646753085,22.22326434655345,0 -103.2753429530318,22.22315554098655,0 -103.2747225255428,22.22306841775941,0 -103.2724635976777,22.2217599697539,0 -103.2713694388949,22.2211261748834,0 -103.2719807694754,22.22081882556314,0 -103.272344366621,22.22040095236811,0 -103.2725133792527,22.21998781618609,0 -103.2721812525279,22.21980617038967,0 -103.2721601168548,22.21956927336972,0 -103.2723062074862,22.21905002092305,0 -103.2727280379884,22.2187392222421,0 -103.2732152675887,22.21835763497402,0 -103.2735986551727,22.21802028441251,0 -103.2740734720168,22.21745583967897,0 -103.2745959491501,22.21692293602771,0 -103.2749947729974,22.21628905267004,0 -103.2753562411439,22.21561058339464,0 -103.2755392307717,22.21500251504207,0 -103.2757040947924,22.2145194537621,0 -103.2765311242004,22.2133740484277,0 -103.2767899367724,22.21286205339479,0 -103.2772365248288,22.21220608954152,0 -103.2776826443629,22.21159808141805,0 -103.2782227799261,22.21083568581133,0 -103.2783930090522,22.21008260611229,0 -103.2783977841148,22.20909974732787,0 -103.2785385760382,22.20826340952342,0 -103.2788013353354,22.20753404329345,0 -103.2790378281809,22.20694295675911,0 -103.2794741654228,22.20633211742486,0 -103.2796778589263,22.20600131410911,0 -103.2797796368423,22.20522792187106,0 -103.2798882012533,22.20455251705576,0 -103.2796886298713,22.20438225554573,0 -103.2798967354597,22.20409722256099,0 -103.2799634992915,22.20379428743874,0 -103.2799884270671,22.20339762377836,0 -103.28012398605,22.20308513772354,0 -103.2801227526428,22.20295641254249,0 -103.2799024467712,22.20276852876641,0 -103.2797856193168,22.2025499332913,0 -103.2798901422323,22.20234066278836,0 -103.2800280206221,22.20218899566343,0 -103.2797212126625,22.20186848350141,0 -103.2797713932754,22.20173645521898,0 -103.2797345154436,22.20126858221548,0 -103.2792759060239,22.20105702764777,0 -103.278644715695,22.1999704059418,0 -103.278265732517,22.19962884543878,0 -103.278160416087,22.19909059819634,0 -103.2779704008431,22.19867285888894,0 -103.277790305513,22.19803916129492,0 -103.2774498889802,22.1971014968464,0 -103.276849309004,22.19699118624175,0 -103.2763674524168,22.19624714738738,0 -103.2758545098098,22.1956159326492,0 -103.2754357067454,22.19514461855085,0 -103.2746931409805,22.19476222464351,0 -103.2743094655997,22.19439592255016,0 -103.2736838115929,22.19390362117789,0 -103.2736440605184,22.1937799300811,0 -103.2733974947408,22.19301270721068,0 -103.2733888760773,22.1924154413797,0 -103.2732551924456,22.19189001994443,0 -103.2730303432752,22.19161772113884,0 -103.2728015607367,22.19134397414485,0 -103.2723140737684,22.19120379690439,0 -103.2718741545421,22.19087968648952,0 -103.272154648437,22.19073971752016,0 -103.2723044219965,22.19027139282465,0 -103.2724921163884,22.18970143789769,0 -103.2725454776126,22.18945069251808,0 -103.2727443824714,22.18921227340967,0 -103.2733718344279,22.18822967007422,0 -103.27371077535,22.18764190455111,0 -103.2740435093074,22.18720957883338,0 -103.2742729199152,22.18690129043239,0 -103.2745249387339,22.18652414091421,0 -103.2745232704031,22.18640071530276,0 -103.2745166930373,22.18591399599162,0 -103.2748572115254,22.18554746681834,0 -103.2749681023899,22.18496563542787,0 -103.2747585073367,22.18451956290465,0 -103.2747961604545,22.1832901572506,0 -103.2738884677258,22.18215515078562,0 -103.2740538926862,22.18188898486577,0 -103.274322577555,22.18153032188997,0 -103.2746066392094,22.18127557869915,0 -103.2747268200443,22.18117544318504,0 -103.2749500991662,22.18110230331747,0 -103.2751048393436,22.1809502144511,0 -103.2751862242724,22.1808316374413,0 -103.275249669565,22.18068238036876,0 -103.2752382271352,22.18039938154413,0 -103.2752155854845,22.18018843962025,0 -103.275301845475,22.17990095878247,0 -103.275625071683,22.17896936161217,0 -103.2757552451222,22.17863726577115,0 -103.2759580998929,22.17827995009125,0 -103.2759923147835,22.17812517842791,0 -103.2760424058549,22.17789859340027,0 -103.2760869964541,22.17763855731242,0 -103.2761786957986,22.17718331763203,0 -103.2763044278348,22.17699877745933,0 -103.2765084202527,22.17675021491032,0 -103.2768889043295,22.17639539894164,0 -103.2773766224508,22.17622128683247,0 -103.2776940739607,22.17616055315003,0 -103.2780245174594,22.17605617081608,0 -103.2783174087548,22.1758927083019,0 -103.2787705516484,22.17558123129526,0 -103.2794133645124,22.17492316848466,0 -103.2796620718138,22.1742352965457,0 -103.2797005534605,22.1735989950621,0 -103.2798007630621,22.17316845110329,0 -103.2805723378867,22.17219718380311,0 -103.2808713295051,22.17170835560367,0 -103.2813124371698,22.17111437411506,0 -103.2817429258024,22.17063922894215,0 -103.2821495359951,22.17019855215486,0 -103.2823281039327,22.16986852474336,0 -103.2826306549461,22.16893532814467,0 -103.2827090160438,22.16850336002757,0 -103.2828145282427,22.16793773051055,0 -103.2827509017249,22.16742816349554,0 -103.2826429777048,22.1670666647084,0 -103.2828055763005,22.16693288163263,0 -103.2829323783224,22.16677800037025,0 -103.2831259164067,22.16650769908676,0 -103.2831506001001,22.16622761975021,0 -103.2829088543829,22.16601671274223,0 -103.2827713434285,22.16588097880128,0 -103.2827606017487,22.16567197061043,0 -103.2828614655806,22.1652397569281,0 -103.2829755630235,22.16485393178855,0 -103.2829462640262,22.16442656583913,0 -103.2830053858249,22.16350199087612,0 -103.2831421113471,22.16316330059402,0 -103.2832900276039,22.16295989111544,0 -103.2836809707803,22.16231307563038,0 -103.2839097371959,22.16177597933861,0 -103.2842421140761,22.16148140967749,0 -103.284248464946,22.16147308989386,0 -103.284513497716,22.16134593886659,0 -103.2846268752817,22.1612233655507,0 -103.2846706922262,22.16117599502586,0 -103.2846721014487,22.16116316798647,0 -103.2847033899153,22.1608783004414,0 -103.2849086184856,22.16074498763333,0 -103.2851354254332,22.16043127201776,0 -103.2850880475374,22.16034045886816,0 -103.2850346976858,22.15994251269765,0 -103.2848842937062,22.15955257695186,0 -103.2848868120171,22.15934487949348,0 -103.2854223066287,22.15916085121186,0 -103.2861259542466,22.15950241479521,0 -103.2865225532291,22.15957883556979,0 -103.286717208788,22.15951766100277,0 -103.2868154661434,22.15941031579379,0 -103.2867016479453,22.15920139558333,0 -103.2866648388384,22.15903844205699,0 -103.2867334656577,22.15897594288987,0 -103.2868995837384,22.15886931073245,0 -103.2870864026286,22.15865451807707,0 -103.2871462093854,22.15851967416575,0 -103.2871205157516,22.1582394281891,0 -103.2869491876628,22.1579757150198,0 -103.28677665721,22.15781133538912,0 -103.286622422173,22.15773746270286,0 -103.2864576178855,22.15773573066049,0 -103.2862546925106,22.15767940885282,0 -103.2860424011784,22.15759589389333,0 -103.2858404609853,22.15745829861238,0 -103.2858524531263,22.15726876358288,0 -103.286059972709,22.15694581188588,0 -103.286202037886,22.15642347922206,0 -103.2861510921615,22.15582686577655,0 -103.2863869257585,22.15556743147172,0 -103.2864494658794,22.15520682932142,0 -103.2865807533227,22.15486091765191,0 -103.286599690592,22.15481102260356,0 -103.2867213786977,22.15436975840616,0 -103.286794158038,22.15396410614594,0 -103.2869369820419,22.15337855991162,0 -103.2869490812978,22.15317999425433,0 -103.2867974750631,22.15288939383588,0 -103.2864812898172,22.15257900098904,0 -103.2855918906984,22.15156715770335,0 -103.2850843496103,22.15104702638531,0 -103.2847108845433,22.15066377621715,0 -103.2843241148588,22.15057842426439,0 -103.2838070545382,22.15084392809699,0 -103.2831845645698,22.1510089740017,0 -103.2826331087107,22.15091285270435,0 -103.2818641764788,22.15036286469761,0 -103.2813341956826,22.15009536743326,0 -103.2811422935175,22.14993077839473,0 -103.2810920276475,22.14927998252103,0 -103.2809408761821,22.14895325628849,0 -103.2807422440579,22.14854474615688,0 -103.2805807421666,22.14827209937397,0 -103.2802933328647,22.1479890934186,0 -103.2799452387185,22.14791317084873,0 -103.2795875901006,22.14786967630701,0 -103.2791320691426,22.14781427807084,0 -103.2792574288139,22.14804315762095,0 -103.2794355696481,22.1483683997629,0 -103.2793770010118,22.14919867693823,0 -103.2793162035251,22.14941479070506,0 -103.2789627256524,22.14978135091769,0 -103.2787306239535,22.14973374401172,0 -103.2784398105217,22.14973067433088,0 -103.2776385464112,22.1502460386452,0 -103.277050980941,22.15072753077333,0 -103.276159491396,22.15148578315523,0 -103.2750261943741,22.15219631510382,0 -103.2744313439872,22.15327379520916,0 -103.2741934024898,22.15449955362583,0 -103.2741610164412,22.15556492123969,0 -103.2740917252632,22.15568159655043,0 -103.2740273910189,22.15618667633032,0 -103.2736841245334,22.15730294083125,0 -103.2736003412906,22.15751874952411,0 -103.2732336630428,22.15846322603358,0 -103.2726848250668,22.15894510952647,0 -103.2704562892828,22.16041166795695,0 -103.2702495028845,22.16067138527133,0 -103.2698980713452,22.16086634724954,0 -103.269432845934,22.16085237771951,0 -103.2691041171594,22.16077663628036,0 -103.2680151280355,22.1610269810112,0 -103.2671311585795,22.16116208938502,0 -103.2666638304315,22.16131968638333,0 -103.2654399965497,22.16149632827883,0 -103.2647892452297,22.16158874804273,0 -103.2625834196376,22.1621260782598,0 -103.2557448374665,22.16144706574126,0 -103.2545839535536,22.16123594987247,0 -103.2518013309579,22.16044749780268,0 -103.2513477047699,22.16028006803082,0 -103.2510851754071,22.16034047127231,0 -103.2502779979171,22.15975380280669,0 -103.2499714664455,22.15945247775728,0 -103.2489604958787,22.1588816781787,0 -103.2486265634639,22.15844458622831,0 -103.2481454309339,22.1581504136417,0 -103.2478014730061,22.15774030651815,0 -103.2475914452511,22.15747613997361,0 -103.2473297031779,22.15747332639286,0 -103.24719633468,22.15728223427106,0 -103.2471341820079,22.15682096726523,0 -103.2463857653912,22.15618975624706,0 -103.2459236975338,22.1559228767776,0 -103.2455765039414,22.15577463968875,0 -103.2451264852259,22.15531822953927,0 -103.2449621867256,22.15449460886797,0 -103.2453217582236,22.1544262280048,0 -103.245158977382,22.15426191196973,0 -103.2448486599918,22.15426760327917,0 -103.2444991187947,22.15430899707176,0 -103.2432327520425,22.15322965999095,0 -103.2425191733233,22.15213821004488,0 -103.242087665812,22.15175424267929,0 -103.242068344224,22.15096830807455,0 -103.242195436354,22.15010266961536,0 -103.2418995490095,22.14950187635407,0 -103.2416185992559,22.14893140841424,0 -103.233699028159,22.13407962297347,0 -103.2339941937527,22.13373059611052,0 -103.2338712321005,22.13348541945717,0 -103.2328274911906,22.13323027340215,0 -103.232258005572,22.13303444721221,0 -103.2321721264719,22.13292514098751,0 -103.2321069847842,22.132707683548,0 -103.2324027144105,22.13231350907287,0 -103.232472589164,22.13215170214424,0 -103.2327075713377,22.13196458942148,0 -103.2326532481438,22.13165693608355,0 -103.2323888500144,22.13109413031697,0 -103.2324340417419,22.13057983435908,0 -103.2318035972277,22.12983243621002,0 -103.2308708991957,22.12922626081792,0 -103.2308178211087,22.12881927602829,0 -103.2315916145594,22.12740071336969,0 -103.2314289940461,22.12645066222402,0 -103.2308601056623,22.12543298866225,0 -103.2306659299712,22.12545797786137,0 -103.2303650308554,22.12549084108976,0 -103.2301010943802,22.12566860570106,0 -103.2298469619666,22.12583744485346,0 -103.2295829113931,22.12602423862867,0 -103.2293677711077,22.12617543726734,0 -103.2288081075139,22.12674736906748,0 -103.2282178953575,22.12743637409486,0 -103.2278942193176,22.12773992455898,0 -103.2272514958014,22.12797678993587,0 -103.226192320502,22.12895872517404,0 -103.2256160764238,22.12930468177578,0 -103.2249743607914,22.1294602667978,0 -103.224097882144,22.12978488930729,0 -103.2235123908121,22.13009461216781,0 -103.223131791814,22.13029818831788,0 -103.2225062812938,22.1307068157458,0 -103.2221816792015,22.13108259387981,0 -103.2222359792494,22.13139024920921,0 -103.221940564899,22.13175731339833,0 -103.2216567685858,22.13197097172587,0 -103.2213382844107,22.13185912520639,0 -103.2211359943938,22.13175757604718,0 -103.220962894828,22.13164731360659,0 -103.2208355345964,22.13175430045929,0 -103.2207241557651,22.13213239989879,0 -103.2206599899546,22.13261035812812,0 -103.2204450574001,22.13274348350539,0 -103.2202421995663,22.13268708341514,0 -103.2200392284336,22.13263971312347,0 -103.2198749131776,22.13260179556779,0 -103.2197492537259,22.13257333086082,0 -103.2195746788115,22.13258045746363,0 -103.2194096826758,22.13259671967767,0 -103.2191378441368,22.13262987827453,0 -103.2188832326136,22.13283481865697,0 -103.2187067268042,22.13299545488106,0 -103.2185208689941,22.13312889497043,0 -103.2182965822565,22.13323482141084,0 -103.2180819875454,22.13334085336324,0 -103.2181095877088,22.13345856128462,0 -103.2181658105823,22.13361270684577,0 -103.2182520194771,22.13369492965794,0 -103.2182994589692,22.13377672910388,0 -103.218171754032,22.13391080367967,0 -103.2180246640658,22.13404466643785,0 -103.2177815588615,22.13410523019538,0 -103.2176345819777,22.13423006253377,0 -103.2174982064447,22.13428276039458,0 -103.2171985375671,22.13421626758263,0 -103.2168505207329,22.13414021461966,0 -103.2165974951844,22.13421873069031,0 -103.2163907706964,22.13446934649047,0 -103.2162911170991,22.13468500744802,0 -103.215601930969,22.1347587532592,0 -103.2153559790145,22.13504506362364,0 -103.2151026097376,22.13515066724514,0 -103.214840572066,22.13517489429319,0 -103.2143731711654,22.13534137367902,0 -103.214168718537,22.13541138608741,0 -103.2138567374568,22.13555247116845,0 -103.2136127170668,22.13568526845612,0 -103.2131345126061,22.14579984198513,0 -103.2125814495086,22.14563485922106,0 -103.2122746741503,22.14554334398433,0 -103.2105768368078,22.14421311156165,0 -103.2094994851988,22.14468457516728,0 -103.2087335949062,22.14511727262374,0 -103.2075701572014,22.14469064364239,0 -103.2071514257103,22.14472116307696,0 -103.2054914793459,22.14434380328273,0 -103.2036550257913,22.14276038818942,0 -103.2029316706474,22.14034213098934,0 -103.2011035580429,22.13891454946023,0 -103.2008022706774,22.13867926863402,0 -103.1986550951092,22.13828747926874,0 -103.1977934839592,22.13891151169483,0 -103.1953916102826,22.13945672490048,0 -103.193934740101,22.13998549516099,0 -103.1930842338064,22.13967434809917,0 -103.1874676490126,22.13921847165298,0 -103.1864194048941,22.13968046966806,0 -103.1860337011831,22.14013735699082,0 -103.1841537888529,22.14131385348478,0 -103.1833747966351,22.14137431449989,0 -103.1829652503558,22.14134114879023,0 -103.1817010926837,22.14163228600216,0 -103.1807217364211,22.14217542164824,0 -103.1792904032626,22.14229533311032,0 -103.178105515497,22.14163261142126,0 -103.1758571700474,22.14081459813401,0 -103.1756012063322,22.14051696922779,0 -103.1745545150505,22.1400528872414,0 -103.1739132222103,22.13914994970785,0 -103.1736547939277,22.13857090920351,0 -103.1730825133355,22.13775822442618,0 -103.1722227518206,22.13638487356311,0 -103.1704871354463,22.13401957015406,0 -103.1702966075015,22.13338421914144,0 -103.1696641408259,22.13127510787827,0 -103.1683544708678,22.12969635711177,0 -103.1678774643852,22.12862874169575,0 -103.1672606719566,22.12828844603308,0 -103.1666835664055,22.12802955144969,0 -103.1661451161313,22.12773404916126,0 -103.1655680151101,22.12747515090785,0 -103.1650392337031,22.12717049341723,0 -103.1644622164138,22.12692066863532,0 -103.1639236962088,22.12661608158081,0 -103.161902920295,22.12615927971828,0 -103.1605892468711,22.12522505261704,0 -103.1595329852349,22.12476094362834,0 -103.1578058459416,22.12333050475531,0 -103.1549264878799,22.12385144030014,0 -103.1539180829588,22.124412776654,0 -103.1534960391309,22.12454139577995,0 -103.1530629610422,22.12467337669782,0 -103.1500689370532,22.12659313101191,0 -103.1480547597712,22.126898671906,0 -103.1464742244705,22.12778196477544,0 -103.1459855444327,22.12760403896522,0 -103.1458533128958,22.1246818280446,0 -103.1455562986686,22.12413026554724,0 -103.1459781059734,22.12332824039835,0 -103.1455737119623,22.12161546349911,0 -103.1452865262035,22.12107290704052,0 -103.145016433955,22.1191140189224,0 -103.1447292556902,22.11857146097327,0 -103.1446185648248,22.11798889156501,0 -103.1444639967248,22.11717538700468,0 -103.1442754248622,22.116931576321,0 -103.1297105022742,22.11205931031855,0 -103.1313644073745,22.10810183604328,0 -103.1317763314527,22.10711614149215,0 -103.1317780604161,22.10711224542235,0 -103.1316225263549,22.10704480823484,0 -103.1313895985355,22.10705653430812,0 -103.1311290992245,22.10696125701815,0 -103.1309415377486,22.10668706049735,0 -103.1306440685501,22.10649169444059,0 -103.1303089298401,22.10640435778423,0 -103.1298875254371,22.10623370095038,0 -103.1298443218542,22.10621620451557,0 -103.1294970815042,22.10621875299624,0 -103.1292961202378,22.10602866126141,0 -103.1291690701104,22.1056862126547,0 -103.128913250883,22.10550874687944,0 -103.1286914527509,22.10548019123334,0 -103.1287341397997,22.10520450043345,0 -103.1285500274585,22.10515822323732,0 -103.1283756585118,22.1052059886191,0 -103.1282190915697,22.10525030118077,0 -103.1280485951008,22.10533455957487,0 -103.1279388712528,22.10543497628332,0 -103.1278073560955,22.10548906620405,0 -103.1276841209906,22.10551087129111,0 -103.1267750297139,22.10470741844004,0 -103.1266460476429,22.10442967644009,0 -103.1266166911844,22.10418515049361,0 -103.1265989005357,22.10403695506932,0 -103.1269704043652,22.10361665883892,0 -103.1275545238597,22.10322657644698,0 -103.1277121687217,22.10286049596687,0 -103.1280299795337,22.10219639986894,0 -103.1284277410057,22.10200285146508,0 -103.1290098859792,22.1017262500335,0 -103.1296548755579,22.10139381033817,0 -103.1302367697863,22.10108815771072,0 -103.1305124986872,22.100863728076,0 -103.1309421666012,22.1006427056166,0 -103.1311854831084,22.10061731442362,0 -103.1313114402958,22.10030683851032,0 -103.1314391272318,22.0998556441575,0 -103.1318368769324,22.09966208660201,0 -103.1322903348299,22.09995014657839,0 -103.132662072895,22.09933103262841,0 -103.1329083091289,22.09930561792996,0 -103.133552792158,22.09891597688789,0 -103.1342898512706,22.09830143013024,0 -103.135029340288,22.09762967245956,0 -103.1350931536713,22.09046234242839,0 -103.135336450337,22.09043694552116,0 -103.1359979545328,22.09125359709924,0 -103.1366956823185,22.09140367361058,0 -103.1376978332434,22.09149975420228,0 -103.1386432614533,22.09134025574087,0 -103.1389109445655,22.09116239589872,0 -103.1391033341375,22.09103456353786,0 -103.1392660557252,22.09035525386907,0 -103.1393313563532,22.0900170791025,0 -103.1399100045823,22.08991021584913,0 -103.1406447720872,22.08960702293533,0 -103.1411040979241,22.08921509123867,0 -103.1413661215591,22.08909784661292,0 -103.1415941057711,22.08899449978707,0 -103.1423033009943,22.08843549736366,0 -103.1428235088555,22.08810211421535,0 -103.1430422139258,22.0877074247856,0 -103.1434131393337,22.08723081325884,0 -103.1439743959532,22.08714221918151,0 -103.1461740840961,22.08752163861968,0 -103.1484632865957,22.08754814470695,0 -103.1513825912026,22.08801561783822,0 -103.152783756072,22.08762204901289,0 -103.1525964413226,22.0862318393354,0 -103.152451068328,22.08428303704223,0 -103.1524202757983,22.083874771209,0 -103.1521556588861,22.08255504000082,0 -103.1525815941096,22.0805565741907,0 -103.1538959719376,22.0756474979305,0 -103.1548295561235,22.07323037209817,0 -103.1548432538552,22.07312496841293,0 -103.1547611658504,22.07264174418804,0 -103.15428531625,22.07223681999025,0 -103.1495759797806,22.07082782043141,0 -103.1479142124516,22.07034186363575,0 -103.1464795566017,22.06976341991152,0 -103.1455005363403,22.06916614042453,0 -103.1448259762147,22.0685248321264,0 -103.144374015773,22.06792042654377,0 -103.1424694322635,22.06764043052661,0 -103.1424306791517,22.06755878758384,0 -103.1410115324856,22.06737985245968,0 -103.1374957225496,22.06693650184002,0 -103.1348903210336,22.06660789761342,0 -103.1294650651376,22.06600814511504,0 -103.1279581976094,22.06583360678923,0 -103.1256552001787,22.0655683104952,0 -103.1230047506864,22.06524929427459,0 -103.1107149739725,22.06374142452696,0 -103.1099382398683,22.06364196675499,0 -103.1097665977976,22.06361500470754,0 -103.1090902250847,22.06353471672801,0 -103.1087393224285,22.06349384806773,0 -103.1087048173331,22.06348660818255,0 -103.1079086102958,22.06339578413873,0 -103.1072735078015,22.05801193797963,0 -103.1068618379482,22.05454060938317,0 -103.1066619233342,22.05281658949071,0 -103.1066522569634,22.052708314919,0 -103.1063723655597,22.04921262669424,0 -103.1063674416389,22.04917375560756,0 -103.1062127859464,22.04706460549878,0 -103.1061653565729,22.04701048241067,0 -103.1061657382611,22.04698821744394,0 -103.1064341771512,22.04699222457692,0 -103.1071368438819,22.04683012703661,0 -103.1072947796435,22.04626527384487,0 -103.1074728069971,22.04448206628949,0 -103.1080166542142,22.041959128604,0 -103.1080730265346,22.04088938642438,0 -103.1080110730513,22.04046318848637,0 -103.1084511251006,22.03916465214178,0 -103.1094729167559,22.0388613584325,0 -103.111373430896,22.03931785641083,0 -103.1133547396421,22.03988721571317,0 -103.1138691552199,22.04004144168956,0 -103.1140653802086,22.03905147521025,0 -103.1134903250584,22.03839660870968,0 -103.1134963044345,22.03794541197386,0 -103.1131169008568,22.03739987366076,0 -103.1124508966243,22.03657863566003,0 -103.1117827427612,22.03584909370082,0 -103.1115965912244,22.03512423557825,0 -103.1111183938672,22.0347564196989,0 -103.111124388918,22.03430613018956,0 -103.1106468778552,22.0336687057345,0 -103.1105576603643,22.03312560545913,0 -103.1102794618646,22.03221895349167,0 -103.1098027153393,22.03167229629885,0 -103.1099060636709,22.03122039780323,0 -103.1098194813615,22.0304076761955,0 -103.110018037734,22.0300485895149,0 -103.1103120169101,22.02969062885189,0 -103.1101228118136,22.02941694550486,0 -103.1094460984681,22.02941002754122,0 -103.1091551906266,22.02931681097304,0 -103.1090645592076,22.02895436386789,0 -103.1091633441745,22.02877391764107,0 -103.1095520754829,22.02868850799452,0 -103.1101347994518,22.02851546235016,0 -103.1102393525493,22.02797459581981,0 -103.1102453346539,22.02752249260577,0 -103.1095678695494,22.0274238971389,0 -103.1092813160134,22.02715091545554,0 -103.1091885040949,22.02687744355287,0 -103.1089019523557,22.02660446131777,0 -103.108810571785,22.02615124506418,0 -103.1089117648286,22.02579195363586,0 -103.1094038328596,22.025254648005,0 -103.1095999885815,22.02507622186245,0 -103.1096086036911,22.02435449831408,0 -103.1095179751727,22.02399205234731,0 -103.1097179517977,22.02345322175038,0 -103.1102052194486,22.02327723336219,0 -103.1105051717934,22.02246807882086,0 -103.1110912271393,22.02211345509797,0 -103.1112945537132,22.02139304825461,0 -103.1115892651434,22.02112585635041,0 -103.1114026963009,22.0205825550151,0 -103.1108264423031,22.02012376632444,0 -103.1104504599263,22.01939665130314,0 -103.1102638981998,22.01885334814536,0 -103.1102736952397,22.01803993501095,0 -103.1099909760242,22.01740564430312,0 -103.1103830266135,22.01713775263806,0 -103.1112651869878,22.01633619447828,0 -103.1111771712873,22.015702314734,0 -103.1110869980192,22.01516013338129,0 -103.1111925099059,22.01461926127798,0 -103.1114864512028,22.01426130081159,0 -103.1119729438348,22.01399635241366,0 -103.1124577899179,22.01400192438192,0 -103.1128502767902,22.01355428858896,0 -103.1129498073876,22.01346551757696,0 -103.1132389549372,22.0134679637453,0 -103.1139163523205,22.0135665423145,0 -103.1139185232448,22.01347665906994,0 -103.114212455483,22.01311869390738,0 -103.115085750271,22.0131277964767,0 -103.1158619259646,22.01304773167466,0 -103.1168310774912,22.01287821059046,0 -103.1171211969455,22.01288064205266,0 -103.1176938610833,22.01360994114427,0 -103.1184607123024,22.01416081621267,0 -103.119035985858,22.01461867484651,0 -103.1199975746106,22.01517266359281,0 -103.1202862995015,22.01535664891746,0 -103.1208689369707,22.0151817482016,0 -103.1210700412699,22.0145521202397,0 -103.1211707534378,22.01437256037503,0 -103.1216581993763,22.0141075750176,0 -103.1225448078117,22.0130345034643,0 -103.1232259822707,22.01277082200318,0 -103.1240013799901,22.01259903962591,0 -103.124588539396,22.0121535826721,0 -103.1249819608986,22.01170681720919,0 -103.1255712769859,22.0111714740667,0 -103.1260624754635,22.01054516390201,0 -103.1268502635755,22.00965071045296,0 -103.126855439927,22.00910965546176,0 -103.1269608824548,22.00856877364807,0 -103.1269634627818,22.00829733931003,0 -103.1275468327536,22.00821408885436,0 -103.1281294360888,22.00804006805034,0 -103.1287153815595,22.00768537959392,0 -103.12871990426,22.00741393014533,0 -103.1291111374582,22.00705703776578,0 -103.1293084352989,22.0067896199364,0 -103.1294050227461,22.00669995092674,0 -103.1297051593074,22.00616126930689,0 -103.1299028677119,22.00571229812402,0 -103.130485458355,22.00553826886601,0 -103.1310721530784,22.00527434004679,0 -103.1313282072358,22.00504094198551,0 -103.1316594697348,22.00473898865569,0 -103.1321525547964,22.00411173823425,0 -103.1326432793669,22.00366605358188,0 -103.1328443188178,22.00303732137659,0 -103.1334231334786,22.00322368310222,0 -103.1340043200982,22.00323029146576,0 -103.1342922679583,22.00332348153896,0 -103.1349658733934,22.00378236899277,0 -103.1354266356477,22.00393241238815,0 -103.137967740008,22.00304795729111,0 -103.1416281429738,22.00603554228554,0 -103.1437176299497,22.00796976657444,0 -103.1459979948905,22.00527795335413,0 -103.1490897062546,22.00557721606739,0 -103.1493711986509,22.00551558135183,0 -103.1493783724847,22.00503059657515,0 -103.1495793201429,22.00440002702482,0 -103.1502625514066,22.00404725132009,0 -103.1507485287725,22.00396191877931,0 -103.1513285460554,22.00405833798177,0 -103.1517068543596,22.00469546590236,0 -103.1520370294222,22.00493185814532,0 -103.1600757912989,22.00317135459129,0 -103.1603296134591,22.00271667755975,0 -103.1602570052616,22.00262417267333,0 -103.1605529225943,22.00217532845853,0 -103.1600727778377,22.00180949835253,0 -103.1600785899989,22.00135739794675,0 -103.1595044015042,22.00080981843998,0 -103.1596050434493,22.00062932643277,0 -103.1602794895908,22.00072772265803,0 -103.161251415461,22.00055790002418,0 -103.1616588905481,22.00033546121502,0 -103.1620479605605,21.9996384791512,0 -103.164356753913,21.9987235615352,0 -103.1643765561508,21.99860621942101,0 -103.1644789191918,21.99806533642461,0 -103.1647767666551,21.99761737888036,0 -103.1650749765274,21.99698786839753,0 -103.1656574908398,21.99681461327046,0 -103.1661389775613,21.99699977433529,0 -103.1667131850262,21.99754823474277,0 -103.1673814552921,21.99827843686665,0 -103.1680555260676,21.9985574427607,0 -103.1687386711424,21.99820367865913,0 -103.1692213287831,21.99829895367066,0 -103.1694229657475,21.99775912794858,0 -103.1699077551689,21.99776451877994,0 -103.1703973573256,21.99731872169193,0 -103.1706911035992,21.99696064940282,0 -103.1721469869581,21.99670628381023,0 -103.1725355781613,21.99661980952897,0 -103.1729159042969,21.99725596120333,0 -103.1735845684869,21.99780549217874,0 -103.1742665375239,21.99754157889713,0 -103.1745531766705,21.99781625232523,0 -103.1748473489678,21.99772958485812,0 -103.175623742374,21.99746676015647,0 -103.176593503409,21.99738763194716,0 -103.1775609521284,21.99748824852536,0 -103.1782419470014,21.99722523308735,0 -103.1787267350747,21.997230594986,0 -103.1794924167824,21.99796181328805,0 -103.1797779047449,21.99832544508023,0 -103.1800658910665,21.99842036429725,0 -103.181035647558,21.9983403005484,0 -103.1812406807311,21.99752901707585,0 -103.1817302443995,21.99708318358205,0 -103.1824064643028,21.9972722437155,0 -103.182986475416,21.99736854229493,0 -103.1832731234765,21.99764229208542,0 -103.1839496957614,21.99765070087522,0 -103.1841411155996,21.99783259123645,0 -103.1850144994253,21.99775233668235,0 -103.1853057378586,21.99766476410769,0 -103.1861724149434,21.99803570368283,0 -103.187535345284,21.99750958629423,0 -103.1881120992354,21.99778653190278,0 -103.1885936206619,21.99797162285703,0 -103.1889797579033,21.99815744897054,0 -103.1902374931066,21.99817132146274,0 -103.1901455165931,21.99789880173425,0 -103.1907266817832,21.99790519564699,0 -103.1917882363501,21.99818745133775,0 -103.1918777601757,21.99873049789336,0 -103.1918687901534,21.99936235859595,0 -103.1923511397898,21.99963911329093,0 -103.1928341626934,21.99955457819954,0 -103.1934163089053,21.99956095481971,0 -103.1935161023121,21.99929057932596,0 -103.1940972821671,21.99929786850239,0 -103.1944822793685,21.99957264892786,0 -103.194964959958,21.99966784416273,0 -103.1959278827423,22.00012966352703,0 -103.1966936833751,22.0008617051955,0 -103.1971767000713,22.00077624872803,0 -103.1974711856736,22.00050798593264,0 -103.1974846894073,21.99951571316738,0 -103.1976850725515,21.99906572626137,0 -103.198268687027,21.99880156442599,0 -103.198753482007,21.99880686387036,0 -103.199040173133,21.99908149146081,0 -103.1999114350572,21.99909012710357,0 -103.1999138670379,21.99881869252509,0 -103.2004960185258,21.99882594968726,0 -103.2006874615229,21.99900781957273,0 -103.2016617684676,21.99856812266136,0 -103.2018789946606,21.99836944374776,0 -103.2021512681199,21.99812222402964,0 -103.2021561222266,21.9975793540783,0 -103.2027475089206,21.99677409753867,0 -103.2030497531549,21.99596383947657,0 -103.2030533168608,21.9956025286183,0 -103.2027685963602,21.99533061633858,0 -103.2027925360906,21.99528685716686,0 -103.202618219411,21.99484433306904,0 -103.2023009642853,21.99420140680129,0 -103.2021311317126,21.9933912100177,0 -103.2017008309412,21.99294886978789,0 -103.2008110915876,21.99196183953903,0 -103.2002723714034,21.99158479263492,0 -103.1994087745868,21.99134008595007,0 -103.1985418195059,21.9912633326584,0 -103.1975674887909,21.99115200865624,0 -103.1965371057328,21.99075880696139,0 -103.19609765267,21.9905961082087,0 -103.1942678753811,21.99027809535805,0 -103.194032445976,21.99007295852072,0 -103.194109484395,21.98943512388582,0 -103.1941801798513,21.98863212932925,0 -103.1941802868886,21.98863139806268,0 -103.1942214479152,21.98834859350632,0 -103.1946189137235,21.98817031193032,0 -103.1950369540438,21.98789837140434,0 -103.1955784807083,21.98750383312009,0 -103.1961138789349,21.98696864005586,0 -103.1968476819804,21.98630844755624,0 -103.1976944762497,21.98522436395643,0 -103.1981904573206,21.98463682228733,0 -103.1968698003113,21.98334177355102,0 -103.1966252986171,21.98266559344485,0 -103.1961033424521,21.98111015522632,0 -103.195896883238,21.98033382761922,0 -103.1956880892536,21.98006734951121,0 -103.1954706014975,21.97978977443152,0 -103.1945652500959,21.97998198940726,0 -103.1933332736937,21.97989079592996,0 -103.1920747981709,21.97933775874828,0 -103.1919338810505,21.97903294292271,0 -103.1916214252225,21.97815394910487,0 -103.1920737714505,21.97671076765937,0 -103.1923355702162,21.97583730801512,0 -103.1919885194283,21.97478883736074,0 -103.1918122667188,21.97444980176817,0 -103.1919684319941,21.97340832269022,0 -103.1922006420776,21.97216382910069,0 -103.1924299432353,21.97135779512683,0 -103.1926504911348,21.97098935913789,0 -103.1925945286565,21.9701701059384,0 -103.1925600045329,21.96989986835385,0 -103.1931195878648,21.96957328048457,0 -103.1941824088028,21.96958590728664,0 -103.1943791630048,21.96949632871342,0 -103.1951508133245,21.96959653711984,0 -103.1959245636,21.96960504440637,0 -103.1969959818818,21.96916462436322,0 -103.1977750850771,21.96890166724737,0 -103.1983574348929,21.96872829097186,0 -103.199424292441,21.9686491681672,0 -103.2008777094836,21.96848532397527,0 -103.2009774646497,21.96821494686303,0 -103.201659228613,21.96795091454249,0 -103.2031145818961,21.96778703323674,0 -103.2040821568173,21.96770684055857,0 -103.2042894412873,21.96662591806841,0 -103.2045817272641,21.9664475273646,0 -103.2045906352066,21.96581567230171,0 -103.2046903891898,21.96554620090226,0 -103.2055679163122,21.96519438256288,0 -103.2066316685835,21.96520600863216,0 -103.2078911942362,21.96512894620564,0 -103.208660104,21.96514287369435,0 -103.2095054010601,21.96607119546146,0 -103.2096720918154,21.96728625113723,0 -103.2101836746061,21.96768344537215,0 -103.2106618957929,21.96805003733214,0 -103.2110536170447,21.96778370877241,0 -103.2116314151903,21.9679697814298,0 -103.2122190681257,21.96752489656344,0 -103.212804920355,21.96698925023533,0 -103.213772185764,21.96709054600854,0 -103.2141593828823,21.96718461697222,0 -103.2141786801903,21.96716630978046,0 -103.214453768713,21.96691723255463,0 -103.2149363538303,21.96701327040001,0 -103.215223967594,21.96728604272046,0 -103.2157124903441,21.96675024643599,0 -103.2162899947568,21.96711785121614,0 -103.2165808418308,21.967210862364,0 -103.2170626041876,21.96721612738508,0 -103.2175471380025,21.96731214182692,0 -103.2179299901193,21.96767674321676,0 -103.218800238248,21.96759632048427,0 -103.2192804205799,21.96796196330918,0 -103.2201511995186,21.96815294219895,0 -103.2208319600751,21.96788974024788,0 -103.2215072512445,21.96798695183867,0 -103.2217927893531,21.96835050125034,0 -103.221884513083,21.96880364172204,0 -103.2222709008105,21.96880783232953,0 -103.2224623475467,21.96899148930637,0 -103.2227508096184,21.96935501383388,0 -103.2227452102627,21.96980711186154,0 -103.2229302145432,21.97035028401847,0 -103.2236074737919,21.97044837868452,0 -103.2237989082164,21.97063021793376,0 -103.2239858719368,21.97117428094807,0 -103.2238850450317,21.97153545588738,0 -103.223977063483,21.97180704571572,0 -103.2243687683733,21.97154068266003,0 -103.2249422661271,21.97199724603497,0 -103.2255243027955,21.97200440877255,0 -103.225911522919,21.97209844977316,0 -103.2261053573813,21.97201066923942,0 -103.2264906406615,21.97210563264187,0 -103.2267838821089,21.97192719107598,0 -103.2272652320805,21.97220384154657,0 -103.2278440526794,21.97239075345146,0 -103.2284207817079,21.97266754640368,0 -103.2288933441436,21.97357604920111,0 -103.2299603689335,21.9734068475365,0 -103.2302478879176,21.97377036638404,0 -103.2307325937603,21.9737755654914,0 -103.2318895789289,21.97396963415311,0 -103.2327606879194,21.97397899170559,0 -103.2328545364061,21.97434133562103,0 -103.2333382706773,21.97434653386503,0 -103.2335945097136,21.97469395792056,0 -103.233658019092,21.97493218485051,0 -103.2343458484788,21.97490669412794,0 -103.2347119650164,21.97450525632211,0 -103.2353594545785,21.9747487763383,0 -103.2355072439416,21.97526046310236,0 -103.235724599529,21.97529593385823,0 -103.2363407856028,21.97510035480007,0 -103.2367752365159,21.97503785697986,0 -103.2369819328557,21.97581503684916,0 -103.2374150523829,21.97581881342574,0 -103.23791819095,21.9760271753157,0 -103.2385716761487,21.97586578155539,0 -103.2387840645295,21.9762053813438,0 -103.2393275588547,21.97604214655168,0 -103.2397216436475,21.97634941739579,0 -103.2399713261473,21.97672230142895,0 -103.2408623211319,21.9767750251525,0 -103.2415430847262,21.97651173128526,0 -103.2421274872944,21.97624739681854,0 -103.2426112295153,21.97625256543203,0 -103.2428980919476,21.97643633441139,0 -103.2429941753556,21.97661710569965,0 -103.2434757130924,21.97680383860917,0 -103.2438641996258,21.97671718379764,0 -103.2441564636895,21.97653962494102,0 -103.2445438473662,21.97654375233055,0 -103.2446746307494,21.97700201080754,0 -103.2451407886244,21.97720883308881,0 -103.2458670230829,21.97681262155088,0 -103.2468175883317,21.97594710020195,0 -103.2459438923184,21.97513902998258,0 -103.244644871871,21.97411744894975,0 -103.244293100553,21.97344221311487,0 -103.2433822931779,21.97303565071783,0 -103.2427007474114,21.97247926980193,0 -103.2423832935745,21.97162038887551,0 -103.2414458691399,21.97075562201547,0 -103.2418750198133,21.97033368893445,0 -103.2422434893936,21.96966533906603,0 -103.2429749530534,21.96878799662909,0 -103.2441054798136,21.96739545865,0 -103.2447501274946,21.96660323147154,0 -103.2449553444598,21.96670319827404,0 -103.2455376993311,21.96652968052146,0 -103.2457172313873,21.96664390903803,0 -103.2458264917749,21.96671342729088,0 -103.2462117738412,21.96680834069977,0 -103.2469884308937,21.96681656780882,0 -103.247949215832,21.96736793916591,0 -103.2483334015602,21.96755363016549,0 -103.2489156623822,21.96737824701198,0 -103.2496847345741,21.96792844232794,0 -103.2501652779847,21.96811516118187,0 -103.251133676142,21.9681254391113,0 -103.2517125042788,21.96831135282345,0 -103.2518022426989,21.9688534512782,0 -103.2517967422991,21.96930555018695,0 -103.2519903001636,21.96939837958585,0 -103.2527628247624,21.9695872512387,0 -103.2540212711402,21.96960059359336,0 -103.254701964335,21.96933633412336,0 -103.2562523890176,21.96935272204977,0 -103.256347649923,21.96944453287486,0 -103.2570934215695,21.96958186052755,0 -103.2571536064412,21.96997986703929,0 -103.257788481168,21.97022521127163,0 -103.2580329708479,21.97117996976094,0 -103.258714271745,21.97118710167959,0 -103.2599295412875,21.97126429140438,0 -103.2607914329446,21.97132984611865,0 -103.2613042029117,21.97152534320772,0 -103.2616451278323,21.97186748803824,0 -103.2618366727403,21.97226169158731,0 -103.262072611736,21.97251301572357,0 -103.2621508895955,21.97255775978776,0 -103.2625544284906,21.97252176855104,0 -103.2628252842201,21.97234798052783,0 -103.2633152120749,21.97197904360479,0 -103.26369202019,21.97189515836775,0 -103.2642429819115,21.97180620947934,0 -103.264715348472,21.97184498799953,0 -103.2650910238227,21.97215597688385,0 -103.2654735179479,21.97226175790917,0 -103.2658843515827,21.97248258846302,0 -103.2662830639761,21.97296494720773,0 -103.2671171708394,21.97369153115772,0 -103.2672810481417,21.97403966222703,0 -103.2675053105544,21.97459789064704,0 -103.2681146371708,21.97522374741203,0 -103.2686815826746,21.97569018977669,0 -103.2701505168089,21.9764432904006,0 -103.270909534098,21.97714959684265,0 -103.2733504261839,21.97908230323668,0 -103.2733062326157,21.97968143822455,0 -103.2732310131436,21.98144399377096,0 -103.2737202286955,21.9830702536499,0 -103.2748463419689,21.98516416958465,0 -103.2753248161257,21.98632937964288,0 -103.2755663639437,21.98714344058642,0 -103.2758089504529,21.98806279188386,0 -103.2759682396031,21.98869395184296,0 -103.2771903549484,21.98982234036177,0 -103.2783352759808,21.98967850704018,0 -103.2785610126443,21.98965014623834,0 -103.2791453112118,21.98910228830779,0 -103.2801908003842,21.98827211068052,0 -103.2813647931232,21.98733203840038,0 -103.2820836118559,21.9867564357063,0 -103.2837019123514,21.98546696958795,0 -103.2841691710025,21.98509785871302,0 -103.2856469244102,21.98393048663608,0 -103.2861719141656,21.98349879447848,0 -103.2867662982963,21.9830100351294,0 -103.2875836023769,21.98234075785051,0 -103.2886208826339,21.98149133008464,0 -103.289119679356,21.98108285911488,0 -103.290996860727,21.97951106745014,0 -103.291574857341,21.97902708990543,0 -103.2924201964747,21.97837088457053,0 -103.2940116771622,21.97713544933041,0 -103.2962665227204,21.97537296835532,0 -103.2971494015472,21.97458714958979,0 -103.2978301580195,21.97403447178396,0 -103.2984298194038,21.97357587607055,0 -103.2998121330222,21.97251872098685,0 -103.3024277129342,21.97045090660715,0 -103.3041065247705,21.9695650381126,0 -103.3051581001623,21.96901013163102,0 -103.3071964845768,21.96817007658441,0 -103.3080596270448,21.96722696607267,0 -103.3081786258663,21.96709694046615,0 -103.3087454213815,21.96655733274486,0 -103.3091912516543,21.96628610095713,0 -103.309313890188,21.96570641365393,0 -103.3090554849461,21.96513144707365,0 -103.3087102146794,21.96436319178483,0 -103.3093424610996,21.9624735381753,0 -103.3099259879731,21.96172670175314,0 -103.3099710930699,21.96098619317565,0 -103.309812900049,21.96010703267354,0 -103.3101361428451,21.95909759379931,0 -103.3114257927809,21.95882880046022,0 -103.3122198625546,21.95873125090527,0 -103.3124675859236,21.95819266192045,0 -103.3130801415434,21.9581420447733,0 -103.3134258348717,21.95737386659506,0 -103.3141964376921,21.95706772715906,0 -103.3157012375135,21.95671263912401,0 -103.3161017402772,21.95637425471043,0 -103.3173637659253,21.95587326623413,0 -103.3183094466804,21.95605487761761,0 -103.3188705903866,21.95523219136684,0 -103.3189382415719,21.95469150622546,0 -103.3203499768696,21.95427725970052,0 -103.3209761270173,21.95314174585591,0 -103.3215641130458,21.95257661762528,0 -103.3224936428312,21.95181520103206,0 -103.3235716449687,21.95111241209013,0 -103.3239843231804,21.9503363728605,0 -103.3240229351492,21.95021301379045,0 -103.3241264873955,21.94988218708341,0 -103.3243590158097,21.94942777680267,0 -103.3243822599481,21.94843758891863,0 -103.3256325971769,21.94826795759305,0 -103.3263638632844,21.94841868870998,0 -103.3266998713306,21.94845028380292,0 -103.3270463257192,21.94776921330246,0 -103.327507393626,21.94746023260434,0 -103.3282522389287,21.94672488611141,0 -103.3284385907441,21.94638378210423,0 -103.3300041316351,21.94608612381605,0 -103.3304643781415,21.94589151681894,0 -103.3310031858614,21.94449801441741,0 -103.3318062648494,21.94384928961187,0 -103.3319079818432,21.94302236798083,0 -103.3326429080616,21.94285896041678,0 -103.3332066948884,21.94299930967661,0 -103.3344368183145,21.94244036374523,0 -103.3371943698662,21.9423537679637,0 -103.3387409014247,21.94230218219169,0 -103.3389906305983,21.94252419962606,0 -103.3396860364371,21.94259252395181,0 -103.3398888715115,21.9426124520966,0 -103.3399261603515,21.94261611558207,0 -103.3399334796479,21.94261683530259,0 -103.3399340892958,21.94261685772446,0 -103.3399386692415,21.94261570906864,0 -103.3402706574911,21.94253244274826,0 -103.3406966816998,21.94252771380125,0 -103.340948047087,21.94255734777425,0 -103.3417758142059,21.94297213881508,0 -103.3422542668704,21.94345565688198,0 -103.3424163155128,21.94367405711268,0 -103.3424821637092,21.9437960395526,0 -103.3434114850016,21.94551756765429,0 -103.3438617475519,21.94592854225998,0 -103.3442438325317,21.94637495617877,0 -103.3443846444628,21.94675571470429,0 -103.3445257707808,21.94710938063033,0 -103.3447256071261,21.9474094466989,0 -103.3450081768203,21.94808968549242,0 -103.34511754661,21.94867786021454,0 -103.3450570595927,21.94888498431424,0 -103.3451332068538,21.94983409987635,0 -103.3448554608246,21.95040934230691,0 -103.3451978968605,21.95093664203292,0 -103.3453795281305,21.95113717334364,0 -103.3455029717319,21.9513461502587,0 -103.3459531533719,21.95176615120775,0 -103.3470496450615,21.95239135825943,0 -103.3473681680032,21.95247585055341,0 -103.3480804689975,21.95283526006492,0 -103.3483072752922,21.95331623156985,0 -103.348389288626,21.9537596192325,0 -103.3482858416005,21.95398043570887,0 -103.348179938557,21.95428136375718,0 -103.347751977481,21.95430479407507,0 -103.3472286076129,21.95449759016637,0 -103.3469957454634,21.95454040604773,0 -103.3466651346257,21.9546635245935,0 -103.3454859125317,21.95532904053705,0 -103.3450858593373,21.95559596625074,0 -103.3447135921968,21.95597155355027,0 -103.344565344709,21.95623198379507,0 -103.3445245286667,21.9564122099639,0 -103.3445223317224,21.95660185730784,0 -103.3445869600323,21.9568734652115,0 -103.3447283042779,21.95720906954887,0 -103.3449290950363,21.95742785848462,0 -103.3452839463394,21.9577204547179,0 -103.3457166657865,21.9579777071792,0 -103.3462757634285,21.95819107191065,0 -103.3463911002768,21.95826448846612,0 -103.346814351369,21.9585035790867,0 -103.3471143610046,21.95851563103981,0 -103.3473449318201,21.9586714938151,0 -103.3477190491953,21.95897331094824,0 -103.3480438227011,21.95935591789894,0 -103.3481551941283,21.95977250520373,0 -103.348025579773,21.96009634925228,0 -103.3480420186205,21.96034940751197,0 -103.3479911064388,21.96056566060488,0 -103.3478314027687,21.96097952054747,0 -103.347387597672,21.96167954133891,0 -103.3469350471547,21.96229818565448,0 -103.3463560072581,21.9629697458178,0 -103.3458970081,21.96330833356218,0 -103.3451956569618,21.96367157298352,0 -103.3448150463423,21.96392966063254,0 -103.3444951396648,21.9639625626295,0 -103.3444214090092,21.96396487461425,0 -103.3440592647596,21.96397623060614,0 -103.3437972372478,21.96402777874274,0 -103.3430704995216,21.96407463710298,0 -103.3422836816327,21.96429249103253,0 -103.3417842658879,21.96477516730019,0 -103.3414484890455,21.96534078275994,0 -103.3412121470264,21.96568160560321,0 -103.3411123947867,21.96593348972906,0 -103.3410966299531,21.96645717827213,0 -103.3411339699584,21.96667115814991,0 -103.3412055725637,21.96708147741028,0 -103.3414030145388,21.96758925652052,0 -103.3416321244676,21.96787155888328,0 -103.3419968843289,21.9681461992725,0 -103.3423437495478,21.96829421215086,0 -103.3428839362347,21.96847127162414,0 -103.3437813026195,21.96874225225217,0 -103.3443806307458,21.96882958500361,0 -103.3447881031541,21.96876143934158,0 -103.3456418787395,21.96861650439816,0 -103.3461645902837,21.96863080348639,0 -103.346180395451,21.96862898562412,0 -103.3468142106216,21.96855606032392,0 -103.3473754404654,21.96858880722095,0 -103.3475878128339,21.96864513646152,0 -103.347760935829,21.96874622977308,0 -103.3479331188836,21.9689286003671,0 -103.3483925195209,21.96939384924716,0 -103.3485451315741,21.96959408610677,0 -103.34874322965,21.97004767309573,0 -103.3489013482476,21.97060924030386,0 -103.3489354818138,21.97100698640416,0 -103.3488724823964,21.97143085103624,0 -103.3486133357194,21.97206950729394,0 -103.3482920978269,21.97259072253542,0 -103.3482482061209,21.97266193702523,0 -103.3481682422842,21.97287789728606,0 -103.3475653030346,21.9739375889985,0 -103.3473099085463,21.97425113287543,0 -103.3466408542549,21.9751656446635,0 -103.3463090435015,21.97538809815466,0 -103.3457042450712,21.97577037286865,0 -103.3451951149042,21.97625296038274,0 -103.3451359743235,21.97634268263559,0 -103.3449284582012,21.97670186433676,0 -103.3447624306706,21.97728780714579,0 -103.3446962358479,21.97752142136001,0 -103.3444236049793,21.97848507988227,0 -103.3442159788733,21.97885329108683,0 -103.3438839461529,21.97909380040445,0 -103.3435822173667,21.97922623264508,0 -103.3431115877432,21.97972726484321,0 -103.3417308251619,21.98105002978471,0 -103.3414654072099,21.98139055720392,0 -103.3411913549144,21.98164067837791,0 -103.3407402841377,21.98212383683872,0 -103.3405637910382,21.98231172052037,0 -103.340464969043,21.98248232595831,0 -103.3404049826333,21.98264429232082,0 -103.3403023793829,21.98314000561939,0 -103.3401266389553,21.98409560260548,0 -103.340025714119,21.98444682312852,0 -103.3399637302263,21.98478037391717,0 -103.3399071214054,21.9854842843327,0 -103.3399597729432,21.98678540145011,0 -103.3399723480543,21.98761451835835,0 -103.3399762139829,21.98786938795684,0 -103.3399999046476,21.98833025122173,0 -103.3400248562073,21.98868274522966,0 -103.340079592716,21.98897231781141,0 -103.3401922181902,21.98928053983602,0 -103.3404039002951,21.99023102423245,0 -103.3404679009814,21.99055681777384,0 -103.340484115909,21.99082793681483,0 -103.3404596016859,21.99127024856307,0 -103.3404285733632,21.99227246790068,0 -103.3403486899133,21.99247939166578,0 -103.3401500835847,21.99290187778219,0 -103.339751067192,21.99306944372204,0 -103.3393638360513,21.99305649143998,0 -103.3382183539919,21.99328874806774,0 -103.3380624723821,21.99336845490926,0 -103.337827123745,21.99361896081169,0 -103.3376693471353,21.99386122080493,0 -103.3375596715418,21.99413106367242,0 -103.3375213586953,21.99409454801638,0 -103.3374122089458,21.99431923699034,0 -103.3372626404249,21.9946880251618,0 -103.3370829675776,21.99514682605144,0 -103.3370528640421,21.99523683896142,0 -103.3371087542041,21.99542707385478,0 -103.337105911339,21.99567090407689,0 -103.3371790630948,21.99604195031607,0 -103.3374373620262,21.99631552375796,0 -103.3377350280296,21.99653530498814,0 -103.3382543666696,21.99684765040954,0 -103.3389498020263,21.99700823720392,0 -103.3392075990666,21.99702446743698,0 -103.3394627212362,21.99704052747353,0 -103.339646711092,21.99704239051751,0 -103.339821940161,21.99700165096096,0 -103.3401848515649,21.99698817148298,0 -103.3401707858923,21.99694834598272,0 -103.3404369740073,21.99654460793337,0 -103.3404425655049,21.9965413236501,0 -103.3407392684227,21.99636703038958,0 -103.3407974753057,21.99635858750728,0 -103.3411371378949,21.99629880104539,0 -103.3413600715432,21.99628299240191,0 -103.3414660664239,21.9963292236049,0 -103.3419880380576,21.99641578841767,0 -103.3422191859097,21.99652650731787,0 -103.3432838958954,21.99741335544585,0 -103.3434762066333,21.99753271214777,0 -103.3436786209858,21.99761604334946,0 -103.3438806160936,21.99773549742576,0 -103.3445371190539,21.99791373150421,0 -103.344983200917,21.9978640433704,0 -103.3457607302123,21.99762802934819,0 -103.346307313607,21.99726323679864,0 -103.3468242150591,21.99695233411635,0 -103.3474254421159,21.99688613943512,0 -103.3481201585559,21.99710990355595,0 -103.3485262475227,21.99716818493063,0 -103.3493135565163,21.99692322015767,0 -103.3498496092175,21.99663056400363,0 -103.3507228858656,21.99643404789241,0 -103.3507332280562,21.99643172053674,0 -103.3517023279383,21.99637824122037,0 -103.3521178919444,21.99645467263118,0 -103.3529955628279,21.99677057344522,0 -103.3538539746253,21.99707724454399,0 -103.354664700844,21.99732020975872,0 -103.3550870368841,21.99764959427117,0 -103.3554662656317,21.99835788419324,0 -103.3555022933134,21.99859307424979,0 -103.3554197191326,21.99903480789967,0 -103.3554233622478,21.99955869308617,0 -103.3554665743186,22.00001072013624,0 -103.3556981551125,22.00092526184497,0 -103.3561287302214,22.00138117307137,0 -103.356406757047,22.00162782100251,0 -103.3566956138527,22.0017752264301,0 -103.3571012007,22.001878641731,0 -103.3575274047864,22.00187388007024,0 -103.3583336801927,22.001665190132,0 -103.3587016753656,22.00166887441212,0 -103.3587453609681,22.0016755626972,0 -103.3597748429693,22.00183315603917,0 -103.3605381218062,22.00199433230288,0 -103.3613419035817,22.00200236778884,0 -103.3618078827762,22.00190767361897,0 -103.3628583301131,22.0015207626982,0 -103.3640825674153,22.00118073832825,0 -103.3660894492922,22.00100204802748,0 -103.3663021885428,22.00103126362433,0 -103.3670773286547,22.0010028576717,0 -103.3676378681225,22.00110779031192,0 -103.3691960776697,22.00120458354001,0 -103.3694760905309,22.00127962376629,0 -103.3698997135411,22.00150060208361,0 -103.3702445228271,22.00183821090833,0 -103.370368145992,22.00203814193291,0 -103.3705280291515,22.00245519932373,0 -103.3706199171869,22.00288964468077,0 -103.3707437312708,22.0039205139125,0 -103.3707093115328,22.00438983159214,0 -103.3701702299482,22.00664245189426,0 -103.3701270518798,22.00703039487712,0 -103.3702197667007,22.0073925932391,0 -103.3703916103235,22.00761106761751,0 -103.3705261615699,22.00770272433458,0 -103.3711630717173,22.00790775654424,0 -103.3715284178113,22.00799679592034,0 -103.3716653281747,22.00803016153736,0 -103.3720132510417,22.00809684079567,0 -103.3726129736889,22.00816601941019,0 -103.3728252099858,22.00824038173728,0 -103.3729785141952,22.00838641422735,0 -103.373168083371,22.00874957263331,0 -103.3732413344602,22.00912060840967,0 -103.3732435976866,22.00977092918634,0 -103.373075034434,22.01096146952665,0 -103.373021764876,22.01138544092411,0 -103.3730356702043,22.01186427062061,0 -103.3732008221956,22.01266975067671,0 -103.3736739360903,22.01364989338353,0 -103.3739571684277,22.01429397004343,0 -103.3739091529249,22.01510636623316,0 -103.373203056127,22.01671607104001,0 -103.3730583884937,22.01750944310043,0 -103.3731115497906,22.01794350270123,0 -103.3731765622505,22.01818800979283,0 -103.3732238542888,22.0182878303444,0 -103.3734731971099,22.01850707152611,0 -103.3738221772014,22.01848343957031,0 -103.3743935069479,22.01849814058251,0 -103.3750412893252,22.01860391697712,0 -103.3755817104683,22.0187808818959,0 -103.3762466014441,22.01908552550171,0 -103.3766034158345,22.01922453989992,0 -103.3775491875585,22.01953196107736,0 -103.3783029003542,22.01969296536473,0 -103.3787861428363,22.01978806680558,0 -103.3796860646723,22.0198692240909,0 -103.380452753301,22.01974132512376,0 -103.3806865378767,22.01962622061133,0 -103.381135556165,22.01932357174811,0 -103.3813708787101,22.01907300232255,0 -103.3815090390156,22.01884856862709,0 -103.3815990799142,22.01859656370544,0 -103.3816015421438,22.01837982149114,0 -103.3814188139264,22.01741159914861,0 -103.3810951195667,22.01606264258491,0 -103.3810720155934,22.01553856182162,0 -103.3810296440688,22.01500525874674,0 -103.3810898067983,22.01482521427377,0 -103.381137781284,22.01401281345491,0 -103.3811915413675,22.01354368349235,0 -103.3816192784561,22.01255439406823,0 -103.3818353208914,22.01229460084304,0 -103.3822464958233,22.01191028621879,0 -103.3832706840566,22.01127912383218,0 -103.3837773691558,22.01101316245303,0 -103.3856502601566,22.00984843343893,0 -103.3865847009969,22.00944216382754,0 -103.3866023557738,22.00943844845016,0 -103.3873225812262,22.00928684990184,0 -103.3874876305038,22.00925234581737,0 -103.3878154815141,22.0093820183316,0 -103.388113666076,22.00956559029603,0 -103.3883055231343,22.00973005234646,0 -103.3884485482445,22.00993016196032,0 -103.3885239843459,22.01011154302845,0 -103.3885606813684,22.01029254320993,0 -103.3887181761338,22.01092632942521,0 -103.3887688318885,22.01158616115869,0 -103.3887460926069,22.01188399258264,0 -103.3885154759676,22.01257718674442,0 -103.3884328896867,22.01302797302033,0 -103.3880268147294,22.01381879238276,0 -103.3876610082696,22.01447452719015,0 -103.3872683916302,22.0149312939882,0 -103.3866615742754,22.01548530259423,0 -103.3861433510327,22.01591373381547,0 -103.3858299465343,22.0162177335046,0 -103.3854739109568,22.01686452671785,0 -103.385257253185,22.01717851024554,0 -103.3850781071651,22.01760124653318,0 -103.3845051978941,22.01858008172253,0 -103.3844938739712,22.01872448124627,0 -103.3844516504218,22.01903115116734,0 -103.3843952347118,22.01973508678255,0 -103.3843998813025,22.01978906866352,0 -103.384429469937,22.02013282999498,0 -103.3847356158594,22.02047003041175,0 -103.3852350639672,22.02084526331607,0 -103.3853510854217,22.02086447062477,0 -103.3859103895357,22.02108674832066,0 -103.3860450661096,22.02116936258484,0 -103.3863301077422,22.0216598955574,0 -103.3866327834948,22.0223041449302,0 -103.3867512295888,22.02296464372876,0 -103.3867468310946,22.02335297429759,0 -103.3866648444491,22.02374957274199,0 -103.3865262774377,22.02401013462868,0 -103.3861645282362,22.02430462572511,0 -103.3861542284755,22.02435871594679,0 -103.3852634460707,22.02432284245012,0 -103.3843923432794,22.02426006238049,0 -103.383316610987,22.02430364173049,0 -103.3825883344441,22.02445902798521,0 -103.3814235817667,22.02466429064297,0 -103.3811017960304,22.0248507815815,0 -103.3805268442061,22.02515218436793,0 -103.3784397938831,22.02638697595136,0 -103.3780964688555,22.02676291763212,0 -103.3772399948039,22.02711571189704,0 -103.3769367467514,22.02737463299722,0 -103.3768178392189,22.02760828452774,0 -103.3767375721269,22.0278513507876,0 -103.3766959456501,22.02810383184392,0 -103.3767394338152,22.02853779465292,0 -103.3770488811803,22.02943502047414,0 -103.3772201424441,22.02970767474668,0 -103.3777650463952,22.03034530658631,0 -103.3781294157123,22.03067406404686,0 -103.3785331485221,22.03094901897754,0 -103.3787819038763,22.03122243899125,0 -103.3789232892322,22.03156705130467,0 -103.3789774990801,22.03191080070509,0 -103.3789543218745,22.03224475221658,0 -103.3788322992691,22.03304208045048,0 -103.3788287281941,22.03306541336875,0 -103.3788336836707,22.03348093051234,0 -103.3792939199027,22.03474995398569,0 -103.3793091798584,22.03511138160273,0 -103.3791781142643,22.03556168012122,0 -103.3791369980178,22.03576825841421,0 -103.3790650838084,22.03612957186118,0 -103.3790515919764,22.03646361907684,0 -103.3791873260469,22.03730493049133,0 -103.379395084191,22.03777664626489,0 -103.3795621432725,22.0384195653837,0 -103.3797039477695,22.03872805370256,0 -103.379971269088,22.03907391150029,0 -103.3803353564477,22.03942975807129,0 -103.3807290197579,22.03974073683986,0 -103.3810569319547,22.03987042630436,0 -103.3814047319665,22.03995515216424,0 -103.3824103113782,22.04012766450113,0 -103.3830190415071,22.04026915622032,0 -103.3833759152123,22.04040815913915,0 -103.3837124928096,22.04062824826369,0 -103.383865738896,22.04078330371675,0 -103.3839701407012,22.04097400463077,0 -103.384130202935,22.04138202101214,0 -103.3841850428608,22.04167158381258,0 -103.3841817612894,22.04196057297926,0 -103.3840114423029,22.04245564767825,0 -103.3837445596501,22.04292267305491,0 -103.3834991012536,22.04320927103317,0 -103.3819919929091,22.04441905981265,0 -103.3811427452582,22.04510075246695,0 -103.3808107100389,22.04533229822631,0 -103.3797945036669,22.04608995547972,0 -103.3795496490105,22.04632236129825,0 -103.3791880322727,22.04659877012572,0 -103.3786909984237,22.0468557730538,0 -103.377942917664,22.04703803165096,0 -103.3777491724292,22.04703611163868,0 -103.3773623000756,22.04697808567564,0 -103.3771597949149,22.04689479107126,0 -103.3769671833131,22.04679353053452,0 -103.3765357921275,22.04639184926717,0 -103.3759276629265,22.04619614711555,0 -103.375666108674,22.04619355191945,0 -103.3755397626779,22.04622842570324,0 -103.3753058261028,22.04635255046349,0 -103.3751013633635,22.04644083988475,0 -103.3749158621641,22.04656544483789,0 -103.3747394288279,22.04674433092478,0 -103.3745918503919,22.04694156709692,0 -103.3743937713123,22.04731893932029,0 -103.3742624700606,22.04778729334903,0 -103.3742265961116,22.04838304145522,0 -103.3742684271305,22.04896149755638,0 -103.3740504365693,22.05023282771244,0 -103.3740421775525,22.05095529622032,0 -103.3741247195484,22.05136255089797,0 -103.3740741138103,22.05155171766353,0 -103.3741947870295,22.05201354240856,0 -103.3743471044755,22.05224988438702,0 -103.3746457687585,22.05239736093061,0 -103.3748483830372,22.05247162812215,0 -103.3755728914682,22.05265945876407,0 -103.3758921708814,22.0526987551265,0 -103.3770638601628,22.05275553816191,0 -103.3780327281589,22.05275611147495,0 -103.3787220958651,22.05262746383989,0 -103.3790610605988,22.05263985337974,0 -103.3800470408565,22.05283928598468,0 -103.3806565413689,22.05291757325626,0 -103.3807916547252,22.05296406963993,0 -103.3816231510468,22.05311680488739,0 -103.3818355610298,22.05318212861564,0 -103.3824923731162,22.05336022793585,0 -103.3828311350771,22.05339067157326,0 -103.3834229072471,22.05332426298439,0 -103.384094540834,22.05305090682519,0 -103.3842315025028,22.05293484425629,0 -103.384486665329,22.0526483420632,0 -103.3852194959638,22.05210462758941,0 -103.3856770703538,22.05191043950804,0 -103.3858629802478,22.05174969865068,0 -103.3862236766098,22.05155455343303,0 -103.3865564361451,22.05125978082173,0 -103.3868783800542,22.05106425200505,0 -103.3871815623995,22.05081434608058,0 -103.387486381833,22.05041994485636,0 -103.3875655201947,22.05027621371651,0 -103.387822411636,22.04983617992086,0 -103.3882006676866,22.04894574435632,0 -103.3884573499172,22.04852377107742,0 -103.3886538602865,22.04828184358869,0 -103.388859136797,22.04812128949889,0 -103.3890047544549,22.04809562695827,0 -103.3892464278536,22.04814316503327,0 -103.3894776983195,22.04825382394011,0 -103.389621578008,22.04838168663653,0 -103.389745878657,22.04852742047388,0 -103.3903364836994,22.04941835937904,0 -103.3906431937417,22.05056843129491,0 -103.3909059655104,22.05132066559776,0 -103.3909973246816,22.05180928830361,0 -103.3911282523977,22.0522260444709,0 -103.3912098228362,22.05272360277967,0 -103.3913597187203,22.05317667299741,0 -103.3914822623772,22.05344647369678,0 -103.3916811356847,22.05388432305196,0 -103.3921285997358,22.05458417914872,0 -103.3924717472267,22.05508430686281,0 -103.3931808948562,22.05577769891755,0 -103.3935561735239,22.05600718195695,0 -103.3937684922792,22.05608152169691,0 -103.3941258247034,22.05618438017782,0 -103.3945908469682,22.05618894310658,0 -103.3951153222336,22.05607667254664,0 -103.3956901724815,22.05579328717125,0 -103.39622810221,22.05534696274108,0 -103.3965107829894,22.05519618978536,0 -103.3969189986321,22.05508277392721,0 -103.3972683738153,22.0550320044036,0 -103.3976172399794,22.05502638890203,0 -103.3979557060666,22.05508389451881,0 -103.3982448173931,22.05522220395872,0 -103.3984846759846,22.05543228654038,0 -103.3986729428255,22.05592185457507,0 -103.3987181282773,22.05621131932404,0 -103.3987501680552,22.05680774189687,0 -103.3987191716062,22.05697904571415,0 -103.3987209165006,22.05763274686771,0 -103.3987210283224,22.05767452436692,0 -103.3986281644619,22.05903744046365,0 -103.3984884843431,22.06025538674608,0 -103.398374282667,22.06093166509059,0 -103.3983921331001,22.0610673190777,0 -103.398330848952,22.06134670955865,0 -103.3983369759906,22.061662887751,0 -103.398256279514,22.06333437454655,0 -103.3982487171704,22.06349101110365,0 -103.3982484998438,22.0634955068951,0 -103.3983127574741,22.06381225416381,0 -103.3989560115259,22.06520043886868,0 -103.3991071636907,22.06554513217608,0 -103.3992752526862,22.06610675783994,0 -103.3992128687348,22.06666623823583,0 -103.3991998029296,22.06678341548716,0 -103.3990693480684,22.06760801169543,0 -103.3990328804325,22.06783851941612,0 -103.3991514404145,22.06808351521011,0 -103.3993359026278,22.06846468927786,0 -103.3994865500877,22.06885453711376,0 -103.3996456666937,22.06935285104306,0 -103.3997005454379,22.06964241024126,0 -103.3996689360005,22.06986789957828,0 -103.3997087353791,22.07063600426275,0 -103.3996996829096,22.07143975865866,0 -103.3996759309856,22.07182789978597,0 -103.3996440156176,22.07208048186956,0 -103.3996196529588,22.07252280862181,0 -103.3994950607197,22.07312854390877,0 -103.3994453747639,22.07337010549926,0 -103.3994368282954,22.07412870480481,0 -103.3995590237022,22.07446408252067,0 -103.3996634688758,22.0746547754177,0 -103.3998165640744,22.07482788044795,0 -103.4001435580321,22.07504784648764,0 -103.4005296039239,22.07518710205317,0 -103.4019900456966,22.07543621103591,0 -103.4029081953296,22.07565291578396,0 -103.4035158829323,22.07590271250562,0 -103.4039011231688,22.07611420811869,0 -103.4042846399559,22.07647922925111,0 -103.4045995213147,22.07691583553706,0 -103.4049596066623,22.07764190477242,0 -103.4050528230041,22.07791382594382,0 -103.4051362829283,22.07815728889099,0 -103.4054193858803,22.07898311848837,0 -103.4054919344964,22.07942639173713,0 -103.4057733552514,22.08111811128742,0 -103.4058952667151,22.08148057813477,0 -103.4058902993884,22.08192309536293,0 -103.405710104376,22.08243615944377,0 -103.4055411188248,22.08281385331067,0 -103.405247076983,22.08310903950742,0 -103.4048464453508,22.08340318506979,0 -103.4040969761815,22.08369392444873,0 -103.4038340296008,22.08380877252412,0 -103.4024530868786,22.08423784815623,0 -103.4019459589623,22.08452191338758,0 -103.4011744548563,22.08504725359757,0 -103.4002342468175,22.08592318416288,0 -103.399999752736,22.08609249570531,0 -103.3994990458384,22.0866656372204,0 -103.3994200999554,22.08679131117164,0 -103.3991893875298,22.0874845101175,0 -103.3992267224266,22.08761132271401,0 -103.3992054074041,22.08778272053738,0 -103.3992298954998,22.08818939697972,0 -103.3993342472219,22.0883891212846,0 -103.3994586923436,22.08852581882396,0 -103.3998330470914,22.08884560165468,0 -103.4002677839003,22.08896727232079,0 -103.4010026137394,22.08911897379797,0 -103.4017187766011,22.08920726598285,0 -103.4033433873921,22.08952119864463,0 -103.404628744175,22.08984083623267,0 -103.4047732868951,22.08991450261179,0 -103.4058739261951,22.09028651933813,0 -103.4061156777811,22.09033403687639,0 -103.4063566184426,22.09045380171641,0 -103.4070323085649,22.09069521952539,0 -103.4079001883943,22.0910830181845,0 -103.407973050186,22.09112843701561,0 -103.4083718337468,22.09137701928133,0 -103.4084006467158,22.09139497903619,0 -103.4087171911555,22.09168708390492,0 -103.4087547380514,22.09179583290383,0 -103.4090698669562,22.09221437069735,0 -103.4092020924274,22.09252274421111,0 -103.4093990147205,22.09311173785877,0 -103.4096592188289,22.09410778500057,0 -103.4096667843077,22.09429752960901,0 -103.409779125466,22.09465086898378,0 -103.4099108484982,22.09500439689581,0 -103.4102240652454,22.09559452131251,0 -103.4109037133748,22.09635078435636,0 -103.4114216574589,22.09683451419744,0 -103.4120942544806,22.0973558733836,0 -103.4130473874535,22.09792511475751,0 -103.4137900534034,22.09824844486204,0 -103.4139827615228,22.09834966714948,0 -103.414320531265,22.09847939298428,0 -103.4152358251637,22.09896696740641,0 -103.4158036606472,22.09932472080756,0 -103.4161216492841,22.09949037916105,0 -103.4166405300705,22.0998928150889,0 -103.417110353909,22.10034896602651,0 -103.417369494709,22.10057727574208,0 -103.4176269240285,22.10095911199119,0 -103.4180550695706,22.10167678393892,0 -103.4183486496142,22.10229380048526,0 -103.4187892116243,22.10276772776414,0 -103.4190390707716,22.10295981739057,0 -103.4192799437342,22.10308859590307,0 -103.4196272201319,22.10323646741736,0 -103.4198975704179,22.10332940233102,0 -103.4204396799519,22.10338883682386,0 -103.4205853512039,22.10336314934885,0 -103.4211000961457,22.10326877346821,0 -103.4214114237676,22.10316339842653,0 -103.4230007433295,22.10231167797274,0 -103.4235658462287,22.1020461723824,0 -103.4240616038143,22.10191547563807,0 -103.4246151067408,22.10182146215472,0 -103.4249549010192,22.10177054650437,0 -103.4255083027591,22.10168556095136,0 -103.4267710652584,22.10143579805489,0 -103.428239840234,22.10096220719272,0 -103.4294267630272,22.10055814942553,0 -103.4298455815991,22.10037250287681,0 -103.4305960954106,22.09999133750524,0 -103.4317558275885,22.0994153925506,0 -103.4322318884201,22.09931157711985,0 -103.4325721737858,22.0992154897884,0 -103.4328725972369,22.09921837160241,0 -103.4331910067344,22.09934787362588,0 -103.4335265058047,22.09968527538379,0 -103.4339364454064,22.10030338273925,0 -103.4348241737248,22.10154024479298,0 -103.4352242335056,22.10217631871349,0 -103.4355110881571,22.10253131495558,0 -103.436500535273,22.10333560580957,0 -103.436693566652,22.10340970937121,0 -103.4370199891184,22.10369282564219,0 -103.4370205565836,22.10369340008679,0 -103.4372821759621,22.10395801512696,0 -103.4377772557832,22.10445875967748,0 -103.4378834640385,22.10449590346687,0 -103.4383052153876,22.10492444143822,0 -103.4390324270095,22.10578040317152,0 -103.439569292389,22.10631842258056,0 -103.4396551258528,22.10644569098637,0 -103.4399238087972,22.10669212227177,0 -103.440143239896,22.1070103390906,0 -103.4403334976346,22.10733730912052,0 -103.4405601601474,22.10788774307723,0 -103.440612617144,22.10801513043454,0 -103.4408338523177,22.10855237876191,0 -103.441139025112,22.10900689341627,0 -103.4415693995088,22.10953485855713,0 -103.4417897315039,22.10977179372482,0 -103.4423571856593,22.11017461623862,0 -103.4429259322072,22.11046003273422,0 -103.4439384282615,22.11093934876303,0 -103.4444317261597,22.11103436850248,0 -103.4446071720763,22.11105588288805,0 -103.4447511640299,22.11107353895794,0 -103.4449129317429,22.11104852424553,0 -103.4450812843459,22.11102249005411,0 -103.4452654312669,22.11102424318543,0 -103.445702360689,22.1109561456726,0 -103.4465677137472,22.11071148157253,0 -103.4467034996717,22.11070374101234,0 -103.4471403287668,22.11064467066226,0 -103.4476249251508,22.11064927753767,0 -103.4480597771312,22.11077082699541,0 -103.4480785679955,22.11082519788129,0 -103.4481150625864,22.11103328191502,0 -103.4481038504261,22.11111931044556,0 -103.4480938996188,22.1111956577918,0 -103.4479173683795,22.11138365333817,0 -103.4478273726128,22.11163569551109,0 -103.4479010533675,22.11198864583372,0 -103.4481025101847,22.11218023345213,0 -103.4482846822768,22.11236260555428,0 -103.4483794286258,22.1125622109562,0 -103.4483745861251,22.11300473555772,0 -103.4483885662099,22.11305516427484,0 -103.448492794078,22.11343112383965,0 -103.448500146914,22.11345764586612,0 -103.4485351811759,22.11365480069707,0 -103.449029452444,22.11399354093753,0 -103.4492943484625,22.11422981251022,0 -103.4495507805224,22.11438353886158,0 -103.4495104793176,22.11440328683798,0 -103.4486237202206,22.1148378047512,0 -103.4484658923755,22.11479234896222,0 -103.4474914004216,22.11451168116573,0 -103.4466935746183,22.11525131343655,0 -103.446088496153,22.11456879634871,0 -103.4459175053659,22.11407435550008,0 -103.4455877942736,22.11349832480862,0 -103.4451210924256,22.11370481970099,0 -103.4449191494929,22.11379416916693,0 -103.444569651431,22.11483987591227,0 -103.4441693360625,22.11536015896402,0 -103.4436125963262,22.11565041867301,0 -103.4427477684104,22.11576440205902,0 -103.4425027476172,22.11593628945833,0 -103.4420161994895,22.11627761074074,0 -103.4413893326548,22.11736663433911,0 -103.4405056816777,22.11735861693946,0 -103.4396974750261,22.11758402485804,0 -103.43949966254,22.11763919419478,0 -103.4387107563861,22.1183062358387,0 -103.439436528504,22.11994156699525,0 -103.4392621945252,22.12081303197617,0 -103.4394224375548,22.12190734029506,0 -103.438466079194,22.12336201192338,0 -103.4377135253387,22.12415901170417,0 -103.4373432706601,22.12552410946204,0 -103.4382892679061,22.12885102840651,0 -103.4380308625993,22.1292280642145,0 -103.4376901186654,22.12927196797016,0 -103.4371339741267,22.12802126484558,0 -103.436843447842,22.12703855469187,0 -103.4365860269634,22.12669406807427,0 -103.4362733325937,22.12690487191538,0 -103.4365583234607,22.12826118646928,0 -103.4364898831347,22.12925329403019,0 -103.4360230386887,22.12982577971568,0 -103.4360488885546,22.13060299598481,0 -103.435796575598,22.13103762532681,0 -103.4352610401391,22.13130552153302,0 -103.4349068587517,22.13154083360173,0 -103.4347869453726,22.13228119380368,0 -103.4345847793638,22.13288450368933,0 -103.434240829491,22.13281879199795,0 -103.434406061221,22.13204549393442,0 -103.4344715260527,22.13173911196528,0 -103.4341405778144,22.13097119281839,0 -103.4341385651039,22.13078369557997,0 -103.433741189967,22.13078739703716,0 -103.4336724484502,22.13190942887042,0 -103.4336811191356,22.1327175073745,0 -103.4335748127594,22.13284378745611,0 -103.4334200275192,22.13284522889727,0 -103.4331782671252,22.13237758084706,0 -103.4327427051932,22.13206218148703,0 -103.4325628103047,22.13172501936947,0 -103.432406670753,22.13152552317741,0 -103.4321054761682,22.13162309342435,0 -103.4324045482726,22.13292097139256,0 -103.4321509514838,22.13320647202147,0 -103.4319798843679,22.13320806363001,0 -103.4317316345344,22.13310419111969,0 -103.4314190128405,22.13320441747801,0 -103.4313407928808,22.13333786906901,0 -103.4314224569417,22.13352590415274,0 -103.4316047832772,22.13371887629856,0 -103.4318244365159,22.13381415304619,0 -103.4322151558223,22.13390750641653,0 -103.4321638341681,22.13449229204792,0 -103.4320040398884,22.1346088073614,0 -103.4312886395589,22.13437655559276,0 -103.4309169275043,22.13428269179515,0 -103.4306332130819,22.13441805246205,0 -103.4304641031914,22.13460543091174,0 -103.4305705439067,22.13478140131572,0 -103.4309704390076,22.13484235708373,0 -103.4309729287338,22.13507485957126,0 -103.4302656882834,22.13562115759163,0 -103.4299995618911,22.13562362981363,0 -103.4297826942187,22.13601674239246,0 -103.4294912536838,22.1363202848624,0 -103.4292581043158,22.1367382990573,0 -103.4291576910387,22.13712854039662,0 -103.4289420368907,22.1374048356261,0 -103.4286890872308,22.13775225489859,0 -103.428416178499,22.1380113727945,0 -103.4280851277241,22.13816486298177,0 -103.4278598896866,22.13855247893611,0 -103.4279673997015,22.13882576082605,0 -103.428159283652,22.13899209247327,0 -103.4282745833921,22.13910605221964,0 -103.4281814161728,22.13928387642786,0 -103.4277084214797,22.1395006127816,0 -103.4273676586695,22.1396364965432,0 -103.426937858467,22.139445826799,0 -103.4266664284592,22.13919973859876,0 -103.4263991603453,22.13909603380895,0 -103.4261995526216,22.13909788382708,0 -103.4259338045241,22.13942464877862,0 -103.4262236638309,22.13957545444716,0 -103.4265356838424,22.14004876072879,0 -103.4264425875608,22.14049361430364,0 -103.426312515203,22.14083674546241,0 -103.4263159149652,22.14115524504526,0 -103.4264695878543,22.14130423814346,0 -103.4267240507993,22.14130667243724,0 -103.4269860870539,22.14155880732927,0 -103.4272336379982,22.1420450216024,0 -103.4274915551479,22.1428781518607,0 -103.4274938265384,22.14309071107515,0 -103.4277416841212,22.1434852551042,0 -103.4279575799445,22.1437383664784,0 -103.427855102166,22.14414539576162,0 -103.4279698488396,22.14488624783665,0 -103.4278746269933,22.14510854318849,0 -103.4279797635932,22.14581392263164,0 -103.4283809350424,22.14630625388973,0 -103.4283916926407,22.14731242087083,0 -103.4286099403085,22.14778474266626,0 -103.4288132620545,22.14828642964176,0 -103.4288179606645,22.14872573415365,0 -103.4283785156593,22.14892823348921,0 -103.4280926985601,22.14855919449991,0 -103.4278572249419,22.14859775292139,0 -103.4276463837297,22.14933186875129,0 -103.4278220361479,22.14957794864182,0 -103.4280557528258,22.15012851323625,0 -103.4278326631988,22.15062663627308,0 -103.4278349352329,22.15083921070008,0 -103.4272974723467,22.15108546988623,0 -103.4275545769898,22.15167800270523,0 -103.4275659338155,22.15274085732762,0 -103.4272338230758,22.15301322383401,0 -103.4273301823476,22.15328682944261,0 -103.4276045627151,22.15350582663092,0 -103.4276086019623,22.1538838995455,0 -103.4270325935622,22.15450197387597,0 -103.4272842164248,22.1548931755825,0 -103.4271983614202,22.15531916195171,0 -103.4273761787594,22.15574270314911,0 -103.4276176489578,22.15595304569168,0 -103.4278904612249,22.15604523794628,0 -103.4282804471885,22.15643355529079,0 -103.428461760643,22.15651735365868,0 -103.4287384269265,22.15701978297869,0 -103.4288105983145,22.15728556520601,0 -103.4288870121579,22.15752863322011,0 -103.4288897410014,22.15778372167921,0 -103.4286569223503,22.15794178516275,0 -103.4286620069851,22.15841719812553,0 -103.4284658493966,22.15851091241089,0 -103.4282408817162,22.1585087709126,0 -103.4279243963611,22.15914685110763,0 -103.4280495319209,22.15944332365941,0 -103.4280398010342,22.15971440485762,0 -103.4283138815741,22.15998153963044,0 -103.4283164572848,22.16022245720982,0 -103.4287123677334,22.16021878330674,0 -103.4291632555166,22.16097025357299,0 -103.4291762465691,22.16218450141424,0 -103.4290103921829,22.16245532823579,0 -103.428869378633,22.16291957033385,0 -103.4286003213854,22.16332914500951,0 -103.428583111847,22.16368557908522,0 -103.4284509543837,22.16385913357768,0 -103.4282259322135,22.16415463952853,0 -103.4283496037141,22.16478078701838,0 -103.4283582414306,22.16558857119763,0 -103.4281009859506,22.16576102013181,0 -103.4277556001401,22.16621776038643,0 -103.4277601442547,22.16664290939601,0 -103.4273823028632,22.16691568656447,0 -103.4273866939847,22.16732666470846,0 -103.4272228158143,22.16766833655705,0 -103.4272255417191,22.16792341197546,0 -103.4264253831833,22.16828061827567,0 -103.4253401454837,22.1696069916806,0 -103.4250985877799,22.17026103449059,0 -103.4256502870712,22.17126995081704,0 -103.4260351621181,22.1746370850461,0 -103.4253109810239,22.17646485908517,0 -103.423888301118,22.17749166447543,0 -103.4202010852581,22.17740456707989,0 -103.4198179934893,22.17749641858046,0 -103.4196857385494,22.17748284252856,0 -103.42119545067,22.17894147495616,0 -103.4221685976062,22.17966695000942,0 -103.4229797201898,22.18005486895005,0 -103.4229993184179,22.18042338068692,0 -103.4233489848791,22.18074613783493,0 -103.4239073711708,22.18091980176388,0 -103.4241686215766,22.18114017327754,0 -103.425361293614,22.1818776998917,0 -103.4253247995047,22.18262690631298,0 -103.4259133173437,22.18285540696568,0 -103.4272986954161,22.18229498492367,0 -103.4278381562163,22.18248950115869,0 -103.4279795183124,22.18263836025916,0 -103.4284509249199,22.18276827813569,0 -103.4288123368723,22.18273283231683,0 -103.4295722062834,22.18231638628947,0 -103.4301689948212,22.18228601075193,0 -103.4305087638775,22.18249719505475,0 -103.4312734767403,22.18422089471774,0 -103.4315335091667,22.18454683211852,0 -103.4317274602147,22.18567543796342,0 -103.4313127139049,22.18732256491899,0 -103.4322903604344,22.18914995670727,0 -103.4341246776283,22.19076053345352,0 -103.4289396570698,22.19056104318582,0 -103.4238582933366,22.18919037817676,0 -103.4229598697894,22.19129774375377,0 -103.4216668550704,22.18954444734043,0 -103.4196790285056,22.18996197584714,0 -103.4172312163896,22.19047608522796,0 -103.416572163239,22.19352475941396,0 -103.415883827193,22.19513953155796,0 -103.4146357776571,22.19726973894634,0 -103.4145878609338,22.19761203509703,0 -103.4143219913008,22.19823100951453,0 -103.4141598812036,22.19835542772223,0 -103.4131277133155,22.19995442353358,0 -103.4130367709515,22.20203629048106,0 -103.4128785574081,22.2031337210751,0 -103.4125168135691,22.20487423088663,0 -103.4125155441071,22.20488033938904,0 -103.4124013827087,22.20574198045828,0 -103.4123047242075,22.20631659648804,0 -103.4122055359124,22.20665217261686,0 -103.4120138999226,22.20698860785747,0 -103.4119870273446,22.20736177988804,0 -103.4118856136685,22.20748701758265,0 -103.4112035914907,22.20802320098031,0 -103.4106086133941,22.20908048591787,0 -103.4100562795677,22.20953877438348,0 -103.4097563695732,22.21032561922698,0 -103.4089596262456,22.2153649093294,0 -103.3997595914817,22.21403911201472,0 -103.3935652934421,22.21322367402873,0 -103.392948282721,22.21313750396796,0 -103.391197747843,22.21306157357434,0 -103.3886099299083,22.21272454698238,0 -103.3866055992177,22.21259024413369,0 -103.3856569253833,22.21252860740795,0 -103.385554972562,22.21268457595569,0 -103.3843508904124,22.21373836000221,0 -103.3848025406388,22.21450943809107,0 -103.3851626185516,22.21581824810583,0 -103.3842894931589,22.21614822809581,0 -103.3835772497314,22.21633583290106,0 -103.3832458138496,22.21783274195485,0 -103.3824684727307,22.21837325178198,0 -103.3817888063606,22.2182082188813,0 -103.3813803558214,22.21847361030384,0 -103.3801710392688,22.21900136637927,0 -103.3805396427963,22.21994945799199,0 -103.3816317009419,22.22070768166713,0 -103.3818742886546,22.22153706836561,0 -103.383139201254,22.22194331210802,0 -103.3839850351647,22.22199018418043,0 -103.3840168576112,22.22289681096724,0 -103.383157560532,22.22418637170687,0 -103.3831446027147,22.22528852903341,0 -103.3830263089219,22.22701341372404,0 -103.3826587841706,22.22719148320912,0 -103.3815163592709,22.227744992475,0 -103.3800217872225,22.22868453028659,0 -103.3790526626017,22.22915629324429,0 -103.3777709552928,22.228960071788,0 -103.376336251676,22.22976713382795,0 -103.375177968921,22.23026068219241,0 -103.3739872452898,22.23076457112591,0 -103.3723412298428,22.23082085555769,0 -103.3717340883865,22.23071553271156,0 -103.3711601417733,22.23068037410797,0 -103.3706525611452,22.23078556250087,0 -103.3696907424636,22.2313060058051,0 -103.369529338177,22.23254661788275,0 -103.3688185539074,22.2334090115212,0 -103.3684269573204,22.23379037947951,0 -103.3674684434822,22.23425075164709,0 -103.3660506543336,22.23592950839932,0 -103.3654906132904,22.23580360813177,0 -103.3641223370683,22.23665074317922,0 -103.3636442187675,22.23752458119277,0 -103.3628168689526,22.23825992190464,0 -103.361830358789,22.23916457905032,0 -103.3604354925884,22.23948050387239,0 -103.3584540979473,22.23973205196309,0 -103.3572190535048,22.24054636086073,0 -103.3553146165141,22.24093567963663,0 -103.3536638625873,22.2406666081272,0 -103.352030267638,22.24051154307725,0 -103.3509302797351,22.23983664666737,0 -103.349735866423,22.23921496725366,0 -103.3468820214456,22.24099658151258,0 -103.3464151785337,22.24153083098191,0 -103.3433856416298,22.24308687626659,0 -103.3376967829657,22.24516367661531,0 -103.3335397774019,22.24196600666256,0 -103.3315183723269,22.24100032058752,0 -103.3298743159771,22.24061546273268,0 -103.3283198535353,22.24008767735363,0 -103.3265161822533,22.24172679338581,0 -103.321292069191,22.23892298000076,0 -103.3195985832744,22.23804716052394,0 -103.317973423042,22.23675744353925,0 -103.3163308020414,22.23561855741863,0 -103.3144007722904,22.23458189904097,0 -103.3119341767196,22.23325698630315,0 -103.3092571732907,22.2362053736578,0 -103.3078076149559,22.23874051669367,0 -103.3062660188857,22.24094416616501,0 -103.303638221258,22.24396677227706,0 -103.3017249077072,22.24596653898492,0 -103.2990658951073,22.24910916553766,0 -103.2988944115742,22.24921653709815,0 -103.2984309927356,22.24950669714027,0 -103.2975508353306,22.24975559335934,0 -103.296378519421,22.25004688713213,0 -103.2959725002942,22.25041524756631,0 -103.295400522608,22.25096747435113,0 -103.2938816608656,22.25219522233918,0 -103.2923598509975,22.25342531688484,0 -103.2911822744754,22.25437713639771,0 -103.2906978379908,22.25469855654181,0 -103.2893156857927,22.25456537710218,0 -103.288197322547,22.25468709929995,0 -103.2875424753766,22.25477679570369,0 
					</coordinates>
				</LinearRing>
			</outerBoundaryIs>
		</Polygon>
	</Placemark>
</Document>
</kml>
